#truck 1
1 13500 2450 2450 20411 10432 914 9979 12716 32
#pallet
1 1200 800 145 25
#demand 80
1 1 939
2 2 1061
3 3 916
4 4 1084
5 5 1026
6 6 974
7 7 888
8 8 1112
9 9 1042
10 10 958
11 1 857
12 2 1143
13 3 838
14 4 1162
15 5 1156
16 6 844
17 7 705
18 8 1295
19 9 856
20 10 1144
21 1 899
22 2 1101
23 3 1073
24 4 927
25 5 1290
26 6 710
27 7 898
28 8 1102
29 9 1113
30 10 887
31 1 905
32 2 1095
33 3 946
34 4 1054
35 5 851
36 6 1149
37 7 765
38 8 1235
39 9 1148
40 10 852
41 1 987
42 2 1013
43 3 950
44 4 1050
45 5 1163
46 6 837
47 7 1258
48 8 742
49 9 1264
50 10 736
51 1 1240
52 2 760
53 3 1221
54 4 779
55 5 1239
56 6 761
57 7 1013
58 8 987
59 9 888
60 10 1112
61 1 1125
62 2 875
63 3 894
64 4 1106
65 5 963
66 6 1037
67 7 905
68 8 1095
69 9 823
70 10 1177
71 1 1065
72 2 935
73 3 959
74 4 1041
75 5 813
76 6 1187
77 7 1276
78 8 724
79 9 849
80 10 1151
#distances 10 10
0	1311	918	987	1240	1531	910	681	861	1044	1479
1311	0	575	361	1127	1508	607	671	686	607	1317
918	575	0	243	644	1040	34	543	112	151	882
987	361	243	0	873	1268	277	437	347	339	1099
1240	1127	644	873	0	397	615	1150	575	538	255
1531	1508	1040	1268	397	0	1010	1535	967	932	206
910	607	34	277	615	1010	0	562	80	143	855
681	671	543	437	1150	1535	562	0	580	692	1400
861	686	112	347	575	967	80	580	0	184	822
1044	607	151	339	538	932	143	692	184	0	760
1479	1317	882	1099	255	206	855	1400	822	760	0
