Instances\Inst10P4Du_2.csvVersion identifier: 12.10.0.0 | 2019-11-26 | 843d4de2ae
CPXPARAM_Threads                                 8
CPXPARAM_MIP_Strategy_File                       3
CPXPARAM_MIP_Strategy_Probe                      -1
CPXPARAM_TimeLimit                               3600
Lazy constraint(s) or lazy constraint/branch callback is present.
    Disabling dual reductions (CPX_PARAM_REDUCE) in presolve.
    Disabling non-linear reductions (CPX_PARAM_PRELINEAR) in presolve.
    Disabling presolve reductions that prevent crushing forms.
         Disabling repeat represolve because of lazy constraint/incumbent callback.
Dentro lazy
camion 0, TRUE-heu 0.000032
camion 1, TRUE-heu 0.000057
camion 2, TRUE-heu 0.000093
camion 3, TRUE-heu 0.000117
Salgo lazy
1 of 1 MIP starts provided solutions.
MIP start 'm1' defined initial solution with objective 9896.0000.
Tried aggregator 1 time.
MIP Presolve eliminated 532 rows and 232 columns.
MIP Presolve modified 8052 coefficients.
Reduced MIP has 852 rows, 8372 columns, and 71812 nonzeros.
Reduced MIP has 7972 binaries, 0 generals, 0 SOSs, and 0 indicators.
Presolve time = 0.06 sec. (55.01 ticks)
Clique table members: 272.
MIP emphasis: balance optimality and feasibility.
MIP search method: traditional branch-and-cut.
Parallel mode: deterministic, using up to 8 threads.
Root relaxation solution time = 0.16 sec. (169.29 ticks)

        Nodes                                         Cuts/
   Node  Left     Objective  IInf  Best Integer    Best Bound    ItCnt     Gap         Variable B NodeID Parent  Depth

*     0+    0                         9896.0000        0.0000           100.00%
      0     0     4143.8138   187     9896.0000     4143.8138       20   58.13%
      0     0     4965.6245   187     9896.0000     Cuts: 122     1824   49.82%
      0     0     5129.9569   187     9896.0000     Cuts: 181     4485   48.16%
      0     0     5519.8115   187     9896.0000     Cuts: 202     6610   44.22%
      0     0     5655.7898   187     9896.0000     Cuts: 168     8174   42.85%
      0     0     5679.3784   187     9896.0000     Cuts: 164     8671   42.61%
      0     0     5696.6900   187     9896.0000     Cuts: 123     9241   42.43%
      0     0     5737.1459   187     9896.0000     Cuts: 128    10348   42.03%
      0     0     5743.9719   187     9896.0000     Cuts: 111    10642   41.96%
      0     0     5747.8402   187     9896.0000      Cuts: 97    10900   41.92%
      0     0     5751.0132   187     9896.0000      Cuts: 79    11142   41.89%
      0     0     5753.8676   187     9896.0000      Cuts: 65    11453   41.86%
      0     0     5755.5589   187     9896.0000      Cuts: 90    11677   41.84%
      0     0     5758.2698   187     9896.0000      Cuts: 43    11810   41.81%
      0     0     5758.5435   187     9896.0000      Cuts: 58    11933   41.81%
      0     0     5758.5777   187     9896.0000      Cuts: 28    11998   41.81%
      0     0     5761.6837   187     9896.0000      Cuts: 64    12223   41.78%
      0     0     5768.7789   187     9896.0000      Cuts: 62    12533   41.71%
      0     0     5782.6468   187     9896.0000      Cuts: 72    12759   41.57%
      0     0     5791.9254   187     9896.0000      Cuts: 93    13022   41.47%
      0     0     5802.5743   187     9896.0000     Cuts: 102    13195   41.36%
      0     0     5803.9390   187     9896.0000      Cuts: 97    13409   41.35%
      0     0     5807.3081   187     9896.0000      Cuts: 58    13632   41.32%
      0     0     5814.6541   187     9896.0000      Cuts: 68    13882   41.24%
      0     0     5880.0720   187     9896.0000      Cuts: 77    15056   40.58%
      0     0     5892.6217   187     9896.0000     Cuts: 126    15444   40.45%
      0     0     5907.7189   187     9896.0000     Cuts: 106    15730   40.30%
      0     0     5919.7598   187     9896.0000      Cuts: 91    16149   40.18%
      0     0     5953.0359   187     9896.0000      Cuts: 88    16423   39.84%
      0     0     5962.7200   187     9896.0000      Cuts: 87    16639   39.75%
      0     0     5979.8863   187     9896.0000      Cuts: 71    16896   39.57%
      0     0     6002.9357   187     9896.0000     Cuts: 100    17186   39.34%
      0     0     6006.6677   187     9896.0000      Cuts: 76    17401   39.30%
      0     0     6012.4341   187     9896.0000      Cuts: 80    17686   39.24%
      0     0     6025.5891   187     9896.0000      Cuts: 84    17951   39.11%
      0     0     6027.3900   187     9896.0000      Cuts: 96    18247   39.09%
Dentro lazy
camion 0, FALSE-heu 0.000
Version identifier: 12.10.0.0 | 2019-11-26 | 843d4de2ae
CPXPARAM_Threads                                 12
CPXPARAM_MIP_Strategy_Probe                      -1
CPXPARAM_Emphasis_MIP                            1
Tried aggregator 2 times.
MIP Presolve eliminated 1981 rows and 34 columns.
MIP Presolve modified 2137 coefficients.
Aggregator did 2 substitutions.
Reduced MIP has 1062 rows, 653 columns, and 28908 nonzeros.
Reduced MIP has 653 binaries, 0 generals, 0 SOSs, and 0 indicators.
Presolve time = 0.20 sec. (188.41 ticks)
Tried aggregator 1 time.
Detecting symmetries...
Reduced MIP has 1062 rows, 653 columns, and 28908 nonzeros.
Reduced MIP has 653 binaries, 0 generals, 0 SOSs, and 0 indicators.
Presolve time = 0.05 sec. (43.42 ticks)
Clique table members: 1000.
MIP emphasis: integer feasibility.
MIP search method: dynamic search.
Parallel mode: deterministic, using up to 12 threads.
Root relaxation solution time = 0.03 sec. (18.04 ticks)

        Nodes                                         Cuts/
   Node  Left     Objective  IInf  Best Integer    Best Bound    ItCnt     Gap

      0     0        0.0000    88                      0.0000      232         
*     0+    0                            0.0000        0.0000             0.00%
      0     0        cutoff              0.0000        0.0000      317    0.00%
Elapsed time = 0.72 sec. (557.08 ticks, tree = 0.01 MB, solutions = 1)

Clique cuts applied:  23
Zero-half cuts applied:  2

Root node processing (before b&c):
  Real time             =    0.72 sec. (557.19 ticks)
Parallel b&c, 12 threads:
  Real time             =    0.00 sec. (0.00 ticks)
  Sync time (average)   =    0.00 sec.
  Wait time (average)   =    0.00 sec.
                          ------------
Total (root+branch&cut) =    0.72 sec. (557.19 ticks)
0.750000 
TRUE-modelo
camion 1, FALSE-heu 0.000
Version identifier: 12.10.0.0 | 2019-11-26 | 843d4de2ae
CPXPARAM_Threads                                 12
CPXPARAM_MIP_Strategy_Probe                      -1
CPXPARAM_Emphasis_MIP                            1
Tried aggregator 2 times.
MIP Presolve eliminated 1529 rows and 34 columns.
MIP Presolve modified 2364 coefficients.
Aggregator did 2 substitutions.
Reduced MIP has 1509 rows, 525 columns, and 24810 nonzeros.
Reduced MIP has 525 binaries, 0 generals, 0 SOSs, and 0 indicators.
Presolve time = 0.11 sec. (96.58 ticks)
Tried aggregator 1 time.
Detecting symmetries...
Reduced MIP has 1509 rows, 525 columns, and 24810 nonzeros.
Reduced MIP has 525 binaries, 0 generals, 0 SOSs, and 0 indicators.
Presolve time = 0.03 sec. (30.79 ticks)
Clique table members: 1447.
MIP emphasis: integer feasibility.
MIP search method: dynamic search.
Parallel mode: deterministic, using up to 12 threads.
Root relaxation solution time = 0.05 sec. (19.25 ticks)

        Nodes                                         Cuts/
   Node  Left     Objective  IInf  Best Integer    Best Bound    ItCnt     Gap

      0     0        0.0000    79                      0.0000      273         
*     0+    0                            0.0000        0.0000             0.00%
      0     0        cutoff              0.0000        0.0000      398    0.00%
Elapsed time = 0.86 sec. (492.55 ticks, tree = 0.01 MB, solutions = 1)

Clique cuts applied:  21
Zero-half cuts applied:  5

Root node processing (before b&c):
  Real time             =    0.86 sec. (492.65 ticks)
Parallel b&c, 12 threads:
  Real time             =    0.00 sec. (0.00 ticks)
  Sync time (average)   =    0.00 sec.
  Wait time (average)   =    0.00 sec.
                          ------------
Total (root+branch&cut) =    0.86 sec. (492.65 ticks)
0.860000 
TRUE-modelo
camion 3, FALSE-heu 0.000
Version identifier: 12.10.0.0 | 2019-11-26 | 843d4de2ae
CPXPARAM_Threads                                 12
CPXPARAM_MIP_Strategy_Probe                      -1
CPXPARAM_Emphasis_MIP                            1
Tried aggregator 2 times.
MIP Presolve eliminated 8258 rows and 34 columns.
MIP Presolve modified 3474 coefficients.
Aggregator did 2 substitutions.
Reduced MIP has 1990 rows, 877 columns, and 62604 nonzeros.
Reduced MIP has 877 binaries, 0 generals, 0 SOSs, and 0 indicators.
Presolve time = 0.47 sec. (496.38 ticks)
Tried aggregator 1 time.
Detecting symmetries...
Reduced MIP has 1990 rows, 877 columns, and 62604 nonzeros.
Reduced MIP has 877 binaries, 0 generals, 0 SOSs, and 0 indicators.
Presolve time = 0.09 sec. (90.12 ticks)
Clique table members: 1928.
MIP emphasis: integer feasibility.
MIP search method: dynamic search.
Parallel mode: deterministic, using up to 12 threads.
Root relaxation solution time = 0.09 sec. (58.93 ticks)

        Nodes                                         Cuts/
   Node  Left     Objective  IInf  Best Integer    Best Bound    ItCnt     Gap

      0     0        0.0000   148                      0.0000      458         
*     0+    0                            0.0000        0.0000             0.00%
      0     0        cutoff              0.0000        0.0000      915    0.00%
Elapsed time = 3.23 sec. (2790.11 ticks, tree = 0.01 MB, solutions = 1)

Clique cuts applied:  74

Root node processing (before b&c):
  Real time             =    3.23 sec. (2790.34 ticks)
Parallel b&c, 12 threads:
  Real time             =    0.00 sec. (0.00 ticks)
  Sync time (average)   =    0.00 sec.
  Wait time (average)   =    0.00 sec.
                          ------------
Total (root+branch&cut) =    3.23 sec. (2790.34 ticks)
3.265000 
TRUE-modelo
Salgo lazy
*     0+    0                         9073.0000     6027.3900            33.57%
Dentro lazy
camion 0, TRUE-heu 0.000240
camion 1, FALSE-heu 0.000
Version identifier: 12.10.0.0 | 2019-11-26 | 843d4de2ae
CPXPARAM_Threads                                 12
CPXPARAM_MIP_Strategy_Probe                      -1
CPXPARAM_Emphasis_MIP                            1
Tried aggregator 2 times.
MIP Presolve eliminated 1529 rows and 34 columns.
MIP Presolve modified 2492 coefficients.
Aggregator did 2 substitutions.
Reduced MIP has 1511 rows, 589 columns, and 28104 nonzeros.
Reduced MIP has 589 binaries, 0 generals, 0 SOSs, and 0 indicators.
Presolve time = 0.11 sec. (110.46 ticks)
Tried aggregator 1 time.
Detecting symmetries...
Reduced MIP has 1511 rows, 589 columns, and 28104 nonzeros.
Reduced MIP has 589 binaries, 0 generals, 0 SOSs, and 0 indicators.
Presolve time = 0.05 sec. (33.35 ticks)
Clique table members: 1449.
MIP emphasis: integer feasibility.
MIP search method: dynamic search.
Parallel mode: deterministic, using up to 12 threads.
Root relaxation solution time = 0.06 sec. (17.02 ticks)

        Nodes                                         Cuts/
   Node  Left     Objective  IInf  Best Integer    Best Bound    ItCnt     Gap

      0     0        0.0000    88                      0.0000      225         
*     0+    0                            0.0000        0.0000             0.00%
      0     0        cutoff              0.0000        0.0000      800    0.00%
Elapsed time = 0.97 sec. (620.10 ticks, tree = 0.01 MB, solutions = 1)

Clique cuts applied:  73
Zero-half cuts applied:  1

Root node processing (before b&c):
  Real time             =    0.97 sec. (620.21 ticks)
Parallel b&c, 12 threads:
  Real time             =    0.00 sec. (0.00 ticks)
  Sync time (average)   =    0.00 sec.
  Wait time (average)   =    0.00 sec.
                          ------------
Total (root+branch&cut) =    0.97 sec. (620.21 ticks)
0.985000 
TRUE-modelo
camion 3, FALSE-heu 0.000
Version identifier: 12.10.0.0 | 2019-11-26 | 843d4de2ae
CPXPARAM_Threads                                 12
CPXPARAM_MIP_Strategy_Probe                      -1
CPXPARAM_Emphasis_MIP                            1
Tried aggregator 2 times.
MIP Presolve eliminated 8443 rows and 34 columns.
MIP Presolve modified 3222 coefficients.
Aggregator did 2 substitutions.
Reduced MIP has 1805 rows, 845 columns, and 66777 nonzeros.
Reduced MIP has 845 binaries, 0 generals, 0 SOSs, and 0 indicators.
Presolve time = 0.94 sec. (1015.41 ticks)
Tried aggregator 1 time.
Detecting symmetries...
Reduced MIP has 1805 rows, 845 columns, and 66777 nonzeros.
Reduced MIP has 845 binaries, 0 generals, 0 SOSs, and 0 indicators.
Presolve time = 0.11 sec. (94.74 ticks)
Clique table members: 1743.
MIP emphasis: integer feasibility.
MIP search method: dynamic search.
Parallel mode: deterministic, using up to 12 threads.
Root relaxation solution time = 0.16 sec. (101.47 ticks)

        Nodes                                         Cuts/
   Node  Left     Objective  IInf  Best Integer    Best Bound    ItCnt     Gap

      0     0        0.0000   152                      0.0000      797         
*     0+    0                            0.0000        0.0000             0.00%
      0     0        cutoff              0.0000        0.0000     1290    0.00%
Elapsed time = 3.50 sec. (2938.30 ticks, tree = 0.01 MB, solutions = 1)

Clique cuts applied:  48

Root node processing (before b&c):
  Real time             =    3.50 sec. (2938.53 ticks)
Parallel b&c, 12 threads:
  Real time             =    0.00 sec. (0.00 ticks)
  Sync time (average)   =    0.00 sec.
  Wait time (average)   =    0.00 sec.
                          ------------
Total (root+branch&cut) =    3.50 sec. (2938.53 ticks)
3.500000 
TRUE-modelo
Salgo lazy
*     0+    0                         8616.0000     6027.3900            30.04%
Dentro lazy
camion 0, TRUE-heu 0.000347
camion 1, TRUE-heu 0.000377
camion 2, FALSE-heu 0.000
Version identifier: 12.10.0.0 | 2019-11-26 | 843d4de2ae
CPXPARAM_Threads                                 12
CPXPARAM_MIP_Strategy_Probe                      -1
CPXPARAM_Emphasis_MIP                            1
Tried aggregator 2 times.
MIP Presolve eliminated 2995 rows and 34 columns.
MIP Presolve modified 3457 coefficients.
Aggregator did 2 substitutions.
Reduced MIP has 1972 rows, 845 columns, and 52605 nonzeros.
Reduced MIP has 845 binaries, 0 generals, 0 SOSs, and 0 indicators.
Presolve time = 0.30 sec. (305.71 ticks)
Tried aggregator 1 time.
Detecting symmetries...
Reduced MIP has 1972 rows, 845 columns, and 52605 nonzeros.
Reduced MIP has 845 binaries, 0 generals, 0 SOSs, and 0 indicators.
Presolve time = 0.09 sec. (74.20 ticks)
Clique table members: 1910.
MIP emphasis: integer feasibility.
MIP search method: dynamic search.
Parallel mode: deterministic, using up to 12 threads.
Root relaxation solution time = 0.09 sec. (64.59 ticks)

        Nodes                                         Cuts/
   Node  Left     Objective  IInf  Best Integer    Best Bound    ItCnt     Gap

      0     0        0.0000   151                      0.0000      539         
*     0+    0                            0.0000        0.0000             0.00%
      0     0        cutoff              0.0000        0.0000      590    0.00%
Elapsed time = 2.14 sec. (1464.49 ticks, tree = 0.01 MB, solutions = 1)

Clique cuts applied:  3

Root node processing (before b&c):
  Real time             =    2.14 sec. (1464.68 ticks)
Parallel b&c, 12 threads:
  Real time             =    0.00 sec. (0.00 ticks)
  Sync time (average)   =    0.00 sec.
  Wait time (average)   =    0.00 sec.
                          ------------
Total (root+branch&cut) =    2.14 sec. (1464.68 ticks)
2.141000 
TRUE-modelo
Salgo lazy
*     0+    0                         8445.0000     6027.3900            28.63%
Dentro lazy
camion 0, TRUE-heu 0.000437
camion 1, TRUE-heu 0.000470
camion 3, FALSE-heu 0.001
Version identifier: 12.10.0.0 | 2019-11-26 | 843d4de2ae
CPXPARAM_Threads                                 12
CPXPARAM_MIP_Strategy_Probe                      -1
CPXPARAM_Emphasis_MIP                            1
Tried aggregator 2 times.
MIP Presolve eliminated 2995 rows and 34 columns.
MIP Presolve modified 3457 coefficients.
Aggregator did 2 substitutions.
Reduced MIP has 1972 rows, 845 columns, and 52605 nonzeros.
Reduced MIP has 845 binaries, 0 generals, 0 SOSs, and 0 indicators.
Presolve time = 0.28 sec. (307.71 ticks)
Tried aggregator 1 time.
Detecting symmetries...
Reduced MIP has 1972 rows, 845 columns, and 52605 nonzeros.
Reduced MIP has 845 binaries, 0 generals, 0 SOSs, and 0 indicators.
Presolve time = 0.08 sec. (73.46 ticks)
Clique table members: 1910.
MIP emphasis: integer feasibility.
MIP search method: dynamic search.
Parallel mode: deterministic, using up to 12 threads.
Root relaxation solution time = 0.11 sec. (60.46 ticks)

        Nodes                                         Cuts/
   Node  Left     Objective  IInf  Best Integer    Best Bound    ItCnt     Gap

      0     0        0.0000   163                      0.0000      495         
*     0+    0                            0.0000        0.0000             0.00%
      0     0        cutoff              0.0000        0.0000      798    0.00%
Elapsed time = 2.30 sec. (1662.02 ticks, tree = 0.01 MB, solutions = 1)

Clique cuts applied:  75

Root node processing (before b&c):
  Real time             =    2.30 sec. (1662.21 ticks)
Parallel b&c, 12 threads:
  Real time             =    0.00 sec. (0.00 ticks)
  Sync time (average)   =    0.00 sec.
  Wait time (average)   =    0.00 sec.
                          ------------
Total (root+branch&cut) =    2.30 sec. (1662.21 ticks)
2.312000 
TRUE-modelo
Salgo lazy
*     0+    0                         8427.0000     6027.3900            28.48%
      0     0  -1.00000e+75     0     8427.0000     6027.3900    18247   28.48%
      0     2     6027.3900   297     8427.0000     6027.3900    18247   28.48%                        0             0
Elapsed time = 32.94 sec. (13122.00 ticks, tree = 0.02 MB, solutions = 5)
      1     3     6048.9405   316     8427.0000     6049.8871    18671   28.21%         X_0_0_7 U      8      0      1
      2     4     6079.9480   325     8427.0000     6049.8871    19985   28.21%         X_0_7_1 D     16      8      2
      3     4     6212.6631   321     8427.0000     6049.8871    20050   28.21%         X_0_7_1 U      6      8      2
      5     6     6220.5022   301     8427.0000     6049.8871    21603   28.21%         X_1_5_4 D     14      6      3
      6     6     6933.2342   204     8427.0000     6049.8871    23087   28.21%         X_1_5_4 U      4      6      3
     11    11     6984.9344   226     8427.0000     6049.8871    30835   28.21%         X_3_8_0 D     20     12      5
     18     9     6336.9378   298     8427.0000     6176.6705    30447   26.70%         X_3_7_0 D     13      5      4
     31    19     7086.3332   147     8427.0000     6176.6705    35335   26.70%         X_3_0_5 D     34     26      9
     45    31     7164.4519   172     8427.0000     6176.6705    43433   26.70%         X_3_6_4 D     58     50     12
     93    74     7396.8651   161     8427.0000     6176.6705    72336   26.70%         X_3_6_7 D    146    130     21
Elapsed time = 38.19 sec. (17241.24 ticks, tree = 0.11 MB, solutions = 5)
    180   112     8376.4247   137     8427.0000     6176.6705    96078   26.70%         X_3_0_3 D    307    291     33
    321   216     7954.5568   133     8427.0000     6176.6705   135356   26.70%         X_1_0_8 D    676    668     47
    487   290     8400.8613   188     8427.0000     6176.6705   158482   26.70%         X_0_8_0 D    482    474     26
Dentro lazy
camion 0, TRUE-heu 0.000544
camion 1, FALSE-heu 0.001
Version identifier: 12.10.0.0 | 2019-11-26 | 843d4de2ae
CPXPARAM_Threads                                 12
CPXPARAM_MIP_Strategy_Probe                      -1
CPXPARAM_Emphasis_MIP                            1
Tried aggregator 2 times.
MIP Presolve eliminated 1953 rows and 34 columns.
MIP Presolve modified 2037 coefficients.
Aggregator did 2 substitutions.
Reduced MIP has 1088 rows, 589 columns, and 26872 nonzeros.
Reduced MIP has 589 binaries, 0 generals, 0 SOSs, and 0 indicators.
Presolve time = 0.17 sec. (161.76 ticks)
Tried aggregator 1 time.
Detecting symmetries...
Reduced MIP has 1088 rows, 589 columns, and 26872 nonzeros.
Reduced MIP has 589 binaries, 0 generals, 0 SOSs, and 0 indicators.
Presolve time = 0.05 sec. (39.82 ticks)
Clique table members: 1026.
MIP emphasis: integer feasibility.
MIP search method: dynamic search.
Parallel mode: deterministic, using up to 12 threads.
Root relaxation solution time = 0.03 sec. (19.69 ticks)

        Nodes                                         Cuts/
   Node  Left     Objective  IInf  Best Integer    Best Bound    ItCnt     Gap

      0     0        0.0000    80                      0.0000      261         
      0     0        0.0000    80                    Cuts: 12      336         
      0     0        0.0000    80                    Cuts: 56      444         
      0     0        0.0000    80                  Cliques: 6      516         
Detecting symmetries...
      0     2        0.0000    31                      0.0000      516         
Elapsed time = 3.16 sec. (633.51 ticks, tree = 0.02 MB, solutions = 0)
*   340    95      integral     0        0.0000        0.0000    15394    0.00%

Clique cuts applied:  16
Zero-half cuts applied:  4

Root node processing (before b&c):
  Real time             =    1.30 sec. (632.77 ticks)
Parallel b&c, 12 threads:
  Real time             =    7.22 sec. (85.61 ticks)
  Sync time (average)   =    5.87 sec.
  Wait time (average)   =    0.00 sec.
                          ------------
Total (root+branch&cut) =    8.52 sec. (718.39 ticks)
8.578000 
TRUE-modelo
camion 2, FALSE-heu 0.001
Version identifier: 12.10.0.0 | 2019-11-26 | 843d4de2ae
CPXPARAM_Threads                                 12
CPXPARAM_MIP_Strategy_Probe                      -1
CPXPARAM_Emphasis_MIP                            1
Tried aggregator 2 times.
MIP Presolve eliminated 2995 rows and 34 columns.
MIP Presolve modified 3457 coefficients.
Aggregator did 2 substitutions.
Reduced MIP has 1972 rows, 845 columns, and 52605 nonzeros.
Reduced MIP has 845 binaries, 0 generals, 0 SOSs, and 0 indicators.
Presolve time = 0.28 sec. (301.78 ticks)
Tried aggregator 1 time.
Detecting symmetries...
Reduced MIP has 1972 rows, 845 columns, and 52605 nonzeros.
Reduced MIP has 845 binaries, 0 generals, 0 SOSs, and 0 indicators.
Presolve time = 0.08 sec. (73.14 ticks)
Clique table members: 1910.
MIP emphasis: integer feasibility.
MIP search method: dynamic search.
Parallel mode: deterministic, using up to 12 threads.
Root relaxation solution time = 0.11 sec. (61.92 ticks)

        Nodes                                         Cuts/
   Node  Left     Objective  IInf  Best Integer    Best Bound    ItCnt     Gap

      0     0        0.0000   159                      0.0000      529         
*     0+    0                            0.0000        0.0000             0.00%
      0     0        cutoff              0.0000        0.0000      796    0.00%
Elapsed time = 1.97 sec. (1557.16 ticks, tree = 0.01 MB, solutions = 1)

Clique cuts applied:  85

Root node processing (before b&c):
  Real time             =    1.98 sec. (1557.36 ticks)
Parallel b&c, 12 threads:
  Real time             =    0.00 sec. (0.00 ticks)
  Sync time (average)   =    0.00 sec.
  Wait time (average)   =    0.00 sec.
                          ------------
Total (root+branch&cut) =    1.98 sec. (1557.36 ticks)
1.984000 
TRUE-modelo
Salgo lazy
    629   453     7468.7728   210     8427.0000     6176.6705   195529   26.70%         X_2_3_7 D   1112   1104     16
*   643+  363                         8423.0000     6176.6705            26.67%
    840   545     8095.9535   157     8423.0000     6176.6705   208848   26.67%        X_3_10_9 D    995    987     58
Dentro lazy
camion 0, TRUE-heu 0.000652
camion 1, FALSE-heu 0.001
Version identifier: 12.10.0.0 | 2019-11-26 | 843d4de2ae
CPXPARAM_Threads                                 12
CPXPARAM_MIP_Strategy_Probe                      -1
CPXPARAM_Emphasis_MIP                            1
Tried aggregator 2 times.
MIP Presolve eliminated 1983 rows and 34 columns.
MIP Presolve modified 2056 coefficients.
Aggregator did 2 substitutions.
Reduced MIP has 1058 rows, 589 columns, and 29614 nonzeros.
Reduced MIP has 589 binaries, 0 generals, 0 SOSs, and 0 indicators.
Presolve time = 0.28 sec. (292.16 ticks)
Tried aggregator 1 time.
Detecting symmetries...
Reduced MIP has 1058 rows, 589 columns, and 29614 nonzeros.
Reduced MIP has 589 binaries, 0 generals, 0 SOSs, and 0 indicators.
Presolve time = 0.05 sec. (43.62 ticks)
Clique table members: 996.
MIP emphasis: integer feasibility.
MIP search method: dynamic search.
Parallel mode: deterministic, using up to 12 threads.
Root relaxation solution time = 0.03 sec. (10.75 ticks)

        Nodes                                         Cuts/
   Node  Left     Objective  IInf  Best Integer    Best Bound    ItCnt     Gap

      0     0        0.0000    79                      0.0000      146         
      0     0        0.0000    79                 Cliques: 35      270         
      0     0        0.0000    79                  Cliques: 1      322         
      0     0        0.0000    79                    Cuts: 80      451         
Detecting symmetries...
      0     2        0.0000    34                      0.0000      451         
Elapsed time = 4.11 sec. (1173.49 ticks, tree = 0.02 MB, solutions = 0)
   1775   372        0.0000    32                      0.0000    52980         
*  2623   294      integral     0        0.0000        0.0000    82829    0.00%

Clique cuts applied:  53
Cover cuts applied:  23
Zero-half cuts applied:  12

Root node processing (before b&c):
  Real time             =    2.20 sec. (1172.74 ticks)
Parallel b&c, 12 threads:
  Real time             =   13.64 sec. (392.22 ticks)
  Sync time (average)   =   11.68 sec.
  Wait time (average)   =    0.00 sec.
                          ------------
Total (root+branch&cut) =   15.84 sec. (1564.97 ticks)
15.859000 
TRUE-modelo
camion 3, FALSE-heu 0.001
Version identifier: 12.10.0.0 | 2019-11-26 | 843d4de2ae
CPXPARAM_Threads                                 12
CPXPARAM_MIP_Strategy_Probe                      -1
CPXPARAM_Emphasis_MIP                            1
Tried aggregator 2 times.
MIP Presolve eliminated 2995 rows and 34 columns.
MIP Presolve modified 3457 coefficients.
Aggregator did 2 substitutions.
Reduced MIP has 1972 rows, 845 columns, and 52605 nonzeros.
Reduced MIP has 845 binaries, 0 generals, 0 SOSs, and 0 indicators.
Presolve time = 0.27 sec. (307.71 ticks)
Tried aggregator 1 time.
Detecting symmetries...
Reduced MIP has 1972 rows, 845 columns, and 52605 nonzeros.
Reduced MIP has 845 binaries, 0 generals, 0 SOSs, and 0 indicators.
Presolve time = 0.08 sec. (73.46 ticks)
Clique table members: 1910.
MIP emphasis: integer feasibility.
MIP search method: dynamic search.
Parallel mode: deterministic, using up to 12 threads.
Root relaxation solution time = 0.13 sec. (60.46 ticks)

        Nodes                                         Cuts/
   Node  Left     Objective  IInf  Best Integer    Best Bound    ItCnt     Gap

      0     0        0.0000   163                      0.0000      495         
*     0+    0                            0.0000        0.0000             0.00%
      0     0        cutoff              0.0000        0.0000      798    0.00%
Elapsed time = 2.34 sec. (1662.02 ticks, tree = 0.01 MB, solutions = 1)

Clique cuts applied:  75

Root node processing (before b&c):
  Real time             =    2.36 sec. (1662.21 ticks)
Parallel b&c, 12 threads:
  Real time             =    0.00 sec. (0.00 ticks)
  Sync time (average)   =    0.00 sec.
  Wait time (average)   =    0.00 sec.
                          ------------
Total (root+branch&cut) =    2.36 sec. (1662.21 ticks)
2.360000 
TRUE-modelo
Salgo lazy
Dentro lazy
camion 0, TRUE-heu 0.000759
camion 1, FALSE-heu 0.001
Version identifier: 12.10.0.0 | 2019-11-26 | 843d4de2ae
CPXPARAM_Threads                                 12
CPXPARAM_MIP_Strategy_Probe                      -1
CPXPARAM_Emphasis_MIP                            1
Tried aggregator 2 times.
MIP Presolve eliminated 1983 rows and 34 columns.
MIP Presolve modified 2056 coefficients.
Aggregator did 2 substitutions.
Reduced MIP has 1058 rows, 589 columns, and 29614 nonzeros.
Reduced MIP has 589 binaries, 0 generals, 0 SOSs, and 0 indicators.
Presolve time = 0.27 sec. (292.16 ticks)
Tried aggregator 1 time.
Detecting symmetries...
Reduced MIP has 1058 rows, 589 columns, and 29614 nonzeros.
Reduced MIP has 589 binaries, 0 generals, 0 SOSs, and 0 indicators.
Presolve time = 0.05 sec. (43.62 ticks)
Clique table members: 996.
MIP emphasis: integer feasibility.
MIP search method: dynamic search.
Parallel mode: deterministic, using up to 12 threads.
Root relaxation solution time = 0.03 sec. (10.75 ticks)

        Nodes                                         Cuts/
   Node  Left     Objective  IInf  Best Integer    Best Bound    ItCnt     Gap

      0     0        0.0000    79                      0.0000      146         
      0     0        0.0000    79                 Cliques: 35      270         
      0     0        0.0000    79                  Cliques: 1      322         
      0     0        0.0000    79                    Cuts: 80      451         
Detecting symmetries...
      0     2        0.0000    34                      0.0000      451         
Elapsed time = 4.11 sec. (1173.49 ticks, tree = 0.02 MB, solutions = 0)
   1775   372        0.0000    32                      0.0000    52980         
*  2623   294      integral     0        0.0000        0.0000    82829    0.00%

Clique cuts applied:  53
Cover cuts applied:  23
Zero-half cuts applied:  12

Root node processing (before b&c):
  Real time             =    2.17 sec. (1172.74 ticks)
Parallel b&c, 12 threads:
  Real time             =   15.08 sec. (392.22 ticks)
  Sync time (average)   =   13.04 sec.
  Wait time (average)   =    0.00 sec.
                          ------------
Total (root+branch&cut) =   17.25 sec. (1564.97 ticks)
17.250000 
TRUE-modelo
camion 3, FALSE-heu 0.001
Version identifier: 12.10.0.0 | 2019-11-26 | 843d4de2ae
CPXPARAM_Threads                                 12
CPXPARAM_MIP_Strategy_Probe                      -1
CPXPARAM_Emphasis_MIP                            1
Tried aggregator 2 times.
MIP Presolve eliminated 2995 rows and 34 columns.
MIP Presolve modified 3457 coefficients.
Aggregator did 2 substitutions.
Reduced MIP has 1972 rows, 845 columns, and 52605 nonzeros.
Reduced MIP has 845 binaries, 0 generals, 0 SOSs, and 0 indicators.
Presolve time = 0.27 sec. (307.71 ticks)
Tried aggregator 1 time.
Detecting symmetries...
Reduced MIP has 1972 rows, 845 columns, and 52605 nonzeros.
Reduced MIP has 845 binaries, 0 generals, 0 SOSs, and 0 indicators.
Presolve time = 0.08 sec. (73.46 ticks)
Clique table members: 1910.
MIP emphasis: integer feasibility.
MIP search method: dynamic search.
Parallel mode: deterministic, using up to 12 threads.
Root relaxation solution time = 0.13 sec. (60.46 ticks)

        Nodes                                         Cuts/
   Node  Left     Objective  IInf  Best Integer    Best Bound    ItCnt     Gap

      0     0        0.0000   163                      0.0000      495         
*     0+    0                            0.0000        0.0000             0.00%
      0     0        cutoff              0.0000        0.0000      798    0.00%
Elapsed time = 2.69 sec. (1662.02 ticks, tree = 0.01 MB, solutions = 1)

Clique cuts applied:  75

Root node processing (before b&c):
  Real time             =    2.69 sec. (1662.21 ticks)
Parallel b&c, 12 threads:
  Real time             =    0.00 sec. (0.00 ticks)
  Sync time (average)   =    0.00 sec.
  Wait time (average)   =    0.00 sec.
                          ------------
Total (root+branch&cut) =    2.69 sec. (1662.21 ticks)
2.688000 
TRUE-modelo
Salgo lazy
*   946+  599                         8397.0000     6176.6705            26.44%
   1009   707     7732.7212   204     8397.0000     6176.6705   244310   26.44%        X_2_5_10 D    769    753     11
Dentro lazy
camion 0, TRUE-heu 0.000904
camion 1, FALSE-heu 0.001
Version identifier: 12.10.0.0 | 2019-11-26 | 843d4de2ae
CPXPARAM_Threads                                 12
CPXPARAM_MIP_Strategy_Probe                      -1
CPXPARAM_Emphasis_MIP                            1
Tried aggregator 2 times.
MIP Presolve eliminated 1983 rows and 34 columns.
MIP Presolve modified 2056 coefficients.
Aggregator did 2 substitutions.
Reduced MIP has 1058 rows, 589 columns, and 29614 nonzeros.
Reduced MIP has 589 binaries, 0 generals, 0 SOSs, and 0 indicators.
Presolve time = 0.28 sec. (292.16 ticks)
Tried aggregator 1 time.
Detecting symmetries...
Reduced MIP has 1058 rows, 589 columns, and 29614 nonzeros.
Reduced MIP has 589 binaries, 0 generals, 0 SOSs, and 0 indicators.
Presolve time = 0.05 sec. (43.62 ticks)
Clique table members: 996.
MIP emphasis: integer feasibility.
MIP search method: dynamic search.
Parallel mode: deterministic, using up to 12 threads.
Root relaxation solution time = 0.03 sec. (10.75 ticks)

        Nodes                                         Cuts/
   Node  Left     Objective  IInf  Best Integer    Best Bound    ItCnt     Gap

      0     0        0.0000    79                      0.0000      146         
      0     0        0.0000    79                 Cliques: 35      270         
      0     0        0.0000    79                  Cliques: 1      322         
      0     0        0.0000    79                    Cuts: 80      451         
Detecting symmetries...
      0     2        0.0000    34                      0.0000      451         
Elapsed time = 3.72 sec. (1173.49 ticks, tree = 0.02 MB, solutions = 0)
   1775   372        0.0000    32                      0.0000    52980         
*  2623   294      integral     0        0.0000        0.0000    82829    0.00%

Clique cuts applied:  53
Cover cuts applied:  23
Zero-half cuts applied:  12

Root node processing (before b&c):
  Real time             =    2.16 sec. (1172.74 ticks)
Parallel b&c, 12 threads:
  Real time             =   15.23 sec. (392.22 ticks)
  Sync time (average)   =   13.46 sec.
  Wait time (average)   =    0.00 sec.
                          ------------
Total (root+branch&cut) =   17.39 sec. (1564.97 ticks)
17.407000 
TRUE-modelo
camion 3, FALSE-heu 0.001
Version identifier: 12.10.0.0 | 2019-11-26 | 843d4de2ae
CPXPARAM_Threads                                 12
CPXPARAM_MIP_Strategy_Probe                      -1
CPXPARAM_Emphasis_MIP                            1
Tried aggregator 2 times.
MIP Presolve eliminated 2995 rows and 34 columns.
MIP Presolve modified 3457 coefficients.
Aggregator did 2 substitutions.
Reduced MIP has 1972 rows, 845 columns, and 52605 nonzeros.
Reduced MIP has 845 binaries, 0 generals, 0 SOSs, and 0 indicators.
Presolve time = 0.28 sec. (307.71 ticks)
Tried aggregator 1 time.
Detecting symmetries...
Reduced MIP has 1972 rows, 845 columns, and 52605 nonzeros.
Reduced MIP has 845 binaries, 0 generals, 0 SOSs, and 0 indicators.
Presolve time = 0.09 sec. (73.46 ticks)
Clique table members: 1910.
MIP emphasis: integer feasibility.
MIP search method: dynamic search.
Parallel mode: deterministic, using up to 12 threads.
Root relaxation solution time = 0.11 sec. (60.46 ticks)

        Nodes                                         Cuts/
   Node  Left     Objective  IInf  Best Integer    Best Bound    ItCnt     Gap

      0     0        0.0000   163                      0.0000      495         
*     0+    0                            0.0000        0.0000             0.00%
      0     0        cutoff              0.0000        0.0000      798    0.00%
Elapsed time = 2.52 sec. (1662.02 ticks, tree = 0.01 MB, solutions = 1)

Clique cuts applied:  75

Root node processing (before b&c):
  Real time             =    2.52 sec. (1662.21 ticks)
Parallel b&c, 12 threads:
  Real time             =    0.00 sec. (0.00 ticks)
  Sync time (average)   =    0.00 sec.
  Wait time (average)   =    0.00 sec.
                          ------------
Total (root+branch&cut) =    2.52 sec. (1662.21 ticks)
2.515000 
TRUE-modelo
Salgo lazy
   1284   844     7922.0367   169     8397.0000     6176.6705   264948   26.44%         X_0_0_8 D   1636   1628     66
   1564  1049     8144.9244   165     8397.0000     6176.6705   302216   26.44%         X_2_0_8 D   1037   1021     35
   1877  1291        cutoff           8397.0000     6215.8551   335286   25.98%         X_3_0_5 D   1489   1481     39
   2154  1537     8098.8244   198     8397.0000     6215.8551   377932   25.98%         X_3_0_1 D   1753   1745     41
Elapsed time = 123.14 sec. (26823.15 ticks, tree = 11.91 MB, solutions = 7)
   2455  1794     7454.8237   239     8397.0000     6258.2475   417804   25.47%         X_3_0_4 D   1703   1695     31
   2770  2197     7782.6572   144     8397.0000     6406.8545   482760   23.70%         X_3_0_5 D   2646   2638     48
   3074  2425     7597.8562   157     8397.0000     6460.0020   519446   23.07%         X_2_3_0 D   3014   3006     19
   3393  2667     7919.8499   184     8397.0000     6536.0312   560990   22.16%        X_2_0_10 D   3620   3612     50
   3657  2852     7798.4847   144     8397.0000     6545.4619   607087   22.05%        X_3_0_10 D   3145   3137     64
   3921  2984     7744.8778   176     8397.0000     6581.0655   628955   21.63%         X_3_0_6 D   4348   4340     66
   4181  3194     7593.9676   292     8397.0000     6634.9686   683697   20.98%        X_0_0_10 U   3998    591     65
   4504  3401     7969.3229   129     8397.0000     6666.8896   732307   20.60%         X_2_3_0 D   4700   4692     24
   4877  3638     7462.0890   209     8397.0000     6705.7348   780554   20.14%        X_0_5_10 U   4701   1544     27
   5272  3908     8015.7496   149     8397.0000     6749.6715   822942   19.62%         X_3_0_1 D   4625   4617     39
Elapsed time = 138.91 sec. (36386.11 ticks, tree = 32.34 MB, solutions = 7)
   5692  4268     7718.1880   160     8397.0000     6796.9551   879259   19.05%        X_2_0_10 D   6044   6036     31
   6088  4514     8324.6461   146     8397.0000     6829.4012   919292   18.67%         X_3_0_1 D   6572   6564     50
   6517  4923     8003.4197   132     8397.0000     6858.9750   981565   18.32%         X_3_5_9 D   7008   7000     62
   6910  5214        cutoff           8397.0000     6876.2234  1031101   18.11%         X_2_0_9 U   6487   6471     18
   7303  5309     7512.3183   137     8397.0000     6899.3872  1044726   17.84%         X_3_8_0 D   7019   7011     29
   7675  5637     7982.0563   142     8397.0000     6932.0767  1114393   17.45%         X_2_0_5 U   7960   3498     40
   8044  5798     7680.8570   168     8397.0000     6942.9754  1137670   17.32%         X_2_0_4 D   7561   7553     17
   8406  6213     8059.9549   221     8397.0000     6955.4913  1215255   17.17%         X_3_0_6 D   7947   7939     26
   8775  6402     8110.4727    97     8397.0000     6970.0996  1258104   16.99%        X_1_10_2 D   9040   9032     45
   9205  6555     7966.8087   155     8397.0000     6991.7061  1286613   16.74%         X_3_0_6 D   8989   8981     37
Elapsed time = 155.38 sec. (45955.32 ticks, tree = 57.24 MB, solutions = 7)
   9584  6865     8261.3999    82     8397.0000     7004.6020  1329612   16.58%         X_1_8_6 D   9349   9341     31
  10016  7082     7337.4281   201     8397.0000     7020.1740  1365116   16.40%         X_0_5_0 U   9339   1300     25
  10402  7518     7672.9680   176     8397.0000     7028.2108  1431100   16.30%         X_1_9_2 D  11524  11516     37
  10845  7779     8062.4369   142     8397.0000     7035.8329  1471858   16.21%         X_1_2_4 D  11210  11202     44
  11256  7940     8379.5682   108     8397.0000     7048.5861  1493310   16.06%         X_1_3_7 D  11137  11129     52
  11665  8421     8189.0949   131     8397.0000     7058.5242  1563501   15.94%         X_3_4_8 D  11919  11911     61
  12079  8631     7662.4923   167     8397.0000     7072.7316  1601295   15.77%        X_0_5_10 D  12496  12488     13
  12469  9028     7961.6488   146     8397.0000     7083.3236  1667234   15.64%         X_0_1_7 D  12562  12554     36
  12814  9136     8288.4390    81     8397.0000     7097.4074  1683399   15.48%         X_1_8_2 D  12694  12686     42
  13206  9411     7904.8997   131     8397.0000     7110.5813  1740867   15.32%         X_2_0_5 D  13121  13113     58
Elapsed time = 171.58 sec. (55518.23 ticks, tree = 84.30 MB, solutions = 7)
  13552  9760        cutoff           8397.0000     7123.2433  1798210   15.17%         X_2_0_5 U  14336  14320     33
  13760  9955     7522.9768   146     8397.0000     7135.1240  1829658   15.03%         X_2_7_0 D  13830  13822     11
  13847 10018     7857.1495   104     8397.0000     7138.3396  1837023   14.99%        X_2_10_5 N  14912    845     17
  14222 10141     8172.2968   188     8397.0000     7139.2107  1857030   14.98%         X_3_0_8 D  15288  15280     49
  14606 10513     7683.7298   151     8397.0000     7156.0395  1914869   14.78%         X_3_0_3 D  14762  14754     18
  15051 10594     7624.6182   163     8397.0000     7165.6190  1926691   14.66%         X_2_8_0 D  15700  15692     34
Dentro lazy
camion 0, TRUE-heu 0.001006
camion 1, TRUE-heu 0.001038
camion 3, FALSE-heu 0.001
Version identifier: 12.10.0.0 | 2019-11-26 | 843d4de2ae
CPXPARAM_Threads                                 12
CPXPARAM_MIP_Strategy_Probe                      -1
CPXPARAM_Emphasis_MIP                            1
Tried aggregator 2 times.
MIP Presolve eliminated 2995 rows and 34 columns.
MIP Presolve modified 3521 coefficients.
Aggregator did 2 substitutions.
Reduced MIP has 1973 rows, 877 columns, and 54705 nonzeros.
Reduced MIP has 877 binaries, 0 generals, 0 SOSs, and 0 indicators.
Presolve time = 0.30 sec. (325.02 ticks)
Tried aggregator 1 time.
Detecting symmetries...
Reduced MIP has 1973 rows, 877 columns, and 54705 nonzeros.
Reduced MIP has 877 binaries, 0 generals, 0 SOSs, and 0 indicators.
Presolve time = 0.09 sec. (76.12 ticks)
Clique table members: 1911.
MIP emphasis: integer feasibility.
MIP search method: dynamic search.
Parallel mode: deterministic, using up to 12 threads.
Root relaxation solution time = 0.08 sec. (47.13 ticks)

        Nodes                                         Cuts/
   Node  Left     Objective  IInf  Best Integer    Best Bound    ItCnt     Gap

      0     0        0.0000   153                      0.0000      362         
      0     0        0.0000   153                  Cliques: 8      524         
      0     0        0.0000   153                    Cuts: 27      795         
Detecting symmetries...
      0     2        0.0000     2                      0.0000      795         
Elapsed time = 5.20 sec. (1921.95 ticks, tree = 0.02 MB, solutions = 0)
    246   107        0.0000    10                      0.0000    21577         
    750   285        0.0000    73                      0.0000    54844         
   1035   398        0.0000    78                      0.0000    84522         
*  1235+  412                            0.0000        0.0000             0.00%

Clique cuts applied:  95
Cover cuts applied:  15
Zero-half cuts applied:  3
Gomory fractional cuts applied:  1

Root node processing (before b&c):
  Real time             =    2.78 sec. (1920.68 ticks)
Parallel b&c, 12 threads:
  Real time             =   10.83 sec. (948.60 ticks)
  Sync time (average)   =    7.41 sec.
  Wait time (average)   =    0.00 sec.
                          ------------
Total (root+branch&cut) =   13.61 sec. (2869.28 ticks)
13.625000 
TRUE-modelo
Salgo lazy
* 15411+10697                         8379.0000     7174.0078            14.38%
  15446 10800     8279.6902   118     8379.0000     7175.3976  1966463   14.36%         X_2_3_0 U  15639  15255     69
  15846 11149     8263.3804   123     8379.0000     7179.6564  2033327   14.31%         X_1_8_3 D  15713  15705     30
  16267 11323     7622.7999   221     8379.0000     7189.8766  2057962   14.19%         X_2_0_6 D  16880  16872     36
  16696 11574     7808.7218   162     8379.0000     7201.6419  2093801   14.05%         X_2_0_1 D  16441  16433     44
Elapsed time = 202.92 sec. (65075.74 ticks, tree = 102.33 MB, solutions = 8)
  17092 11966     8150.2777   117     8379.0000     7212.5469  2158211   13.92%         X_1_9_3 D  17406  17398     48
  17503 12078        cutoff           8379.0000     7223.1923  2177510   13.79%        X_3_0_10 U  17117  17101     73
  17899 12339     8183.9049   134     8379.0000     7229.0711  2216500   13.72%         X_2_8_0 U  18892   1420     40
  18290 12675     8240.3431    62     8379.0000     7242.8609  2277919   13.56%         X_2_3_8 D  18425  18417     52
  18680 12985     8041.0418   124     8379.0000     7249.6822  2332215   13.48%         X_3_0_2 U  18769   7503     40
  19000 13115     7827.4311   162     8379.0000     7254.5469  2353752   13.42%         X_3_0_4 D  19510  19502     42
  19469 13316        cutoff           8379.0000     7264.7286  2403428   13.30%         X_2_0_1 U  19489  19473     64
  19913 13747     8123.7107    65     8379.0000     7272.0298  2485929   13.21%         X_1_6_9 D  20742  20734     42
  20341 13884     7874.5444   144     8379.0000     7277.4627  2506298   13.15%         X_3_0_1 D  19653  19645     41
  20788 14361     7958.3703   168     8379.0000     7287.0392  2579568   13.03%         X_2_0_9 D  21284  21276     42
Elapsed time = 219.02 sec. (74630.54 ticks, tree = 133.90 MB, solutions = 8)
  21180 14439     8277.9757    48     8379.0000     7292.9523  2593388   12.96%         X_1_8_0 U  21047  21039     39
  21580 14791     8314.7340   119     8379.0000     7300.0888  2661748   12.88%        X_3_10_4 U  21535  21519     32
  21952 14883     7417.5102   224     8379.0000     7309.4745  2681006   12.76%         X_0_0_4 D  22001  21993     39
  22321 15246        cutoff           8379.0000     7316.9050  2758936   12.68%         X_3_0_4 U  23054  13470     47
  22744 15344     8062.7357    59     8379.0000     7325.2726  2782478   12.58%         X_1_9_0 D  23688  23680     35
  23122 15717     7942.6083   144     8379.0000     7332.2703  2854526   12.49%         X_2_0_5 D  24040  24032     44
  23524 15905     8224.3094   182     8379.0000     7337.7010  2900894   12.43%         X_2_0_4 D  23673  23665     28
  23907 16139     8275.3318    73     8379.0000     7346.4333  2940109   12.32%         X_1_6_0 D  23229  23221     50
  24314 16268        cutoff           8379.0000     7351.5051  2969558   12.26%              Y1 D  22451  22443     38
  24663 16472     8163.0301   214     8379.0000     7355.7101  3018396   12.21%        X_2_5_10 D  23885  23877     21
Elapsed time = 235.31 sec. (84195.78 ticks, tree = 156.48 MB, solutions = 8)
  25037 16607     8170.1551    76     8379.0000     7363.8076  3050343   12.12%         X_3_9_6 D  23211  23203     45
  25453 16751    infeasible           8379.0000     7368.9272  3093695   12.05%         X_2_0_1 U  26056  26040     30
  25865 17105     8337.9207    44     8379.0000     7378.1064  3149486   11.95%         X_2_2_0 D  25842  25834     27
  26259 17126     8323.2061    29     8379.0000     7382.0428  3155857   11.90%         X_1_2_9 U  26162  26146     38
  26673 17604     8280.5752   122     8379.0000     7393.9517  3239108   11.76%         X_3_0_9 D  27878  27870     32
  27008 17816     8064.8031    72     8379.0000     7396.6328  3288661   11.72%         X_2_0_8 U  25179   9314     37
  27328 17882     8202.7802   196     8379.0000     7405.1385  3302818   11.62%        X_0_5_10 D  27673  27657     16
  27635 18086     7978.1858   163     8379.0000     7408.2353  3347881   11.59%        X_2_10_5 D  26749  26741     21
  27961 18388     8311.4203    47     8379.0000     7417.9323  3440254   11.47%         X_0_6_2 D  28431  28423     41
  28307 18562     8118.0832    76     8379.0000     7424.8660  3480729   11.39%         X_2_8_0 D  28282  28274     26
Elapsed time = 251.53 sec. (93743.39 ticks, tree = 177.25 MB, solutions = 8)
  28654 18608    infeasible           8379.0000     7428.5545  3496544   11.34%         X_2_0_5 U  29830   1343     34
  28932 18690        cutoff           8379.0000     7432.8930  3531072   11.29%         X_2_8_0 U  29303  16708     27
  29290 18983     7853.7795   139     8379.0000     7439.2419  3623648   11.22%        X_2_5_10 D  29700  29692     22
  29691 19112     7677.3521   127     8379.0000     7443.3099  3655907   11.17%        X_2_5_10 D  29770  29762     17
Dentro lazy
camion 0, FALSE-heu 0.001
Version identifier: 12.10.0.0 | 2019-11-26 | 843d4de2ae
CPXPARAM_Threads                                 12
CPXPARAM_MIP_Strategy_Probe                      -1
CPXPARAM_Emphasis_MIP                            1
Tried aggregator 2 times.
MIP Presolve eliminated 1983 rows and 34 columns.
MIP Presolve modified 2182 coefficients.
Aggregator did 2 substitutions.
Reduced MIP has 1060 rows, 653 columns, and 32004 nonzeros.
Reduced MIP has 653 binaries, 0 generals, 0 SOSs, and 0 indicators.
Presolve time = 0.30 sec. (315.71 ticks)
Tried aggregator 1 time.
Detecting symmetries...
Reduced MIP has 1060 rows, 653 columns, and 32004 nonzeros.
Reduced MIP has 653 binaries, 0 generals, 0 SOSs, and 0 indicators.
Presolve time = 0.05 sec. (46.81 ticks)
Clique table members: 998.
MIP emphasis: integer feasibility.
MIP search method: dynamic search.
Parallel mode: deterministic, using up to 12 threads.
Root relaxation solution time = 0.05 sec. (11.19 ticks)

        Nodes                                         Cuts/
   Node  Left     Objective  IInf  Best Integer    Best Bound    ItCnt     Gap

      0     0        0.0000    77                      0.0000      145         
      0     0        0.0000    77                    Cuts: 38      247         
*     0+    0                            0.0000        0.0000             0.00%
      0     0        cutoff              0.0000        0.0000      309    0.00%
Elapsed time = 1.22 sec. (855.34 ticks, tree = 0.01 MB, solutions = 1)

Clique cuts applied:  22
Zero-half cuts applied:  10
Lift and project cuts applied:  1

Root node processing (before b&c):
  Real time             =    1.22 sec. (855.46 ticks)
Parallel b&c, 12 threads:
  Real time             =    0.00 sec. (0.00 ticks)
  Sync time (average)   =    0.00 sec.
  Wait time (average)   =    0.00 sec.
                          ------------
Total (root+branch&cut) =    1.22 sec. (855.46 ticks)
1.219000 
TRUE-modelo
camion 2, TRUE-heu 0.001132
camion 3, FALSE-heu 0.001
Version identifier: 12.10.0.0 | 2019-11-26 | 843d4de2ae
CPXPARAM_Threads                                 12
CPXPARAM_MIP_Strategy_Probe                      -1
CPXPARAM_Emphasis_MIP                            1
Tried aggregator 2 times.
MIP Presolve eliminated 1529 rows and 34 columns.
MIP Presolve modified 2940 coefficients.
Aggregator did 2 substitutions.
Reduced MIP has 1518 rows, 813 columns, and 39633 nonzeros.
Reduced MIP has 813 binaries, 0 generals, 0 SOSs, and 0 indicators.
Presolve time = 0.17 sec. (185.64 ticks)
Tried aggregator 1 time.
Detecting symmetries...
Reduced MIP has 1518 rows, 813 columns, and 39633 nonzeros.
Reduced MIP has 813 binaries, 0 generals, 0 SOSs, and 0 indicators.
Presolve time = 0.06 sec. (47.54 ticks)
Clique table members: 1456.
MIP emphasis: integer feasibility.
MIP search method: dynamic search.
Parallel mode: deterministic, using up to 12 threads.
Root relaxation solution time = 0.05 sec. (36.50 ticks)

        Nodes                                         Cuts/
   Node  Left     Objective  IInf  Best Integer    Best Bound    ItCnt     Gap

      0     0        0.0000   128                      0.0000      350         
*     0+    0                            0.0000        0.0000             0.00%
      0     0        cutoff              0.0000        0.0000      386    0.00%
Elapsed time = 1.31 sec. (856.92 ticks, tree = 0.01 MB, solutions = 1)

Clique cuts applied:  5

Root node processing (before b&c):
  Real time             =    1.31 sec. (857.07 ticks)
Parallel b&c, 12 threads:
  Real time             =    0.00 sec. (0.00 ticks)
  Sync time (average)   =    0.00 sec.
  Wait time (average)   =    0.00 sec.
                          ------------
Total (root+branch&cut) =    1.31 sec. (857.07 ticks)
1.328000 
TRUE-modelo
Salgo lazy
* 30050 19178      integral     0     8341.0000     7451.6331  3678762   10.66%
  30108 19091        cutoff           8341.0000     7451.6331  3650691   10.66%         X_2_7_0 U  30537  30521     18
  30525 18699     7936.6481   234     8341.0000     7454.9539  3748955   10.62%         X_3_0_2 D  30498  30490     64
  30977 18817     8216.0342   131     8341.0000     7463.8493  3796449   10.52%         X_3_8_0 D  31244  31236     20
  31310 18830        cutoff           8341.0000     7466.8218  3802292   10.48%         X_2_0_6 U  31588   7019     30
  31652 18971     8053.7412   194     8341.0000     7475.4614  3869925   10.38%         X_3_0_7 U  31821   2903     13
  32878 19429        cutoff           8341.0000     7496.6451  4019860   10.12%        X_2_0_10 U  31243  22145     37
Elapsed time = 275.52 sec. (106173.41 ticks, tree = 189.10 MB, solutions = 9)
  34262 19673     8174.3690    77     8341.0000     7522.1577  4196689    9.82%         X_2_8_9 D  34732  34724     30
  35501 19979     8049.2566   115     8341.0000     7551.4168  4362959    9.47%         X_1_2_9 D  36078  36070     26
  36929 20330     8273.2687   107     8341.0000     7586.1912  4537062    9.05%         X_1_9_6 D  36409  36401     46
  38372 20596        cutoff           8341.0000     7609.9387  4755866    8.76%         X_2_0_3 U  37721   7248     17
Dentro lazy
camion 0, FALSE-heu 0.001
Version identifier: 12.10.0.0 | 2019-11-26 | 843d4de2ae
CPXPARAM_Threads                                 12
CPXPARAM_MIP_Strategy_Probe                      -1
CPXPARAM_Emphasis_MIP                            1
Tried aggregator 2 times.
MIP Presolve eliminated 543 rows and 34 columns.
MIP Presolve modified 2103 coefficients.
Aggregator did 2 substitutions.
Reduced MIP has 1059 rows, 621 columns, and 21597 nonzeros.
Reduced MIP has 621 binaries, 0 generals, 0 SOSs, and 0 indicators.
Presolve time = 0.08 sec. (69.19 ticks)
Tried aggregator 1 time.
Detecting symmetries...
Reduced MIP has 1059 rows, 621 columns, and 21597 nonzeros.
Reduced MIP has 621 binaries, 0 generals, 0 SOSs, and 0 indicators.
Presolve time = 0.03 sec. (22.15 ticks)
Clique table members: 997.
MIP emphasis: integer feasibility.
MIP search method: dynamic search.
Parallel mode: deterministic, using up to 12 threads.
Root relaxation solution time = 0.03 sec. (12.76 ticks)

        Nodes                                         Cuts/
   Node  Left     Objective  IInf  Best Integer    Best Bound    ItCnt     Gap

      0     0        0.0000    85                      0.0000      204         
*     0+    0                            0.0000        0.0000             0.00%
      0     0        cutoff              0.0000        0.0000      313    0.00%
Elapsed time = 0.88 sec. (509.22 ticks, tree = 0.01 MB, solutions = 1)

Clique cuts applied:  16

Root node processing (before b&c):
  Real time             =    0.89 sec. (509.31 ticks)
Parallel b&c, 12 threads:
  Real time             =    0.00 sec. (0.00 ticks)
  Sync time (average)   =    0.00 sec.
  Wait time (average)   =    0.00 sec.
                          ------------
Total (root+branch&cut) =    0.89 sec. (509.31 ticks)
0.890000 
TRUE-modelo
camion 1, TRUE-heu 0.001232
camion 3, FALSE-heu 0.001
Version identifier: 12.10.0.0 | 2019-11-26 | 843d4de2ae
CPXPARAM_Threads                                 12
CPXPARAM_MIP_Strategy_Probe                      -1
CPXPARAM_Emphasis_MIP                            1
Tried aggregator 2 times.
MIP Presolve eliminated 1529 rows and 34 columns.
MIP Presolve modified 2940 coefficients.
Aggregator did 2 substitutions.
Reduced MIP has 1518 rows, 813 columns, and 39633 nonzeros.
Reduced MIP has 813 binaries, 0 generals, 0 SOSs, and 0 indicators.
Presolve time = 0.16 sec. (185.71 ticks)
Tried aggregator 1 time.
Detecting symmetries...
Reduced MIP has 1518 rows, 813 columns, and 39633 nonzeros.
Reduced MIP has 813 binaries, 0 generals, 0 SOSs, and 0 indicators.
Presolve time = 0.05 sec. (47.57 ticks)
Clique table members: 1456.
MIP emphasis: integer feasibility.
MIP search method: dynamic search.
Parallel mode: deterministic, using up to 12 threads.
Root relaxation solution time = 0.03 sec. (34.12 ticks)

        Nodes                                         Cuts/
   Node  Left     Objective  IInf  Best Integer    Best Bound    ItCnt     Gap

      0     0        0.0000   135                      0.0000      321         
      0     0        0.0000   135                  Cliques: 5      349         
      0     0        0.0000   135                    Cuts: 66      514         
Detecting symmetries...
      0     2        0.0000    21                      0.0000      514         
Elapsed time = 5.03 sec. (1366.69 ticks, tree = 0.02 MB, solutions = 0)
    908   295        0.0000    16                      0.0000    41904         
   2387   615    infeasible                            0.0000    85246         
   3520   820    infeasible                            0.0000   141187         
   4257   809    infeasible                            0.0000   189315         
*  4279   787      integral     0        0.0000        0.0000   187761    0.00%

Clique cuts applied:  136
Cover cuts applied:  21
Zero-half cuts applied:  6
Gomory fractional cuts applied:  1

Root node processing (before b&c):
  Real time             =    2.41 sec. (1365.73 ticks)
Parallel b&c, 12 threads:
  Real time             =   12.55 sec. (1028.03 ticks)
  Sync time (average)   =    8.82 sec.
  Wait time (average)   =    0.00 sec.
                          ------------
Total (root+branch&cut) =   14.95 sec. (2393.76 ticks)
14.953000 
TRUE-modelo
Salgo lazy
* 39463+20568                         8257.0000     7627.2960             7.63%
Dentro lazy
camion 0, TRUE-heu 0.001300
camion 1, TRUE-heu 0.001335
camion 3, FALSE-heu 0.001
Version identifier: 12.10.0.0 | 2019-11-26 | 843d4de2ae
CPXPARAM_Threads                                 12
CPXPARAM_MIP_Strategy_Probe                      -1
CPXPARAM_Emphasis_MIP                            1
Tried aggregator 2 times.
MIP Presolve eliminated 1529 rows and 34 columns.
MIP Presolve modified 2940 coefficients.
Aggregator did 2 substitutions.
Reduced MIP has 1518 rows, 813 columns, and 39633 nonzeros.
Reduced MIP has 813 binaries, 0 generals, 0 SOSs, and 0 indicators.
Presolve time = 0.17 sec. (185.71 ticks)
Tried aggregator 1 time.
Detecting symmetries...
Reduced MIP has 1518 rows, 813 columns, and 39633 nonzeros.
Reduced MIP has 813 binaries, 0 generals, 0 SOSs, and 0 indicators.
Presolve time = 0.05 sec. (47.57 ticks)
Clique table members: 1456.
MIP emphasis: integer feasibility.
MIP search method: dynamic search.
Parallel mode: deterministic, using up to 12 threads.
Root relaxation solution time = 0.05 sec. (34.12 ticks)

        Nodes                                         Cuts/
   Node  Left     Objective  IInf  Best Integer    Best Bound    ItCnt     Gap

      0     0        0.0000   135                      0.0000      321         
      0     0        0.0000   135                  Cliques: 5      349         
      0     0        0.0000   135                    Cuts: 66      514         
Detecting symmetries...
      0     2        0.0000    21                      0.0000      514         
Elapsed time = 3.72 sec. (1366.69 ticks, tree = 0.02 MB, solutions = 0)
    908   295        0.0000    16                      0.0000    41904         
   2387   615    infeasible                            0.0000    85246         
   3520   820    infeasible                            0.0000   141187         
   4257   809    infeasible                            0.0000   189315         
*  4279   787      integral     0        0.0000        0.0000   187761    0.00%

Clique cuts applied:  136
Cover cuts applied:  21
Zero-half cuts applied:  6
Gomory fractional cuts applied:  1

Root node processing (before b&c):
  Real time             =    1.70 sec. (1365.73 ticks)
Parallel b&c, 12 threads:
  Real time             =    9.75 sec. (1028.03 ticks)
  Sync time (average)   =    6.44 sec.
  Wait time (average)   =    0.00 sec.
                          ------------
Total (root+branch&cut) =   11.45 sec. (2393.76 ticks)
11.454000 
TRUE-modelo
Salgo lazy
Dentro lazy
camion 0, FALSE-heu 0.001
Version identifier: 12.10.0.0 | 2019-11-26 | 843d4de2ae
CPXPARAM_Threads                                 12
CPXPARAM_MIP_Strategy_Probe                      -1
CPXPARAM_Emphasis_MIP                            1
Tried aggregator 2 times.
MIP Presolve eliminated 543 rows and 34 columns.
MIP Presolve modified 2103 coefficients.
Aggregator did 2 substitutions.
Reduced MIP has 1059 rows, 621 columns, and 21597 nonzeros.
Reduced MIP has 621 binaries, 0 generals, 0 SOSs, and 0 indicators.
Presolve time = 0.06 sec. (69.19 ticks)
Tried aggregator 1 time.
Detecting symmetries...
Reduced MIP has 1059 rows, 621 columns, and 21597 nonzeros.
Reduced MIP has 621 binaries, 0 generals, 0 SOSs, and 0 indicators.
Presolve time = 0.02 sec. (22.15 ticks)
Clique table members: 997.
MIP emphasis: integer feasibility.
MIP search method: dynamic search.
Parallel mode: deterministic, using up to 12 threads.
Root relaxation solution time = 0.02 sec. (12.76 ticks)

        Nodes                                         Cuts/
   Node  Left     Objective  IInf  Best Integer    Best Bound    ItCnt     Gap

      0     0        0.0000    85                      0.0000      204         
*     0+    0                            0.0000        0.0000             0.00%
      0     0        cutoff              0.0000        0.0000      313    0.00%
Elapsed time = 0.78 sec. (509.22 ticks, tree = 0.01 MB, solutions = 1)

Clique cuts applied:  16

Root node processing (before b&c):
  Real time             =    0.78 sec. (509.31 ticks)
Parallel b&c, 12 threads:
  Real time             =    0.00 sec. (0.00 ticks)
  Sync time (average)   =    0.00 sec.
  Wait time (average)   =    0.00 sec.
                          ------------
Total (root+branch&cut) =    0.78 sec. (509.31 ticks)
0.797000 
TRUE-modelo
camion 1, TRUE-heu 0.001435
camion 3, FALSE-heu 0.001
Version identifier: 12.10.0.0 | 2019-11-26 | 843d4de2ae
CPXPARAM_Threads                                 12
CPXPARAM_MIP_Strategy_Probe                      -1
CPXPARAM_Emphasis_MIP                            1
Tried aggregator 2 times.
MIP Presolve eliminated 1529 rows and 34 columns.
MIP Presolve modified 2940 coefficients.
Aggregator did 2 substitutions.
Reduced MIP has 1518 rows, 813 columns, and 39633 nonzeros.
Reduced MIP has 813 binaries, 0 generals, 0 SOSs, and 0 indicators.
Presolve time = 0.17 sec. (185.64 ticks)
Tried aggregator 1 time.
Detecting symmetries...
Reduced MIP has 1518 rows, 813 columns, and 39633 nonzeros.
Reduced MIP has 813 binaries, 0 generals, 0 SOSs, and 0 indicators.
Presolve time = 0.06 sec. (47.54 ticks)
Clique table members: 1456.
MIP emphasis: integer feasibility.
MIP search method: dynamic search.
Parallel mode: deterministic, using up to 12 threads.
Root relaxation solution time = 0.05 sec. (36.50 ticks)

        Nodes                                         Cuts/
   Node  Left     Objective  IInf  Best Integer    Best Bound    ItCnt     Gap

      0     0        0.0000   128                      0.0000      350         
*     0+    0                            0.0000        0.0000             0.00%
      0     0        cutoff              0.0000        0.0000      386    0.00%
Elapsed time = 1.03 sec. (856.92 ticks, tree = 0.01 MB, solutions = 1)

Clique cuts applied:  5

Root node processing (before b&c):
  Real time             =    1.03 sec. (857.07 ticks)
Parallel b&c, 12 threads:
  Real time             =    0.00 sec. (0.00 ticks)
  Sync time (average)   =    0.00 sec.
  Wait time (average)   =    0.00 sec.
                          ------------
Total (root+branch&cut) =    1.03 sec. (857.07 ticks)
1.031000 
TRUE-modelo
Salgo lazy
* 39727+17331                         8167.0000     7630.9188             6.56%
Dentro lazy
camion 0, TRUE-heu 0.001496
camion 1, TRUE-heu 0.001528
camion 3, FALSE-heu 0.002
Version identifier: 12.10.0.0 | 2019-11-26 | 843d4de2ae
CPXPARAM_Threads                                 12
CPXPARAM_MIP_Strategy_Probe                      -1
CPXPARAM_Emphasis_MIP                            1
Tried aggregator 2 times.
MIP Presolve eliminated 1529 rows and 34 columns.
MIP Presolve modified 2940 coefficients.
Aggregator did 2 substitutions.
Reduced MIP has 1518 rows, 813 columns, and 39633 nonzeros.
Reduced MIP has 813 binaries, 0 generals, 0 SOSs, and 0 indicators.
Presolve time = 0.16 sec. (185.71 ticks)
Tried aggregator 1 time.
Detecting symmetries...
Reduced MIP has 1518 rows, 813 columns, and 39633 nonzeros.
Reduced MIP has 813 binaries, 0 generals, 0 SOSs, and 0 indicators.
Presolve time = 0.05 sec. (47.57 ticks)
Clique table members: 1456.
MIP emphasis: integer feasibility.
MIP search method: dynamic search.
Parallel mode: deterministic, using up to 12 threads.
Root relaxation solution time = 0.05 sec. (34.12 ticks)

        Nodes                                         Cuts/
   Node  Left     Objective  IInf  Best Integer    Best Bound    ItCnt     Gap

      0     0        0.0000   135                      0.0000      321         
      0     0        0.0000   135                  Cliques: 5      349         
      0     0        0.0000   135                    Cuts: 66      514         
Detecting symmetries...
      0     2        0.0000    21                      0.0000      514         
Elapsed time = 3.70 sec. (1366.69 ticks, tree = 0.02 MB, solutions = 0)
    908   295        0.0000    16                      0.0000    41904         
   2387   615    infeasible                            0.0000    85246         
   3520   820    infeasible                            0.0000   141187         
   4257   809    infeasible                            0.0000   189315         
*  4279   787      integral     0        0.0000        0.0000   187761    0.00%

Clique cuts applied:  136
Cover cuts applied:  21
Zero-half cuts applied:  6
Gomory fractional cuts applied:  1

Root node processing (before b&c):
  Real time             =    1.80 sec. (1365.73 ticks)
Parallel b&c, 12 threads:
  Real time             =   10.67 sec. (1028.03 ticks)
  Sync time (average)   =    7.27 sec.
  Wait time (average)   =    0.00 sec.
                          ------------
Total (root+branch&cut) =   12.47 sec. (2393.76 ticks)
12.484000 
TRUE-modelo
Salgo lazy
  39799 20594        cutoff           8167.0000     7632.9873  4881711    6.54%         X_1_2_0 D  39050  39042     30
Dentro lazy
camion 0, TRUE-heu 0.001601
camion 1, TRUE-heu 0.001636
camion 3, FALSE-heu 0.002
Version identifier: 12.10.0.0 | 2019-11-26 | 843d4de2ae
CPXPARAM_Threads                                 12
CPXPARAM_MIP_Strategy_Probe                      -1
CPXPARAM_Emphasis_MIP                            1
Tried aggregator 2 times.
MIP Presolve eliminated 1529 rows and 34 columns.
MIP Presolve modified 2940 coefficients.
Aggregator did 2 substitutions.
Reduced MIP has 1518 rows, 813 columns, and 39633 nonzeros.
Reduced MIP has 813 binaries, 0 generals, 0 SOSs, and 0 indicators.
Presolve time = 0.19 sec. (185.71 ticks)
Tried aggregator 1 time.
Detecting symmetries...
Reduced MIP has 1518 rows, 813 columns, and 39633 nonzeros.
Reduced MIP has 813 binaries, 0 generals, 0 SOSs, and 0 indicators.
Presolve time = 0.06 sec. (47.57 ticks)
Clique table members: 1456.
MIP emphasis: integer feasibility.
MIP search method: dynamic search.
Parallel mode: deterministic, using up to 12 threads.
Root relaxation solution time = 0.05 sec. (34.12 ticks)

        Nodes                                         Cuts/
   Node  Left     Objective  IInf  Best Integer    Best Bound    ItCnt     Gap

      0     0        0.0000   135                      0.0000      321         
      0     0        0.0000   135                  Cliques: 5      349         
      0     0        0.0000   135                    Cuts: 66      514         
Detecting symmetries...
      0     2        0.0000    21                      0.0000      514         
Elapsed time = 3.58 sec. (1366.69 ticks, tree = 0.02 MB, solutions = 0)
    908   295        0.0000    16                      0.0000    41904         
   2387   615    infeasible                            0.0000    85246         
   3520   820    infeasible                            0.0000   141187         
   4257   809    infeasible                            0.0000   189315         
*  4279   787      integral     0        0.0000        0.0000   187761    0.00%

Clique cuts applied:  136
Cover cuts applied:  21
Zero-half cuts applied:  6
Gomory fractional cuts applied:  1

Root node processing (before b&c):
  Real time             =    1.88 sec. (1365.73 ticks)
Parallel b&c, 12 threads:
  Real time             =   10.64 sec. (1028.03 ticks)
  Sync time (average)   =    7.53 sec.
  Wait time (average)   =    0.00 sec.
                          ------------
Total (root+branch&cut) =   12.52 sec. (2393.76 ticks)
12.516000 
TRUE-modelo
Salgo lazy
  41353 13033        cutoff           8167.0000     7700.3164  5147174    5.71%        X_2_10_5 U  40770   2830     33
  43117 12560     8048.1184   107     8167.0000     7747.8409  5288735    5.13%         X_1_5_4 U  41531   6326     21
  45078 11953        cutoff           8167.0000     7812.0575  5467293    4.35%        X_2_10_5 D  44888   3751     55
  47054 11381        cutoff           8167.0000     7862.7195  5638455    3.73%         X_3_4_9 U  47687   8553     26
  48862 10711     8090.2568   149     8167.0000     7905.7991  5764827    3.20%        X_2_0_10 D  49238  49230     40
Elapsed time = 401.31 sec. (144355.36 ticks, tree = 99.30 MB, solutions = 14)
  50855  9620        cutoff           8167.0000     7950.5700  5934215    2.65%        X_3_0_10 U  51815   6244     38
  52765  8805     8161.9990   154     8167.0000     7986.2781  6053216    2.21%         X_0_9_4 D  52640  52632     16
  54838  7133        cutoff           8167.0000     8024.3379  6205873    1.75%         X_1_9_0 U  55591  15096     46
  57454  4864        cutoff           8167.0000     8070.8978  6347532    1.18%         X_2_7_0 U  55747  31821     14
  61386  1098        cutoff           8167.0000     8144.3206  6449623    0.28%         X_2_0_6 U  59787  25338     65

GUB cover cuts applied:  157
Cover cuts applied:  1764
Flow cuts applied:  131
Mixed integer rounding cuts applied:  165
Zero-half cuts applied:  78
Gomory fractional cuts applied:  1

Root node processing (before b&c):
  Real time             =   32.58 sec. (12944.82 ticks)
Parallel b&c, 8 threads:
  Real time             =  417.42 sec. (151123.82 ticks)
  Sync time (average)   =   64.49 sec.
  Wait time (average)   =    0.00 sec.
                          ------------
Total (root+branch&cut) =  450.00 sec. (164068.64 ticks)
450.016000 
