Instances\Inst10P4Dv_3.csvVersion identifier: 12.10.0.0 | 2019-11-26 | 843d4de2ae
CPXPARAM_Threads                                 8
CPXPARAM_MIP_Strategy_File                       3
CPXPARAM_MIP_Strategy_Probe                      -1
CPXPARAM_TimeLimit                               3600
Lazy constraint(s) or lazy constraint/branch callback is present.
    Disabling dual reductions (CPX_PARAM_REDUCE) in presolve.
    Disabling non-linear reductions (CPX_PARAM_PRELINEAR) in presolve.
    Disabling presolve reductions that prevent crushing forms.
         Disabling repeat represolve because of lazy constraint/incumbent callback.
Dentro lazy
camion 0, TRUE-heu 0.000031
camion 1, TRUE-heu 0.000063
camion 2, TRUE-heu 0.000098
camion 3, TRUE-heu 0.000121
Salgo lazy
1 of 1 MIP starts provided solutions.
MIP start 'm1' defined initial solution with objective 9596.0000.
Tried aggregator 1 time.
MIP Presolve eliminated 612 rows and 345 columns.
MIP Presolve modified 7760 coefficients.
Reduced MIP has 774 rows, 8259 columns, and 70992 nonzeros.
Reduced MIP has 7914 binaries, 0 generals, 0 SOSs, and 0 indicators.
Presolve time = 0.08 sec. (54.44 ticks)
Clique table members: 266.
MIP emphasis: balance optimality and feasibility.
MIP search method: traditional branch-and-cut.
Parallel mode: deterministic, using up to 8 threads.
Root relaxation solution time = 0.23 sec. (177.03 ticks)

        Nodes                                         Cuts/
   Node  Left     Objective  IInf  Best Integer    Best Bound    ItCnt     Gap         Variable B NodeID Parent  Depth

*     0+    0                         9596.0000        0.0000           100.00%
      0     0     4239.0072   177     9596.0000     4239.0072       17   55.83%
      0     0     4794.3582   177     9596.0000      Cuts: 91     3742   50.04%
      0     0     4957.9679   177     9596.0000     Cuts: 150     5626   48.33%
      0     0     5099.1142   177     9596.0000     Cuts: 128     6056   46.86%
Dentro lazy
camion 0, FALSE-heu 0.000
Version identifier: 12.10.0.0 | 2019-11-26 | 843d4de2ae
CPXPARAM_Threads                                 12
CPXPARAM_MIP_Strategy_Probe                      -1
CPXPARAM_Emphasis_MIP                            1
Tried aggregator 2 times.
MIP Presolve eliminated 3828 rows and 34 columns.
MIP Presolve modified 2178 coefficients.
Aggregator did 2 substitutions.
Reduced MIP has 1135 rows, 653 columns, and 30265 nonzeros.
Reduced MIP has 653 binaries, 0 generals, 0 SOSs, and 0 indicators.
Presolve time = 0.19 sec. (172.78 ticks)
Tried aggregator 1 time.
Detecting symmetries...
Reduced MIP has 1135 rows, 653 columns, and 30265 nonzeros.
Reduced MIP has 653 binaries, 0 generals, 0 SOSs, and 0 indicators.
Presolve time = 0.05 sec. (39.57 ticks)
Clique table members: 1073.
MIP emphasis: integer feasibility.
MIP search method: dynamic search.
Parallel mode: deterministic, using up to 12 threads.
Root relaxation solution time = 0.05 sec. (22.41 ticks)

        Nodes                                         Cuts/
   Node  Left     Objective  IInf  Best Integer    Best Bound    ItCnt     Gap

      0     0        0.0000    99                      0.0000      276         
      0     0        0.0000    99                    Cuts: 26      335         
      0     0        0.0000    99                   Cuts: 135      416         
*     0+    0                            0.0000        0.0000             0.00%
      0     0        cutoff              0.0000        0.0000      416    0.00%
Elapsed time = 1.19 sec. (822.75 ticks, tree = 0.01 MB, solutions = 1)

Clique cuts applied:  15
Zero-half cuts applied:  1

Root node processing (before b&c):
  Real time             =    1.19 sec. (822.86 ticks)
Parallel b&c, 12 threads:
  Real time             =    0.00 sec. (0.00 ticks)
  Sync time (average)   =    0.00 sec.
  Wait time (average)   =    0.00 sec.
                          ------------
Total (root+branch&cut) =    1.19 sec. (822.86 ticks)
1.188000 
TRUE-modelo
camion 1, TRUE-heu 0.000238
camion 3, TRUE-heu 0.000276
Salgo lazy
*     0+    0                         9412.0000     5099.1142            45.82%
Dentro lazy
camion 0, TRUE-heu 0.000311
camion 1, FALSE-heu 0.000
Version identifier: 12.10.0.0 | 2019-11-26 | 843d4de2ae
CPXPARAM_Threads                                 12
CPXPARAM_MIP_Strategy_Probe                      -1
CPXPARAM_Emphasis_MIP                            1
Tried aggregator 2 times.
MIP Presolve eliminated 1953 rows and 34 columns.
MIP Presolve modified 2101 coefficients.
Aggregator did 2 substitutions.
Reduced MIP has 1089 rows, 621 columns, and 27946 nonzeros.
Reduced MIP has 621 binaries, 0 generals, 0 SOSs, and 0 indicators.
Presolve time = 0.17 sec. (162.56 ticks)
Tried aggregator 1 time.
Detecting symmetries...
Reduced MIP has 1089 rows, 621 columns, and 27946 nonzeros.
Reduced MIP has 621 binaries, 0 generals, 0 SOSs, and 0 indicators.
Presolve time = 0.05 sec. (40.08 ticks)
Clique table members: 1027.
MIP emphasis: integer feasibility.
MIP search method: dynamic search.
Parallel mode: deterministic, using up to 12 threads.
Root relaxation solution time = 0.08 sec. (20.87 ticks)

        Nodes                                         Cuts/
   Node  Left     Objective  IInf  Best Integer    Best Bound    ItCnt     Gap

      0     0        0.0000    75                      0.0000      280         
      0     0        0.0000    75                  Cliques: 5      381         
      0     0        0.0000    75                   Cuts: 110      476         
      0     0        0.0000    75                     Cuts: 4      536         
Detecting symmetries...
      0     2        0.0000    16                      0.0000      536         
Elapsed time = 3.30 sec. (911.42 ticks, tree = 0.02 MB, solutions = 0)
*    32    13      integral     0        0.0000        0.0000     2259    0.00%

Clique cuts applied:  15
Cover cuts applied:  2

Root node processing (before b&c):
  Real time             =    1.89 sec. (910.71 ticks)
Parallel b&c, 12 threads:
  Real time             =    8.95 sec. (65.09 ticks)
  Sync time (average)   =    7.89 sec.
  Wait time (average)   =    0.00 sec.
                          ------------
Total (root+branch&cut) =   10.84 sec. (975.80 ticks)
10.859000 
TRUE-modelo
camion 3, FALSE-heu 0.000
Version identifier: 12.10.0.0 | 2019-11-26 | 843d4de2ae
CPXPARAM_Threads                                 12
CPXPARAM_MIP_Strategy_Probe                      -1
CPXPARAM_Emphasis_MIP                            1
Tried aggregator 2 times.
MIP Presolve eliminated 6161 rows and 34 columns.
MIP Presolve modified 2389 coefficients.
Aggregator did 2 substitutions.
Reduced MIP has 1204 rows, 717 columns, and 39315 nonzeros.
Reduced MIP has 717 binaries, 0 generals, 0 SOSs, and 0 indicators.
Presolve time = 0.41 sec. (402.37 ticks)
Tried aggregator 1 time.
Detecting symmetries...
Reduced MIP has 1204 rows, 717 columns, and 39315 nonzeros.
Reduced MIP has 717 binaries, 0 generals, 0 SOSs, and 0 indicators.
Presolve time = 0.08 sec. (57.03 ticks)
Clique table members: 1142.
MIP emphasis: integer feasibility.
MIP search method: dynamic search.
Parallel mode: deterministic, using up to 12 threads.
Root relaxation solution time = 0.05 sec. (23.01 ticks)

        Nodes                                         Cuts/
   Node  Left     Objective  IInf  Best Integer    Best Bound    ItCnt     Gap

      0     0        0.0000   102                      0.0000      256         
      0     0        0.0000   102                  Cliques: 1      369         
      0     0        0.0000   102                    Cuts: 42      432         
      0     0        0.0000   102                 ZeroHalf: 2      464         
*     0+    0                            0.0000        0.0000             0.00%
      0     0        cutoff              0.0000        0.0000      464    0.00%
Elapsed time = 1.72 sec. (1179.40 ticks, tree = 0.01 MB, solutions = 1)

Clique cuts applied:  1
Zero-half cuts applied:  2

Root node processing (before b&c):
  Real time             =    1.73 sec. (1179.54 ticks)
Parallel b&c, 12 threads:
  Real time             =    0.00 sec. (0.00 ticks)
  Sync time (average)   =    0.00 sec.
  Wait time (average)   =    0.00 sec.
                          ------------
Total (root+branch&cut) =    1.73 sec. (1179.54 ticks)
1.735000 
TRUE-modelo
Salgo lazy
*     0+    0                         9036.0000     5099.1142            43.57%
Dentro lazy
camion 0, FALSE-heu 0.000
Version identifier: 12.10.0.0 | 2019-11-26 | 843d4de2ae
CPXPARAM_Threads                                 12
CPXPARAM_MIP_Strategy_Probe                      -1
CPXPARAM_Emphasis_MIP                            1
Tried aggregator 2 times.
MIP Presolve eliminated 3828 rows and 34 columns.
MIP Presolve modified 2242 coefficients.
Aggregator did 2 substitutions.
Reduced MIP has 1136 rows, 685 columns, and 31519 nonzeros.
Reduced MIP has 685 binaries, 0 generals, 0 SOSs, and 0 indicators.
Presolve time = 0.22 sec. (181.72 ticks)
Tried aggregator 1 time.
Detecting symmetries...
Reduced MIP has 1136 rows, 685 columns, and 31519 nonzeros.
Reduced MIP has 685 binaries, 0 generals, 0 SOSs, and 0 indicators.
Presolve time = 0.06 sec. (40.83 ticks)
Clique table members: 1074.
MIP emphasis: integer feasibility.
MIP search method: dynamic search.
Parallel mode: deterministic, using up to 12 threads.
Root relaxation solution time = 0.05 sec. (13.59 ticks)

        Nodes                                         Cuts/
   Node  Left     Objective  IInf  Best Integer    Best Bound    ItCnt     Gap

      0     0        0.0000    89                      0.0000      167         
      0     0        0.0000    89                  Cliques: 6      225         
      0     0        0.0000    89                    Cuts: 56      481         
Detecting symmetries...
      0     2        0.0000    28                      0.0000      481         
Elapsed time = 3.19 sec. (888.01 ticks, tree = 0.02 MB, solutions = 0)
*   235    69      integral     0        0.0000        0.0000    14764    0.00%

Clique cuts applied:  81
Zero-half cuts applied:  8
Gomory fractional cuts applied:  1

Root node processing (before b&c):
  Real time             =    1.64 sec. (887.32 ticks)
Parallel b&c, 12 threads:
  Real time             =   11.75 sec. (197.48 ticks)
  Sync time (average)   =   10.36 sec.
  Wait time (average)   =    0.00 sec.
                          ------------
Total (root+branch&cut) =   13.39 sec. (1084.80 ticks)
13.407000 
TRUE-modelo
camion 1, FALSE-heu 0.000
Version identifier: 12.10.0.0 | 2019-11-26 | 843d4de2ae
CPXPARAM_Threads                                 12
CPXPARAM_MIP_Strategy_Probe                      -1
CPXPARAM_Emphasis_MIP                            1
Tried aggregator 2 times.
MIP Presolve eliminated 543 rows and 34 columns.
MIP Presolve modified 2231 coefficients.
Aggregator did 2 substitutions.
Reduced MIP has 1061 rows, 685 columns, and 23985 nonzeros.
Reduced MIP has 685 binaries, 0 generals, 0 SOSs, and 0 indicators.
Presolve time = 0.06 sec. (76.34 ticks)
Tried aggregator 1 time.
Detecting symmetries...
Reduced MIP has 1061 rows, 685 columns, and 23985 nonzeros.
Reduced MIP has 685 binaries, 0 generals, 0 SOSs, and 0 indicators.
Presolve time = 0.03 sec. (24.06 ticks)
Clique table members: 999.
MIP emphasis: integer feasibility.
MIP search method: dynamic search.
Parallel mode: deterministic, using up to 12 threads.
Root relaxation solution time = 0.03 sec. (18.25 ticks)

        Nodes                                         Cuts/
   Node  Left     Objective  IInf  Best Integer    Best Bound    ItCnt     Gap

      0     0        0.0000    96                      0.0000      255         
      0     0        0.0000    96                  Cliques: 4      288         
      0     0        0.0000    96                    Cuts: 39      418         
*     0+    0                            0.0000        0.0000             0.00%
      0     0        cutoff              0.0000        0.0000      418    0.00%
Elapsed time = 0.92 sec. (600.92 ticks, tree = 0.01 MB, solutions = 1)

Clique cuts applied:  12
Zero-half cuts applied:  1
Gomory fractional cuts applied:  1

Root node processing (before b&c):
  Real time             =    0.92 sec. (601.02 ticks)
Parallel b&c, 12 threads:
  Real time             =    0.00 sec. (0.00 ticks)
  Sync time (average)   =    0.00 sec.
  Wait time (average)   =    0.00 sec.
                          ------------
Total (root+branch&cut) =    0.92 sec. (601.02 ticks)
0.922000 
TRUE-modelo
camion 3, FALSE-heu 0.000
Version identifier: 12.10.0.0 | 2019-11-26 | 843d4de2ae
CPXPARAM_Threads                                 12
CPXPARAM_MIP_Strategy_Probe                      -1
CPXPARAM_Emphasis_MIP                            1
Tried aggregator 2 times.
MIP Presolve eliminated 1529 rows and 34 columns.
MIP Presolve modified 2684 coefficients.
Aggregator did 2 substitutions.
Reduced MIP has 1514 rows, 685 columns, and 33045 nonzeros.
Reduced MIP has 685 binaries, 0 generals, 0 SOSs, and 0 indicators.
Presolve time = 0.14 sec. (132.44 ticks)
Tried aggregator 1 time.
Detecting symmetries...
Reduced MIP has 1514 rows, 685 columns, and 33045 nonzeros.
Reduced MIP has 685 binaries, 0 generals, 0 SOSs, and 0 indicators.
Presolve time = 0.03 sec. (37.61 ticks)
Clique table members: 1452.
MIP emphasis: integer feasibility.
MIP search method: dynamic search.
Parallel mode: deterministic, using up to 12 threads.
Root relaxation solution time = 0.06 sec. (22.00 ticks)

        Nodes                                         Cuts/
   Node  Left     Objective  IInf  Best Integer    Best Bound    ItCnt     Gap

      0     0        0.0000   106                      0.0000      227         
      0     0        0.0000   106                 Cliques: 42      316         
      0     0        0.0000   106                   Cuts: 124      411         
      0     0        0.0000   106                  Cliques: 6      500         
Detecting symmetries...
      0     2        0.0000    21                      0.0000      500         
Elapsed time = 4.00 sec. (1306.96 ticks, tree = 0.02 MB, solutions = 0)
*   289+  114                            0.0000        0.0000             0.00%
    300   112        0.0000    33        0.0000        0.0000    10820    0.00%

Clique cuts applied:  71
Zero-half cuts applied:  5
Gomory fractional cuts applied:  1

Root node processing (before b&c):
  Real time             =    2.36 sec. (1306.05 ticks)
Parallel b&c, 12 threads:
  Real time             =    8.91 sec. (260.31 ticks)
  Sync time (average)   =    7.53 sec.
  Wait time (average)   =    0.00 sec.
                          ------------
Total (root+branch&cut) =   11.27 sec. (1566.36 ticks)
11.297000 
TRUE-modelo
Salgo lazy
*     0+    0                         8635.0000     5099.1142            40.95%
Dentro lazy
camion 0, FALSE-heu 0.001
Version identifier: 12.10.0.0 | 2019-11-26 | 843d4de2ae
CPXPARAM_Threads                                 12
CPXPARAM_MIP_Strategy_Probe                      -1
CPXPARAM_Emphasis_MIP                            1
Tried aggregator 2 times.
MIP Presolve eliminated 3828 rows and 34 columns.
MIP Presolve modified 2306 coefficients.
Aggregator did 2 substitutions.
Reduced MIP has 1137 rows, 717 columns, and 32773 nonzeros.
Reduced MIP has 717 binaries, 0 generals, 0 SOSs, and 0 indicators.
Presolve time = 0.23 sec. (190.89 ticks)
Tried aggregator 1 time.
Detecting symmetries...
Reduced MIP has 1137 rows, 717 columns, and 32773 nonzeros.
Reduced MIP has 717 binaries, 0 generals, 0 SOSs, and 0 indicators.
Presolve time = 0.05 sec. (42.25 ticks)
Clique table members: 1075.
MIP emphasis: integer feasibility.
MIP search method: dynamic search.
Parallel mode: deterministic, using up to 12 threads.
Root relaxation solution time = 0.05 sec. (22.86 ticks)

        Nodes                                         Cuts/
   Node  Left     Objective  IInf  Best Integer    Best Bound    ItCnt     Gap

      0     0        0.0000   102                      0.0000      276         
      0     0        0.0000   102                    Cuts: 16      354         
      0     0        0.0000   102                   Cuts: 110      520         
Detecting symmetries...
      0     2        0.0000    20                      0.0000      520         
Elapsed time = 3.22 sec. (696.54 ticks, tree = 0.02 MB, solutions = 0)
*    16    14      integral     0        0.0000        0.0000     1688    0.00%

Clique cuts applied:  36
Cover cuts applied:  1
Zero-half cuts applied:  2

Root node processing (before b&c):
  Real time             =    1.45 sec. (695.86 ticks)
Parallel b&c, 12 threads:
  Real time             =    5.89 sec. (40.85 ticks)
  Sync time (average)   =    4.57 sec.
  Wait time (average)   =    0.00 sec.
                          ------------
Total (root+branch&cut) =    7.34 sec. (736.70 ticks)
7.360000 
TRUE-modelo
camion 1, TRUE-heu 0.000605
camion 3, FALSE-heu 0.001
Version identifier: 12.10.0.0 | 2019-11-26 | 843d4de2ae
CPXPARAM_Threads                                 12
CPXPARAM_MIP_Strategy_Probe                      -1
CPXPARAM_Emphasis_MIP                            1
Tried aggregator 2 times.
MIP Presolve eliminated 1529 rows and 34 columns.
MIP Presolve modified 2684 coefficients.
Aggregator did 2 substitutions.
Reduced MIP has 1514 rows, 685 columns, and 33045 nonzeros.
Reduced MIP has 685 binaries, 0 generals, 0 SOSs, and 0 indicators.
Presolve time = 0.16 sec. (130.93 ticks)
Tried aggregator 1 time.
Detecting symmetries...
Reduced MIP has 1514 rows, 685 columns, and 33045 nonzeros.
Reduced MIP has 685 binaries, 0 generals, 0 SOSs, and 0 indicators.
Presolve time = 0.05 sec. (37.78 ticks)
Clique table members: 1452.
MIP emphasis: integer feasibility.
MIP search method: dynamic search.
Parallel mode: deterministic, using up to 12 threads.
Root relaxation solution time = 0.08 sec. (23.23 ticks)

        Nodes                                         Cuts/
   Node  Left     Objective  IInf  Best Integer    Best Bound    ItCnt     Gap

      0     0        0.0000    99                      0.0000      253         
      0     0        0.0000    99                 Cliques: 24      326         
      0     0        0.0000    99                    Cuts: 32      382         
Detecting symmetries...
      0     2        0.0000     8                      0.0000      382         
Elapsed time = 3.55 sec. (797.02 ticks, tree = 0.02 MB, solutions = 0)
*    91    32      integral     0        0.0000        0.0000     4728    0.00%

Clique cuts applied:  27
Cover cuts applied:  5
Lift and project cuts applied:  1

Root node processing (before b&c):
  Real time             =    1.50 sec. (796.17 ticks)
Parallel b&c, 12 threads:
  Real time             =    5.98 sec. (71.08 ticks)
  Sync time (average)   =    4.44 sec.
  Wait time (average)   =    0.00 sec.
                          ------------
Total (root+branch&cut) =    7.48 sec. (867.25 ticks)
7.484000 
TRUE-modelo
Salgo lazy
*     0+    0                         8553.0000     5099.1142            40.38%
      0     0  -1.00000e+75     0     8553.0000     5099.1142     6056   40.38%
      0     0     5302.7488   177     8553.0000      Cuts: 77     7166   38.00%
      0     0     5475.1490   177     8553.0000     Cuts: 124     7689   35.99%
      0     0     5483.8516   177     8553.0000      Cuts: 93     8041   35.88%
      0     0     5486.7270   177     8553.0000      Cuts: 69     8274   35.85%
      0     0     5503.3018   177     8553.0000      Cuts: 80     8673   35.66%
      0     0     5507.7463   177     8553.0000      Cuts: 75     8966   35.60%
      0     0     5508.3727   177     8553.0000      Cuts: 80     9408   35.60%
      0     0     5510.5634   177     8553.0000      Cuts: 75     9743   35.57%
      0     0     5521.7497   177     8553.0000      Cuts: 79    10859   35.44%
      0     0     5532.5164   177     8553.0000      Cuts: 96    11057   35.31%
      0     0     5537.6944   177     8553.0000      Cuts: 77    11219   35.25%
      0     0     5550.9666   177     8553.0000      Cuts: 80    13244   35.10%
      0     0     5558.5862   177     8553.0000      Cuts: 92    13524   35.01%
      0     0     5565.6448   177     8553.0000      Cuts: 63    13688   34.93%
      0     0     5586.8064   177     8553.0000      Cuts: 73    14186   34.68%
      0     0     5602.2475   177     8553.0000      Cuts: 72    14657   34.50%
      0     0     5608.7152   177     8553.0000      Cuts: 76    14939   34.42%
      0     0     5610.8098   177     8553.0000      Cuts: 75    15249   34.40%
      0     0     5612.7811   177     8553.0000      Cuts: 59    15436   34.38%
      0     0     5615.5836   177     8553.0000      Cuts: 40    15565   34.34%
      0     0     5619.1561   177     8553.0000      Cuts: 64    15930   34.30%
      0     0     5625.5271   177     8553.0000      Cuts: 64    16267   34.23%
      0     0     5630.8427   177     8553.0000      Cuts: 52    16395   34.17%
      0     0     5636.9760   177     8553.0000      Cuts: 39    16492   34.09%
      0     0     5637.6442   177     8553.0000      Cuts: 45    16624   34.09%
      0     0     5639.5035   177     8553.0000      Cuts: 34    16801   34.06%
      0     0     5640.8683   177     8553.0000      Cuts: 72    16977   34.05%
      0     2     5640.8683   301     8553.0000     5640.8683    16977   34.05%                        0             0
Elapsed time = 68.11 sec. (12553.23 ticks, tree = 0.02 MB, solutions = 5)
      2     4     6379.2115   215     8553.0000     5750.6021    17332   32.77%         X_0_0_7 U     15      7      2
      6     6     5767.2761   218     8553.0000     5755.4034    17808   32.71%         X_0_0_7 U     16      8      2
     20    17     6795.1609   199     8553.0000     5755.4034    19176   32.71%         X_3_5_0 D     19     11      6
     34    20     6698.8214   206     8553.0000     5894.6944    21439   31.08%         X_0_7_3 D     39     31      5
     42    24     7054.0933   207     8553.0000     5894.6944    23354   31.08%         X_1_7_0 U     38     22      5
     54    43     6891.5977   198     8553.0000     5894.6944    32383   31.08%         X_3_6_0 D     67     59     10
     65    51     6088.3800   206     8553.0000     5924.5243    34893   30.73%         X_1_7_0 D     56     48      5
     93    57     7848.4606   155     8553.0000     5924.5243    37776   30.73%         X_3_5_0 U     66     50      8
    114    80     6106.3785   222     8553.0000     5924.5243    47328   30.73%         X_1_0_5 D     92     84     12
    248   186        cutoff           8553.0000     5924.5243    63315   30.73%         X_0_5_4 D    237    221     26
Elapsed time = 73.50 sec. (15907.64 ticks, tree = 1.02 MB, solutions = 5)
    454   329     7216.2427   166     8553.0000     5943.1656    90152   30.51%         X_2_0_7 U    337    329     41
    714   433     6695.1743   206     8553.0000     6033.2135   108506   29.46%        X_2_9_10 D    566    558     15
   1034   803     7336.0050   142     8553.0000     6112.6428   149480   28.53%         X_0_5_4 D    784    776     18
   1350  1001     8116.2872   124     8553.0000     6115.1415   176412   28.50%         X_1_5_1 D   1067   1059     65
   1666  1273     8081.7907   128     8553.0000     6129.5138   209046   28.33%         X_2_4_9 D   2026   2018     27
   2026  1541     8493.2917   178     8553.0000     6226.1691   252937   27.20%         X_2_0_9 D   2362   2354     54
   2418  1906     7301.2102   169     8553.0000     6265.6109   298748   26.74%         X_1_5_4 D   2855   2847     17
   2870  2292     8055.2913   155     8553.0000     6321.5718   341566   26.09%         X_2_6_1 D   3207   3199     40
   3277  2529     8397.5279   114     8553.0000     6368.8122   367537   25.54%         X_2_8_1 D   4292   4284     45
   3698  2890     8026.8851   130     8553.0000     6394.2274   412349   25.24%        X_1_10_5 U   3474    249     33
Elapsed time = 90.25 sec. (25525.97 ticks, tree = 29.34 MB, solutions = 5)
   4133  3245     7472.1723   153     8553.0000     6506.0936   457987   23.93%        X_2_8_10 D   3762   3754     27
   4544  3679     8250.2248   200     8553.0000     6518.2119   506108   23.79%        X_1_8_10 D   4450   4442     56
   4949  3917     8387.1299   110     8553.0000     6588.1890   539576   22.97%         X_2_9_3 U   5552   5536     48
   5414  4295     8120.5067   157     8553.0000     6615.2113   593744   22.66%        X_2_8_10 D   5269   5261     22
   5845  4630     7197.6864   191     8553.0000     6661.1802   630754   22.12%        X_1_5_10 D   7180   7172     18
   6167  4885     8483.8453   112     8553.0000     6710.2356   670172   21.55%         X_2_0_7 D   6071   6063     35
   6628  5364     8114.5701   135     8553.0000     6741.0796   732065   21.18%         X_1_5_6 D   6976   6968     38
   7113  5606     8541.6253   108     8553.0000     6753.0547   765126   21.04%         X_1_1_2 D   7690   7682     50
   7619  6057     8142.9048   122     8553.0000     6793.6789   814777   20.57%        X_2_8_10 D   7246   7238     18
   8156  6325     7740.8529   170     8553.0000     6806.2677   843242   20.42%         X_1_5_8 D   9628   9620     27
Elapsed time = 107.27 sec. (35084.74 ticks, tree = 66.95 MB, solutions = 5)
   8648  6834     8045.2960   137     8553.0000     6829.7358   905513   20.15%        X_1_0_10 D   8626   8618     23
   9168  7235     8386.9337   144     8553.0000     6867.5680   944378   19.71%         X_2_9_5 D   9581   9573     50
   9718  7535        cutoff           8553.0000     6897.4069   982524   19.36%        X_2_6_10 D   9206   9198     31
  10288  7953     7994.4749    89     8553.0000     6922.8732  1024073   19.06%        X_2_5_10 U  10597   9728     13
  10887  8274     7881.8542   132     8553.0000     6941.6526  1060770   18.84%         X_2_4_0 D  10981  10973     17
  11311  8918     8241.3488   117     8553.0000     6966.8490  1121335   18.54%         X_2_7_1 D  11222  11214     49
  11810  9337     7827.5995   167     8553.0000     6986.1620  1181282   18.32%         X_1_4_8 D  13868  13860     43
  12364  9573     7846.4344   152     8553.0000     7002.4239  1212135   18.13%         X_1_2_8 U  10809    622     23
  12897 10098     7658.5914   123     8553.0000     7019.9422  1270524   17.92%         X_2_4_0 D  12934  12926     21
  13449 10295     8473.4939   116     8553.0000     7036.1054  1295050   17.74%        X_1_6_10 D  15252  15244     36
Elapsed time = 123.98 sec. (44634.89 ticks, tree = 112.79 MB, solutions = 5)
  13797 10736     8470.0600   170     8553.0000     7052.3051  1342542   17.55%         X_2_9_4 D  13115  13107     32
  14179 11018     8456.7358   142     8553.0000     7058.6227  1399729   17.47%        X_1_1_10 D  15940  15932     38
  14614 11313     8019.5241   177     8553.0000     7082.2642  1450093   17.20%         X_1_7_0 U  16348   7156     16
  15103 11547     8139.3804   179     8553.0000     7100.0653  1484787   16.99%         X_1_0_6 U  15568   2541     44
  15517 11986     8405.8919   182     8553.0000     7113.7297  1546870   16.83%         X_1_5_9 D  15526  15518     37
  15864 12328     8024.3412   159     8553.0000     7127.2319  1588624   16.67%        X_1_9_10 D  16032  16024     19
  16270 12473     8062.9955   182     8553.0000     7146.3765  1600971   16.45%        X_2_10_1 D  15097  15089     78
  16697 12849     7389.3468   183     8553.0000     7157.9540  1650846   16.31%         X_2_0_7 D  16218  16210     16
  17076 13183        cutoff           8553.0000     7166.8562  1702797   16.21%        X_2_5_10 U  17454  14601     17
  17498 13480     8255.5729    80     8553.0000     7176.7645  1742329   16.09%         X_2_8_0 D  17298  17290     34
Elapsed time = 141.47 sec. (54198.44 ticks, tree = 150.87 MB, solutions = 5)
  18014 13612     8013.8358   167     8553.0000     7178.4374  1770109   16.07%         X_1_0_7 U  17832  12217     14
  18498 14061     8201.3326   167     8553.0000     7193.9743  1826895   15.89%         X_1_9_0 D  18869  18861     83
  18987 14394     7911.4114   125     8553.0000     7206.9423  1875071   15.74%        X_1_8_10 D  18688  18680     26
  19471 14673     8060.2793   144     8553.0000     7219.2049  1917038   15.59%        X_2_9_10 D  21724  21716     27
  20008 15225     8399.6303   126     8553.0000     7232.0169  1975069   15.44%        X_1_10_2 D  19950  19942     23
  20552 15422     7367.8118   220     8553.0000     7250.3780  1997794   15.23%        X_1_5_10 D  20419  20411      9
  21083 15986        cutoff           8553.0000     7264.9797  2069530   15.06%        X_1_2_10 U  20546  20530     37
  21499 16114     8268.9515   119     8553.0000     7270.6330  2082923   14.99%        X_1_0_10 D  21686  21678     33
  22219 16842     8537.0000    18     8553.0000     7280.4124  2127932   14.88%       Z_0_7_1_8 D  24050  24042    377
  22663 16802     8148.2467   196     8553.0000     7289.8527  2177180   14.77%         X_1_0_6 D  21073  21065     26
Elapsed time = 158.30 sec. (63745.59 ticks, tree = 193.56 MB, solutions = 5)
  23231 17559     8312.1389   132     8553.0000     7301.4516  2255068   14.63%        X_1_4_10 D  24898  24890     28
  23695 17867     8445.3673   191     8553.0000     7312.2203  2292686   14.51%         X_1_0_3 D  22169  22161     39
  24141 18006     7713.8278   194     8553.0000     7329.0971  2319330   14.31%         X_1_0_7 D  25666  25658     21
  24591 18358     8091.7528   163     8553.0000     7334.1895  2366282   14.25%         X_1_9_3 D  24599  24591     66
  25138 18807     7479.4533   206     8553.0000     7352.7414  2424453   14.03%        X_2_8_10 D  25351  25343     33
  25626 18932     8103.1998   127     8553.0000     7364.1746  2453182   13.90%         X_1_1_7 D  27292  27284     39
  26142 19515     8533.2373   162     8553.0000     7376.3771  2526632   13.76%         X_2_6_5 D  25832  25824     41
  26607 19532     8226.1650    89     8553.0000     7381.6310  2524502   13.70%         X_2_9_4 D  25347  25339     26
  27259 20066     7573.5314   199     8553.0000     7394.7092  2589785   13.54%        X_3_10_5 N  26163  18430     24
  27848 20334     8257.9360   189     8553.0000     7402.0377  2618248   13.46%         X_2_9_4 D  26977  26969     51
Elapsed time = 175.97 sec. (73295.19 ticks, tree = 243.71 MB, solutions = 5)
  28299 20704        cutoff           8553.0000     7409.2500  2659867   13.37%         X_1_5_8 U  27331   4388     24
  28758 21061     7708.3875   232     8553.0000     7416.5007  2705766   13.29%        X_2_0_10 D  28758  28750     24
  29308 21404     7999.9652   163     8553.0000     7422.4744  2748460   13.22%         X_2_9_6 D  29261  29253     23
  29751 22091     7542.5508   161     8553.0000     7430.5427  2850353   13.12%         X_1_5_4 N  30826   1384     23
  30286 22037     8371.3056   181     8553.0000     7436.6732  2840802   13.05%         X_1_3_1 D  29991  29983     46
  30777 22654     8095.7839   101     8553.0000     7442.7724  2933018   12.98%         X_1_6_8 D  31980  31972     22
  31244 23082     8180.4311   113     8553.0000     7454.1451  2986357   12.85%         X_2_0_4 D  31662  31654     34
  31628 23273     8028.7333   184     8553.0000     7463.9202  3020320   12.73%         X_1_0_7 D  31909  31901     23
  32068 23329     7659.6314   259     8553.0000     7470.4177  3033212   12.66%        X_0_5_10 D  30792  30784     36
  32494 23481     8336.9871   135     8553.0000     7480.0132  3065858   12.55%         X_2_9_0 D  32982  32974     46
Elapsed time = 193.61 sec. (82853.23 ticks, tree = 291.95 MB, solutions = 5)
  32988 24006     8237.6345   113     8553.0000     7483.4114  3146787   12.51%        X_0_10_4 D  34780  34772     53
  33322 24222     8133.6999   200     8553.0000     7491.5009  3190073   12.41%         X_1_6_8 D  32657  32649     37
  33681 24123     8445.6152   150     8553.0000     7496.9132  3166301   12.35%         X_1_7_0 U  34461  20690     39
  34243 24534     8506.0000     6     8553.0000     7504.4152  3227387   12.26%       Z_0_7_0_1 D  36764  36756     64
Dentro lazy
camion 0, FALSE-heu 0.001
Version identifier: 12.10.0.0 | 2019-11-26 | 843d4de2ae
CPXPARAM_Threads                                 12
CPXPARAM_MIP_Strategy_Probe                      -1
CPXPARAM_Emphasis_MIP                            1
Tried aggregator 2 times.
MIP Presolve eliminated 3885 rows and 34 columns.
MIP Presolve modified 2249 coefficients.
Aggregator did 2 substitutions.
Reduced MIP has 1080 rows, 717 columns, and 31812 nonzeros.
Reduced MIP has 717 binaries, 0 generals, 0 SOSs, and 0 indicators.
Presolve time = 0.19 sec. (187.54 ticks)
Tried aggregator 1 time.
Detecting symmetries...
Reduced MIP has 1080 rows, 717 columns, and 31812 nonzeros.
Reduced MIP has 717 binaries, 0 generals, 0 SOSs, and 0 indicators.
Presolve time = 0.05 sec. (41.29 ticks)
Clique table members: 1018.
MIP emphasis: integer feasibility.
MIP search method: dynamic search.
Parallel mode: deterministic, using up to 12 threads.
Root relaxation solution time = 0.03 sec. (15.94 ticks)

        Nodes                                         Cuts/
   Node  Left     Objective  IInf  Best Integer    Best Bound    ItCnt     Gap

      0     0        0.0000    86                      0.0000      201         
      0     0        0.0000    86                    Cuts: 36      357         
*     0+    0                            0.0000        0.0000             0.00%
      0     0        cutoff              0.0000        0.0000      372    0.00%
Elapsed time = 1.08 sec. (816.02 ticks, tree = 0.01 MB, solutions = 1)

Clique cuts applied:  21
Zero-half cuts applied:  4

Root node processing (before b&c):
  Real time             =    1.08 sec. (816.14 ticks)
Parallel b&c, 12 threads:
  Real time             =    0.00 sec. (0.00 ticks)
  Sync time (average)   =    0.00 sec.
  Wait time (average)   =    0.00 sec.
                          ------------
Total (root+branch&cut) =    1.08 sec. (816.14 ticks)
1.094000 
TRUE-modelo
camion 2, TRUE-heu 0.000730
camion 3, FALSE-heu 0.001
Version identifier: 12.10.0.0 | 2019-11-26 | 843d4de2ae
CPXPARAM_Threads                                 12
CPXPARAM_MIP_Strategy_Probe                      -1
CPXPARAM_Emphasis_MIP                            1
Tried aggregator 2 times.
MIP Presolve eliminated 1529 rows and 34 columns.
MIP Presolve modified 2684 coefficients.
Aggregator did 2 substitutions.
Reduced MIP has 1514 rows, 685 columns, and 33045 nonzeros.
Reduced MIP has 685 binaries, 0 generals, 0 SOSs, and 0 indicators.
Presolve time = 0.14 sec. (137.22 ticks)
Tried aggregator 1 time.
Detecting symmetries...
Reduced MIP has 1514 rows, 685 columns, and 33045 nonzeros.
Reduced MIP has 685 binaries, 0 generals, 0 SOSs, and 0 indicators.
Presolve time = 0.05 sec. (38.48 ticks)
Clique table members: 1452.
MIP emphasis: integer feasibility.
MIP search method: dynamic search.
Parallel mode: deterministic, using up to 12 threads.
Root relaxation solution time = 0.08 sec. (25.47 ticks)

        Nodes                                         Cuts/
   Node  Left     Objective  IInf  Best Integer    Best Bound    ItCnt     Gap

      0     0        0.0000    95                      0.0000      270         
      0     0        0.0000    95                 Cliques: 17      373         
      0     0        0.0000    95                   Cuts: 113      555         
*     0+    0                            0.0000        0.0000             0.00%
      0     0        cutoff              0.0000        0.0000      622    0.00%
Elapsed time = 1.50 sec. (964.92 ticks, tree = 0.01 MB, solutions = 1)

Clique cuts applied:  20
Zero-half cuts applied:  4
Gomory fractional cuts applied:  1

Root node processing (before b&c):
  Real time             =    1.50 sec. (965.05 ticks)
Parallel b&c, 12 threads:
  Real time             =    0.00 sec. (0.00 ticks)
  Sync time (average)   =    0.00 sec.
  Wait time (average)   =    0.00 sec.
                          ------------
Total (root+branch&cut) =    1.50 sec. (965.05 ticks)
1.531000 
TRUE-modelo
Salgo lazy
* 34775+24895                         8506.0000     7508.0749            11.73%
  34891 23992     7992.1284   165     8506.0000     7514.2932  3313187   11.66%         X_2_9_6 D  33408  33400     21
  35421 23898     8009.9409   126     8506.0000     7523.6080  3310290   11.55%         X_1_0_1 D  33291  33283     39
  35968 24384     8188.4272   108     8506.0000     7532.7045  3360001   11.44%        X_2_9_10 D  36722  36706     30
  36373 24572     7808.7704   151     8506.0000     7538.5951  3391611   11.37%         X_1_8_2 D  34483  34475     40
  36806 24831     8112.8337   113     8506.0000     7545.7758  3434263   11.29%         X_1_5_4 D  36214  36206     40
  37213 25238     8185.7625   136     8506.0000     7548.5460  3513715   11.26%         X_2_0_4 D  36726  36718     41
Elapsed time = 214.06 sec. (92415.93 ticks, tree = 324.68 MB, solutions = 6)
  37697 25330     8244.0349   107     8506.0000     7555.1409  3545575   11.18%         X_2_9_6 D  40692  40684     19
  38292 25538     8281.1593   193     8506.0000     7558.7816  3578945   11.14%         X_2_9_3 D  37919  37911     44
  38813 25933     8297.8229   149     8506.0000     7568.2239  3638417   11.02%         X_2_9_7 D  36923  36915     34
Dentro lazy
camion 0, FALSE-heu 0.001
Version identifier: 12.10.0.0 | 2019-11-26 | 843d4de2ae
CPXPARAM_Threads                                 12
CPXPARAM_MIP_Strategy_Probe                      -1
CPXPARAM_Emphasis_MIP                            1
Tried aggregator 2 times.
MIP Presolve eliminated 3885 rows and 34 columns.
MIP Presolve modified 2249 coefficients.
Aggregator did 2 substitutions.
Reduced MIP has 1080 rows, 717 columns, and 31812 nonzeros.
Reduced MIP has 717 binaries, 0 generals, 0 SOSs, and 0 indicators.
Presolve time = 0.19 sec. (187.54 ticks)
Tried aggregator 1 time.
Detecting symmetries...
Reduced MIP has 1080 rows, 717 columns, and 31812 nonzeros.
Reduced MIP has 717 binaries, 0 generals, 0 SOSs, and 0 indicators.
Presolve time = 0.05 sec. (41.29 ticks)
Clique table members: 1018.
MIP emphasis: integer feasibility.
MIP search method: dynamic search.
Parallel mode: deterministic, using up to 12 threads.
Root relaxation solution time = 0.02 sec. (15.94 ticks)

        Nodes                                         Cuts/
   Node  Left     Objective  IInf  Best Integer    Best Bound    ItCnt     Gap

      0     0        0.0000    86                      0.0000      201         
      0     0        0.0000    86                    Cuts: 36      357         
*     0+    0                            0.0000        0.0000             0.00%
      0     0        cutoff              0.0000        0.0000      372    0.00%
Elapsed time = 1.34 sec. (816.02 ticks, tree = 0.01 MB, solutions = 1)

Clique cuts applied:  21
Zero-half cuts applied:  4

Root node processing (before b&c):
  Real time             =    1.34 sec. (816.14 ticks)
Parallel b&c, 12 threads:
  Real time             =    0.00 sec. (0.00 ticks)
  Sync time (average)   =    0.00 sec.
  Wait time (average)   =    0.00 sec.
                          ------------
Total (root+branch&cut) =    1.34 sec. (816.14 ticks)
1.360000 
TRUE-modelo
camion 1, TRUE-heu 0.000842
camion 2, FALSE-heu 0.001
Version identifier: 12.10.0.0 | 2019-11-26 | 843d4de2ae
CPXPARAM_Threads                                 12
CPXPARAM_MIP_Strategy_Probe                      -1
CPXPARAM_Emphasis_MIP                            1
Tried aggregator 2 times.
MIP Presolve eliminated 543 rows and 34 columns.
MIP Presolve modified 2231 coefficients.
Aggregator did 2 substitutions.
Reduced MIP has 1061 rows, 685 columns, and 23985 nonzeros.
Reduced MIP has 685 binaries, 0 generals, 0 SOSs, and 0 indicators.
Presolve time = 0.13 sec. (82.54 ticks)
Tried aggregator 1 time.
Detecting symmetries...
Reduced MIP has 1061 rows, 685 columns, and 23985 nonzeros.
Reduced MIP has 685 binaries, 0 generals, 0 SOSs, and 0 indicators.
Presolve time = 0.03 sec. (25.11 ticks)
Clique table members: 999.
MIP emphasis: integer feasibility.
MIP search method: dynamic search.
Parallel mode: deterministic, using up to 12 threads.
Root relaxation solution time = 0.03 sec. (12.34 ticks)

        Nodes                                         Cuts/
   Node  Left     Objective  IInf  Best Integer    Best Bound    ItCnt     Gap

      0     0        0.0000    64                      0.0000      191         
      0     0        0.0000    64                  Cliques: 9      255         
      0     0        0.0000    64                    Cuts: 81      455         
*     0+    0                            0.0000        0.0000             0.00%
      0     0        cutoff              0.0000        0.0000      519    0.00%
Elapsed time = 1.75 sec. (772.58 ticks, tree = 0.01 MB, solutions = 1)

Clique cuts applied:  28
Zero-half cuts applied:  6
Gomory fractional cuts applied:  2

Root node processing (before b&c):
  Real time             =    1.75 sec. (772.68 ticks)
Parallel b&c, 12 threads:
  Real time             =    0.00 sec. (0.00 ticks)
  Sync time (average)   =    0.00 sec.
  Wait time (average)   =    0.00 sec.
                          ------------
Total (root+branch&cut) =    1.75 sec. (772.68 ticks)
1.765000 
TRUE-modelo
Salgo lazy
* 39081+25858                         8456.0000     7569.8149            10.48%
  39306 26171     8204.9717   193     8456.0000     7571.1278  3673800   10.46%         X_3_5_8 D  38833  38825     26
  39748 24973        cutoff           8456.0000     7584.3250  3719123   10.31%         X_2_8_0 D  37635  37627     17
Dentro lazy
camion 0, FALSE-heu 0.001
Version identifier: 12.10.0.0 | 2019-11-26 | 843d4de2ae
CPXPARAM_Threads                                 12
CPXPARAM_MIP_Strategy_Probe                      -1
CPXPARAM_Emphasis_MIP                            1
Tried aggregator 2 times.
MIP Presolve eliminated 3885 rows and 34 columns.
MIP Presolve modified 2249 coefficients.
Aggregator did 2 substitutions.
Reduced MIP has 1080 rows, 717 columns, and 31812 nonzeros.
Reduced MIP has 717 binaries, 0 generals, 0 SOSs, and 0 indicators.
Presolve time = 0.19 sec. (187.54 ticks)
Tried aggregator 1 time.
Detecting symmetries...
Reduced MIP has 1080 rows, 717 columns, and 31812 nonzeros.
Reduced MIP has 717 binaries, 0 generals, 0 SOSs, and 0 indicators.
Presolve time = 0.05 sec. (41.29 ticks)
Clique table members: 1018.
MIP emphasis: integer feasibility.
MIP search method: dynamic search.
Parallel mode: deterministic, using up to 12 threads.
Root relaxation solution time = 0.03 sec. (15.94 ticks)

        Nodes                                         Cuts/
   Node  Left     Objective  IInf  Best Integer    Best Bound    ItCnt     Gap

      0     0        0.0000    86                      0.0000      201         
      0     0        0.0000    86                    Cuts: 36      357         
*     0+    0                            0.0000        0.0000             0.00%
      0     0        cutoff              0.0000        0.0000      372    0.00%
Elapsed time = 1.13 sec. (816.02 ticks, tree = 0.01 MB, solutions = 1)

Clique cuts applied:  21
Zero-half cuts applied:  4

Root node processing (before b&c):
  Real time             =    1.13 sec. (816.14 ticks)
Parallel b&c, 12 threads:
  Real time             =    0.00 sec. (0.00 ticks)
  Sync time (average)   =    0.00 sec.
  Wait time (average)   =    0.00 sec.
                          ------------
Total (root+branch&cut) =    1.13 sec. (816.14 ticks)
1.125000 
TRUE-modelo
camion 1, TRUE-heu 0.000958
camion 2, FALSE-heu 0.001
Version identifier: 12.10.0.0 | 2019-11-26 | 843d4de2ae
CPXPARAM_Threads                                 12
CPXPARAM_MIP_Strategy_Probe                      -1
CPXPARAM_Emphasis_MIP                            1
Tried aggregator 2 times.
MIP Presolve eliminated 543 rows and 34 columns.
MIP Presolve modified 2231 coefficients.
Aggregator did 2 substitutions.
Reduced MIP has 1061 rows, 685 columns, and 23985 nonzeros.
Reduced MIP has 685 binaries, 0 generals, 0 SOSs, and 0 indicators.
Presolve time = 0.08 sec. (76.45 ticks)
Tried aggregator 1 time.
Detecting symmetries...
Reduced MIP has 1061 rows, 685 columns, and 23985 nonzeros.
Reduced MIP has 685 binaries, 0 generals, 0 SOSs, and 0 indicators.
Presolve time = 0.02 sec. (24.10 ticks)
Clique table members: 999.
MIP emphasis: integer feasibility.
MIP search method: dynamic search.
Parallel mode: deterministic, using up to 12 threads.
Root relaxation solution time = 0.03 sec. (13.14 ticks)

        Nodes                                         Cuts/
   Node  Left     Objective  IInf  Best Integer    Best Bound    ItCnt     Gap

      0     0        0.0000    66                      0.0000      188         
*     0+    0                            0.0000        0.0000             0.00%
      0     0        cutoff              0.0000        0.0000      261    0.00%
Elapsed time = 0.58 sec. (333.16 ticks, tree = 0.01 MB, solutions = 1)

Clique cuts applied:  7

Root node processing (before b&c):
  Real time             =    0.58 sec. (333.26 ticks)
Parallel b&c, 12 threads:
  Real time             =    0.00 sec. (0.00 ticks)
  Sync time (average)   =    0.00 sec.
  Wait time (average)   =    0.00 sec.
                          ------------
Total (root+branch&cut) =    0.58 sec. (333.26 ticks)
0.578000 
TRUE-modelo
Salgo lazy
  40310 25243     8061.0294   167     8456.0000     7591.9796  3762895   10.22%         X_1_0_1 D  39406  39398     43
* 40311+25405                         8426.0000     7591.9796             9.90%
  40756 24468        cutoff           8426.0000     7597.9284  3828152    9.83%        X_2_6_10 U  40119  11879     28
  41214 24516        cutoff           8426.0000     7601.4095  3833360    9.79%         X_1_5_9 D  40807  40799     37
  41641 24632        cutoff           8426.0000     7607.2194  3880595    9.72%        X_2_8_10 U  45564  26219     32
  43410 25237        cutoff           8426.0000     7634.3958  4043716    9.39%         X_2_4_9 U  42958   2046     23
Elapsed time = 241.61 sec. (104838.38 ticks, tree = 337.37 MB, solutions = 8)
  45114 25828     7876.3174   147     8426.0000     7663.3513  4211865    9.05%         X_1_1_3 D  44582  44574     19
  46950 26298     7960.0670   152     8426.0000     7693.7306  4389929    8.69%         X_1_5_4 U  46462   9029     15
  48739 26894        cutoff           8426.0000     7717.5985  4535570    8.41%        X_2_9_10 U  52884  21088     20
  50377 27166     8419.3601    80     8426.0000     7749.7707  4749952    8.03%         X_2_0_6 U  49953  42181     33
  52337 27403        cutoff           8426.0000     7777.8360  4863571    7.69%         X_2_0_1 U  51176   8829     34
  53995 27829     7854.0782   148     8426.0000     7803.0584  5051184    7.39%        X_2_10_6 N  58316  26408     38
  55718 27932        cutoff           8426.0000     7825.6107  5184299    7.13%         X_2_4_0 U  55761  33093     44
  57193 28014        cutoff           8426.0000     7846.6852  5334368    6.88%         X_2_9_0 U  56238  22400     40
  58610 27809        cutoff           8426.0000     7871.1190  5528819    6.59%         X_3_7_0 D  57464  57448     12
  60173 27543     8127.7711   153     8426.0000     7890.8207  5685627    6.35%        X_2_6_10 D  59056  59048     25
Elapsed time = 321.36 sec. (143002.79 ticks, tree = 425.84 MB, solutions = 8)
  61833 27345     8401.0092   124     8426.0000     7911.8149  5814898    6.10%         X_1_8_2 D  60847  60839     20
  63415 26967     8404.6046   161     8426.0000     7934.3996  5942522    5.83%         X_2_9_8 D  64381  64373     43
  64992 26458     8170.5666   181     8426.0000     7955.4675  6130603    5.58%         X_2_0_9 D  61811  61803     38
  66531 26059        cutoff           8426.0000     7976.3939  6244836    5.34%         X_2_9_4 U  68178  25454     52
  68381 25389        cutoff           8426.0000     7995.6145  6413603    5.11%        X_2_6_10 U  73348  29387     34
  70151 24822        cutoff           8426.0000     8015.1335  6541468    4.88%         X_2_0_6 U  72186   4394     50
  72066 24137     8350.9215   146     8426.0000     8038.4474  6668963    4.60%         X_2_9_8 D  70975  70967     39
  74046 23535     8279.7059   193     8426.0000     8061.5894  6824400    4.32%         X_2_9_1 D  73031  73023     40
  76030 23020        cutoff           8426.0000     8082.2493  7018751    4.08%         X_1_1_7 U  75517  24956     60
  77889 22635        cutoff           8426.0000     8099.0203  7120422    3.88%         X_2_8_0 U  74987  12023     46
Elapsed time = 408.98 sec. (181169.93 ticks, tree = 392.10 MB, solutions = 8)
  80104 22219     8256.8459   118     8426.0000     8113.1011  7283420    3.71%         X_3_4_8 D  77243  77235     32
  82055 21716     8202.1041   126     8426.0000     8127.5709  7415470    3.54%         X_1_6_8 D  80976  80968     20
  84312 20974     8294.6602   122     8426.0000     8145.2272  7574693    3.33%         X_2_9_8 D  84055  84047     30
  86756 20272     8373.4586    43     8426.0000     8161.4450  7724663    3.14%         X_2_9_1 D  88730  88722     22
  88338 19915        cutoff           8426.0000     8177.5210  7801909    2.95%         X_2_9_6 U  88641   6355     22
  90232 19308        cutoff           8426.0000     8190.7154  7930740    2.79%         X_1_0_9 U  95468  34009     35
  92390 18207        cutoff           8426.0000     8207.1305  8104038    2.60%         X_2_0_9 U  92111  11308     39
  94726 17178     8266.0012   112     8426.0000     8224.1653  8277866    2.40%       Z_3_9_3_3 D  93765  93757     37
  97254 16337     8316.0651    49     8426.0000     8236.6524  8401922    2.25%         X_0_0_6 D  97361  97353     21
  99940 14529        cutoff           8426.0000     8259.5008  8573998    1.98%         X_1_5_7 U  98555  42751     52
Elapsed time = 505.34 sec. (219328.89 ticks, tree = 276.72 MB, solutions = 8)
 102731 13253        cutoff           8426.0000     8278.1935  8691716    1.75%         X_1_4_0 U 101879  28520     51
 105342 11381        cutoff           8426.0000     8299.0344  8851341    1.51%         X_2_9_4 U 104343  29459     43
 108224  9634        cutoff           8426.0000     8317.9023  8994281    1.28%         X_2_0_4 D 107736  92642     36
 111271  7623        cutoff           8426.0000     8340.5004  9125426    1.01%         X_1_2_8 U 112537  40050     38
 114788  4990        cutoff           8426.0000     8368.3730  9261468    0.68%         X_2_8_7 U 113355  23144     39
 119119  1520    infeasible           8426.0000     8405.9878  9374250    0.24%         X_0_2_0 U 117823 117807     35

GUB cover cuts applied:  153
Cover cuts applied:  1896
Flow cuts applied:  93
Mixed integer rounding cuts applied:  130
Zero-half cuts applied:  67
Gomory fractional cuts applied:  2

Root node processing (before b&c):
  Real time             =   67.83 sec. (12375.10 ticks)
Parallel b&c, 8 threads:
  Real time             =  513.55 sec. (232830.74 ticks)
  Sync time (average)   =   67.34 sec.
  Wait time (average)   =    0.00 sec.
                          ------------
Total (root+branch&cut) =  581.38 sec. (245205.84 ticks)
581.390000 
