Instances\Inst10P3Dv_2.csvVersion identifier: 12.10.0.0 | 2019-11-26 | 843d4de2ae
CPXPARAM_Threads                                 8
CPXPARAM_MIP_Strategy_File                       3
CPXPARAM_MIP_Strategy_Probe                      -1
CPXPARAM_TimeLimit                               3600
Lazy constraint(s) or lazy constraint/branch callback is present.
    Disabling dual reductions (CPX_PARAM_REDUCE) in presolve.
    Disabling non-linear reductions (CPX_PARAM_PRELINEAR) in presolve.
    Disabling presolve reductions that prevent crushing forms.
         Disabling repeat represolve because of lazy constraint/incumbent callback.
Dentro lazy
camion 0, TRUE-heu 0.000030
camion 1, TRUE-heu 0.000052
camion 2, TRUE-heu 0.000079
camion 3, TRUE-heu 0.000100
Salgo lazy
1 of 1 MIP starts provided solutions.
MIP start 'm1' defined initial solution with objective 9776.0000.
Tried aggregator 1 time.
MIP Presolve eliminated 532 rows and 232 columns.
MIP Presolve modified 11892 coefficients.
Reduced MIP has 882 rows, 12212 columns, and 106372 nonzeros.
Reduced MIP has 11812 binaries, 0 generals, 0 SOSs, and 0 indicators.
Presolve time = 0.13 sec. (82.40 ticks)
Clique table members: 302.
MIP emphasis: balance optimality and feasibility.
MIP search method: traditional branch-and-cut.
Parallel mode: deterministic, using up to 8 threads.
Root relaxation solution time = 0.25 sec. (265.14 ticks)

        Nodes                                         Cuts/
   Node  Left     Objective  IInf  Best Integer    Best Bound    ItCnt     Gap         Variable B NodeID Parent  Depth

*     0+    0                         9776.0000        0.0000           100.00%
      0     0     4196.7411   257     9776.0000     4196.7411       17   57.07%
      0     0     5074.9096   257     9776.0000      Cuts: 91     3808   48.09%
      0     0     5226.2115   257     9776.0000     Cuts: 130     4636   46.54%
      0     0     5658.3516   257     9776.0000     Cuts: 126     6842   42.12%
      0     0     5673.0025   257     9776.0000     Cuts: 127     9195   41.97%
      0     0     5702.4508   257     9776.0000     Cuts: 127    11991   41.67%
      0     0     5707.3128   257     9776.0000     Cuts: 125    13235   41.62%
      0     0     5714.3346   257     9776.0000      Cuts: 92    15424   41.55%
      0     0     5732.5144   257     9776.0000     Cuts: 138    17221   41.36%
      0     0     5763.8163   257     9776.0000     Cuts: 156    18875   41.04%
      0     0     5800.9385   257     9776.0000     Cuts: 132    20277   40.66%
      0     0     5833.0859   257     9776.0000      Cuts: 88    26086   40.33%
      0     0     5837.2907   257     9776.0000     Cuts: 101    28322   40.29%
      0     0     5866.2232   257     9776.0000      Cuts: 98    30698   39.99%
      0     0     5888.2312   257     9776.0000     Cuts: 150    32071   39.77%
      0     0     5966.5808   257     9776.0000     Cuts: 141    33967   38.97%
      0     0     6019.3050   257     9776.0000     Cuts: 162    38815   38.43%
      0     0     6030.9339   257     9776.0000     Cuts: 142    40229   38.31%
      0     0     6032.0544   257     9776.0000      Cuts: 87    40854   38.30%
      0     0     6047.4476   257     9776.0000      Cuts: 85    43606   38.14%
      0     0     6065.6752   257     9776.0000     Cuts: 132    45722   37.95%
      0     0     6088.0576   257     9776.0000     Cuts: 125    48356   37.72%
      0     0     6088.6125   257     9776.0000     Cuts: 102    48768   37.72%
      0     0     6088.8241   257     9776.0000      Cuts: 45    48955   37.72%
      0     2     6088.8241   396     9776.0000     6088.8241    48955   37.72%                        0             0
Elapsed time = 25.73 sec. (27202.99 ticks, tree = 0.02 MB, solutions = 1)
      1     3     6092.1189   384     9776.0000     6094.1523    49898   37.66%         X_3_6_2 D      8      0      1
      2     3     6810.6437   292     9776.0000     6094.1523    50974   37.66%         X_3_6_2 U      7      0      1
      4     5     7605.9558   142     9776.0000     6094.1523    54274   37.66%        X_1_10_5 U      5      7      2
      8     8     7658.9078   156     9776.0000     6094.1523    55295   37.66%         X_3_0_6 D     21     13      4
     17    14     7801.8405   137     9776.0000     6114.9326    60477   37.45%         X_3_9_8 D     37     29      6
     25    16     7873.0728   110     9776.0000     6114.9326    60881   37.45%         X_1_0_7 D     53     45      8
     32    17     6852.8446   382     9776.0000     6129.0553    61923   37.31%         X_3_0_6 D     31     23      4
     37    27     8391.8734   108     9776.0000     6129.0553    62931   37.31%         X_0_7_8 D     99     91     13
     49    38     8005.1039    92     9776.0000     6129.0553    65829   37.31%         X_0_7_3 D     85     69     11
     72    59     8628.6037   106     9776.0000     6129.0553    78780   37.31%         X_0_7_9 U    125    109     15
Elapsed time = 31.66 sec. (31844.03 ticks, tree = 0.31 MB, solutions = 1)
    104    84     6881.9826   376     9776.0000     6129.0553    92902   37.31%         X_3_9_8 D     55     39      6
    122    93     6905.2570   394     9776.0000     6142.9215    97927   37.16%         X_0_2_8 D     95     87     11
    142   114     7278.0860   212     9776.0000     6142.9215   116884   37.16%         X_0_7_2 D    379    371      9
    163    73     6293.0791   391     9776.0000     6142.9215    92653   37.16%         X_0_7_0 N    165      6      3
    179   149     6970.7322   376     9776.0000     6142.9215   142493   37.16%         X_3_2_0 D    135    127     14
    208   156     6327.3684   355     9776.0000     6142.9215   150205   37.16%         X_0_5_0 D     36     28      6
    229   200     7137.0549   370     9776.0000     6142.9215   176922   37.16%         X_3_3_0 D    255    247     27
    256   217     7462.4190   309     9776.0000     6142.9215   186706   37.16%         X_0_7_4 D    314    306     19
    281   232        cutoff           9776.0000     6142.9215   204244   37.16%         X_0_7_4 D    192    176     20
    307   231     6541.9605   308     9776.0000     6142.9215   194445   37.16%         X_0_8_9 U    325    309     19
Elapsed time = 47.00 sec. (42035.90 ticks, tree = 1.47 MB, solutions = 1)
    335   293     6413.0301   329     9776.0000     6142.9215   241893   37.16%         X_3_0_8 D    180    172     24
    366   317     7715.2600   293     9776.0000     6142.9215   255508   37.16%         X_3_7_9 D    431    415     43
    399   296     7793.3288   244     9776.0000     6142.9215   247679   37.16%         X_3_7_0 D    270    254     29
    437   355     8793.1148   267     9776.0000     6142.9215   280754   37.16%         X_0_1_0 D    482    466     36
    465   361     6956.4703   360     9776.0000     6142.9215   290209   37.16%         X_0_0_6 U    437    413     30
    494   361     8845.9409   328     9776.0000     6142.9215   285542   37.16%         X_1_6_2 D    530    522     42
    542   433     7325.5418   337     9776.0000     6142.9215   330593   37.16%         X_3_0_9 D    392    384     41
    605   463     8206.0049   264     9776.0000     6142.9215   359062   37.16%         X_3_6_0 D    454    446     47
    640   469     6571.5674   334     9776.0000     6142.9215   353612   37.16%         X_3_3_6 D    436    428     53
    691   565     8485.6939   271     9776.0000     6142.9215   401113   37.16%         X_0_8_6 D    971    963     43
Elapsed time = 61.88 sec. (51988.39 ticks, tree = 5.23 MB, solutions = 1)
    746   583     6950.1598   297     9776.0000     6142.9215   415666   37.16%         X_3_6_0 D    709    701     59
    833   684     6614.1775   252     9776.0000     6142.9215   466859   37.16%         X_2_0_5 D    532    524     63
    878   602     7229.0127   323     9776.0000     6142.9215   439338   37.16%         X_0_7_9 D    938    930     19
    904   692     6727.8631   353     9776.0000     6142.9215   470722   37.16%         X_3_6_0 D    596    588     71
    972   710     7010.1245   237     9776.0000     6142.9215   486036   37.16%         X_3_5_0 D    853    845     73
   1069   847     8033.7760   179     9776.0000     6142.9215   544829   37.16%         X_0_8_6 U   1209   1201     42
   1146   875     8450.9750   190     9776.0000     6142.9215   547536   37.16%         X_2_9_7 D   1433   1425     66
   1222   897     7452.8896   310     9776.0000     6142.9215   582865   37.16%         X_3_6_0 D   1146   1138     16
   1260  1086     7805.4153   218     9776.0000     6142.9215   629727   37.16%         X_1_0_8 D   1431   1415     87
   1294   990     6667.5084   359     9776.0000     6142.9215   604667   37.16%         X_0_7_8 D   2035   2027     17
Elapsed time = 76.45 sec. (61756.97 ticks, tree = 10.25 MB, solutions = 1)
   1347  1170     6889.8348   371     9776.0000     6142.9215   690800   37.16%         X_0_2_7 D   1625   1617     13
   1390  1183     6940.0807   303     9776.0000     6142.9215   693687   37.16%         X_3_8_3 D   1729   1721     26
   1426  1225     8381.1634   263     9776.0000     6142.9215   712093   37.16%         X_0_9_5 D   1466   1458     56
   1485  1300     7250.9103   267     9776.0000     6142.9215   748248   37.16%         X_1_2_6 D   1945   1937     52
   1550  1302     7595.0078   169     9776.0000     6142.9215   761563   37.16%        X_1_0_10 D   1277   1269    120
   1622  1439     7546.0265   272     9776.0000     6142.9215   816802   37.16%         X_3_7_2 D   2169   2161     80
   1673  1355     8865.3564   221     9776.0000     6142.9215   789112   37.16%         X_3_8_4 D   1794   1786     97
   1732  1543     9605.7307   186     9776.0000     6142.9215   866695   37.16%         X_3_0_1 D   1606   1590     80
   1775  1545     7388.4810   184     9776.0000     6159.6587   870535   36.99%         X_1_7_0 D   1638   1630      6
   1828  1518     7831.6961   246     9776.0000     6159.6587   859680   36.99%         X_3_7_3 D   2050   2042     30
Elapsed time = 90.64 sec. (71515.82 ticks, tree = 16.87 MB, solutions = 1)
   1947  1671     7522.8878   219     9776.0000     6159.6587   942915   36.99%         X_3_8_0 D   1750   1742     20
   2008  1689     9546.9211   168     9776.0000     6159.6587   965008   36.99%              Y2 U   1573   1565    149
   2074  1702     9155.9019   209     9776.0000     6159.6587   975344   36.99%         X_0_0_9 D   2409   2401    110
   2121  1826     6995.2580   314     9776.0000     6159.6587  1016990   36.99%         X_1_0_7 U   2104    181      6
   2175  1960     8657.3161   210     9776.0000     6159.6587  1077904   36.99%        X_3_10_3 D   2386   2378     72
   2287  1982     9223.0089   113     9776.0000     6159.6587  1071976   36.99%         X_2_2_4 D   1620   1612    185
   2334  1977     8145.0631   186     9776.0000     6299.8442  1091669   35.56%         X_3_8_0 D   2264   2256     26
   2422  2023     8636.5549   164     9776.0000     6302.4887  1111664   35.53%         X_2_1_3 D   2262   2254     84
   2503  2165     9014.3272   127     9776.0000     6313.8871  1166893   35.41%         X_2_8_3 D   2376   2368     40
   2636  2200     6782.9921   315     9776.0000     6313.8871  1186199   35.41%         X_3_2_8 U   2390    189      7
Elapsed time = 105.56 sec. (81235.38 ticks, tree = 25.60 MB, solutions = 1)
   2703  2371     9195.4155   308     9776.0000     6313.8871  1240295   35.41%         X_3_0_7 D   2841   2825     40
Dentro lazy
camion 0, TRUE-heu 0.000140
camion 2, TRUE-heu 0.000171
camion 3, TRUE-heu 0.000211
Salgo lazy
   2765  2398     8281.0768    97     9776.0000     6313.8871  1252106   35.41%        X_1_4_10 U   2592   2584     21
*  2767+ 2217                         8479.0000     6313.8871            25.54%
Dentro lazy
camion 0, TRUE-heu 0.000246
camion 1, TRUE-heu 0.000283
camion 2, TRUE-heu 0.000313
Salgo lazy
   2902  1604     7499.0249   225     8479.0000     6325.5784  1272746   25.40%              Y2 U   2582   2574      9
   2940  1662     7455.9994   221     8479.0000     6326.9200  1307895   25.38%         X_2_3_0 D   3767   3759      9
Dentro lazy
camion 0, TRUE-heu 0.000348
camion 1, FALSE-heu 0.000
Version identifier: 12.10.0.0 | 2019-11-26 | 843d4de2ae
CPXPARAM_Threads                                 12
CPXPARAM_MIP_Strategy_Probe                      -1
CPXPARAM_Emphasis_MIP                            1
Tried aggregator 2 times.
MIP Presolve eliminated 542 rows and 34 columns.
MIP Presolve modified 6115 coefficients.
Aggregator did 2 substitutions.
Reduced MIP has 1071 rows, 973 columns, and 35195 nonzeros.
Reduced MIP has 973 binaries, 0 generals, 0 SOSs, and 0 indicators.
Presolve time = 0.14 sec. (139.05 ticks)
Tried aggregator 1 time.
Detecting symmetries...
Reduced MIP has 1071 rows, 973 columns, and 35195 nonzeros.
Reduced MIP has 973 binaries, 0 generals, 0 SOSs, and 0 indicators.
Presolve time = 0.03 sec. (34.84 ticks)
Clique table members: 1008.
MIP emphasis: integer feasibility.
MIP search method: dynamic search.
Parallel mode: deterministic, using up to 12 threads.
Root relaxation solution time = 0.03 sec. (20.35 ticks)

        Nodes                                         Cuts/
   Node  Left     Objective  IInf  Best Integer    Best Bound    ItCnt     Gap

      0     0        0.0000   113                      0.0000      254         
*     0+    0                            0.0000        0.0000             0.00%
      0     0        cutoff              0.0000        0.0000      254    0.00%
Elapsed time = 0.59 sec. (461.54 ticks, tree = 0.01 MB, solutions = 1)

Root node processing (before b&c):
  Real time             =    0.61 sec. (461.69 ticks)
Parallel b&c, 12 threads:
  Real time             =    0.00 sec. (0.00 ticks)
  Sync time (average)   =    0.00 sec.
  Wait time (average)   =    0.00 sec.
                          ------------
Total (root+branch&cut) =    0.61 sec. (461.69 ticks)
0.625000 
TRUE-modelo
camion 3, TRUE-heu 0.000418
Salgo lazy
   3016  1676     7829.9815   273     8479.0000     6326.9200  1341933   25.38%         X_2_5_4 D   3112   3104     17
*  3039  1690      integral     0     8477.0000     6326.9200  1350981   25.36%
   3091  1739     8032.2324   270     8477.0000     6337.9892  1376177   25.23%         X_3_7_4 D   2485   2477     26
   3138  1772     7077.8001   266     8477.0000     6337.9954  1410736   25.23%         X_3_0_5 D   2220   2212     16
   3204  1840     7903.6540   290     8477.0000     6337.9954  1431823   25.23%         X_2_0_5 D   3329   3321     23
   3315  1869     7416.8580   172     8477.0000     6365.4520  1452221   24.91%         X_0_7_3 D   2701   2693     16
   3360  1871        cutoff           8477.0000     6365.4520  1456322   24.91%         X_3_2_3 U   2733   2717     18
Elapsed time = 121.72 sec. (90966.61 ticks, tree = 21.36 MB, solutions = 4)
   3445  2002     8384.9394   257     8477.0000     6377.2436  1528160   24.77%         X_2_9_6 D   3294   3286     34
   3526  2063     7518.3212   230     8477.0000     6377.2436  1562403   24.77%              Y1 D   3874   3866     22
   3593  2091     8065.2447   265     8477.0000     6377.2436  1577945   24.77%         X_2_0_2 D   4431   4423     33
   3656  2197     7654.1945   267     8477.0000     6396.2778  1636878   24.55%         X_2_0_4 D   4018   4010     30
   3731  2212     7025.6876   390     8477.0000     6396.2778  1652672   24.55%         X_3_0_3 U   3779    124     18
   3800  2282     8326.9205   249     8477.0000     6401.4655  1687968   24.48%         X_3_0_5 D   3929   3921     24
   3880  2347     6635.2666   316     8477.0000     6401.4655  1722587   24.48%         X_0_7_2 U   3995    120     14
   3926  2410     8102.3508   238     8477.0000     6413.9479  1770759   24.34%         X_3_6_0 D   4200   4192     18
Dentro lazy
camion 0, TRUE-heu 0.000452
camion 1, TRUE-heu 0.000485
camion 3, TRUE-heu 0.000522
Salgo lazy
   3973  2336     7042.4669   395     8477.0000     6413.9479  1718689   24.34%         X_3_0_3 U   4378    301     18
*  3978+ 2429                         8303.0000     6413.9479            22.75%
   4040  2244     7995.0967   177     8303.0000     6444.5241  1846754   22.38%         X_2_8_6 D   3116   3108     45
Elapsed time = 136.72 sec. (100712.44 ticks, tree = 26.49 MB, solutions = 5)
   4110  2447     7204.7534   387     8303.0000     6444.5241  1795406   22.38%         X_3_7_3 U   3806    128     14
   4152  2224     8173.6690    39     8303.0000     6444.5241  1843705   22.38%         X_3_9_6 D   4321   4313     41
   4239  2266     7974.5053   182     8303.0000     6460.6981  1876804   22.19%         X_2_7_0 U   3910   3902     38
   4297  2322     7606.3916   242     8303.0000     6460.6981  1912230   22.19%         X_3_0_5 D   3637   3629     17
   4366  2432     7684.8795   214     8303.0000     6486.4291  1978184   21.88%         X_3_0_2 D   4395   4387     27
   4432  2446     8097.8077   185     8303.0000     6501.7980  1993860   21.69%              Y2 U   4882   4874     44
   4482  2426     8301.2131   231     8303.0000     6504.4443  1975683   21.66%         X_3_0_6 U   4246   4238     33
   4539  2543     8033.4191   307     8303.0000     6520.5518  2055321   21.47%         X_3_0_9 D   4928   4920     22
   4601  2616     8053.3894   274     8303.0000     6563.8525  2110268   20.95%         X_2_8_3 D   5527   5519     38
   4664  2558     6716.3154   287     8303.0000     6568.4644  2072478   20.89%         X_0_8_6 N   4723    508     61
Elapsed time = 151.45 sec. (110670.22 ticks, tree = 30.93 MB, solutions = 5)
   4717  2678     8292.2849   283     8303.0000     6585.3088  2189693   20.69%         X_3_0_3 U   4793   4777     27
   4772  2698        cutoff           8303.0000     6597.7428  2215420   20.54%         X_3_0_1 U   3876   3860     31
   4839  2721     7282.4632   259     8303.0000     6598.9782  2243882   20.52%              Y2 D   4021   4013     10
   4907  2727     7735.0145   169     8303.0000     6601.7506  2276993   20.49%         X_3_3_0 D   4969   4961     35
   4962  2794     8223.8396   236     8303.0000     6617.2116  2330075   20.30%        X_1_10_4 D   5911   5903     26
   5012  2741     7763.2163   233     8303.0000     6627.8684  2277839   20.18%         X_0_7_6 D   5107   5099     27
   5069  2797        cutoff           8303.0000     6646.9041  2347382   19.95%         X_3_0_7 U   4149   4133     14
   5116  2867     6719.6857   260     8303.0000     6667.5451  2425834   19.70%         X_0_7_2 N   4044   2882     21
   5182  2856     7515.7373   268     8303.0000     6667.5451  2402682   19.70%         X_1_0_7 U   5818    102     14
   5446  3016     8270.4000    92     8303.0000     6760.6158  2576355   18.58%         X_1_0_5 D   5419   5411     19
Elapsed time = 170.98 sec. (123214.62 ticks, tree = 37.82 MB, solutions = 5)
   5698  3178     7933.0004   242     8303.0000     6818.7529  2736820   17.88%         X_3_0_5 D   5438   5430     17
   5932  3218     7833.7425   182     8303.0000     6835.1934  2775522   17.68%         X_3_0_9 D   4700   4692     57
   6123  3344     7844.4560   219     8303.0000     6882.0802  2930759   17.11%              Y1 U   7111   7095     14
   6301  3441     7926.9283   180     8303.0000     6909.7108  3075843   16.78%        X_3_10_0 D   6195   6187     28
   6483  3525     7373.5971   293     8303.0000     6936.3653  3224567   16.46%         X_3_4_8 N   5797    183     20
Dentro lazy
camion 0, TRUE-heu 0.000554
camion 1, TRUE-heu 0.000596
camion 3, TRUE-heu 0.000631
Salgo lazy
*  6689+ 3616                         8192.0000     6952.8278            15.13%
   6728  3623     8191.2137   265     8192.0000     6953.3153  3336938   15.12%         X_3_0_6 D   5965   5957     17
   6903  3377     8153.3998   260     8192.0000     6959.2458  3405998   15.05%         X_2_7_0 D   7065   7049     30
   7087  3458     7692.7582   219     8192.0000     6986.1821  3600687   14.72%         X_2_0_4 D   7600   7592     21
   7318  3522     7066.4735   260     8192.0000     7023.2046  3703863   14.27%         X_3_0_2 D   6525   6517     24
   7551  3579     7325.9433   203     8192.0000     7038.9739  3791162   14.08%         X_3_0_2 D   7825   7817     20
Elapsed time = 233.17 sec. (161710.20 ticks, tree = 48.25 MB, solutions = 6)
   7793  3660        cutoff           8192.0000     7052.0428  3880289   13.92%         X_3_9_0 D   8088   8080     26
   8084  3799     8116.1911   235     8192.0000     7061.0728  4017666   13.81%         X_3_6_9 D   8400   8392     34
   8285  3970        cutoff           8192.0000     7081.6512  4162964   13.55%         X_3_5_2 U   8930    877     77
   8526  4103     8102.5248   196     8192.0000     7094.8061  4357959   13.39%         X_3_0_4 U   9615   2661     12
   8796  4130     7791.8188   296     8192.0000     7115.6238  4461576   13.14%         X_0_4_6 U   8803   1004    116
   9061  4301     7554.1996   153     8192.0000     7137.4556  4624903   12.87%         X_3_0_8 D   9472   9464     26
   9372  4406     7745.7109   238     8192.0000     7155.9488  4792191   12.65%         X_3_6_0 D  10639  10631     32
   9648  4426     7478.1041   351     8192.0000     7174.2104  4810273   12.42%         X_0_1_9 U  10983   1889     46
   9859  4643        cutoff           8192.0000     7191.8140  5038031   12.21%         X_3_3_0 D   9325   9317     34
  10096  4657        cutoff           8192.0000     7211.3340  5084578   11.97%         X_3_3_0 D  10890  10882     25
Elapsed time = 293.34 sec. (200119.53 ticks, tree = 69.09 MB, solutions = 6)
Dentro lazy
camion 0, TRUE-heu 0.000672
camion 1, FALSE-heu 0.001
Version identifier: 12.10.0.0 | 2019-11-26 | 843d4de2ae
CPXPARAM_Threads                                 12
CPXPARAM_MIP_Strategy_Probe                      -1
CPXPARAM_Emphasis_MIP                            1
Tried aggregator 2 times.
MIP Presolve eliminated 543 rows and 34 columns.
MIP Presolve modified 2807 coefficients.
Aggregator did 2 substitutions.
Reduced MIP has 1070 rows, 973 columns, and 34731 nonzeros.
Reduced MIP has 973 binaries, 0 generals, 0 SOSs, and 0 indicators.
Presolve time = 0.13 sec. (136.94 ticks)
Tried aggregator 1 time.
Detecting symmetries...
Reduced MIP has 1070 rows, 973 columns, and 34731 nonzeros.
Reduced MIP has 973 binaries, 0 generals, 0 SOSs, and 0 indicators.
Presolve time = 0.05 sec. (35.08 ticks)
Clique table members: 1008.
MIP emphasis: integer feasibility.
MIP search method: dynamic search.
Parallel mode: deterministic, using up to 12 threads.

Root node processing (before b&c):
  Real time             =    0.25 sec. (256.86 ticks)
Parallel b&c, 12 threads:
  Real time             =    0.00 sec. (0.00 ticks)
  Sync time (average)   =    0.00 sec.
  Wait time (average)   =    0.00 sec.
                          ------------
Total (root+branch&cut) =    0.25 sec. (256.86 ticks)
0.250000 
TRUE-modelo
camion 3, TRUE-heu 0.000731
Salgo lazy
* 10291  4743      integral     0     8176.0000     7226.0286  5236700   11.62%
  10312  4668     7756.9720   239     8176.0000     7226.0286  5324234   11.62%         X_2_5_4 D  11194  11186     25
Dentro lazy
camion 0, TRUE-heu 0.000765
camion 1, TRUE-heu 0.000812
camion 3, TRUE-heu 0.000840
Salgo lazy
  10590  4717        cutoff           8176.0000     7245.3385  5410931   11.38%         X_3_8_4 U  11169    296     31
* 10593+ 4728                         8168.0000     7245.3385            11.30%
  10847  4767     8095.9801   291     8168.0000     7269.9388  5603568   10.99%              Y2 U  11352  11336     14
  11066  4770     8071.1782   198     8168.0000     7287.2104  5620813   10.78%         X_2_5_4 D  11504  11496     18
  11265  4837     7398.5516   274     8168.0000     7304.0245  5752925   10.58%         X_0_7_0 N  11179    258     14
  11496  4883     7927.5876   254     8168.0000     7323.6028  5957452   10.34%         X_2_0_4 D  11880  11872     16
  11719  4907        cutoff           8168.0000     7339.1808  6068081   10.15%         X_3_6_0 U  12490   7230     24
  11949  4952        cutoff           8168.0000     7359.0173  6195650    9.90%        X_3_0_10 U  10300   3420     31
  12195  4992        cutoff           8168.0000     7377.0816  6319443    9.68%         X_3_3_0 U  12544   2636     25
  12451  4979     7626.4753   242     8168.0000     7392.6429  6392707    9.49%         X_3_0_8 D  10828  10820     15
Elapsed time = 356.00 sec. (238416.68 ticks, tree = 78.84 MB, solutions = 8)
  12768  5070     8073.0793   237     8168.0000     7409.5488  6529004    9.29%        X_3_0_10 D  14431  14423     18
  13009  5114     8050.6923   243     8168.0000     7417.7736  6725983    9.18%         X_2_0_5 D  11332  11324     31
  13307  5105     7874.0376   273     8168.0000     7439.5190  6780958    8.92%        X_3_0_10 D  12741  12733     27
  13575  5151     7848.6138   190     8168.0000     7459.4847  6943851    8.67%         X_3_0_2 D  12502  12494     35
  13848  5184        cutoff           8168.0000     7484.7172  7055842    8.37%         X_3_0_1 U  14305  14289     33
  14125  5127     8034.7574   226     8168.0000     7515.8225  7269276    7.98%         X_3_6_9 D  14625  14617     39
  14435  5076     7881.2668   263     8168.0000     7533.2969  7430498    7.77%         X_3_0_5 D  14913  14905      8
  14768  5080        cutoff           8168.0000     7550.5058  7503392    7.56%         X_3_0_7 U  14045   5305     10
  15072  5100     7943.3507   202     8168.0000     7600.9235  7633927    6.94%         X_2_6_7 D  13500  13484     37
  15417  5060     7916.3437   288     8168.0000     7616.9654  7818451    6.75%         X_2_3_7 D  14518  14510     44
Elapsed time = 419.33 sec. (276735.85 ticks, tree = 87.66 MB, solutions = 8)
  15747  5024        cutoff           8168.0000     7650.4221  7930526    6.34%         X_3_3_0 D  15872  15864     26
  16096  5024        cutoff           8168.0000     7687.6249  8017404    5.88%              Y1 U  14444  14482     86
  16422  5037     7859.8888   189     8168.0000     7704.0972  8076246    5.68%         X_2_7_0 N  15718  13212     18
  16755  5006     7960.4069   184     8168.0000     7731.2049  8254122    5.35%        X_3_0_10 D  16102  16094     30
  17082  5002     8085.0000    42     8168.0000     7751.2021  8342908    5.10%        X_3_10_8 D  17601  17593     31
  17441  4951     7995.1130   154     8168.0000     7772.5920  8596396    4.84%        X_1_0_10 D  17296  17288     17
  17784  4890     8098.2127    52     8168.0000     7801.2800  8738754    4.49%         X_2_7_0 D  16997  16989     18
  18144  4850        cutoff           8168.0000     7803.2041  8826742    4.47%              Y1 U  17405  11245     49
  18481  4807     8135.2120   141     8168.0000     7840.4146  8956173    4.01%         X_2_2_7 D  19522  19514     21
  18854  4703     8119.2502   249     8168.0000     7861.4521  9080605    3.75%         X_3_0_9 U  18318   9951     13
Elapsed time = 485.09 sec. (314966.83 ticks, tree = 89.03 MB, solutions = 8)
  19260  4509     8035.6393   212     8168.0000     7874.8669  9203067    3.59%         X_1_0_8 N  20975   3025     19
  19743  4298        cutoff           8168.0000     7904.7842  9332442    3.22%        X_3_10_0 U  20906   9799     16
  20177  4081     8163.3333   132     8168.0000     7925.6909  9449620    2.97%         X_3_8_0 U  21458  21442     17
  20664  3762        cutoff           8168.0000     7947.1346  9583092    2.70%         X_2_0_2 U  19308  19967     33
  21250  3378        cutoff           8168.0000     7981.4138  9719140    2.28%         X_3_6_0 U  20605  14727     32
  21823  3097        cutoff           8168.0000     7995.7047  9814029    2.11%         X_2_0_5 U  21696  11030     31
  22593  2548        cutoff           8168.0000     8031.1421  9959313    1.68%        X_3_10_9 U  22029  22013     27
  23503  1908        cutoff           8168.0000     8070.4538 10081710    1.19%         X_2_8_4 U  22694  22678     33
  24683  1061        cutoff           8168.0000     8105.2346 10206531    0.77%         X_3_2_0 U  26458  11225     35

GUB cover cuts applied:  169
Cover cuts applied:  2297
Flow cuts applied:  45
Mixed integer rounding cuts applied:  122
Zero-half cuts applied:  55
Gomory fractional cuts applied:  2

Root node processing (before b&c):
  Real time             =   25.31 sec. (26895.28 ticks)
Parallel b&c, 8 threads:
  Real time             =  532.16 sec. (325060.94 ticks)
  Sync time (average)   =   51.50 sec.
  Wait time (average)   =    0.00 sec.
                          ------------
Total (root+branch&cut) =  557.47 sec. (351956.22 ticks)
557.485000 
