GAP:; 0.00;  F.O:; 8473.00; Tiempo:;923.02; 
ROUTING 
X0;0;7;681.00 
X0;7;1;671.00 
X0;1;3;361.00 
X0;3;0;987.00 
ruta 0;2700.00 
X1;0;8;861.00 
X1;8;6;80.00 
X1;6;2;34.00 
X1;2;7;543.00 
X1;7;0;681.00 
ruta 1;4899.00 
X2;0;9;1044.00 
X2;9;4;538.00 
X2;4;10;255.00 
X2;10;5;206.00 
X2;5;0;1531.00 
ruta 2;8473.00 
PACKING 
Z0 3 2 5 	 1765.00 
Z0 3 3 6 	 1648.00 
Z0 3 0 7 	 1685.00 
Z0 1 5 8 	 1359.00 
Z0 1 2 9 	 1245.00 
Z0 1 4 10 	 413.00 
Z0 7 1 11 	 1049.00 
Z0 7 5 12 	 1281.00 
Z0 3 1 21 	 1743.00 
Z0 3 5 22 	 1650.00 
Z0 3 4 23 	 1668.00 
Z0 1 1 24 	 1730.00 
Z0 1 0 25 	 1143.00 
Z0 1 3 26 	 493.00 
Z0 7 3 27 	 1144.00 
Z0 7 0 28 	 348.00 
truck weigth 0: 20364.00 axle 1: 10423.30 axle2: 9940.70 media kg/km:7.54
Z1 7 2 3 	 564.00 
Z1 2 0 4 	 857.00 
Z1 2 5 5 	 641.00 
Z1 2 3 6 	 1507.00 
Z1 6 0 7 	 632.00 
Z1 6 4 8 	 956.00 
Z1 6 1 9 	 1828.00 
Z1 8 5 10 	 719.00 
Z1 8 1 11 	 951.00 
Z1 8 0 12 	 1652.00 
Z1 7 4 19 	 1733.00 
Z1 2 1 20 	 270.00 
Z1 2 2 21 	 755.00 
Z1 2 4 22 	 1587.00 
Z1 6 3 23 	 308.00 
Z1 6 5 24 	 960.00 
Z1 6 2 25 	 1785.00 
Z1 8 4 26 	 267.00 
Z1 8 3 27 	 856.00 
Z1 8 2 28 	 1436.00 
truck weigth 1: 20264.00 axle 1: 10425.57 axle2: 9838.43 media kg/km:9.22
Z2 5 4 2 	 1044.00 
Z2 5 2 3 	 215.00 
Z2 5 0 4 	 1368.00 
Z2 10 4 5 	 830.00 
Z2 10 2 6 	 853.00 
Z2 10 0 7 	 381.00 
Z2 4 4 8 	 332.00 
Z2 4 2 9 	 235.00 
Z2 4 0 10 	 315.00 
Z2 9 4 11 	 1170.00 
Z2 9 2 12 	 1147.00 
Z2 9 0 13 	 1619.00 
Z2 5 5 18 	 1040.00 
Z2 5 3 19 	 1692.00 
Z2 5 1 20 	 172.00 
Z2 10 5 21 	 1215.00 
Z2 10 3 22 	 751.00 
Z2 10 1 23 	 1275.00 
Z2 4 5 24 	 350.00 
Z2 4 3 25 	 352.00 
Z2 4 1 26 	 257.00 
Z2 9 5 27 	 785.00 
Z2 9 3 28 	 1249.00 
Z2 9 1 29 	 725.00 
truck weigth 2: 19372.00 axle 1: 10408.67 axle2: 8963.33 media kg/km:5.42
