GAP:; 0.00;  F.O:; 8442.00; Tiempo:;1333.58; 
ROUTING 
X0;0;2;918.00 
X0;2;3;243.00 
X0;3;1;361.00 
X0;1;7;671.00 
X0;7;0;681.00 
ruta 0;2874.00 
X1;0;8;861.00 
X1;8;4;575.00 
X1;4;10;255.00 
X1;10;5;206.00 
X1;5;0;1531.00 
ruta 1;6302.00 
X2;0;8;861.00 
X2;8;9;184.00 
X2;9;2;151.00 
X2;2;6;34.00 
X2;6;0;910.00 
ruta 2;8442.00 
PACKING 
Z0 7 8 0 	 461.00 
Z0 7 6 1 	 411.00 
Z0 7 4 2 	 950.00 
Z0 7 2 3 	 779.00 
Z0 7 0 4 	 498.00 
Z0 1 7 5 	 350.00 
Z0 1 5 6 	 808.00 
Z0 1 3 7 	 618.00 
Z0 1 1 8 	 418.00 
Z0 3 8 9 	 683.00 
Z0 3 6 10 	 949.00 
Z0 3 4 11 	 810.00 
Z0 3 2 12 	 630.00 
Z0 3 0 13 	 556.00 
Z0 2 3 14 	 682.00 
Z0 2 0 15 	 453.00 
Z0 7 7 17 	 757.00 
Z0 7 5 18 	 876.00 
Z0 7 3 19 	 718.00 
Z0 7 1 20 	 689.00 
Z0 1 8 21 	 482.00 
Z0 1 6 22 	 422.00 
Z0 1 4 23 	 426.00 
Z0 1 2 24 	 446.00 
Z0 1 0 25 	 847.00 
Z0 3 7 26 	 816.00 
Z0 3 5 27 	 356.00 
Z0 3 3 28 	 874.00 
Z0 3 1 29 	 508.00 
Z0 2 7 30 	 950.00 
Z0 2 1 31 	 882.00 
truck weigth 0: 20105.00 axle 1: 10215.11 axle2: 9889.89 media kg/km:7.00
Z1 5 7 1 	 306.00 
Z1 5 5 2 	 830.00 
Z1 5 3 3 	 672.00 
Z1 5 1 4 	 533.00 
Z1 10 8 5 	 563.00 
Z1 10 6 6 	 484.00 
Z1 10 4 7 	 438.00 
Z1 10 2 8 	 856.00 
Z1 10 0 9 	 734.00 
Z1 4 7 10 	 484.00 
Z1 4 5 11 	 944.00 
Z1 4 3 12 	 426.00 
Z1 4 1 13 	 792.00 
Z1 8 7 14 	 543.00 
Z1 8 5 15 	 424.00 
Z1 5 8 17 	 921.00 
Z1 5 6 18 	 311.00 
Z1 5 4 19 	 778.00 
Z1 5 2 20 	 723.00 
Z1 5 0 21 	 939.00 
Z1 10 7 22 	 667.00 
Z1 10 5 23 	 315.00 
Z1 10 3 24 	 442.00 
Z1 10 1 25 	 301.00 
Z1 4 8 26 	 617.00 
Z1 4 6 27 	 351.00 
Z1 4 4 28 	 490.00 
Z1 4 2 29 	 670.00 
Z1 4 0 30 	 744.00 
Z1 8 6 31 	 889.00 
truck weigth 1: 18187.00 axle 1: 9134.31 axle2: 9052.69 media kg/km:5.31
Z2 6 4 1 	 522.00 
Z2 6 6 2 	 989.00 
Z2 6 0 3 	 361.00 
Z2 6 1 4 	 767.00 
Z2 2 5 5 	 492.00 
Z2 2 6 6 	 878.00 
Z2 2 4 7 	 874.00 
Z2 9 8 8 	 737.00 
Z2 9 6 9 	 816.00 
Z2 9 7 10 	 633.00 
Z2 9 4 11 	 862.00 
Z2 9 5 12 	 985.00 
Z2 8 0 13 	 802.00 
Z2 8 8 14 	 839.00 
Z2 8 3 15 	 582.00 
Z2 6 8 17 	 379.00 
Z2 6 5 18 	 470.00 
Z2 6 7 19 	 994.00 
Z2 6 2 20 	 577.00 
Z2 6 3 21 	 628.00 
Z2 2 8 22 	 818.00 
Z2 2 2 23 	 854.00 
Z2 9 1 24 	 999.00 
Z2 9 3 25 	 858.00 
Z2 9 2 26 	 444.00 
Z2 9 0 27 	 566.00 
Z2 8 4 28 	 350.00 
Z2 8 2 29 	 521.00 
Z2 8 1 30 	 611.00 
truck weigth 2: 20208.00 axle 1: 10322.94 axle2: 9885.06 media kg/km:9.44
