GAP:; 0.21;  F.O:; 9567.00; Tiempo:;3724.70; 
ROUTING 
X0;0;6;910.00 
X0;6;2;34.00 
X0;2;3;243.00 
X0;3;1;361.00 
X0;1;0;1311.00 
ruta 0;2859.00 
X1;0;2;918.00 
X1;2;9;151.00 
X1;9;8;184.00 
X1;8;0;861.00 
ruta 1;4973.00 
X2;0;5;1531.00 
X2;5;10;206.00 
X2;10;4;255.00 
X2;4;0;1240.00 
ruta 2;8205.00 
X3;0;7;681.00 
X3;7;0;681.00 
ruta 3;9567.00 
PACKING 
Z0 1 4 3 	 857.00 
Z0 1 2 4 	 1081.00 
Z0 1 0 5 	 919.00 
Z0 3 4 6 	 838.00 
Z0 3 2 7 	 960.00 
Z0 3 0 8 	 1117.00 
Z0 2 4 9 	 1143.00 
Z0 6 4 10 	 844.00 
Z0 6 2 11 	 913.00 
Z0 6 0 12 	 946.00 
Z0 1 5 19 	 899.00 
Z0 1 3 20 	 939.00 
Z0 1 1 21 	 749.00 
Z0 3 5 22 	 1073.00 
Z0 3 3 23 	 916.00 
Z0 3 1 24 	 1174.00 
Z0 2 5 25 	 1101.00 
Z0 6 5 26 	 710.00 
Z0 6 3 27 	 974.00 
Z0 6 1 28 	 1163.00 
truck weigth 0: 19316.00 axle 1: 10232.49 axle2: 9083.51 media kg/km:6.76
Z1 8 4 5 	 1295.00 
Z1 8 2 6 	 1151.00 
Z1 8 0 7 	 934.00 
Z1 9 4 8 	 856.00 
Z1 9 2 9 	 1060.00 
Z1 9 0 10 	 1218.00 
Z1 2 2 11 	 919.00 
Z1 2 0 12 	 1081.00 
Z1 8 5 21 	 1102.00 
Z1 8 3 22 	 1112.00 
Z1 8 1 23 	 957.00 
Z1 9 5 24 	 1113.00 
Z1 9 3 25 	 1042.00 
Z1 9 1 26 	 1105.00 
Z1 2 3 27 	 1061.00 
Z1 2 1 28 	 1251.00 
truck weigth 1: 17257.00 axle 1: 8080.50 axle2: 9176.50 media kg/km:8.16
Z2 4 4 4 	 1162.00 
Z2 4 2 5 	 1040.00 
Z2 4 0 6 	 883.00 
Z2 10 4 7 	 1144.00 
Z2 10 2 8 	 940.00 
Z2 10 0 9 	 782.00 
Z2 5 4 10 	 1156.00 
Z2 5 2 11 	 1087.00 
Z2 5 0 12 	 1054.00 
Z2 4 5 20 	 927.00 
Z2 4 3 21 	 1084.00 
Z2 4 1 22 	 826.00 
Z2 10 5 23 	 887.00 
Z2 10 3 24 	 958.00 
Z2 10 1 25 	 895.00 
Z2 5 5 26 	 1290.00 
Z2 5 3 27 	 1026.00 
Z2 5 1 28 	 837.00 
truck weigth 2: 17978.00 axle 1: 8991.85 axle2: 8986.15 media kg/km:5.56
Z3 7 4 13 	 705.00 
Z3 7 2 14 	 849.00 
Z3 7 0 15 	 1066.00 
Z3 7 5 29 	 898.00 
Z3 7 3 30 	 888.00 
Z3 7 1 31 	 1043.00 
truck weigth 3: 5449.00 axle 1: 480.96 axle2: 4968.04 media kg/km:4.00
