GAP:; 0.00;  F.O:; 8072.00; Tiempo:;70.58; 
ROUTING 
X0;0;7;681.00 
X0;7;1;671.00 
X0;1;3;361.00 
X0;3;0;987.00 
ruta 0;2700.00 
X1;0;2;918.00 
X1;2;6;34.00 
X1;6;9;143.00 
X1;9;8;184.00 
X1;8;0;861.00 
ruta 1;4840.00 
X2;0;5;1531.00 
X2;5;10;206.00 
X2;10;4;255.00 
X2;4;0;1240.00 
ruta 2;8072.00 
PACKING 
Z0 3 5 3 	 760.00 
Z0 3 3 4 	 1778.00 
Z0 3 1 5 	 1336.00 
Z0 1 3 6 	 221.00 
Z0 1 1 7 	 1795.00 
Z0 7 8 8 	 645.00 
Z0 7 6 9 	 1373.00 
Z0 7 4 10 	 829.00 
Z0 7 2 11 	 1538.00 
Z0 7 0 12 	 1816.00 
Z0 3 4 20 	 1240.00 
Z0 3 2 21 	 222.00 
Z0 3 0 22 	 664.00 
Z0 1 2 23 	 1779.00 
Z0 1 0 24 	 205.00 
Z0 7 7 25 	 1355.00 
Z0 7 5 26 	 627.00 
Z0 7 3 27 	 1171.00 
Z0 7 1 28 	 462.00 
truck weigth 0: 19816.00 axle 1: 10137.29 axle2: 9678.71 media kg/km:7.34
Z1 8 2 3 	 1788.00 
Z1 8 1 4 	 961.00 
Z1 9 0 5 	 1651.00 
Z1 6 3 6 	 103.00 
Z1 6 5 7 	 431.00 
Z1 6 0 8 	 1465.00 
Z1 2 7 9 	 1112.00 
Z1 2 1 10 	 999.00 
Z1 2 3 11 	 1216.00 
Z1 2 4 12 	 1561.00 
Z1 8 0 19 	 1039.00 
Z1 8 3 20 	 212.00 
Z1 9 1 21 	 349.00 
Z1 6 1 22 	 535.00 
Z1 6 4 23 	 1569.00 
Z1 6 6 24 	 184.00 
Z1 6 2 25 	 1897.00 
Z1 2 6 26 	 888.00 
Z1 2 0 27 	 1001.00 
Z1 2 2 28 	 784.00 
Z1 2 5 29 	 439.00 
truck weigth 1: 20184.00 axle 1: 10327.38 axle2: 9856.62 media kg/km:9.43
Z2 4 6 3 	 434.00 
Z2 4 0 4 	 1774.00 
Z2 4 5 5 	 897.00 
Z2 4 2 6 	 999.00 
Z2 10 1 7 	 886.00 
Z2 5 8 8 	 129.00 
Z2 5 2 9 	 177.00 
Z2 5 6 10 	 1872.00 
Z2 5 5 11 	 128.00 
Z2 5 3 12 	 1652.00 
Z2 4 1 19 	 226.00 
Z2 4 8 20 	 1482.00 
Z2 4 3 21 	 1001.00 
Z2 4 4 22 	 1103.00 
Z2 4 7 23 	 1566.00 
Z2 10 0 24 	 1114.00 
Z2 5 0 25 	 518.00 
Z2 5 7 26 	 1871.00 
Z2 5 4 27 	 348.00 
Z2 5 1 28 	 1823.00 
truck weigth 2: 20000.00 axle 1: 10375.53 axle2: 9624.47 media kg/km:6.19
