GAP:; 0.00;  F.O:; 6323.00; Tiempo:;9.25; 
ROUTING 
X0;0;1;1311.00 
X0;1;3;361.00 
X0;3;2;243.00 
X0;2;0;918.00 
ruta 0;2833.00 
X1;0;5;1531.00 
X1;5;4;397.00 
X1;4;2;644.00 
X1;2;0;918.00 
ruta 1;6323.00 
PACKING 
Z0 2 1 1 	 995.00 
Z0 2 6 2 	 752.00 
Z0 3 11 3 	 634.00 
Z0 3 8 4 	 433.00 
Z0 3 0 5 	 643.00 
Z0 3 2 6 	 986.00 
Z0 3 3 7 	 996.00 
Z0 3 5 8 	 319.00 
Z0 3 4 9 	 909.00 
Z0 1 3 10 	 570.00 
Z0 1 9 11 	 311.00 
Z0 1 10 12 	 847.00 
Z0 1 6 13 	 548.00 
Z0 1 5 14 	 609.00 
Z0 1 2 15 	 954.00 
Z0 2 7 17 	 678.00 
Z0 2 5 18 	 981.00 
Z0 2 0 19 	 455.00 
Z0 3 6 20 	 354.00 
Z0 3 10 21 	 480.00 
Z0 3 7 22 	 622.00 
Z0 3 1 23 	 305.00 
Z0 3 9 24 	 748.00 
Z0 1 0 25 	 845.00 
Z0 1 7 26 	 396.00 
Z0 1 1 27 	 898.00 
Z0 1 8 28 	 686.00 
Z0 1 11 29 	 489.00 
Z0 1 4 30 	 905.00 
truck weigth 0: 19348.00 axle 1: 9983.02 axle2: 9364.98 media kg/km:6.83
Z1 2 3 0 	 304.00 
Z1 2 9 1 	 552.00 
Z1 2 10 2 	 453.00 
Z1 4 0 3 	 657.00 
Z1 4 1 4 	 453.00 
Z1 4 9 5 	 802.00 
Z1 4 2 6 	 314.00 
Z1 4 11 7 	 536.00 
Z1 4 4 8 	 391.00 
Z1 5 7 9 	 461.00 
Z1 5 2 10 	 730.00 
Z1 5 1 11 	 847.00 
Z1 5 5 12 	 938.00 
Z1 5 11 13 	 764.00 
Z1 5 4 14 	 691.00 
Z1 5 8 15 	 989.00 
Z1 2 4 16 	 395.00 
Z1 2 8 17 	 614.00 
Z1 2 2 18 	 346.00 
Z1 2 11 19 	 666.00 
Z1 4 8 20 	 867.00 
Z1 4 7 21 	 839.00 
Z1 4 3 22 	 616.00 
Z1 4 5 23 	 362.00 
Z1 4 6 24 	 946.00 
Z1 4 10 25 	 820.00 
Z1 5 10 26 	 811.00 
Z1 5 3 27 	 684.00 
Z1 5 9 28 	 498.00 
Z1 5 0 29 	 402.00 
Z1 5 6 30 	 904.00 
truck weigth 1: 19652.00 axle 1: 9925.61 axle2: 9726.39 media kg/km:5.63
