GAP:; 0.00;  F.O:; 6001.00; Tiempo:;0.27; 
ROUTING 
X0;0;1;1311.00 
X0;1;3;361.00 
X0;3;2;243.00 
X0;2;0;918.00 
ruta 0;2833.00 
X1;0;4;1240.00 
X1;4;5;397.00 
X1;5;0;1531.00 
ruta 1;6001.00 
PACKING 
Z0 2 7 3 	 771.00 
Z0 2 5 4 	 792.00 
Z0 2 3 5 	 1559.00 
Z0 2 1 6 	 1370.00 
Z0 3 2 7 	 1748.00 
Z0 3 0 8 	 464.00 
Z0 1 6 9 	 522.00 
Z0 1 4 10 	 431.00 
Z0 1 2 11 	 1173.00 
Z0 1 0 12 	 1336.00 
Z0 2 6 20 	 1229.00 
Z0 2 4 21 	 1208.00 
Z0 2 2 22 	 441.00 
Z0 2 0 23 	 630.00 
Z0 3 1 24 	 1536.00 
Z0 1 7 25 	 1478.00 
Z0 1 5 26 	 1569.00 
Z0 1 3 27 	 827.00 
Z0 1 1 28 	 664.00 
truck weigth 0: 19748.00 axle 1: 10322.08 axle2: 9425.92 media kg/km:6.97
Z1 5 6 10 	 583.00 
Z1 5 4 11 	 274.00 
Z1 5 2 12 	 239.00 
Z1 5 0 13 	 480.00 
Z1 4 2 14 	 284.00 
Z1 4 0 15 	 252.00 
Z1 5 5 27 	 1417.00 
Z1 5 3 28 	 1726.00 
Z1 5 1 29 	 1761.00 
Z1 4 3 30 	 1520.00 
Z1 4 1 31 	 1716.00 
truck weigth 1: 10252.00 axle 1: 1756.28 axle2: 8495.72 media kg/km:3.24
