Instances\Inst15P3Du_3.csvVersion identifier: 12.10.0.0 | 2019-11-26 | 843d4de2ae
CPXPARAM_Threads                                 8
CPXPARAM_MIP_Strategy_File                       3
CPXPARAM_MIP_Strategy_Probe                      -1
CPXPARAM_TimeLimit                               3600
Lazy constraint(s) or lazy constraint/branch callback is present.
    Disabling dual reductions (CPX_PARAM_REDUCE) in presolve.
    Disabling non-linear reductions (CPX_PARAM_PRELINEAR) in presolve.
    Disabling presolve reductions that prevent crushing forms.
         Disabling repeat represolve because of lazy constraint/incumbent callback.
Dentro lazy
camion 0, TRUE-heu 0.000033
camion 1, TRUE-heu 0.000063
camion 2, TRUE-heu 0.000121
Salgo lazy
1 of 1 MIP starts provided solutions.
MIP start 'm1' defined initial solution with objective 8743.0000.
Tried aggregator 1 time.
MIP Presolve eliminated 819 rows and 141 columns.
MIP Presolve modified 6022 coefficients.
Reduced MIP has 1119 rows, 7107 columns, and 58430 nonzeros.
Reduced MIP has 6432 binaries, 0 generals, 0 SOSs, and 0 indicators.
Presolve time = 0.06 sec. (45.62 ticks)
Clique table members: 249.
MIP emphasis: balance optimality and feasibility.
MIP search method: traditional branch-and-cut.
Parallel mode: deterministic, using up to 8 threads.
Root relaxation solution time = 0.19 sec. (180.48 ticks)

        Nodes                                         Cuts/
   Node  Left     Objective  IInf  Best Integer    Best Bound    ItCnt     Gap         Variable B NodeID Parent  Depth

*     0+    0                         8743.0000        0.0000           100.00%
      0     0     4803.3579   190     8743.0000     4803.3579       16   45.06%
      0     0     5423.8700   190     8743.0000      Cuts: 91      686   37.96%
      0     0     5566.8971   190     8743.0000     Cuts: 187     4212   36.33%
      0     0     5812.3194   190     8743.0000     Cuts: 170     6678   33.52%
      0     0     5858.1106   190     8743.0000     Cuts: 106     7551   33.00%
      0     0     5887.6710   190     8743.0000     Cuts: 121     9407   32.66%
      0     0     5918.2506   190     8743.0000     Cuts: 174    10872   32.31%
      0     0     5943.7573   190     8743.0000     Cuts: 158    12309   32.02%
      0     0     5982.2557   190     8743.0000     Cuts: 125    14585   31.58%
      0     0     6080.8887   190     8743.0000      Cuts: 89    16579   30.45%
      0     0     6102.8373   190     8743.0000     Cuts: 131    17835   30.20%
      0     0     6116.0349   190     8743.0000      Cuts: 91    18346   30.05%
      0     0     6135.9173   190     8743.0000     Cuts: 107    18946   29.82%
      0     0     6208.1903   190     8743.0000      Cuts: 96    21064   28.99%
      0     0     6225.4440   190     8743.0000     Cuts: 177    21807   28.80%
      0     0     6234.2554   190     8743.0000     Cuts: 106    22199   28.69%
      0     0     6244.5798   190     8743.0000      Cuts: 86    22490   28.58%
      0     0     6312.9696   190     8743.0000     Cuts: 121    23349   27.79%
      0     0     6338.3147   190     8743.0000     Cuts: 104    23861   27.50%
      0     0     6347.7368   190     8743.0000     Cuts: 136    24173   27.40%
      0     0     6349.1276   190     8743.0000      Cuts: 78    24367   27.38%
      0     0     6349.8429   190     8743.0000      Cuts: 57    24604   27.37%
      0     0     6361.6157   190     8743.0000      Cuts: 67    24984   27.24%
      0     0     6371.6890   190     8743.0000     Cuts: 105    25853   27.12%
      0     0     6373.0840   190     8743.0000     Cuts: 102    26131   27.11%
Dentro lazy
camion 0, TRUE-heu 0.000160
camion 1, TRUE-heu 0.000198
Salgo lazy
*     0+    0                         8257.0000     6373.0840            22.82%
Dentro lazy
camion 0, TRUE-heu 0.000241
camion 1, FALSE-heu 0.000
Version identifier: 12.10.0.0 | 2019-11-26 | 843d4de2ae
CPXPARAM_Threads                                 12
CPXPARAM_MIP_Strategy_Probe                      -1
CPXPARAM_Emphasis_MIP                            1
Tried aggregator 2 times.
MIP Presolve eliminated 13664 rows and 34 columns.
MIP Presolve modified 5461 coefficients.
Aggregator did 2 substitutions.
Reduced MIP has 3787 rows, 941 columns, and 109641 nonzeros.
Reduced MIP has 941 binaries, 0 generals, 0 SOSs, and 0 indicators.
Presolve time = 1.09 sec. (1194.86 ticks)
Tried aggregator 1 time.
Detecting symmetries...
Reduced MIP has 3787 rows, 941 columns, and 109641 nonzeros.
Reduced MIP has 941 binaries, 0 generals, 0 SOSs, and 0 indicators.
Presolve time = 0.20 sec. (153.94 ticks)
Clique table members: 3725.
MIP emphasis: integer feasibility.
MIP search method: dynamic search.
Parallel mode: deterministic, using up to 12 threads.
Root relaxation solution time = 0.28 sec. (149.89 ticks)

        Nodes                                         Cuts/
   Node  Left     Objective  IInf  Best Integer    Best Bound    ItCnt     Gap

      0     0        0.0000   265                      0.0000      702         
*     0+    0                            0.0000        0.0000             0.00%
      0     0        cutoff              0.0000        0.0000     3042    0.00%
Elapsed time = 5.36 sec. (5229.50 ticks, tree = 0.01 MB, solutions = 1)

Clique cuts applied:  277

Root node processing (before b&c):
  Real time             =    5.36 sec. (5229.89 ticks)
Parallel b&c, 12 threads:
  Real time             =    0.00 sec. (0.00 ticks)
  Sync time (average)   =    0.00 sec.
  Wait time (average)   =    0.00 sec.
                          ------------
Total (root+branch&cut) =    5.36 sec. (5229.89 ticks)
5.375000 
TRUE-modelo
Salgo lazy
*     0+    0                         7985.0000     6373.0840            20.19%
Dentro lazy
camion 0, FALSE-heu 0.000
Version identifier: 12.10.0.0 | 2019-11-26 | 843d4de2ae
CPXPARAM_Threads                                 12
CPXPARAM_MIP_Strategy_Probe                      -1
CPXPARAM_Emphasis_MIP                            1
Tried aggregator 2 times.
MIP Presolve eliminated 10505 rows and 34 columns.
MIP Presolve modified 3781 coefficients.
Aggregator did 2 substitutions.
Reduced MIP has 3109 rows, 973 columns, and 90419 nonzeros.
Reduced MIP has 973 binaries, 0 generals, 0 SOSs, and 0 indicators.
Presolve time = 1.36 sec. (1514.59 ticks)
Tried aggregator 1 time.
Detecting symmetries...
Reduced MIP has 3109 rows, 973 columns, and 90419 nonzeros.
Reduced MIP has 973 binaries, 0 generals, 0 SOSs, and 0 indicators.
Presolve time = 0.16 sec. (129.32 ticks)
Clique table members: 3045.
MIP emphasis: integer feasibility.
MIP search method: dynamic search.
Parallel mode: deterministic, using up to 12 threads.
Root relaxation solution time = 0.22 sec. (103.63 ticks)

        Nodes                                         Cuts/
   Node  Left     Objective  IInf  Best Integer    Best Bound    ItCnt     Gap

      0     0        0.0000   207                      0.0000      578         
*     0+    0                            0.0000        0.0000             0.00%
      0     0        cutoff              0.0000        0.0000     1311    0.00%
Elapsed time = 5.27 sec. (4837.62 ticks, tree = 0.01 MB, solutions = 1)

Clique cuts applied:  77

Root node processing (before b&c):
  Real time             =    5.27 sec. (4837.93 ticks)
Parallel b&c, 12 threads:
  Real time             =    0.00 sec. (0.00 ticks)
  Sync time (average)   =    0.00 sec.
  Wait time (average)   =    0.00 sec.
                          ------------
Total (root+branch&cut) =    5.27 sec. (4837.93 ticks)
5.266000 
TRUE-modelo
camion 1, FALSE-heu 0.000
Version identifier: 12.10.0.0 | 2019-11-26 | 843d4de2ae
CPXPARAM_Threads                                 12
CPXPARAM_MIP_Strategy_Probe                      -1
CPXPARAM_Emphasis_MIP                            1
Tried aggregator 2 times.
MIP Presolve eliminated 10276 rows and 34 columns.
MIP Presolve modified 6226 coefficients.
Aggregator did 2 substitutions.
Reduced MIP has 3339 rows, 1037 columns, and 109318 nonzeros.
Reduced MIP has 1037 binaries, 0 generals, 0 SOSs, and 0 indicators.
Presolve time = 1.02 sec. (1106.69 ticks)
Tried aggregator 1 time.
Detecting symmetries...
Reduced MIP has 3339 rows, 1037 columns, and 109318 nonzeros.
Reduced MIP has 1037 binaries, 0 generals, 0 SOSs, and 0 indicators.
Presolve time = 0.19 sec. (156.48 ticks)
Clique table members: 3275.
MIP emphasis: integer feasibility.
MIP search method: dynamic search.
Parallel mode: deterministic, using up to 12 threads.
Root relaxation solution time = 0.34 sec. (202.52 ticks)

        Nodes                                         Cuts/
   Node  Left     Objective  IInf  Best Integer    Best Bound    ItCnt     Gap

      0     0        0.0000   281                      0.0000     1123         
      0     0        0.0000   281                Cliques: 463     3532         
      0     0        0.0000   281                 Cliques: 41     4572         
      0     0        0.0000   281                   Cuts: 143     6211         
Detecting symmetries...
      0     2        0.0000    34                      0.0000     6211         
Elapsed time = 13.23 sec. (11450.46 ticks, tree = 0.02 MB, solutions = 0)
      2     3        0.0000    51                      0.0000     7259         
      4     4        0.0000    76                      0.0000     9530         
    375   129        0.0000    88                      0.0000    20592         
    792   269        0.0000    48                      0.0000    40362         
   1268   314    infeasible                            0.0000    63882         
   1598   283    infeasible                            0.0000    89143         
   1959   306    infeasible                            0.0000   117599         
   2301   362    infeasible                            0.0000   139307         
   2687   331        0.0000    75                      0.0000   161265         
   4104   147        0.0000    70                      0.0000   260480         
Elapsed time = 28.63 sec. (14766.65 ticks, tree = 1.30 MB, solutions = 0)
   5376   128    infeasible                            0.0000   361146         
   6293    48        0.0000    54                      0.0000   436325         
   7131   406        0.0000    38                      0.0000   521774         
   8009   692        0.0000    69                      0.0000   598040         
   9170   764        0.0000    79                      0.0000   679524         
  10155   467        0.0000    65                      0.0000   771445         
  11065   348        0.0000    69                      0.0000   842820         

Performing restart 1

Repeating presolve.
Tried aggregator 1 time.
MIP Presolve eliminated 891 rows and 152 columns.
MIP Presolve modified 2328 coefficients.
Reduced MIP has 2324 rows, 885 columns, and 63181 nonzeros.
Reduced MIP has 885 binaries, 0 generals, 0 SOSs, and 0 indicators.
Presolve time = 0.17 sec. (163.45 ticks)
Tried aggregator 1 time.
MIP Presolve modified 598 coefficients.
Reduced MIP has 2323 rows, 885 columns, and 63104 nonzeros.
Reduced MIP has 885 binaries, 0 generals, 0 SOSs, and 0 indicators.
Presolve time = 0.14 sec. (119.44 ticks)
Represolve time = 0.45 sec. (342.73 ticks)
  11498     0        0.0000   347                    Cuts: 13   900623         
  11498     0        0.0000   347                     Cuts: 9   900797         
  11498     0        0.0000   347                    Cuts: 97   901752         
  11498     2        0.0000    54                      0.0000   901752         
  11815    63        0.0000    90                      0.0000   936040         
  12896   264        0.0000   101                      0.0000  1040531         
Elapsed time = 72.09 sec. (27733.70 ticks, tree = 0.13 MB, solutions = 0)
  13785   346    infeasible                            0.0000  1144354         
  14710   166    infeasible                            0.0000  1278076         
  15646    62    infeasible                            0.0000  1400841         
  16204    32    infeasible                            0.0000  1488881         
  16735    13        0.0000    99                      0.0000  1602364         
  16932     5    infeasible                            0.0000  1661348         
  16961    13        0.0000   223                      0.0000  1674190         
  16991     5        0.0000   197                      0.0000  1691133         

Clique cuts applied:  271
Cover cuts applied:  2
Mixed integer rounding cuts applied:  1
Zero-half cuts applied:  13

Root node processing (before b&c):
  Real time             =   11.25 sec. (11382.22 ticks)
Parallel b&c, 12 threads:
  Real time             =  100.94 sec. (24965.09 ticks)
  Sync time (average)   =   51.39 sec.
  Wait time (average)   =    0.09 sec.
                          ------------
Total (root+branch&cut) =  112.19 sec. (36347.32 ticks)
112.188000 
FALSE-modelo
 Salgo lazy
      0     0  -1.00000e+75     0     7985.0000     6373.0840    26131   20.19%
      0     2     6373.0840   312     7985.0000     6373.0840    26131   20.19%                        0             0
Elapsed time = 146.36 sec. (14850.17 ticks, tree = 0.02 MB, solutions = 3)
      1     3     6416.7830   305     7985.0000     6392.2918    26846   19.95%         X_0_0_7 U      8      0      1
      3     4     6420.5237   296     7985.0000     6392.2918    27334   19.95%        X_0_7_11 D     16      8      2
      5     5     6475.8718   310     7985.0000     6416.8149    28994   19.64%        X_0_14_1 N      5      7      2
     10    12     6479.1756   248     7985.0000     6421.2172    33976   19.58%        X_0_3_11 D     11      3      4
     19    15     6448.4140   298     7985.0000     6421.2172    35531   19.58%       X_1_14_10 D     48     40      6
     27    22     7103.5235   162     7985.0000     6429.5023    42694   19.48%         X_1_0_2 D     26     18      6
     35    16     7054.4190   138     7985.0000     6429.5023    38331   19.48%       X_1_14_10 U     56     40      6
     45    32     6511.2279   248     7985.0000     6429.5023    49851   19.48%         X_2_4_5 D     43     35      8
     56    37     6832.8291   298     7985.0000     6429.5023    56913   19.48%        X_2_1_14 D     28     20      6
    141    84     6901.5066   170     7985.0000     6429.5023    77628   19.48%         X_2_4_5 U    104     88     10
Elapsed time = 151.77 sec. (18939.70 ticks, tree = 0.48 MB, solutions = 3)
    204   173     6700.7563   284     7985.0000     6429.5023   108376   19.48%        X_1_11_1 D    289    281     11
    289   223     6962.3492   273     7985.0000     6429.5023   124254   19.48%        X_0_2_13 D    214    206     25
    412   292     7823.5554   113     7985.0000     6429.5023   139508   19.48%         X_0_2_6 D    356    340     40
    546   440     7046.6584   143     7985.0000     6429.5023   181856   19.48%        X_2_9_10 D    452    436     16
    731   536     6960.3733   249     7985.0000     6429.5023   193621   19.48%         X_0_2_7 D    557    549     62
    968   669     7615.3273    63     7985.0000     6429.5023   214925   19.48%        X_0_13_6 D   1441   1433     44
Dentro lazy
camion 0, FALSE-heu 0.000
Version identifier: 12.10.0.0 | 2019-11-26 | 843d4de2ae
CPXPARAM_Threads                                 12
CPXPARAM_MIP_Strategy_Probe                      -1
CPXPARAM_Emphasis_MIP                            1
Tried aggregator 2 times.
MIP Presolve eliminated 10278 rows and 34 columns.
MIP Presolve modified 5008 coefficients.
Aggregator did 2 substitutions.
Reduced MIP has 3334 rows, 941 columns, and 96957 nonzeros.
Reduced MIP has 941 binaries, 0 generals, 0 SOSs, and 0 indicators.
Presolve time = 0.86 sec. (923.35 ticks)
Tried aggregator 1 time.
Detecting symmetries...
Reduced MIP has 3334 rows, 941 columns, and 96957 nonzeros.
Reduced MIP has 941 binaries, 0 generals, 0 SOSs, and 0 indicators.
Presolve time = 0.16 sec. (137.04 ticks)
Clique table members: 3272.
MIP emphasis: integer feasibility.
MIP search method: dynamic search.
Parallel mode: deterministic, using up to 12 threads.
Root relaxation solution time = 0.33 sec. (115.61 ticks)

        Nodes                                         Cuts/
   Node  Left     Objective  IInf  Best Integer    Best Bound    ItCnt     Gap

      0     0        0.0000   225                      0.0000      629         
*     0+    0                            0.0000        0.0000             0.00%
      0     0        cutoff              0.0000        0.0000     2695    0.00%
Elapsed time = 5.72 sec. (4442.53 ticks, tree = 0.01 MB, solutions = 1)

Clique cuts applied:  266

Root node processing (before b&c):
  Real time             =    5.72 sec. (4442.88 ticks)
Parallel b&c, 12 threads:
  Real time             =    0.00 sec. (0.00 ticks)
  Sync time (average)   =    0.00 sec.
  Wait time (average)   =    0.00 sec.
                          ------------
Total (root+branch&cut) =    5.72 sec. (4442.88 ticks)
5.719000 
TRUE-modelo
camion 1, TRUE-heu 0.000420
Salgo lazy
*  1053   793      integral     0     7821.0000     6429.5023   238159   17.79%
   1151   843     7322.8747    96     7821.0000     6464.1943   247808   17.35%        X_0_2_13 D   1206   1198     18
Dentro lazy
camion 0, TRUE-heu 0.000461
camion 2, TRUE-heu 0.000516
Salgo lazy
*  1277   972      integral     0     7808.0000     6464.1943   272222   17.21%        X_2_12_9 D   1430   1414     45
   1471  1211     7677.0532    74     7808.0000     6487.9583   338463   16.91%        X_0_2_13 U    925    909     26
   1704  1323     7479.2346    41     7808.0000     6512.0083   364032   16.60%         X_0_6_8 D   1680   1672     53
Elapsed time = 173.25 sec. (28267.41 ticks, tree = 10.01 MB, solutions = 5)
   2070  1545     7742.5385   226     7808.0000     6512.0083   398327   16.60%        X_0_13_8 U   1591   1567     64
   2308  1751     7232.1615   254     7808.0000     6520.6735   428178   16.49%        X_2_3_11 D   2101   2093     48
   2569  2070     6859.7648   129     7808.0000     6526.6323   493240   16.41%        X_0_13_8 D   1967   1959     44
   2829  2370     7365.3106   137     7808.0000     6542.0073   535148   16.21%        X_1_5_13 D   2872   2864     50
   3089  2583     7177.5462   124     7808.0000     6558.7801   578737   16.00%         X_2_5_0 D   3168   3160     15
   3346  2784     7547.2589   129     7808.0000     6571.7856   615890   15.83%         X_0_9_0 D   3352   3344     33
Dentro lazy
camion 0, FALSE-heu 0.001
Version identifier: 12.10.0.0 | 2019-11-26 | 843d4de2ae
CPXPARAM_Threads                                 12
CPXPARAM_MIP_Strategy_Probe                      -1
CPXPARAM_Emphasis_MIP                            1
Tried aggregator 2 times.
MIP Presolve eliminated 17929 rows and 34 columns.
MIP Presolve modified 4269 coefficients.
Aggregator did 2 substitutions.
Reduced MIP has 3847 rows, 1069 columns, and 115307 nonzeros.
Reduced MIP has 1069 binaries, 0 generals, 0 SOSs, and 0 indicators.
Presolve time = 2.22 sec. (2094.35 ticks)
Tried aggregator 1 time.
Detecting symmetries...
Reduced MIP has 3847 rows, 1069 columns, and 115307 nonzeros.
Reduced MIP has 1069 binaries, 0 generals, 0 SOSs, and 0 indicators.
Presolve time = 0.23 sec. (163.90 ticks)
Clique table members: 3782.
MIP emphasis: integer feasibility.
MIP search method: dynamic search.
Parallel mode: deterministic, using up to 12 threads.
Root relaxation solution time = 0.52 sec. (219.44 ticks)

        Nodes                                         Cuts/
   Node  Left     Objective  IInf  Best Integer    Best Bound    ItCnt     Gap

      0     0        0.0000   246                      0.0000     1099         
      0     0        0.0000   246                Cliques: 339     3021         
      0     0        cutoff                                       5212         
Elapsed time = 10.02 sec. (9670.22 ticks, tree = 0.01 MB, solutions = 0)

Clique cuts applied:  231

Root node processing (before b&c):
  Real time             =   10.03 sec. (9670.59 ticks)
Parallel b&c, 12 threads:
  Real time             =    0.00 sec. (0.00 ticks)
  Sync time (average)   =    0.00 sec.
  Wait time (average)   =    0.00 sec.
                          ------------
Total (root+branch&cut) =   10.03 sec. (9670.59 ticks)
10.047000 
FALSE-modelo
 Salgo lazy
Dentro lazy
camion 0, FALSE-heu 0.001
Version identifier: 12.10.0.0 | 2019-11-26 | 843d4de2ae
CPXPARAM_Threads                                 12
CPXPARAM_MIP_Strategy_Probe                      -1
CPXPARAM_Emphasis_MIP                            1
Tried aggregator 2 times.
MIP Presolve eliminated 18486 rows and 34 columns.
MIP Presolve modified 4236 coefficients.
Aggregator did 2 substitutions.
Reduced MIP has 3290 rows, 1037 columns, and 109758 nonzeros.
Reduced MIP has 1037 binaries, 0 generals, 0 SOSs, and 0 indicators.
Presolve time = 1.86 sec. (2016.50 ticks)
Tried aggregator 1 time.
Detecting symmetries...
Reduced MIP has 3290 rows, 1037 columns, and 109758 nonzeros.
Reduced MIP has 1037 binaries, 0 generals, 0 SOSs, and 0 indicators.
Presolve time = 0.19 sec. (155.06 ticks)
Clique table members: 3226.
MIP emphasis: integer feasibility.
MIP search method: dynamic search.
Parallel mode: deterministic, using up to 12 threads.

Root node processing (before b&c):
  Real time             =    2.47 sec. (2459.93 ticks)
Parallel b&c, 12 threads:
  Real time             =    0.00 sec. (0.00 ticks)
  Sync time (average)   =    0.00 sec.
  Wait time (average)   =    0.00 sec.
                          ------------
Total (root+branch&cut) =    2.47 sec. (2459.93 ticks)
2.485000 
TRUE-modelo
camion 2, FALSE-heu 0.001
Version identifier: 12.10.0.0 | 2019-11-26 | 843d4de2ae
CPXPARAM_Threads                                 12
CPXPARAM_MIP_Strategy_Probe                      -1
CPXPARAM_Emphasis_MIP                            1
Tried aggregator 2 times.
MIP Presolve eliminated 10278 rows and 34 columns.
MIP Presolve modified 5072 coefficients.
Aggregator did 2 substitutions.
Reduced MIP has 3335 rows, 973 columns, and 100416 nonzeros.
Reduced MIP has 973 binaries, 0 generals, 0 SOSs, and 0 indicators.
Presolve time = 0.89 sec. (990.23 ticks)
Tried aggregator 1 time.
Detecting symmetries...
Reduced MIP has 3335 rows, 973 columns, and 100416 nonzeros.
Reduced MIP has 973 binaries, 0 generals, 0 SOSs, and 0 indicators.
Presolve time = 0.16 sec. (141.62 ticks)
Clique table members: 3273.
MIP emphasis: integer feasibility.
MIP search method: dynamic search.
Parallel mode: deterministic, using up to 12 threads.
Root relaxation solution time = 0.39 sec. (141.09 ticks)

        Nodes                                         Cuts/
   Node  Left     Objective  IInf  Best Integer    Best Bound    ItCnt     Gap

      0     0        0.0000   261                      0.0000      759         
*     0+    0                            0.0000        0.0000             0.00%
      0     0        cutoff              0.0000        0.0000      834    0.00%
Elapsed time = 4.41 sec. (4472.79 ticks, tree = 0.01 MB, solutions = 1)

Clique cuts applied:  31

Root node processing (before b&c):
  Real time             =    4.41 sec. (4473.12 ticks)
Parallel b&c, 12 threads:
  Real time             =    0.00 sec. (0.00 ticks)
  Sync time (average)   =    0.00 sec.
  Wait time (average)   =    0.00 sec.
                          ------------
Total (root+branch&cut) =    4.41 sec. (4473.12 ticks)
4.422000 
TRUE-modelo
Salgo lazy
   3608  2946     7321.4357   165     7808.0000     6574.9112   645272   15.79%        X_0_0_13 D   4169   4161     69
*  3713  2897      integral     0     7740.0000     6574.9112   636493   15.05%
   3880  3029     7218.5567    76     7740.0000     6597.1159   682060   14.77%        X_1_12_7 D   3712   3704     44
   4149  3384     6968.3217    94     7740.0000     6618.4087   728908   14.49%        X_1_13_7 D   3962   3954     36
   4383  3586     7590.1682   255     7740.0000     6621.5027   773681   14.45%         X_2_5_0 D   4581   4573     83
Elapsed time = 207.27 sec. (37832.23 ticks, tree = 34.95 MB, solutions = 6)
   4688  3773     7517.4253    76     7740.0000     6648.6709   813199   14.10%        X_0_11_1 U   4347   4339     13
   4981  3939     6967.3085   253     7740.0000     6648.6709   833895   14.10%        X_1_11_7 D   4470   4462     26
Dentro lazy
camion 0, TRUE-heu 0.000673
camion 1, FALSE-heu 0.001
Version identifier: 12.10.0.0 | 2019-11-26 | 843d4de2ae
CPXPARAM_Threads                                 12
CPXPARAM_MIP_Strategy_Probe                      -1
CPXPARAM_Emphasis_MIP                            1
Tried aggregator 2 times.
MIP Presolve eliminated 10276 rows and 34 columns.
MIP Presolve modified 6132 coefficients.
Aggregator did 2 substitutions.
Reduced MIP has 3338 rows, 1005 columns, and 105795 nonzeros.
Reduced MIP has 1005 binaries, 0 generals, 0 SOSs, and 0 indicators.
Presolve time = 0.95 sec. (1052.63 ticks)
Tried aggregator 1 time.
Detecting symmetries...
Reduced MIP has 3338 rows, 1005 columns, and 105795 nonzeros.
Reduced MIP has 1005 binaries, 0 generals, 0 SOSs, and 0 indicators.
Presolve time = 0.17 sec. (151.05 ticks)
Clique table members: 3274.
MIP emphasis: integer feasibility.
MIP search method: dynamic search.
Parallel mode: deterministic, using up to 12 threads.
Root relaxation solution time = 0.31 sec. (154.84 ticks)

        Nodes                                         Cuts/
   Node  Left     Objective  IInf  Best Integer    Best Bound    ItCnt     Gap

      0     0        0.0000   260                      0.0000      863         
*     0+    0                            0.0000        0.0000             0.00%
      0     0        cutoff              0.0000        0.0000      863    0.00%
Elapsed time = 5.44 sec. (5879.58 ticks, tree = 0.01 MB, solutions = 1)

Root node processing (before b&c):
  Real time             =    5.44 sec. (5879.93 ticks)
Parallel b&c, 12 threads:
  Real time             =    0.00 sec. (0.00 ticks)
  Sync time (average)   =    0.00 sec.
  Wait time (average)   =    0.00 sec.
                          ------------
Total (root+branch&cut) =    5.44 sec. (5879.93 ticks)
5.437000 
TRUE-modelo
Salgo lazy
*  5092  4003      integral     0     7510.0000     6649.0227   848193   11.46%
   5256  3098     7494.6313   199     7510.0000     6668.7505   889101   11.20%         X_1_0_5 D   5300   5292     12
   5378  3206     7386.0916   232     7510.0000     6685.9723   920419   10.97%         X_1_5_8 D   5245   5237     40
   5493  3282     7430.4672    83     7510.0000     6695.1998   959432   10.85%         X_1_0_7 D   5187   5171     33
   5705  3369     7478.0361   155     7510.0000     6696.7344   996508   10.83%        X_0_14_9 D   5469   5461     10
   5865  3504     7222.1481   230     7510.0000     6703.4118  1028672   10.74%        X_1_5_10 D   5612   5604     24
   5970  3653     7295.0763    56     7510.0000     6703.4118  1094551   10.74%         X_1_0_4 D   6048   6040     14
   6169  3706     6789.0472   226     7510.0000     6723.7923  1108437   10.47%        X_0_15_7 D   7633   7625      9
   6313  3901     7365.9130   188     7510.0000     6732.1474  1165956   10.36%        X_2_4_10 U   6640   1703     12
Elapsed time = 229.63 sec. (47466.72 ticks, tree = 34.32 MB, solutions = 7)
   6501  4040     7457.1512   208     7510.0000     6736.8850  1219796   10.29%        X_1_14_4 D   6567   6559     28
   6671  4125     7167.3990   201     7510.0000     6741.4026  1248971   10.23%        X_0_2_15 U   6506    312     32
Dentro lazy
camion 0, TRUE-heu 0.000756
camion 1, FALSE-heu 0.001
Version identifier: 12.10.0.0 | 2019-11-26 | 843d4de2ae
CPXPARAM_Threads                                 12
CPXPARAM_MIP_Strategy_Probe                      -1
CPXPARAM_Emphasis_MIP                            1
Tried aggregator 2 times.
MIP Presolve eliminated 10276 rows and 34 columns.
MIP Presolve modified 6096 coefficients.
Aggregator did 2 substitutions.
Reduced MIP has 3339 rows, 1037 columns, and 109318 nonzeros.
Reduced MIP has 1037 binaries, 0 generals, 0 SOSs, and 0 indicators.
Presolve time = 1.11 sec. (1107.89 ticks)
Tried aggregator 1 time.
Detecting symmetries...
Reduced MIP has 3339 rows, 1037 columns, and 109318 nonzeros.
Reduced MIP has 1037 binaries, 0 generals, 0 SOSs, and 0 indicators.
Presolve time = 0.20 sec. (156.36 ticks)
Clique table members: 3275.
MIP emphasis: integer feasibility.
MIP search method: dynamic search.
Parallel mode: deterministic, using up to 12 threads.
Root relaxation solution time = 0.33 sec. (170.77 ticks)

        Nodes                                         Cuts/
   Node  Left     Objective  IInf  Best Integer    Best Bound    ItCnt     Gap

      0     0        0.0000   267                      0.0000      967         
*     0+    0                            0.0000        0.0000             0.00%
      0     0        cutoff              0.0000        0.0000     1233    0.00%
Elapsed time = 5.50 sec. (5630.93 ticks, tree = 0.01 MB, solutions = 1)

Clique cuts applied:  172

Root node processing (before b&c):
  Real time             =    5.50 sec. (5631.31 ticks)
Parallel b&c, 12 threads:
  Real time             =    0.00 sec. (0.00 ticks)
  Sync time (average)   =    0.00 sec.
  Wait time (average)   =    0.00 sec.
                          ------------
Total (root+branch&cut) =    5.50 sec. (5631.31 ticks)
5.500000 
TRUE-modelo
Salgo lazy
*  6881  4221      integral     0     7403.0000     6753.6307  1283066    8.77%
   6917  4273     7378.7818   200     7403.0000     6753.6307  1300366    8.77%         X_1_0_7 D   6722   6714     52
   7130  4336     6915.3202   241     7403.0000     6763.8375  1306101    8.63%         X_0_7_0 N   7314   2230      8
   7287  3645     7262.8928   172     7403.0000     6778.3266  1381916    8.44%        X_2_4_10 U   6196   6015     17
   7412  3779     7298.6190   127     7403.0000     6780.5833  1440959    8.41%         X_2_0_7 U   6982   6966     15
   7539  3869     7136.4000     8     7403.0000     6782.2427  1472707    8.39%        X_0_6_13 D   7591   7575     37
   7677  3937     7111.1750   212     7403.0000     6792.8049  1523732    8.24%        X_1_15_3 N   7839   7831     30
Dentro lazy
camion 0, FALSE-heu 0.001
Version identifier: 12.10.0.0 | 2019-11-26 | 843d4de2ae
CPXPARAM_Threads                                 12
CPXPARAM_MIP_Strategy_Probe                      -1
CPXPARAM_Emphasis_MIP                            1
Tried aggregator 2 times.
MIP Presolve eliminated 10276 rows and 34 columns.
MIP Presolve modified 5136 coefficients.
Aggregator did 2 substitutions.
Reduced MIP has 3338 rows, 1005 columns, and 105795 nonzeros.
Reduced MIP has 1005 binaries, 0 generals, 0 SOSs, and 0 indicators.
Presolve time = 0.97 sec. (1024.69 ticks)
Tried aggregator 1 time.
Detecting symmetries...
Reduced MIP has 3338 rows, 1005 columns, and 105795 nonzeros.
Reduced MIP has 1005 binaries, 0 generals, 0 SOSs, and 0 indicators.
Presolve time = 0.17 sec. (150.48 ticks)
Clique table members: 3274.
MIP emphasis: integer feasibility.
MIP search method: dynamic search.
Parallel mode: deterministic, using up to 12 threads.
Root relaxation solution time = 0.39 sec. (150.71 ticks)

        Nodes                                         Cuts/
   Node  Left     Objective  IInf  Best Integer    Best Bound    ItCnt     Gap

      0     0        0.0000   261                      0.0000      816         
*     0+    0                            0.0000        0.0000             0.00%
      0     0        cutoff              0.0000        0.0000      816    0.00%
Elapsed time = 5.81 sec. (6108.72 ticks, tree = 0.01 MB, solutions = 1)

Root node processing (before b&c):
  Real time             =    5.81 sec. (6109.08 ticks)
Parallel b&c, 12 threads:
  Real time             =    0.00 sec. (0.00 ticks)
  Sync time (average)   =    0.00 sec.
  Wait time (average)   =    0.00 sec.
                          ------------
Total (root+branch&cut) =    5.81 sec. (6109.08 ticks)
5.829000 
TRUE-modelo
camion 1, FALSE-heu 0.001
Version identifier: 12.10.0.0 | 2019-11-26 | 843d4de2ae
CPXPARAM_Threads                                 12
CPXPARAM_MIP_Strategy_Probe                      -1
CPXPARAM_Emphasis_MIP                            1
Tried aggregator 2 times.
MIP Presolve eliminated 10278 rows and 34 columns.
MIP Presolve modified 5136 coefficients.
Aggregator did 2 substitutions.
Reduced MIP has 3336 rows, 1005 columns, and 103875 nonzeros.
Reduced MIP has 1005 binaries, 0 generals, 0 SOSs, and 0 indicators.
Presolve time = 0.92 sec. (1045.24 ticks)
Tried aggregator 1 time.
Detecting symmetries...
Reduced MIP has 3336 rows, 1005 columns, and 103875 nonzeros.
Reduced MIP has 1005 binaries, 0 generals, 0 SOSs, and 0 indicators.
Presolve time = 0.16 sec. (146.68 ticks)
Clique table members: 3274.
MIP emphasis: integer feasibility.
MIP search method: dynamic search.
Parallel mode: deterministic, using up to 12 threads.
Root relaxation solution time = 0.36 sec. (147.37 ticks)

        Nodes                                         Cuts/
   Node  Left     Objective  IInf  Best Integer    Best Bound    ItCnt     Gap

      0     0        0.0000   262                      0.0000      817         
*     0+    0                            0.0000        0.0000             0.00%
      0     0        cutoff              0.0000        0.0000      817    0.00%
Elapsed time = 4.47 sec. (4901.09 ticks, tree = 0.01 MB, solutions = 1)

Root node processing (before b&c):
  Real time             =    4.47 sec. (4901.44 ticks)
Parallel b&c, 12 threads:
  Real time             =    0.00 sec. (0.00 ticks)
  Sync time (average)   =    0.00 sec.
  Wait time (average)   =    0.00 sec.
                          ------------
Total (root+branch&cut) =    4.47 sec. (4901.44 ticks)
4.485000 
TRUE-modelo
Salgo lazy
Dentro lazy
camion 0, FALSE-heu 0.001
Version identifier: 12.10.0.0 | 2019-11-26 | 843d4de2ae
CPXPARAM_Threads                                 12
CPXPARAM_MIP_Strategy_Probe                      -1
CPXPARAM_Emphasis_MIP                            1
Tried aggregator 2 times.
MIP Presolve eliminated 10276 rows and 34 columns.
MIP Presolve modified 5136 coefficients.
Aggregator did 2 substitutions.
Reduced MIP has 3338 rows, 1005 columns, and 105795 nonzeros.
Reduced MIP has 1005 binaries, 0 generals, 0 SOSs, and 0 indicators.
Presolve time = 0.97 sec. (1024.69 ticks)
Tried aggregator 1 time.
Detecting symmetries...
Reduced MIP has 3338 rows, 1005 columns, and 105795 nonzeros.
Reduced MIP has 1005 binaries, 0 generals, 0 SOSs, and 0 indicators.
Presolve time = 0.17 sec. (150.48 ticks)
Clique table members: 3274.
MIP emphasis: integer feasibility.
MIP search method: dynamic search.
Parallel mode: deterministic, using up to 12 threads.
Root relaxation solution time = 0.34 sec. (150.71 ticks)

        Nodes                                         Cuts/
   Node  Left     Objective  IInf  Best Integer    Best Bound    ItCnt     Gap

      0     0        0.0000   261                      0.0000      816         
*     0+    0                            0.0000        0.0000             0.00%
      0     0        cutoff              0.0000        0.0000      816    0.00%
Elapsed time = 6.28 sec. (6108.72 ticks, tree = 0.01 MB, solutions = 1)

Root node processing (before b&c):
  Real time             =    6.28 sec. (6109.08 ticks)
Parallel b&c, 12 threads:
  Real time             =    0.00 sec. (0.00 ticks)
  Sync time (average)   =    0.00 sec.
  Wait time (average)   =    0.00 sec.
                          ------------
Total (root+branch&cut) =    6.28 sec. (6109.08 ticks)
6.297000 
TRUE-modelo
camion 1, FALSE-heu 0.001
Version identifier: 12.10.0.0 | 2019-11-26 | 843d4de2ae
CPXPARAM_Threads                                 12
CPXPARAM_MIP_Strategy_Probe                      -1
CPXPARAM_Emphasis_MIP                            1
Tried aggregator 2 times.
MIP Presolve eliminated 10278 rows and 34 columns.
MIP Presolve modified 5136 coefficients.
Aggregator did 2 substitutions.
Reduced MIP has 3336 rows, 1005 columns, and 103875 nonzeros.
Reduced MIP has 1005 binaries, 0 generals, 0 SOSs, and 0 indicators.
Presolve time = 1.02 sec. (1045.24 ticks)
Tried aggregator 1 time.
Detecting symmetries...
Reduced MIP has 3336 rows, 1005 columns, and 103875 nonzeros.
Reduced MIP has 1005 binaries, 0 generals, 0 SOSs, and 0 indicators.
Presolve time = 0.22 sec. (146.68 ticks)
Clique table members: 3274.
MIP emphasis: integer feasibility.
MIP search method: dynamic search.
Parallel mode: deterministic, using up to 12 threads.
Root relaxation solution time = 0.34 sec. (147.37 ticks)

        Nodes                                         Cuts/
   Node  Left     Objective  IInf  Best Integer    Best Bound    ItCnt     Gap

      0     0        0.0000   262                      0.0000      817         
*     0+    0                            0.0000        0.0000             0.00%
      0     0        cutoff              0.0000        0.0000      817    0.00%
Elapsed time = 4.73 sec. (4901.09 ticks, tree = 0.01 MB, solutions = 1)

Root node processing (before b&c):
  Real time             =    4.75 sec. (4901.44 ticks)
Parallel b&c, 12 threads:
  Real time             =    0.00 sec. (0.00 ticks)
  Sync time (average)   =    0.00 sec.
  Wait time (average)   =    0.00 sec.
                          ------------
Total (root+branch&cut) =    4.75 sec. (4901.44 ticks)
4.750000 
TRUE-modelo
Salgo lazy
*  7820+ 3888                         7347.0000     6792.8049             7.54%
   7852  3959     7135.9938   252     7347.0000     6792.8049  1534704    7.54%         X_1_5_9 D   6716   6708     38
   7922  3400     6986.2036   238     7347.0000     6805.7294  1566136    7.37%         X_2_0_7 D   6947   6939     18
Elapsed time = 273.53 sec. (57081.01 ticks, tree = 30.33 MB, solutions = 9)
   8044  3510     7301.1233   162     7347.0000     6805.7294  1612893    7.37%         X_2_8_0 D   8421   8413     45
   8180  3519        cutoff           7347.0000     6823.6549  1650554    7.12%         X_1_0_8 U   9297   9281     19
   8298  3560     7148.9482    85     7347.0000     6837.3036  1694217    6.94%        X_1_15_7 U   7140   7132     19
   8481  3618     7007.9756   197     7347.0000     6842.7781  1751458    6.86%         X_0_7_2 D   7316    440     46
   8625  3679        cutoff           7347.0000     6849.5064  1797761    6.77%         X_2_5_4 U   9607   9591     26
   8750  3773     7138.9786   254     7347.0000     6854.9257  1848615    6.70%         X_0_7_0 U   8909   1170     12
   8899  3765     7106.3224   118     7347.0000     6867.9492  1847247    6.52%        X_0_14_9 U   8075    104     11
   9055  3878        cutoff           7347.0000     6876.6677  1922033    6.40%         X_1_0_4 U  10087   2681     32
   9184  3911     7028.1713   190     7347.0000     6878.8988  1963099    6.37%         X_2_0_7 D   8355   8347     13
   9313  3932        cutoff           7347.0000     6887.7999  1976448    6.25%         X_1_5_0 U  10415  10399     19
Elapsed time = 290.06 sec. (66674.38 ticks, tree = 36.11 MB, solutions = 9)
   9463  4054     7151.1949   314     7347.0000     6892.3547  2059529    6.19%        X_2_3_11 D   9648   9640     20
   9606  4091     7269.1851   260     7347.0000     6900.8555  2101305    6.07%         X_1_6_4 D  10871  10863     55
   9721  4089     7306.1782   224     7347.0000     6906.0144  2117685    6.00%        X_1_15_0 D   9920   9912     18
   9872  4077        cutoff           7347.0000     6912.0163  2160190    5.92%         X_1_7_0 D   8827   8819     42
  10004  4131     7211.8962   150     7347.0000     6919.5870  2191806    5.82%        X_1_15_0 U   9766   6061     29
  10153  4175     7093.1990   230     7347.0000     6924.4181  2247953    5.75%        X_0_0_15 U  10416   6668     33
  10288  4202     7317.7333    76     7347.0000     6930.0593  2268519    5.67%        X_0_14_9 D   8900   8892     20
  10425  4245     7265.3095   239     7347.0000     6931.1146  2318242    5.66%        X_2_3_15 D  10736  10728     33
  10602  4263        cutoff           7347.0000     6940.5842  2343831    5.53%        X_1_15_0 U  10442  10426     30
  10765  4292     7157.5223   176     7347.0000     6947.3326  2401385    5.44%        X_0_0_15 U   9388   8162     29
Elapsed time = 306.94 sec. (76317.47 ticks, tree = 38.96 MB, solutions = 9)
  10908  4362     7283.7137   192     7347.0000     6950.2143  2439342    5.40%        X_0_14_4 U  12351   4885     45
  11140  4430     7181.8816   271     7347.0000     6961.3348  2479344    5.25%        X_1_15_0 D  12337  12329     34
  11295  4489     7239.5224   112     7347.0000     6969.0891  2545046    5.14%         X_2_7_0 D  12649  12641     17
  11508  4539     7301.5673   270     7347.0000     6974.2314  2593671    5.07%         X_1_8_4 D  11781  11773     56
  11711  4524     7215.5461    81     7347.0000     6981.2350  2589593    4.98%         X_0_3_1 D  11728  11720     26
  11931  4554     7342.5016   159     7347.0000     6989.5971  2618019    4.86%        X_0_15_8 U  10292   2687     18
Dentro lazy
camion 0, TRUE-heu 0.001016
camion 1, TRUE-heu 0.001054
Salgo lazy
  12070  4623     7263.4000   113     7347.0000     6994.9752  2683679    4.79%         X_1_0_8 D  11654  11646     37
* 12084  4635      integral     0     7300.0000     6997.3767  2674956    4.15%
  12296  3861     7294.1297    99     7300.0000     7001.5536  2722688    4.09%        X_0_9_13 D  12501  12493     23
  12530  3918     7074.4262   129     7300.0000     7009.8021  2782690    3.98%         X_2_0_7 N  12506   8019     35
  12700  3931        cutoff           7300.0000     7013.1353  2805263    3.93%        X_1_15_3 U  13999   5909     19
Elapsed time = 324.56 sec. (85906.42 ticks, tree = 38.09 MB, solutions = 10)
  12931  4006     7255.1366    59     7300.0000     7024.0113  2875089    3.78%        X_1_2_11 D  14457  14449     38
  13114  4024        cutoff           7300.0000     7031.7203  2915085    3.68%         X_0_7_0 U  11316   8627     46
  13326  4011     7269.6742   130     7300.0000     7038.6064  2935707    3.58%        X_0_1_14 U  14729  14721     34
  13529  3998     7126.8636    64     7300.0000     7051.7000  2994066    3.40%        X_1_8_11 D  14839  14831     48
  13697  4003        cutoff           7300.0000     7052.2035  2991679    3.39%        X_1_15_7 D  15113  15105     25
  13917  3928     7199.4089   106     7300.0000     7062.0357  3070599    3.26%         X_1_0_4 D  13262  13254     52
  14154  3925        cutoff           7300.0000     7073.1819  3090622    3.11%         X_1_7_0 U  14293   3921     39
  14409  3845        cutoff           7300.0000     7081.2553  3140343    3.00%       X_1_12_15 U  12388  10873     57
  14612  3832     7217.2007   170     7300.0000     7090.5047  3166332    2.87%        X_0_3_13 N  16057     42      9
  14857  3754     7279.4759   156     7300.0000     7092.2843  3241141    2.85%         X_2_0_7 U  14688   9837     24
Elapsed time = 343.06 sec. (95524.95 ticks, tree = 33.42 MB, solutions = 10)
  15098  3708        cutoff           7300.0000     7092.2843  3264903    2.85%       X_1_15_11 U  14486   8302     28
  15379  3666        cutoff           7300.0000     7092.2843  3322809    2.85%        X_1_11_0 U  15059   6189     45
  15655  3664        cutoff           7300.0000     7113.6000  3350894    2.55%        X_0_15_3 D  13852  13836     40
  15926  3534        cutoff           7300.0000     7132.3819  3401578    2.30%       X_0_12_14 U  16527   3860     40
  16176  3358        cutoff           7300.0000     7148.5386  3444196    2.07%        X_0_10_5 U  14420   1211     11
  16466  3282        cutoff           7300.0000     7156.2793  3473139    1.97%        X_0_11_7 U  18649  18641     26
  16792  3128     7282.4992   151     7300.0000     7170.9127  3512605    1.77%         X_0_6_8 U  17053  15810     40
  17157  2917        cutoff           7300.0000     7180.0113  3551813    1.64%         X_1_0_7 D  16866  16858      8
  17445  2707        cutoff           7300.0000     7191.5217  3585882    1.49%        X_0_12_0 U  17749   2810     34
  19054  1328        cutoff           7300.0000     7245.1539  3728349    0.75%         X_1_0_7 D  21217  13418     25
Elapsed time = 369.77 sec. (107953.39 ticks, tree = 9.63 MB, solutions = 10)

GUB cover cuts applied:  108
Cover cuts applied:  932
Flow cuts applied:  215
Mixed integer rounding cuts applied:  125
Zero-half cuts applied:  91
Gomory fractional cuts applied:  4
User cuts applied:  2

Root node processing (before b&c):
  Real time             =  145.44 sec. (14731.66 ticks)
Parallel b&c, 8 threads:
  Real time             =  230.92 sec. (95214.87 ticks)
  Sync time (average)   =   34.06 sec.
  Wait time (average)   =    0.00 sec.
                          ------------
Total (root+branch&cut) =  376.36 sec. (109946.53 ticks)
376.360000 
