GAP:; 0.00;  F.O:; 11000.00; Tiempo:;175.11; 
ROUTING 
X0;0;1;1311.00 
X0;1;0;1311.00 
ruta 0;2622.00 
X1;0;3;987.00 
X1;3;2;243.00 
X1;2;0;918.00 
ruta 1;4770.00 
X2;0;5;1531.00 
X2;5;4;397.00 
X2;4;0;1240.00 
ruta 2;7938.00 
X3;0;5;1531.00 
X3;5;0;1531.00 
ruta 3;11000.00 
PACKING 
Z0 1 28 1 	 742.00 
Z0 1 26 2 	 698.00 
Z0 1 24 3 	 442.00 
Z0 1 22 4 	 380.00 
Z0 1 20 5 	 713.00 
Z0 1 18 6 	 593.00 
Z0 1 16 7 	 554.00 
Z0 1 14 8 	 981.00 
Z0 1 12 9 	 393.00 
Z0 1 10 10 	 459.00 
Z0 1 8 11 	 461.00 
Z0 1 6 12 	 743.00 
Z0 1 4 13 	 830.00 
Z0 1 2 14 	 708.00 
Z0 1 0 15 	 722.00 
Z0 1 27 18 	 602.00 
Z0 1 25 19 	 858.00 
Z0 1 23 20 	 920.00 
Z0 1 21 21 	 587.00 
Z0 1 19 22 	 707.00 
Z0 1 17 23 	 746.00 
Z0 1 15 24 	 319.00 
Z0 1 13 25 	 907.00 
Z0 1 11 26 	 841.00 
Z0 1 9 27 	 839.00 
Z0 1 7 28 	 557.00 
Z0 1 5 29 	 470.00 
Z0 1 3 30 	 392.00 
Z0 1 1 31 	 378.00 
truck weigth 0: 18542.00 axle 1: 9206.04 axle2: 9335.96 media kg/km:7.07
Z1 2 17 1 	 535.00 
Z1 2 15 2 	 729.00 
Z1 2 13 3 	 450.00 
Z1 2 11 4 	 330.00 
Z1 2 9 5 	 882.00 
Z1 2 7 6 	 949.00 
Z1 2 5 7 	 560.00 
Z1 2 3 8 	 489.00 
Z1 2 1 9 	 646.00 
Z1 3 10 10 	 575.00 
Z1 3 8 11 	 761.00 
Z1 3 6 12 	 970.00 
Z1 3 4 13 	 724.00 
Z1 3 2 14 	 383.00 
Z1 3 0 15 	 890.00 
Z1 2 18 17 	 765.00 
Z1 2 16 18 	 571.00 
Z1 2 14 19 	 650.00 
Z1 2 12 20 	 770.00 
Z1 2 10 21 	 318.00 
Z1 2 8 22 	 351.00 
Z1 2 6 23 	 740.00 
Z1 2 4 24 	 711.00 
Z1 2 2 25 	 554.00 
Z1 2 0 26 	 558.00 
Z1 3 9 27 	 539.00 
Z1 3 7 28 	 330.00 
Z1 3 5 29 	 476.00 
Z1 3 3 30 	 817.00 
Z1 3 1 31 	 310.00 
truck weigth 1: 18333.00 axle 1: 9198.88 axle2: 9134.12 media kg/km:8.53
Z2 4 4 0 	 860.00 
Z2 4 1 1 	 933.00 
Z2 4 2 2 	 367.00 
Z2 4 23 3 	 847.00 
Z2 4 18 4 	 336.00 
Z2 4 12 5 	 320.00 
Z2 4 16 6 	 361.00 
Z2 4 15 7 	 839.00 
Z2 4 17 8 	 964.00 
Z2 4 8 9 	 408.00 
Z2 4 20 10 	 774.00 
Z2 4 6 11 	 625.00 
Z2 5 7 12 	 317.00 
Z2 5 29 13 	 851.00 
Z2 5 19 14 	 897.00 
Z2 5 6 15 	 839.00 
Z2 4 22 17 	 635.00 
Z2 4 5 18 	 675.00 
Z2 4 3 19 	 440.00 
Z2 4 11 20 	 980.00 
Z2 4 13 21 	 322.00 
Z2 4 10 22 	 406.00 
Z2 4 14 23 	 878.00 
Z2 4 9 24 	 894.00 
Z2 4 19 25 	 526.00 
Z2 4 7 26 	 892.00 
Z2 4 21 27 	 665.00 
Z2 4 0 28 	 725.00 
Z2 5 9 29 	 448.00 
Z2 5 4 30 	 528.00 
Z2 5 17 31 	 319.00 
truck weigth 2: 19871.00 axle 1: 10335.54 axle2: 9535.46 media kg/km:6.27
Z3 5 35 1 	 763.00 
Z3 5 33 2 	 987.00 
Z3 5 31 3 	 925.00 
Z3 5 28 4 	 402.00 
Z3 5 26 5 	 476.00 
Z3 5 24 6 	 784.00 
Z3 5 22 7 	 438.00 
Z3 5 20 8 	 303.00 
Z3 5 16 9 	 811.00 
Z3 5 14 10 	 576.00 
Z3 5 12 11 	 683.00 
Z3 5 10 12 	 652.00 
Z3 5 5 13 	 461.00 
Z3 5 2 14 	 966.00 
Z3 5 0 15 	 453.00 
Z3 5 36 17 	 537.00 
Z3 5 34 18 	 313.00 
Z3 5 32 19 	 375.00 
Z3 5 30 20 	 449.00 
Z3 5 27 21 	 898.00 
Z3 5 25 22 	 824.00 
Z3 5 23 23 	 516.00 
Z3 5 21 24 	 862.00 
Z3 5 18 25 	 881.00 
Z3 5 15 26 	 389.00 
Z3 5 13 27 	 724.00 
Z3 5 11 28 	 617.00 
Z3 5 8 29 	 983.00 
Z3 5 3 30 	 772.00 
Z3 5 1 31 	 334.00 
truck weigth 3: 19154.00 axle 1: 9534.91 axle2: 9619.09 media kg/km:6.26
