GAP:; 0.00;  F.O:; 11421.00; Tiempo:;1050.38; 
ROUTING 
X0;0;3;987.00 
X0;3;1;361.00 
X0;1;0;1311.00 
ruta 0;2659.00 
X1;0;4;1240.00 
X1;4;2;644.00 
X1;2;3;243.00 
X1;3;0;987.00 
ruta 1;5773.00 
X2;0;4;1240.00 
X2;4;0;1240.00 
ruta 2;8253.00 
X3;0;4;1240.00 
X3;4;5;397.00 
X3;5;0;1531.00 
ruta 3;11421.00 
PACKING 
Z0 1 14 3 	 1166.00 
Z0 1 12 4 	 1085.00 
Z0 1 10 5 	 1173.00 
Z0 1 8 6 	 1220.00 
Z0 1 6 7 	 788.00 
Z0 1 4 8 	 751.00 
Z0 1 2 9 	 890.00 
Z0 1 0 10 	 948.00 
Z0 3 5 11 	 1044.00 
Z0 3 2 12 	 1074.00 
Z0 1 13 20 	 915.00 
Z0 1 11 21 	 827.00 
Z0 1 9 22 	 780.00 
Z0 1 7 23 	 1212.00 
Z0 1 5 24 	 1249.00 
Z0 1 3 25 	 1110.00 
Z0 1 1 26 	 1052.00 
Z0 3 8 27 	 1064.00 
Z0 3 4 28 	 956.00 
truck weigth 0: 19304.00 axle 1: 10041.63 axle2: 9262.37 media kg/km:7.26
Z1 3 3 3 	 926.00 
Z1 3 0 4 	 1264.00 
Z1 3 6 5 	 1057.00 
Z1 2 0 6 	 834.00 
Z1 2 3 7 	 936.00 
Z1 2 7 8 	 936.00 
Z1 2 4 9 	 1064.00 
Z1 2 5 10 	 1259.00 
Z1 2 12 11 	 1154.00 
Z1 4 6 12 	 1262.00 
Z1 3 1 19 	 736.00 
Z1 3 7 20 	 943.00 
Z1 2 6 21 	 741.00 
Z1 2 2 22 	 812.00 
Z1 2 9 23 	 707.00 
Z1 2 8 24 	 1064.00 
Z1 2 11 25 	 846.00 
Z1 2 10 26 	 1293.00 
Z1 2 1 27 	 1188.00 
Z1 4 25 28 	 1283.00 
truck weigth 1: 20305.00 axle 1: 10398.41 axle2: 9906.59 media kg/km:6.52
Z2 4 14 4 	 1272.00 
Z2 4 4 5 	 1188.00 
Z2 4 21 6 	 845.00 
Z2 4 5 7 	 738.00 
Z2 4 20 8 	 1092.00 
Z2 4 22 9 	 1155.00 
Z2 4 15 10 	 839.00 
Z2 4 2 11 	 937.00 
Z2 4 3 12 	 812.00 
Z2 4 7 13 	 883.00 
Z2 4 9 19 	 1208.00 
Z2 4 8 20 	 1117.00 
Z2 4 18 21 	 1140.00 
Z2 4 19 22 	 908.00 
Z2 4 23 23 	 881.00 
Z2 4 17 24 	 860.00 
Z2 4 16 25 	 1161.00 
Z2 4 26 26 	 717.00 
Z2 4 0 27 	 936.00 
Z2 4 10 28 	 792.00 
Z2 4 27 29 	 750.00 
truck weigth 2: 20231.00 axle 1: 10282.00 axle2: 9949.00 media kg/km:8.16
Z3 5 2 3 	 775.00 
Z3 5 14 4 	 805.00 
Z3 5 9 5 	 932.00 
Z3 5 7 6 	 930.00 
Z3 5 12 7 	 1078.00 
Z3 5 0 8 	 1250.00 
Z3 5 13 9 	 1195.00 
Z3 5 5 10 	 1276.00 
Z3 4 24 11 	 1119.00 
Z3 4 12 12 	 1028.00 
Z3 5 3 19 	 792.00 
Z3 5 11 20 	 922.00 
Z3 5 6 21 	 724.00 
Z3 5 10 22 	 1068.00 
Z3 5 8 23 	 1070.00 
Z3 5 4 24 	 1208.00 
Z3 5 1 25 	 1225.00 
Z3 4 13 26 	 728.00 
Z3 4 11 27 	 972.00 
Z3 4 1 28 	 1063.00 
truck weigth 3: 20160.00 axle 1: 10430.31 axle2: 9729.69 media kg/km:6.36
