GAP:; 0.04;  F.O:; 10922.00; Tiempo:;3778.56; 
ROUTING 
X0;0;1;1311.00 
X0;1;2;575.00 
X0;2;0;918.00 
ruta 0;2804.00 
X1;0;5;1531.00 
X1;5;4;397.00 
X1;4;0;1240.00 
ruta 1;5972.00 
X2;0;2;918.00 
X2;2;3;243.00 
X2;3;0;987.00 
ruta 2;8120.00 
X3;0;2;918.00 
X3;2;4;644.00 
X3;4;0;1240.00 
ruta 3;10922.00 
PACKING 
Z0 2 0 6 	 2037.00 
Z0 1 6 7 	 2186.00 
Z0 1 4 8 	 1760.00 
Z0 1 2 9 	 1729.00 
Z0 1 0 10 	 1963.00 
Z0 2 2 22 	 2271.00 
Z0 1 7 23 	 2270.00 
Z0 1 5 24 	 1897.00 
Z0 1 3 25 	 1828.00 
Z0 1 1 26 	 1962.00 
truck weigth 0: 19903.00 axle 1: 10089.66 axle2: 9813.34 media kg/km:7.10
Z1 4 0 6 	 2218.00 
Z1 5 0 7 	 2038.00 
Z1 5 4 8 	 2103.00 
Z1 5 3 9 	 1909.00 
Z1 5 1 10 	 1785.00 
Z1 4 4 22 	 2297.00 
Z1 5 2 23 	 2172.00 
Z1 5 7 24 	 2071.00 
Z1 5 5 25 	 1996.00 
Z1 5 6 26 	 1730.00 
truck weigth 1: 20319.00 axle 1: 10341.57 axle2: 9977.43 media kg/km:6.41
Z2 3 6 6 	 2179.00 
Z2 3 4 7 	 1703.00 
Z2 3 2 8 	 2010.00 
Z2 3 0 9 	 1782.00 
Z2 2 4 10 	 2240.00 
Z2 3 7 22 	 1800.00 
Z2 3 5 23 	 2106.00 
Z2 3 3 24 	 1985.00 
Z2 3 1 25 	 1830.00 
Z2 2 7 26 	 2200.00 
truck weigth 2: 19835.00 axle 1: 9893.57 axle2: 9941.43 media kg/km:9.23
Z3 4 6 6 	 1821.00 
Z3 4 3 7 	 2091.00 
Z3 4 1 8 	 2215.00 
Z3 2 5 9 	 1894.00 
Z3 2 1 10 	 2170.00 
Z3 4 7 22 	 1929.00 
Z3 4 5 23 	 2004.00 
Z3 4 2 24 	 1990.00 
Z3 2 6 25 	 1814.00 
Z3 2 3 26 	 2015.00 
truck weigth 3: 19943.00 axle 1: 9964.11 axle2: 9978.89 media kg/km:7.12
