GAP:; 0.00;  F.O:; 12003.00; Tiempo:;2146.69; 
ROUTING 
X0;0;3;987.00 
X0;3;1;361.00 
X0;1;0;1311.00 
ruta 0;2659.00 
X1;0;3;987.00 
X1;3;2;243.00 
X1;2;4;644.00 
X1;4;0;1240.00 
ruta 1;5773.00 
X2;0;4;1240.00 
X2;4;5;397.00 
X2;5;0;1531.00 
ruta 2;8941.00 
X3;0;5;1531.00 
X3;5;0;1531.00 
ruta 3;12003.00 
PACKING 
Z0 1 5 3 	 769.00 
Z0 1 9 4 	 268.00 
Z0 1 7 5 	 1680.00 
Z0 1 4 6 	 1231.00 
Z0 1 3 7 	 696.00 
Z0 3 2 8 	 552.00 
Z0 3 10 9 	 1842.00 
Z0 3 3 10 	 1705.00 
Z0 3 0 11 	 1813.00 
Z0 1 8 20 	 1732.00 
Z0 1 2 21 	 1304.00 
Z0 1 6 22 	 320.00 
Z0 1 1 23 	 545.00 
Z0 1 0 24 	 1455.00 
Z0 3 1 25 	 1448.00 
Z0 3 6 26 	 1055.00 
Z0 3 7 27 	 1501.00 
truck weigth 0: 19916.00 axle 1: 10416.32 axle2: 9499.68 media kg/km:7.49
Z1 4 12 3 	 248.00 
Z1 4 9 4 	 811.00 
Z1 2 3 5 	 1690.00 
Z1 2 7 6 	 1316.00 
Z1 2 12 7 	 359.00 
Z1 2 8 8 	 1780.00 
Z1 2 4 9 	 319.00 
Z1 2 13 10 	 1641.00 
Z1 2 9 11 	 220.00 
Z1 2 0 12 	 317.00 
Z1 3 8 13 	 499.00 
Z1 3 4 14 	 295.00 
Z1 4 11 18 	 251.00 
Z1 4 14 19 	 418.00 
Z1 2 10 20 	 1750.00 
Z1 2 11 21 	 250.00 
Z1 2 6 22 	 684.00 
Z1 2 5 23 	 1681.00 
Z1 2 16 24 	 187.00 
Z1 2 15 25 	 1878.00 
Z1 2 2 26 	 310.00 
Z1 2 1 27 	 1683.00 
Z1 2 14 28 	 122.00 
Z1 3 9 29 	 158.00 
Z1 3 5 30 	 945.00 
truck weigth 1: 19812.00 axle 1: 10110.88 axle2: 9701.12 media kg/km:6.36
Z2 5 14 3 	 749.00 
Z2 5 4 4 	 194.00 
Z2 5 1 5 	 389.00 
Z2 5 0 6 	 1611.00 
Z2 4 3 7 	 1849.00 
Z2 4 8 8 	 1189.00 
Z2 4 4 9 	 194.00 
Z2 4 1 10 	 1279.00 
Z2 4 6 11 	 525.00 
Z2 4 2 12 	 151.00 
Z2 5 8 19 	 484.00 
Z2 5 13 20 	 393.00 
Z2 5 9 21 	 1516.00 
Z2 5 16 22 	 737.00 
Z2 4 5 23 	 1806.00 
Z2 4 15 24 	 1582.00 
Z2 4 10 25 	 1749.00 
Z2 4 0 26 	 721.00 
Z2 4 13 27 	 1752.00 
Z2 4 7 28 	 1475.00 
truck weigth 2: 20345.00 axle 1: 10422.12 axle2: 9922.88 media kg/km:6.42
Z3 5 10 4 	 1369.00 
Z3 5 24 5 	 1197.00 
Z3 5 19 6 	 1158.00 
Z3 5 3 7 	 1289.00 
Z3 5 6 8 	 715.00 
Z3 5 7 9 	 1285.00 
Z3 5 23 10 	 1044.00 
Z3 5 11 11 	 631.00 
Z3 5 15 12 	 1251.00 
Z3 5 17 20 	 1263.00 
Z3 5 12 21 	 1607.00 
Z3 5 25 22 	 803.00 
Z3 5 21 23 	 1156.00 
Z3 5 20 24 	 844.00 
Z3 5 5 25 	 1806.00 
Z3 5 18 26 	 842.00 
Z3 5 2 27 	 711.00 
Z3 5 22 28 	 956.00 
truck weigth 3: 19927.00 axle 1: 10367.75 axle2: 9559.25 media kg/km:6.51
