GAP:; 0.14;  F.O:; 11905.00; Tiempo:;3639.77; 
ROUTING 
X0;0;1;1311.00 
X0;1;2;575.00 
X0;2;0;918.00 
ruta 0;2804.00 
X1;0;2;918.00 
X1;2;3;243.00 
X1;3;1;361.00 
X1;1;0;1311.00 
ruta 1;5637.00 
X2;0;5;1531.00 
X2;5;4;397.00 
X2;4;0;1240.00 
ruta 2;8805.00 
X3;0;4;1240.00 
X3;4;3;873.00 
X3;3;0;987.00 
ruta 3;11905.00 
PACKING 
Z0 2 0 6 	 2058.00 
Z0 2 6 7 	 1746.00 
Z0 1 6 8 	 2254.00 
Z0 1 5 9 	 1923.00 
Z0 1 7 10 	 2135.00 
Z0 2 2 22 	 1883.00 
Z0 2 1 23 	 2131.00 
Z0 2 3 24 	 1925.00 
Z0 1 4 25 	 1972.00 
Z0 1 0 26 	 1942.00 
truck weigth 0: 19969.00 axle 1: 9990.22 axle2: 9978.78 media kg/km:7.12
Z1 1 2 6 	 2117.00 
Z1 1 1 7 	 2220.00 
Z1 3 5 8 	 1918.00 
Z1 2 4 9 	 2028.00 
Z1 2 5 10 	 2082.00 
Z1 1 3 22 	 1988.00 
Z1 3 0 23 	 2007.00 
Z1 3 4 24 	 2126.00 
Z1 3 1 25 	 1869.00 
Z1 2 7 26 	 1760.00 
truck weigth 1: 20115.00 axle 1: 10141.09 axle2: 9973.91 media kg/km:7.10
Z2 4 0 6 	 1993.00 
Z2 5 6 7 	 1865.00 
Z2 5 4 8 	 2077.00 
Z2 5 2 9 	 2012.00 
Z2 5 0 10 	 1780.00 
Z2 4 7 22 	 2072.00 
Z2 5 7 23 	 1928.00 
Z2 5 5 24 	 1768.00 
Z2 5 3 25 	 2163.00 
Z2 5 1 26 	 2277.00 
truck weigth 2: 19935.00 axle 1: 9968.03 axle2: 9966.97 media kg/km:6.29
Z3 3 6 6 	 2009.00 
Z3 3 2 7 	 2294.00 
Z3 4 5 8 	 2232.00 
Z3 4 3 9 	 1837.00 
Z3 4 1 10 	 1723.00 
Z3 3 7 22 	 2240.00 
Z3 3 3 23 	 2075.00 
Z3 4 6 24 	 1991.00 
Z3 4 4 25 	 1874.00 
Z3 4 2 26 	 1706.00 
truck weigth 3: 19981.00 axle 1: 10171.67 axle2: 9809.33 media kg/km:6.45
