GAP:; 0.00;  F.O:; 10777.00; Tiempo:;839.95; 
ROUTING 
X0;0;3;987.00 
X0;3;1;361.00 
X0;1;0;1311.00 
ruta 0;2659.00 
X1;0;3;987.00 
X1;3;2;243.00 
X1;2;0;918.00 
ruta 1;4807.00 
X2;0;4;1240.00 
X2;4;5;397.00 
X2;5;0;1531.00 
ruta 2;7975.00 
X3;0;4;1240.00 
X3;4;2;644.00 
X3;2;0;918.00 
ruta 3;10777.00 
PACKING 
Z0 1 7 3 	 748.00 
Z0 1 0 4 	 1130.00 
Z0 1 1 5 	 708.00 
Z0 1 4 6 	 1022.00 
Z0 1 15 7 	 1109.00 
Z0 1 6 8 	 1068.00 
Z0 1 5 9 	 1241.00 
Z0 1 13 10 	 1189.00 
Z0 3 4 11 	 714.00 
Z0 3 3 12 	 1234.00 
Z0 1 8 19 	 866.00 
Z0 1 10 20 	 890.00 
Z0 1 9 21 	 714.00 
Z0 1 2 22 	 884.00 
Z0 1 12 23 	 1180.00 
Z0 1 14 24 	 1153.00 
Z0 1 11 25 	 1203.00 
Z0 1 3 26 	 1124.00 
Z0 3 0 27 	 709.00 
Z0 3 2 28 	 1144.00 
truck weigth 0: 20030.00 axle 1: 10424.53 axle2: 9605.47 media kg/km:7.53
Z1 2 8 3 	 1134.00 
Z1 2 0 4 	 870.00 
Z1 2 2 5 	 1116.00 
Z1 2 10 6 	 1110.00 
Z1 3 5 7 	 760.00 
Z1 3 10 8 	 942.00 
Z1 3 6 9 	 1048.00 
Z1 3 13 10 	 1178.00 
Z1 3 15 11 	 1176.00 
Z1 3 11 12 	 1243.00 
Z1 2 15 19 	 824.00 
Z1 2 1 20 	 856.00 
Z1 2 14 21 	 847.00 
Z1 2 6 22 	 932.00 
Z1 3 8 23 	 764.00 
Z1 3 12 24 	 822.00 
Z1 3 1 25 	 1144.00 
Z1 3 14 26 	 941.00 
Z1 3 9 27 	 1272.00 
Z1 3 7 28 	 1201.00 
truck weigth 1: 20180.00 axle 1: 10430.24 axle2: 9749.76 media kg/km:9.39
Z2 5 14 3 	 891.00 
Z2 5 12 4 	 811.00 
Z2 5 10 5 	 797.00 
Z2 5 8 6 	 1286.00 
Z2 5 6 7 	 1252.00 
Z2 5 4 8 	 759.00 
Z2 5 2 9 	 876.00 
Z2 5 0 10 	 1292.00 
Z2 4 5 11 	 768.00 
Z2 4 0 12 	 1291.00 
Z2 5 15 19 	 798.00 
Z2 5 13 20 	 779.00 
Z2 5 11 21 	 1071.00 
Z2 5 9 22 	 928.00 
Z2 5 7 23 	 933.00 
Z2 5 5 24 	 1232.00 
Z2 5 3 25 	 935.00 
Z2 5 1 26 	 808.00 
Z2 4 7 27 	 1067.00 
Z2 4 1 28 	 1192.00 
truck weigth 2: 19766.00 axle 1: 10285.96 axle2: 9480.04 media kg/km:6.24
Z3 2 12 3 	 820.00 
Z3 2 9 4 	 728.00 
Z3 2 5 5 	 1240.00 
Z3 2 3 6 	 766.00 
Z3 4 14 7 	 1059.00 
Z3 4 12 8 	 1178.00 
Z3 4 10 9 	 1058.00 
Z3 4 8 10 	 1236.00 
Z3 4 4 11 	 1286.00 
Z3 4 2 12 	 856.00 
Z3 2 13 19 	 822.00 
Z3 2 11 20 	 757.00 
Z3 2 7 21 	 799.00 
Z3 2 4 22 	 978.00 
Z3 4 15 23 	 1202.00 
Z3 4 13 24 	 1221.00 
Z3 4 11 25 	 929.00 
Z3 4 9 26 	 1072.00 
Z3 4 6 27 	 952.00 
Z3 4 3 28 	 1065.00 
truck weigth 3: 20024.00 axle 1: 10377.39 axle2: 9646.61 media kg/km:7.15
