#truck 1
1 13500 2450 2450 20411 10432 914 9979 12716 32
#pallet
1 1200 800 145 25
#demand 40
1 1 2014
2 1 1986
3 1 1854
4 2 2146
5 2 2203
6 2 1797
7 3 2121
8 3 1879
9 4 1849
10 4 2151
11 4 1913
12 5 2087
13 6 2198
14 6 1802
15 7 2180
16 7 1820
17 7 2141
18 8 1859
19 8 1960
20 9 2040
21 10 2120
22 10 1880
23 10 2033
24 11 1967
25 11 2248
26 11 1752
27 12 1989
28 12 2011
29 12 1985
30 12 2015
31 13 2247
32 13 1753
33 13 1768
34 13 2232
35 14 1846
36 14 2154
37 14 1705
38 14 2295
39 15 1818
40 15 2182
#distances 15 15
0	1311	918	987	1240	1531	910	681	861	1044	1479	1013	1001	961	1634	697
1311	0	575	361	1127	1508	607	671	686	607	1317	309	556	558	571	641
918	575	0	243	644	1040	34	543	112	151	882	318	86	44	721	271
987	361	243	0	873	1268	277	437	347	339	1099	76	264	245	688	293
1240	1127	644	873	0	397	615	1150	575	538	255	946	610	631	918	854
1531	1508	1040	1268	397	0	1010	1535	967	932	206	1341	1005	1027	1216	1239
910	607	34	277	615	1010	0	562	80	143	855	351	93	59	735	282
681	671	543	437	1150	1535	562	0	580	692	1400	422	616	576	1121	297
861	686	112	347	575	967	80	580	0	184	822	421	162	137	799	286
1044	607	151	339	538	932	143	692	184	0	760	411	80	116	621	421
1479	1317	882	1099	255	206	855	1400	822	760	0	1170	837	863	1011	1104
1013	309	318	76	946	1341	351	422	421	411	1170	0	337	319	701	333
1001	556	86	264	610	1005	93	616	162	80	837	337	0	43	643	354
961	558	44	245	631	1027	59	576	137	116	863	319	43	0	679	311
1634	571	721	688	918	1216	735	1121	799	621	1011	701	643	679	0	949
697	641	271	293	854	1239	282	297	286	421	1104	333	354	311	949	0
