#truck 1
1 13500 2450 2450 20411 10432 914 9979 12716 32
#pallet
1 1200 800 145 25
#demand 80
1 1 1282
2 1 718
3 1 1003
4 1 997
5 1 1061
6 1 939
7 1 1136
8 2 864
9 2 1144
10 2 856
11 2 1168
12 3 832
13 3 1227
14 3 773
15 3 753
16 3 1247
17 3 896
18 4 1104
19 4 1275
20 4 725
21 4 992
22 4 1008
23 4 989
24 4 1011
25 5 882
26 5 1118
27 5 797
28 5 1203
29 5 1167
30 5 833
31 5 822
32 5 1178
33 5 1169
34 6 831
35 6 707
36 6 1293
37 6 946
38 6 1054
39 7 1078
40 7 922
41 7 717
42 7 1283
43 7 1187
44 8 813
45 8 706
46 8 1294
47 8 1276
48 9 724
49 9 1199
50 9 801
51 9 1186
52 9 814
53 9 1104
54 9 896
55 9 1004
56 9 996
57 10 722
58 10 1278
59 11 866
60 11 1134
61 12 1141
62 12 859
63 12 992
64 12 1008
65 13 1004
66 13 996
67 13 1261
68 13 739
69 14 953
70 14 1047
71 14 914
72 14 1086
73 14 890
74 14 1110
75 15 1135
76 15 865
77 15 855
78 15 1145
79 15 1265
80 15 735
#distances 15 15
0	1311	918	987	1240	1531	910	681	861	1044	1479	1013	1001	961	1634	697
1311	0	575	361	1127	1508	607	671	686	607	1317	309	556	558	571	641
918	575	0	243	644	1040	34	543	112	151	882	318	86	44	721	271
987	361	243	0	873	1268	277	437	347	339	1099	76	264	245	688	293
1240	1127	644	873	0	397	615	1150	575	538	255	946	610	631	918	854
1531	1508	1040	1268	397	0	1010	1535	967	932	206	1341	1005	1027	1216	1239
910	607	34	277	615	1010	0	562	80	143	855	351	93	59	735	282
681	671	543	437	1150	1535	562	0	580	692	1400	422	616	576	1121	297
861	686	112	347	575	967	80	580	0	184	822	421	162	137	799	286
1044	607	151	339	538	932	143	692	184	0	760	411	80	116	621	421
1479	1317	882	1099	255	206	855	1400	822	760	0	1170	837	863	1011	1104
1013	309	318	76	946	1341	351	422	421	411	1170	0	337	319	701	333
1001	556	86	264	610	1005	93	616	162	80	837	337	0	43	643	354
961	558	44	245	631	1027	59	576	137	116	863	319	43	0	679	311
1634	571	721	688	918	1216	735	1121	799	621	1011	701	643	679	0	949
697	641	271	293	854	1239	282	297	286	421	1104	333	354	311	949	0
