#truck 1
1 13500 2450 2450 20411 10432 914 9979 12716 32
#pallet
1 1200 800 145 25
#demand 80
1 1 1143
2 2 857
3 3 1776
4 4 224
5 5 562
6 6 1438
7 7 1701
8 8 299
9 9 1855
10 10 145
11 11 1316
12 12 684
13 13 487
14 14 1513
15 15 415
16 1 1585
17 2 1653
18 3 347
19 4 1123
20 5 877
21 6 753
22 7 1247
23 8 587
24 9 1413
25 10 1097
26 11 903
27 12 1464
28 13 536
29 14 839
30 15 1161
31 1 505
32 2 1495
33 3 256
34 4 1744
35 5 256
36 6 1744
37 7 1695
38 8 305
39 9 588
40 10 1412
41 11 503
42 12 1497
43 13 381
44 14 1619
45 15 1221
46 1 779
47 2 480
48 3 1520
49 4 1393
50 5 607
51 6 1875
52 7 125
53 8 1263
54 9 737
55 10 262
56 11 1738
57 12 105
58 13 1895
59 14 513
60 15 1487
61 1 517
62 2 1483
63 3 182
64 4 1818
65 5 263
66 6 1737
67 7 1797
68 8 203
69 9 814
70 10 1186
71 11 1391
72 12 609
73 13 1203
74 14 797
75 15 1077
76 1 923
77 2 891
78 3 1109
79 4 1079
80 5 921
#distances 15 15
0	1311	918	987	1240	1531	910	681	861	1044	1479	1013	1001	961	1634	697
1311	0	575	361	1127	1508	607	671	686	607	1317	309	556	558	571	641
918	575	0	243	644	1040	34	543	112	151	882	318	86	44	721	271
987	361	243	0	873	1268	277	437	347	339	1099	76	264	245	688	293
1240	1127	644	873	0	397	615	1150	575	538	255	946	610	631	918	854
1531	1508	1040	1268	397	0	1010	1535	967	932	206	1341	1005	1027	1216	1239
910	607	34	277	615	1010	0	562	80	143	855	351	93	59	735	282
681	671	543	437	1150	1535	562	0	580	692	1400	422	616	576	1121	297
861	686	112	347	575	967	80	580	0	184	822	421	162	137	799	286
1044	607	151	339	538	932	143	692	184	0	760	411	80	116	621	421
1479	1317	882	1099	255	206	855	1400	822	760	0	1170	837	863	1011	1104
1013	309	318	76	946	1341	351	422	421	411	1170	0	337	319	701	333
1001	556	86	264	610	1005	93	616	162	80	837	337	0	43	643	354
961	558	44	245	631	1027	59	576	137	116	863	319	43	0	679	311
1634	571	721	688	918	1216	735	1121	799	621	1011	701	643	679	0	949
697	641	271	293	854	1239	282	297	286	421	1104	333	354	311	949	0
