#truck 1
1 13500 2450 2450 20411 10432 914 9979 12716 32
#pallet
1 1200 800 145 25
#demand 80
1 1 806
2 1 1194
3 1 1015
4 1 985
5 2 1234
6 2 766
7 3 920
8 3 1080
9 3 1011
10 3 989
11 3 1291
12 3 709
13 3 729
14 4 1271
15 4 1211
16 4 789
17 4 806
18 4 1194
19 4 810
20 4 1190
21 4 774
22 4 1226
23 5 1026
24 5 974
25 5 907
26 5 1093
27 6 1036
28 6 964
29 6 1181
30 7 819
31 7 1238
32 7 762
33 7 1058
34 7 942
35 7 1089
36 7 911
37 8 1218
38 8 782
39 8 1058
40 8 942
41 8 826
42 8 1174
43 8 716
44 8 1284
45 9 1055
46 9 945
47 9 949
48 9 1051
49 10 724
50 10 1276
51 11 723
52 11 1277
53 11 1149
54 11 851
55 11 1296
56 11 704
57 11 1125
58 11 875
59 12 891
60 12 1109
61 12 1011
62 12 989
63 13 761
64 13 1239
65 13 1238
66 13 762
67 13 915
68 13 1085
69 14 1265
70 14 735
71 14 1200
72 14 800
73 14 967
74 14 1033
75 14 1076
76 14 924
77 14 1065
78 15 935
79 15 895
80 15 1105
#distances 15 15
0	1311	918	987	1240	1531	910	681	861	1044	1479	1013	1001	961	1634	697
1311	0	575	361	1127	1508	607	671	686	607	1317	309	556	558	571	641
918	575	0	243	644	1040	34	543	112	151	882	318	86	44	721	271
987	361	243	0	873	1268	277	437	347	339	1099	76	264	245	688	293
1240	1127	644	873	0	397	615	1150	575	538	255	946	610	631	918	854
1531	1508	1040	1268	397	0	1010	1535	967	932	206	1341	1005	1027	1216	1239
910	607	34	277	615	1010	0	562	80	143	855	351	93	59	735	282
681	671	543	437	1150	1535	562	0	580	692	1400	422	616	576	1121	297
861	686	112	347	575	967	80	580	0	184	822	421	162	137	799	286
1044	607	151	339	538	932	143	692	184	0	760	411	80	116	621	421
1479	1317	882	1099	255	206	855	1400	822	760	0	1170	837	863	1011	1104
1013	309	318	76	946	1341	351	422	421	411	1170	0	337	319	701	333
1001	556	86	264	610	1005	93	616	162	80	837	337	0	43	643	354
961	558	44	245	631	1027	59	576	137	116	863	319	43	0	679	311
1634	571	721	688	918	1216	735	1121	799	621	1011	701	643	679	0	949
697	641	271	293	854	1239	282	297	286	421	1104	333	354	311	949	0
