#truck 1
1 13500 2450 2450 20411 10432 914 9979 12716 32
#pallet
1 1200 800 145 25
#demand 120
1 1 536
2 2 764
3 3 439
4 4 861
5 5 674
6 6 626
7 7 682
8 8 618
9 9 422
10 10 878
11 11 431
12 12 869
13 13 350
14 14 950
15 15 983
16 1 317
17 2 337
18 3 963
19 4 975
20 5 325
21 6 561
22 7 739
23 8 727
24 9 573
25 10 710
26 11 590
27 12 448
28 13 852
29 14 961
30 15 339
31 1 348
32 2 952
33 3 354
34 4 946
35 5 420
36 6 880
37 7 705
38 8 595
39 9 702
40 10 598
41 11 642
42 12 658
43 13 470
44 14 830
45 15 833
46 1 467
47 2 470
48 3 830
49 4 515
50 5 785
51 6 841
52 7 459
53 8 829
54 9 471
55 10 846
56 11 454
57 12 783
58 13 517
59 14 758
60 15 542
61 1 669
62 2 631
63 3 393
64 4 907
65 5 784
66 6 516
67 7 544
68 8 756
69 9 782
70 10 518
71 11 976
72 12 324
73 13 565
74 14 735
75 15 416
76 1 884
77 2 521
78 3 779
79 4 384
80 5 916
81 6 696
82 7 604
83 8 470
84 9 830
85 10 312
86 11 988
87 12 529
88 13 771
89 14 807
90 15 493
91 1 820
92 2 480
93 3 674
94 4 626
95 5 833
96 6 467
97 7 845
98 8 455
99 9 823
100 10 477
101 11 346
102 12 954
103 13 579
104 14 721
105 15 627
106 1 673
107 2 374
108 3 926
109 4 951
110 5 349
111 6 926
112 7 374
113 8 472
114 9 828
115 10 954
116 11 346
117 12 812
118 13 488
119 14 861
120 15 439
#distances 15 15
0	1311	918	987	1240	1531	910	681	861	1044	1479	1013	1001	961	1634	697
1311	0	575	361	1127	1508	607	671	686	607	1317	309	556	558	571	641
918	575	0	243	644	1040	34	543	112	151	882	318	86	44	721	271
987	361	243	0	873	1268	277	437	347	339	1099	76	264	245	688	293
1240	1127	644	873	0	397	615	1150	575	538	255	946	610	631	918	854
1531	1508	1040	1268	397	0	1010	1535	967	932	206	1341	1005	1027	1216	1239
910	607	34	277	615	1010	0	562	80	143	855	351	93	59	735	282
681	671	543	437	1150	1535	562	0	580	692	1400	422	616	576	1121	297
861	686	112	347	575	967	80	580	0	184	822	421	162	137	799	286
1044	607	151	339	538	932	143	692	184	0	760	411	80	116	621	421
1479	1317	882	1099	255	206	855	1400	822	760	0	1170	837	863	1011	1104
1013	309	318	76	946	1341	351	422	421	411	1170	0	337	319	701	333
1001	556	86	264	610	1005	93	616	162	80	837	337	0	43	643	354
961	558	44	245	631	1027	59	576	137	116	863	319	43	0	679	311
1634	571	721	688	918	1216	735	1121	799	621	1011	701	643	679	0	949
697	641	271	293	854	1239	282	297	286	421	1104	333	354	311	949	0
