GAP:; 0.00;  F.O:; 7147.00; Tiempo:;5.80; 
ROUTING 
X0;0;7;681.00 
X0;7;3;437.00 
X0;3;11;76.00 
X0;11;1;309.00 
X0;1;14;571.00 
X0;14;10;1011.00 
X0;10;5;206.00 
X0;5;4;397.00 
X0;4;0;1240.00 
ruta 0;4928.00 
X1;0;8;861.00 
X1;8;6;80.00 
X1;6;9;143.00 
X1;9;12;80.00 
X1;12;13;43.00 
X1;13;2;44.00 
X1;2;15;271.00 
X1;15;0;697.00 
ruta 1;7147.00 
PACKING 
Z0 5 0 8 	 1706.00 
Z0 14 0 9 	 2092.00 
Z0 11 0 10 	 2299.00 
Z0 7 0 11 	 1957.00 
Z0 4 0 24 	 1801.00 
Z0 10 0 25 	 1995.00 
Z0 1 0 26 	 1816.00 
Z0 3 0 27 	 2199.00 
truck weigth 0: 15865.00 axle 1: 6272.61 axle2: 9592.39 media kg/km:3.22
Z1 15 0 9 	 2003.00 
Z1 13 0 10 	 1908.00 
Z1 9 0 11 	 2005.00 
Z1 8 0 12 	 2043.00 
Z1 2 0 26 	 2184.00 
Z1 12 0 27 	 1701.00 
Z1 6 0 28 	 2294.00 
truck weigth 1: 14138.00 axle 1: 4466.87 axle2: 9671.13 media kg/km:6.37
