GAP:; 0.00;  F.O:; 7147.00; Tiempo:;10.83; 
ROUTING 
X0;0;4;1240.00 
X0;4;5;397.00 
X0;5;10;206.00 
X0;10;14;1011.00 
X0;14;1;571.00 
X0;1;11;309.00 
X0;11;3;76.00 
X0;3;7;437.00 
X0;7;0;681.00 
ruta 0;4928.00 
X1;0;15;697.00 
X1;15;2;271.00 
X1;2;13;44.00 
X1;13;12;43.00 
X1;12;9;80.00 
X1;9;6;143.00 
X1;6;8;80.00 
X1;8;0;861.00 
ruta 1;7147.00 
PACKING 
Z0 3 0 8 	 2205.00 
Z0 1 0 9 	 2286.00 
Z0 10 0 10 	 1808.00 
Z0 4 0 11 	 1795.00 
Z0 7 0 24 	 2203.00 
Z0 11 0 25 	 1979.00 
Z0 14 0 26 	 2209.00 
Z0 5 0 27 	 1828.00 
truck weigth 0: 16313.00 axle 1: 6606.79 axle2: 9706.21 media kg/km:3.31
Z1 8 0 9 	 1797.00 
Z1 9 0 10 	 2192.00 
Z1 13 0 11 	 1791.00 
Z1 15 0 12 	 2014.00 
Z1 6 0 26 	 2172.00 
Z1 12 0 27 	 2021.00 
Z1 2 0 28 	 1714.00 
truck weigth 1: 13701.00 axle 1: 4368.47 axle2: 9332.53 media kg/km:6.17
