GAP:; 0.00;  F.O:; 7147.00; Tiempo:;11.38; 
ROUTING 
X0;0;7;681.00 
X0;7;3;437.00 
X0;3;11;76.00 
X0;11;1;309.00 
X0;1;14;571.00 
X0;14;10;1011.00 
X0;10;5;206.00 
X0;5;4;397.00 
X0;4;0;1240.00 
ruta 0;4928.00 
X1;0;8;861.00 
X1;8;6;80.00 
X1;6;9;143.00 
X1;9;12;80.00 
X1;12;13;43.00 
X1;13;2;44.00 
X1;2;15;271.00 
X1;15;0;697.00 
ruta 1;7147.00 
PACKING 
Z0 4 0 9 	 1670.00 
Z0 5 0 10 	 542.00 
Z0 14 0 11 	 1150.00 
Z0 1 1 12 	 1338.00 
Z0 11 0 13 	 1301.00 
Z0 3 1 14 	 1426.00 
Z0 7 0 15 	 1202.00 
Z0 4 1 25 	 1458.00 
Z0 5 1 26 	 428.00 
Z0 10 0 27 	 599.00 
Z0 1 2 28 	 105.00 
Z0 1 0 29 	 662.00 
Z0 3 2 30 	 330.00 
Z0 3 0 31 	 574.00 
truck weigth 0: 12785.00 axle 1: 3096.09 axle2: 9688.91 media kg/km:2.59
Z1 15 0 5 	 1892.00 
Z1 2 1 6 	 659.00 
Z1 13 0 7 	 850.00 
Z1 12 1 8 	 327.00 
Z1 9 2 9 	 1401.00 
Z1 9 0 10 	 487.00 
Z1 6 1 11 	 515.00 
Z1 8 0 12 	 798.00 
Z1 15 1 21 	 108.00 
Z1 2 2 22 	 1341.00 
Z1 2 0 23 	 1895.00 
Z1 12 2 24 	 1673.00 
Z1 12 0 25 	 699.00 
Z1 9 1 26 	 1513.00 
Z1 6 2 27 	 1485.00 
Z1 6 0 28 	 1572.00 
truck weigth 1: 17215.00 axle 1: 8030.50 axle2: 9184.50 media kg/km:7.76
