GAP:; 0.00;  F.O:; 7297.00; Tiempo:;2404.86; 
ROUTING 
X0;0;4;1240.00 
X0;4;5;397.00 
X0;5;10;206.00 
X0;10;14;1011.00 
X0;14;1;571.00 
X0;1;11;309.00 
X0;11;3;76.00 
X0;3;0;987.00 
ruta 0;4797.00 
X1;0;8;861.00 
X1;8;6;80.00 
X1;6;9;143.00 
X1;9;12;80.00 
X1;12;13;43.00 
X1;13;2;44.00 
X1;2;15;271.00 
X1;15;7;297.00 
X1;7;0;681.00 
ruta 1;7297.00 
PACKING 
Z0 3 2 1 	 780.00 
Z0 3 0 2 	 783.00 
Z0 11 2 3 	 329.00 
Z0 11 0 4 	 735.00 
Z0 1 2 5 	 787.00 
Z0 1 0 6 	 464.00 
Z0 14 2 7 	 874.00 
Z0 14 0 8 	 784.00 
Z0 10 2 9 	 668.00 
Z0 10 0 10 	 883.00 
Z0 5 2 11 	 938.00 
Z0 5 0 12 	 543.00 
Z0 4 2 13 	 520.00 
Z0 4 0 14 	 517.00 
Z0 3 3 17 	 847.00 
Z0 3 1 18 	 377.00 
Z0 11 3 19 	 493.00 
Z0 11 1 20 	 390.00 
Z0 1 3 21 	 959.00 
Z0 1 1 22 	 725.00 
Z0 14 3 23 	 687.00 
Z0 14 1 24 	 805.00 
Z0 10 3 25 	 807.00 
Z0 10 1 26 	 910.00 
Z0 5 3 27 	 320.00 
Z0 5 1 28 	 504.00 
Z0 4 3 29 	 980.00 
Z0 4 1 30 	 796.00 
truck weigth 0: 19205.00 axle 1: 10151.23 axle2: 9053.77 media kg/km:4.00
Z1 7 2 0 	 602.00 
Z1 7 0 1 	 670.00 
Z1 15 2 2 	 341.00 
Z1 15 0 3 	 575.00 
Z1 2 2 4 	 513.00 
Z1 2 0 5 	 836.00 
Z1 13 2 6 	 426.00 
Z1 13 0 7 	 516.00 
Z1 12 2 8 	 971.00 
Z1 12 0 9 	 565.00 
Z1 9 2 10 	 632.00 
Z1 9 0 11 	 417.00 
Z1 6 2 12 	 362.00 
Z1 6 0 13 	 757.00 
Z1 8 2 14 	 698.00 
Z1 8 0 15 	 630.00 
Z1 7 3 16 	 306.00 
Z1 7 1 17 	 437.00 
Z1 15 3 18 	 613.00 
Z1 15 1 19 	 495.00 
Z1 2 3 20 	 453.00 
Z1 2 1 21 	 923.00 
Z1 13 3 22 	 494.00 
Z1 13 1 23 	 505.00 
Z1 12 3 24 	 806.00 
Z1 12 1 25 	 795.00 
Z1 9 3 26 	 586.00 
Z1 9 1 27 	 793.00 
Z1 6 3 28 	 994.00 
Z1 6 1 29 	 863.00 
Z1 8 3 30 	 714.00 
Z1 8 1 31 	 507.00 
truck weigth 1: 19795.00 axle 1: 9970.65 axle2: 9824.35 media kg/km:7.92
