GAP:; 0.18;  F.O:; 11283.00; Tiempo:;3602.52; 
ROUTING 
X0;0;7;681.00 
X0;7;1;671.00 
X0;1;3;361.00 
X0;3;2;243.00 
X0;2;0;918.00 
ruta 0;2874.00 
X1;0;10;1479.00 
X1;10;9;760.00 
X1;9;8;184.00 
X1;8;0;861.00 
ruta 1;6158.00 
X2;0;5;1531.00 
X2;5;10;206.00 
X2;10;4;255.00 
X2;4;0;1240.00 
ruta 2;9390.00 
X3;0;8;861.00 
X3;8;6;80.00 
X3;6;2;34.00 
X3;2;0;918.00 
ruta 3;11283.00 
PACKING 
Z0 2 12 3 	 320.00 
Z0 2 0 4 	 623.00 
Z0 3 3 5 	 317.00 
Z0 3 5 6 	 310.00 
Z0 3 0 7 	 1680.00 
Z0 3 1 8 	 1732.00 
Z0 1 0 9 	 1152.00 
Z0 7 2 10 	 1842.00 
Z0 7 3 11 	 721.00 
Z0 7 1 12 	 158.00 
Z0 2 11 19 	 769.00 
Z0 2 3 20 	 1679.00 
Z0 3 4 21 	 1683.00 
Z0 3 2 22 	 268.00 
Z0 3 6 23 	 1690.00 
Z0 1 2 24 	 1349.00 
Z0 1 1 25 	 848.00 
Z0 1 3 26 	 651.00 
Z0 7 0 27 	 499.00 
Z0 7 4 28 	 1279.00 
truck weigth 0: 19570.00 axle 1: 10405.37 axle2: 9164.63 media kg/km:6.81
Z1 8 0 2 	 151.00 
Z1 8 2 3 	 194.00 
Z1 9 3 4 	 248.00 
Z1 9 11 5 	 194.00 
Z1 9 10 6 	 1289.00 
Z1 9 1 7 	 1749.00 
Z1 9 6 8 	 1582.00 
Z1 9 4 9 	 1752.00 
Z1 10 8 10 	 393.00 
Z1 10 0 11 	 1806.00 
Z1 10 2 12 	 1285.00 
Z1 8 3 18 	 1806.00 
Z1 9 5 19 	 418.00 
Z1 9 8 20 	 389.00 
Z1 9 0 21 	 811.00 
Z1 9 2 22 	 251.00 
Z1 9 9 23 	 711.00 
Z1 9 7 24 	 1611.00 
Z1 10 9 25 	 749.00 
Z1 10 3 26 	 484.00 
Z1 10 7 27 	 1607.00 
Z1 10 6 28 	 631.00 
truck weigth 1: 20111.00 axle 1: 10335.05 axle2: 9775.95 media kg/km:6.12
Z2 4 1 3 	 1681.00 
Z2 10 5 4 	 1369.00 
Z2 10 4 5 	 1516.00 
Z2 5 10 6 	 187.00 
Z2 5 6 7 	 359.00 
Z2 5 1 8 	 1316.00 
Z2 5 7 9 	 1641.00 
Z2 5 9 10 	 1878.00 
Z2 5 11 11 	 1813.00 
Z2 5 12 12 	 1448.00 
Z2 4 0 19 	 319.00 
Z2 10 10 20 	 1251.00 
Z2 10 1 21 	 715.00 
Z2 5 8 22 	 122.00 
Z2 5 5 23 	 250.00 
Z2 5 0 24 	 684.00 
Z2 5 3 25 	 220.00 
Z2 5 4 26 	 1750.00 
Z2 5 2 27 	 1780.00 
truck weigth 2: 20299.00 axle 1: 10359.13 axle2: 9939.87 media kg/km:6.28
Z3 2 10 3 	 1231.00 
Z3 2 8 4 	 1304.00 
Z3 2 6 5 	 1455.00 
Z3 2 4 6 	 771.00 
Z3 2 1 7 	 1377.00 
Z3 6 4 8 	 1055.00 
Z3 6 2 9 	 295.00 
Z3 6 0 10 	 552.00 
Z3 8 5 11 	 1475.00 
Z3 8 1 12 	 1849.00 
Z3 2 9 20 	 696.00 
Z3 2 7 21 	 545.00 
Z3 2 5 22 	 1229.00 
Z3 2 2 23 	 321.00 
Z3 6 5 24 	 1501.00 
Z3 6 3 25 	 945.00 
Z3 6 1 26 	 1705.00 
Z3 8 6 27 	 1189.00 
Z3 8 4 28 	 525.00 
truck weigth 3: 20020.00 axle 1: 10212.43 axle2: 9807.57 media kg/km:10.58
