GAP:; 0.26;  F.O:; 11790.00; Tiempo:;3675.48; 
ROUTING 
X0;0;3;987.00 
X0;3;1;361.00 
X0;1;9;607.00 
X0;9;6;143.00 
X0;6;2;34.00 
X0;2;0;918.00 
ruta 0;3050.00 
X1;0;5;1531.00 
X1;5;10;206.00 
X1;10;4;255.00 
X1;4;0;1240.00 
ruta 1;6282.00 
X2;0;4;1240.00 
X2;4;6;615.00 
X2;6;2;34.00 
X2;2;8;112.00 
X2;8;9;184.00 
X2;9;0;1044.00 
ruta 2;9511.00 
X3;0;7;681.00 
X3;7;3;437.00 
X3;3;2;243.00 
X3;2;0;918.00 
ruta 3;11790.00 
PACKING 
Z0 6 1 6 	 2072.00 
Z0 1 3 7 	 2210.00 
Z0 1 4 8 	 2047.00 
Z0 1 0 9 	 1738.00 
Z0 3 0 10 	 1766.00 
Z0 2 0 22 	 1953.00 
Z0 9 0 23 	 2184.00 
Z0 1 1 24 	 2262.00 
Z0 1 2 25 	 1790.00 
Z0 3 4 26 	 2125.00 
truck weigth 0: 20147.00 axle 1: 10175.97 axle2: 9971.03 media kg/km:6.61
Z1 10 4 6 	 2043.00 
Z1 10 2 7 	 2294.00 
Z1 10 0 8 	 1801.00 
Z1 5 2 9 	 2022.00 
Z1 5 0 10 	 2093.00 
Z1 4 2 22 	 1844.00 
Z1 10 3 23 	 1957.00 
Z1 10 1 24 	 1706.00 
Z1 5 3 25 	 2156.00 
Z1 5 1 26 	 1978.00 
truck weigth 1: 19894.00 axle 1: 9952.29 axle2: 9941.71 media kg/km:6.16
Z2 8 3 6 	 1816.00 
Z2 8 1 7 	 2157.00 
Z2 2 2 8 	 2181.00 
Z2 4 3 9 	 1907.00 
Z2 4 0 10 	 1875.00 
Z2 9 1 22 	 2199.00 
Z2 8 2 23 	 1843.00 
Z2 8 0 24 	 2056.00 
Z2 6 0 25 	 1844.00 
Z2 4 1 26 	 2156.00 
truck weigth 2: 20034.00 axle 1: 10057.17 axle2: 9976.83 media kg/km:6.20
Z3 3 3 6 	 2221.00 
Z3 3 1 7 	 2234.00 
Z3 7 4 8 	 2017.00 
Z3 7 2 9 	 2230.00 
Z3 7 0 10 	 1928.00 
Z3 2 1 22 	 1819.00 
Z3 3 2 23 	 1779.00 
Z3 7 5 24 	 1944.00 
Z3 7 3 25 	 1983.00 
Z3 7 1 26 	 1770.00 
truck weigth 3: 19925.00 axle 1: 10020.63 axle2: 9904.37 media kg/km:8.74
