GAP:; 0.08;  F.O:; 10923.00; Tiempo:;3600.50; 
ROUTING 
X0;0;7;681.00 
X0;7;1;671.00 
X0;1;3;361.00 
X0;3;0;987.00 
ruta 0;2700.00 
X1;0;6;910.00 
X1;6;2;34.00 
X1;2;7;543.00 
X1;7;0;681.00 
ruta 1;4868.00 
X2;0;8;861.00 
X2;8;9;184.00 
X2;9;4;538.00 
X2;4;0;1240.00 
ruta 2;7691.00 
X3;0;4;1240.00 
X3;4;10;255.00 
X3;10;5;206.00 
X3;5;0;1531.00 
ruta 3;10923.00 
PACKING 
Z0 3 10 1 	 727.00 
Z0 3 8 2 	 439.00 
Z0 3 6 3 	 780.00 
Z0 3 4 4 	 771.00 
Z0 3 2 5 	 327.00 
Z0 3 0 6 	 491.00 
Z0 1 10 7 	 561.00 
Z0 1 8 8 	 536.00 
Z0 1 6 9 	 347.00 
Z0 1 4 10 	 343.00 
Z0 1 2 11 	 864.00 
Z0 1 0 12 	 547.00 
Z0 7 8 13 	 682.00 
Z0 7 4 14 	 623.00 
Z0 7 2 15 	 804.00 
Z0 3 11 17 	 354.00 
Z0 3 9 18 	 350.00 
Z0 3 7 19 	 611.00 
Z0 3 5 20 	 909.00 
Z0 3 3 21 	 976.00 
Z0 3 1 22 	 868.00 
Z0 1 11 23 	 348.00 
Z0 1 9 24 	 431.00 
Z0 1 7 25 	 301.00 
Z0 1 5 26 	 880.00 
Z0 1 3 27 	 448.00 
Z0 1 1 28 	 870.00 
Z0 7 11 29 	 705.00 
Z0 7 6 30 	 850.00 
Z0 7 3 31 	 810.00 
truck weigth 0: 18553.00 axle 1: 8875.95 axle2: 9677.05 media kg/km:6.87
Z1 7 9 1 	 337.00 
Z1 7 5 2 	 566.00 
Z1 7 0 3 	 441.00 
Z1 2 10 4 	 739.00 
Z1 2 8 5 	 764.00 
Z1 2 6 6 	 953.00 
Z1 2 4 7 	 957.00 
Z1 2 2 8 	 436.00 
Z1 2 0 9 	 753.00 
Z1 6 10 10 	 590.00 
Z1 6 8 11 	 626.00 
Z1 6 6 12 	 565.00 
Z1 6 4 13 	 959.00 
Z1 6 2 14 	 513.00 
Z1 6 0 15 	 425.00 
Z1 7 10 17 	 448.00 
Z1 7 7 18 	 611.00 
Z1 7 1 19 	 589.00 
Z1 2 11 20 	 952.00 
Z1 2 9 21 	 869.00 
Z1 2 7 22 	 999.00 
Z1 2 5 23 	 420.00 
Z1 2 3 24 	 852.00 
Z1 2 1 25 	 430.00 
Z1 6 11 26 	 880.00 
Z1 6 9 27 	 317.00 
Z1 6 7 28 	 781.00 
Z1 6 5 29 	 526.00 
Z1 6 3 30 	 635.00 
Z1 6 1 31 	 857.00 
truck weigth 1: 19790.00 axle 1: 9854.27 axle2: 9935.73 media kg/km:9.13
Z2 4 10 1 	 573.00 
Z2 4 2 2 	 973.00 
Z2 9 5 3 	 669.00 
Z2 9 7 4 	 415.00 
Z2 9 2 5 	 654.00 
Z2 9 1 6 	 589.00 
Z2 9 11 7 	 702.00 
Z2 9 10 8 	 961.00 
Z2 8 8 9 	 618.00 
Z2 8 9 10 	 963.00 
Z2 8 10 11 	 852.00 
Z2 8 2 12 	 496.00 
Z2 8 4 13 	 677.00 
Z2 8 11 14 	 595.00 
Z2 4 5 17 	 391.00 
Z2 4 3 18 	 324.00 
Z2 4 0 19 	 809.00 
Z2 9 4 20 	 332.00 
Z2 9 3 21 	 739.00 
Z2 9 9 22 	 975.00 
Z2 9 0 23 	 714.00 
Z2 9 8 24 	 422.00 
Z2 9 6 25 	 979.00 
Z2 8 6 26 	 450.00 
Z2 8 3 27 	 490.00 
Z2 8 5 28 	 734.00 
Z2 8 1 29 	 711.00 
Z2 8 0 30 	 859.00 
Z2 8 7 31 	 689.00 
truck weigth 2: 19355.00 axle 1: 9686.85 axle2: 9668.15 media kg/km:6.86
Z3 5 9 1 	 983.00 
Z3 5 2 2 	 787.00 
Z3 5 8 3 	 674.00 
Z3 5 10 4 	 710.00 
Z3 5 11 5 	 420.00 
Z3 5 6 6 	 735.00 
Z3 10 3 7 	 561.00 
Z3 10 9 8 	 325.00 
Z3 10 2 9 	 646.00 
Z3 10 1 10 	 711.00 
Z3 10 6 11 	 321.00 
Z3 4 4 12 	 529.00 
Z3 4 1 13 	 432.00 
Z3 4 8 14 	 861.00 
Z3 4 7 15 	 689.00 
Z3 5 3 16 	 665.00 
Z3 5 1 17 	 443.00 
Z3 5 0 18 	 875.00 
Z3 5 7 19 	 519.00 
Z3 5 5 20 	 774.00 
Z3 5 4 21 	 341.00 
Z3 10 5 22 	 631.00 
Z3 10 11 23 	 598.00 
Z3 10 10 24 	 339.00 
Z3 10 4 25 	 968.00 
Z3 10 7 26 	 885.00 
Z3 10 0 27 	 586.00 
Z3 10 8 28 	 878.00 
Z3 4 6 29 	 520.00 
Z3 4 9 30 	 950.00 
Z3 4 11 31 	 946.00 
truck weigth 3: 20302.00 axle 1: 10388.50 axle2: 9913.50 media kg/km:6.28
