GAP:; 0.03;  F.O:; 10363.00; Tiempo:;3600.61; 
ROUTING 
X0;0;7;681.00 
X0;7;1;671.00 
X0;1;0;1311.00 
ruta 0;2663.00 
X1;0;3;987.00 
X1;3;2;243.00 
X1;2;6;34.00 
X1;6;0;910.00 
ruta 1;4837.00 
X2;0;8;861.00 
X2;8;4;575.00 
X2;4;10;255.00 
X2;10;5;206.00 
X2;5;0;1531.00 
ruta 2;8265.00 
X3;0;8;861.00 
X3;8;9;184.00 
X3;9;6;143.00 
X3;6;0;910.00 
ruta 3;10363.00 
PACKING 
Z0 1 9 1 	 537.00 
Z0 1 7 2 	 313.00 
Z0 1 5 3 	 375.00 
Z0 1 3 4 	 449.00 
Z0 1 1 5 	 402.00 
Z0 7 18 6 	 510.00 
Z0 7 16 7 	 877.00 
Z0 7 14 8 	 689.00 
Z0 7 12 9 	 898.00 
Z0 7 10 10 	 372.00 
Z0 7 8 11 	 730.00 
Z0 7 6 12 	 302.00 
Z0 7 4 13 	 877.00 
Z0 7 2 14 	 595.00 
Z0 7 0 15 	 406.00 
Z0 1 8 18 	 763.00 
Z0 1 6 19 	 987.00 
Z0 1 4 20 	 925.00 
Z0 1 2 21 	 851.00 
Z0 1 0 22 	 898.00 
Z0 7 17 23 	 790.00 
Z0 7 15 24 	 423.00 
Z0 7 13 25 	 611.00 
Z0 7 11 26 	 402.00 
Z0 7 9 27 	 928.00 
Z0 7 7 28 	 570.00 
Z0 7 5 29 	 998.00 
Z0 7 3 30 	 423.00 
Z0 7 1 31 	 705.00 
truck weigth 0: 18606.00 axle 1: 9054.42 axle2: 9551.58 media kg/km:6.99
Z1 6 10 1 	 894.00 
Z1 6 0 2 	 943.00 
Z1 2 10 3 	 471.00 
Z1 2 8 4 	 502.00 
Z1 2 6 5 	 454.00 
Z1 2 4 6 	 626.00 
Z1 2 2 7 	 426.00 
Z1 2 0 8 	 384.00 
Z1 3 12 9 	 691.00 
Z1 3 10 10 	 822.00 
Z1 3 8 11 	 754.00 
Z1 3 6 12 	 435.00 
Z1 3 4 13 	 983.00 
Z1 3 2 14 	 423.00 
Z1 3 0 15 	 562.00 
Z1 6 3 18 	 619.00 
Z1 2 11 19 	 829.00 
Z1 2 9 20 	 798.00 
Z1 2 7 21 	 846.00 
Z1 2 5 22 	 674.00 
Z1 2 3 23 	 874.00 
Z1 2 1 24 	 916.00 
Z1 3 13 25 	 609.00 
Z1 3 11 26 	 478.00 
Z1 3 9 27 	 546.00 
Z1 3 7 28 	 865.00 
Z1 3 5 29 	 317.00 
Z1 3 3 30 	 877.00 
Z1 3 1 31 	 738.00 
truck weigth 1: 19356.00 axle 1: 9616.51 axle2: 9739.49 media kg/km:8.90
Z2 5 1 0 	 532.00 
Z2 5 2 1 	 768.00 
Z2 10 2 2 	 879.00 
Z2 10 1 3 	 421.00 
Z2 4 14 4 	 361.00 
Z2 4 3 5 	 617.00 
Z2 4 2 6 	 683.00 
Z2 4 10 7 	 541.00 
Z2 4 13 8 	 877.00 
Z2 4 11 9 	 759.00 
Z2 4 9 10 	 407.00 
Z2 4 12 11 	 423.00 
Z2 8 5 12 	 955.00 
Z2 8 4 13 	 345.00 
Z2 8 10 14 	 822.00 
Z2 8 8 15 	 333.00 
Z2 5 0 17 	 939.00 
Z2 10 0 18 	 501.00 
Z2 10 3 19 	 430.00 
Z2 10 4 20 	 870.00 
Z2 4 0 21 	 321.00 
Z2 4 5 22 	 813.00 
Z2 4 8 23 	 893.00 
Z2 4 7 24 	 520.00 
Z2 4 1 25 	 979.00 
Z2 4 6 26 	 780.00 
Z2 4 4 27 	 487.00 
Z2 8 13 28 	 564.00 
Z2 8 1 29 	 652.00 
Z2 8 14 30 	 810.00 
Z2 8 9 31 	 967.00 
truck weigth 2: 20249.00 axle 1: 10428.76 axle2: 9820.24 media kg/km:5.91
Z3 6 9 0 	 451.00 
Z3 6 7 1 	 437.00 
Z3 6 5 2 	 721.00 
Z3 6 2 3 	 681.00 
Z3 9 15 4 	 799.00 
Z3 9 13 5 	 561.00 
Z3 9 11 6 	 689.00 
Z3 9 9 7 	 954.00 
Z3 9 7 8 	 353.00 
Z3 9 5 9 	 331.00 
Z3 9 3 10 	 488.00 
Z3 9 1 11 	 356.00 
Z3 8 12 12 	 736.00 
Z3 8 7 13 	 968.00 
Z3 8 3 14 	 797.00 
Z3 8 0 15 	 648.00 
Z3 6 8 17 	 849.00 
Z3 6 6 18 	 863.00 
Z3 6 4 19 	 579.00 
Z3 6 1 20 	 357.00 
Z3 9 14 21 	 739.00 
Z3 9 12 22 	 611.00 
Z3 9 10 23 	 346.00 
Z3 9 8 24 	 947.00 
Z3 9 6 25 	 969.00 
Z3 9 4 26 	 812.00 
Z3 9 2 27 	 944.00 
Z3 9 0 28 	 490.00 
Z3 8 11 29 	 478.00 
Z3 8 6 30 	 332.00 
Z3 8 2 31 	 503.00 
truck weigth 3: 19789.00 axle 1: 10331.31 axle2: 9457.69 media kg/km:9.43
