GAP:; 0.15;  F.O:; 11165.00; Tiempo:;3738.98; 
ROUTING 
X0;0;7;681.00 
X0;7;1;671.00 
X0;1;3;361.00 
X0;3;0;987.00 
ruta 0;2700.00 
X1;0;6;910.00 
X1;6;9;143.00 
X1;9;2;151.00 
X1;2;7;543.00 
X1;7;0;681.00 
ruta 1;5128.00 
X2;0;4;1240.00 
X2;4;8;575.00 
X2;8;6;80.00 
X2;6;0;910.00 
ruta 2;7933.00 
X3;0;4;1240.00 
X3;4;10;255.00 
X3;10;5;206.00 
X3;5;0;1531.00 
ruta 3;11165.00 
PACKING 
Z0 3 7 3 	 960.00 
Z0 3 3 4 	 763.00 
Z0 3 5 5 	 1117.00 
Z0 3 6 6 	 1174.00 
Z0 1 2 7 	 1205.00 
Z0 1 7 8 	 1081.00 
Z0 1 5 9 	 919.00 
Z0 1 4 10 	 1204.00 
Z0 7 0 11 	 740.00 
Z0 7 7 12 	 849.00 
Z0 7 6 13 	 1043.00 
Z0 3 1 19 	 803.00 
Z0 3 4 20 	 801.00 
Z0 3 0 21 	 1174.00 
Z0 3 2 22 	 809.00 
Z0 1 6 23 	 749.00 
Z0 1 3 24 	 1124.00 
Z0 1 1 25 	 770.00 
Z0 1 0 26 	 1038.00 
Z0 7 1 27 	 787.00 
Z0 7 4 28 	 1088.00 
truck weigth 0: 20198.00 axle 1: 10405.78 axle2: 9792.22 media kg/km:7.48
Z1 7 2 3 	 776.00 
Z1 2 4 4 	 796.00 
Z1 2 7 5 	 919.00 
Z1 2 5 6 	 1081.00 
Z1 2 3 7 	 876.00 
Z1 2 1 8 	 1230.00 
Z1 9 3 9 	 816.00 
Z1 9 6 10 	 1105.00 
Z1 9 2 11 	 1073.00 
Z1 9 5 12 	 1218.00 
Z1 7 3 19 	 1039.00 
Z1 7 5 20 	 1066.00 
Z1 2 2 21 	 795.00 
Z1 2 0 22 	 962.00 
Z1 2 6 23 	 1251.00 
Z1 9 1 24 	 792.00 
Z1 9 4 25 	 810.00 
Z1 9 0 26 	 1030.00 
Z1 9 7 27 	 1060.00 
Z1 6 1 28 	 790.00 
Z1 6 7 29 	 913.00 
truck weigth 1: 20398.00 axle 1: 10427.33 axle2: 9970.67 media kg/km:8.40
Z2 6 6 3 	 1163.00 
Z2 6 4 4 	 1185.00 
Z2 6 2 5 	 993.00 
Z2 8 7 6 	 1151.00 
Z2 8 5 7 	 934.00 
Z2 8 3 8 	 961.00 
Z2 8 1 9 	 1213.00 
Z2 4 7 10 	 1040.00 
Z2 4 2 11 	 1191.00 
Z2 4 0 12 	 826.00 
Z2 6 5 20 	 946.00 
Z2 6 3 21 	 782.00 
Z2 6 0 22 	 771.00 
Z2 8 6 23 	 957.00 
Z2 8 4 24 	 912.00 
Z2 8 2 25 	 1224.00 
Z2 8 0 26 	 1260.00 
Z2 4 4 27 	 1199.00 
Z2 4 1 28 	 1197.00 
truck weigth 2: 19905.00 axle 1: 10187.93 axle2: 9717.07 media kg/km:7.10
Z3 5 7 3 	 1087.00 
Z3 5 5 4 	 1054.00 
Z3 5 3 5 	 1218.00 
Z3 5 1 6 	 1210.00 
Z3 10 7 7 	 940.00 
Z3 10 5 8 	 782.00 
Z3 10 3 9 	 1184.00 
Z3 10 1 10 	 1208.00 
Z3 4 6 11 	 826.00 
Z3 4 3 12 	 1237.00 
Z3 5 6 20 	 837.00 
Z3 5 4 21 	 815.00 
Z3 5 2 22 	 1007.00 
Z3 5 0 23 	 1229.00 
Z3 10 6 24 	 895.00 
Z3 10 4 25 	 1190.00 
Z3 10 2 26 	 927.00 
Z3 10 0 27 	 970.00 
Z3 4 5 28 	 883.00 
truck weigth 3: 19499.00 axle 1: 10126.02 axle2: 9372.98 media kg/km:6.03
