#truck 1
1 13500 2450 2450 20411 10432 914 9979 12716 32
#pallet
1 1200 800 145 25
#demand 60
1 1 933
2 1 367
3 1 440
4 1 860
5 1 675
6 1 625
7 2 892
8 2 408
9 3 894
10 4 406
11 4 980
12 5 320
13 5 322
14 5 978
15 5 939
16 5 361
17 6 964
18 6 336
19 6 526
20 6 774
21 6 665
22 6 635
23 7 847
24 7 453
25 7 334
26 7 966
27 7 772
28 7 528
29 8 461
30 8 839
31 8 317
32 8 983
33 8 548
34 9 752
35 9 617
36 9 683
37 10 724
38 10 576
39 10 389
40 10 911
41 10 319
42 11 981
43 11 997
44 11 303
45 11 862
46 12 438
47 12 516
48 12 784
49 12 824
50 12 476
51 13 898
52 13 402
53 13 851
54 14 449
55 14 925
56 14 375
57 15 987
58 15 313
59 15 763
60 15 537
#distances 15 15
0	1311	918	987	1240	1531	910	681	861	1044	1479	1013	1001	961	1634	697
1311	0	575	361	1127	1508	607	671	686	607	1317	309	556	558	571	641
918	575	0	243	644	1040	34	543	112	151	882	318	86	44	721	271
987	361	243	0	873	1268	277	437	347	339	1099	76	264	245	688	293
1240	1127	644	873	0	397	615	1150	575	538	255	946	610	631	918	854
1531	1508	1040	1268	397	0	1010	1535	967	932	206	1341	1005	1027	1216	1239
910	607	34	277	615	1010	0	562	80	143	855	351	93	59	735	282
681	671	543	437	1150	1535	562	0	580	692	1400	422	616	576	1121	297
861	686	112	347	575	967	80	580	0	184	822	421	162	137	799	286
1044	607	151	339	538	932	143	692	184	0	760	411	80	116	621	421
1479	1317	882	1099	255	206	855	1400	822	760	0	1170	837	863	1011	1104
1013	309	318	76	946	1341	351	422	421	411	1170	0	337	319	701	333
1001	556	86	264	610	1005	93	616	162	80	837	337	0	43	643	354
961	558	44	245	631	1027	59	576	137	116	863	319	43	0	679	311
1634	571	721	688	918	1216	735	1121	799	621	1011	701	643	679	0	949
697	641	271	293	854	1239	282	297	286	421	1104	333	354	311	949	0
