Instances\Inst15P4Du_1.csvVersion identifier: 12.10.0.0 | 2019-11-26 | 843d4de2ae
CPXPARAM_Threads                                 8
CPXPARAM_MIP_Strategy_File                       3
CPXPARAM_MIP_Strategy_Probe                      -1
CPXPARAM_TimeLimit                               3600
Lazy constraint(s) or lazy constraint/branch callback is present.
    Disabling dual reductions (CPX_PARAM_REDUCE) in presolve.
    Disabling non-linear reductions (CPX_PARAM_PRELINEAR) in presolve.
    Disabling presolve reductions that prevent crushing forms.
         Disabling repeat represolve because of lazy constraint/incumbent callback.
Dentro lazy
camion 0, TRUE-heu 0.000093
camion 1, TRUE-heu 0.000192
Salgo lazy
1 of 1 MIP starts provided solutions.
MIP start 'm1' defined initial solution with objective 7706.0000.
Tried aggregator 1 time.
MIP Presolve eliminated 546 rows and 62 columns.
MIP Presolve modified 2709 coefficients.
Reduced MIP has 746 rows, 3490 columns, and 27700 nonzeros.
Reduced MIP has 3040 binaries, 0 generals, 0 SOSs, and 0 indicators.
Presolve time = 0.06 sec. (20.85 ticks)
Clique table members: 166.
MIP emphasis: balance optimality and feasibility.
MIP search method: traditional branch-and-cut.
Parallel mode: deterministic, using up to 8 threads.
Root relaxation solution time = 0.08 sec. (80.14 ticks)

        Nodes                                         Cuts/
   Node  Left     Objective  IInf  Best Integer    Best Bound    ItCnt     Gap         Variable B NodeID Parent  Depth

*     0+    0                         7706.0000        0.0000           100.00%
      0     0     4812.6202   151     7706.0000     4812.6202     1433   37.55%
      0     0     5658.7022   151     7706.0000     Cuts: 101     2424   26.57%
      0     0     5694.5672   151     7706.0000      Cuts: 92     2608   26.10%
      0     0     5784.5342   151     7706.0000      Cuts: 52     2759   24.93%
Dentro lazy
camion 0, TRUE-heu 0.000222
camion 1, TRUE-heu 0.000247
Salgo lazy
*     0+    0                         7539.0000     5784.5342            23.27%
      0     0  -1.00000e+75     0     7539.0000     5784.5342     2759   23.27%
      0     0     5955.8858   151     7539.0000      Cuts: 53     2929   21.00%
      0     0     5972.5703   151     7539.0000      Cuts: 60     3061   20.78%
      0     0     6019.8682   151     7539.0000      Cuts: 54     3300   20.15%
      0     0     6036.3144   151     7539.0000      Cuts: 49     3450   19.93%
      0     0     6050.9389   151     7539.0000      Cuts: 69     3653   19.74%
      0     0     6071.2239   151     7539.0000      Cuts: 48     3735   19.47%
      0     0     6075.8716   151     7539.0000      Cuts: 28     3840   19.41%
      0     0     6097.7115   151     7539.0000      Cuts: 59     4137   19.12%
      0     0     6115.8905   151     7539.0000      Cuts: 39     4368   18.88%
      0     0     6130.5933   151     7539.0000      Cuts: 42     4473   18.68%
      0     0     6136.3330   151     7539.0000      Cuts: 38     4561   18.61%
      0     0     6137.4332   151     7539.0000      Cuts: 36     4632   18.59%
      0     0     6142.0751   151     7539.0000      Cuts: 50     4761   18.53%
      0     0     6154.8819   151     7539.0000      Cuts: 44     4877   18.36%
      0     0     6157.9505   151     7539.0000      Cuts: 44     5067   18.32%
      0     0     6170.7529   151     7539.0000      Cuts: 48     5186   18.15%
      0     0     6174.6304   151     7539.0000      Cuts: 47     5263   18.10%
      0     0     6202.7297   151     7539.0000      Cuts: 28     5572   17.72%
      0     0     6216.5555   151     7539.0000      Cuts: 63     5751   17.54%
      0     0     6218.2294   151     7539.0000      Cuts: 55     5803   17.52%
      0     0     6237.9870   151     7539.0000      Cuts: 55     5964   17.26%
      0     0     6244.0946   151     7539.0000      Cuts: 49     6065   17.18%
      0     0     6245.7650   151     7539.0000      Cuts: 31     6200   17.15%
      0     0     6246.0888   151     7539.0000      Cuts: 33     6250   17.15%
      0     0     6249.2014   151     7539.0000      Cuts: 23     6334   17.11%
      0     0     6256.4355   151     7539.0000      Cuts: 46     6430   17.01%
      0     0     6292.8073   151     7539.0000      Cuts: 54     6614   16.53%
      0     0     6309.5753   151     7539.0000      Cuts: 52     6863   16.31%
      0     0     6327.3600   151     7539.0000      Cuts: 73     7082   16.07%
      0     0     6343.5168   151     7539.0000      Cuts: 32     7214   15.86%
      0     0     6343.5168   151     7539.0000      Cuts: 27     7249   15.86%
Dentro lazy
camion 0, TRUE-heu 0.000290
camion 1, FALSE-heu 0.000
Version identifier: 12.10.0.0 | 2019-11-26 | 843d4de2ae
CPXPARAM_Threads                                 12
CPXPARAM_MIP_Strategy_Probe                      -1
CPXPARAM_Emphasis_MIP                            1
Tried aggregator 2 times.
MIP Presolve eliminated 14941 rows and 34 columns.
MIP Presolve modified 3579 coefficients.
Aggregator did 2 substitutions.
Reduced MIP has 2505 rows, 685 columns, and 66672 nonzeros.
Reduced MIP has 685 binaries, 0 generals, 0 SOSs, and 0 indicators.
Presolve time = 0.55 sec. (685.31 ticks)
Tried aggregator 1 time.
Detecting symmetries...
Reduced MIP has 2505 rows, 685 columns, and 66672 nonzeros.
Reduced MIP has 685 binaries, 0 generals, 0 SOSs, and 0 indicators.
Presolve time = 0.08 sec. (94.68 ticks)
Clique table members: 2443.
MIP emphasis: integer feasibility.
MIP search method: dynamic search.
Parallel mode: deterministic, using up to 12 threads.
Root relaxation solution time = 0.09 sec. (110.57 ticks)

        Nodes                                         Cuts/
   Node  Left     Objective  IInf  Best Integer    Best Bound    ItCnt     Gap

      0     0        0.0000   169                      0.0000      835         
*     0+    0                            0.0000        0.0000             0.00%
      0     0        cutoff              0.0000        0.0000     1121    0.00%
Elapsed time = 2.48 sec. (3181.52 ticks, tree = 0.01 MB, solutions = 1)

Clique cuts applied:  37

Root node processing (before b&c):
  Real time             =    2.48 sec. (3181.74 ticks)
Parallel b&c, 12 threads:
  Real time             =    0.00 sec. (0.00 ticks)
  Sync time (average)   =    0.00 sec.
  Wait time (average)   =    0.00 sec.
                          ------------
Total (root+branch&cut) =    2.48 sec. (3181.74 ticks)
2.500000 
TRUE-modelo
Salgo lazy
*     0+    0                         7532.0000     6343.5168            15.78%
      0     0  -1.00000e+75     0     7532.0000     6343.5168     7249   15.78%
      0     2     6343.5168   152     7532.0000     6343.5168     7249   15.78%                        0             0
Elapsed time = 6.13 sec. (2410.93 ticks, tree = 0.02 MB, solutions = 3)
      3     4     6542.0086   145     7532.0000     6390.7864     7838   15.15%              Y1 U     16      8      2
     20    12     6642.4841   159     7532.0000     6402.7699     9688   14.99%         X_1_9_5 D     72     64      9
Dentro lazy
camion 0, FALSE-heu 0.000
Version identifier: 12.10.0.0 | 2019-11-26 | 843d4de2ae
CPXPARAM_Threads                                 12
CPXPARAM_MIP_Strategy_Probe                      -1
CPXPARAM_Emphasis_MIP                            1
Tried aggregator 2 times.
MIP Presolve eliminated 13664 rows and 34 columns.
MIP Presolve modified 5077 coefficients.
Aggregator did 2 substitutions.
Reduced MIP has 3781 rows, 749 columns, and 86169 nonzeros.
Reduced MIP has 749 binaries, 0 generals, 0 SOSs, and 0 indicators.
Presolve time = 0.66 sec. (806.04 ticks)
Tried aggregator 1 time.
Detecting symmetries...
Reduced MIP has 3781 rows, 749 columns, and 86169 nonzeros.
Reduced MIP has 749 binaries, 0 generals, 0 SOSs, and 0 indicators.
Presolve time = 0.13 sec. (121.56 ticks)
Clique table members: 3719.
MIP emphasis: integer feasibility.
MIP search method: dynamic search.
Parallel mode: deterministic, using up to 12 threads.
Root relaxation solution time = 0.22 sec. (81.44 ticks)

        Nodes                                         Cuts/
   Node  Left     Objective  IInf  Best Integer    Best Bound    ItCnt     Gap

      0     0        0.0000   171                      0.0000      510         
      0     0        0.0000   171                Cliques: 190     2904         
      0     0        0.0000   171                 Cliques: 63     3234         
      0     0        0.0000   171                   Cuts: 122     5256         
Detecting symmetries...
      0     2        0.0000   222                      0.0000     7796         
Elapsed time = 13.98 sec. (9099.27 ticks, tree = 0.02 MB, solutions = 0)
      2     3        0.0000   229                      0.0000    11854         
      4     3        0.0000   231                      0.0000    15469         
      6     3        0.0000   189                      0.0000    17203         
     11     5        0.0000   161                      0.0000    17983         
    149    26    infeasible                            0.0000    23863         
    621   145        0.0000    50                      0.0000    50903         
   1192   296        0.0000    38                      0.0000    72449         
   1784   410        0.0000    30                      0.0000    99996         
   2352   457        0.0000    44                      0.0000   120852         
   4644   644    infeasible                            0.0000   214988         
Elapsed time = 31.20 sec. (14269.69 ticks, tree = 10.96 MB, solutions = 0)
   7004   308        0.0000    16                      0.0000   308380         
   8750   220    infeasible                            0.0000   403894         
   9512   323        0.0000    27                      0.0000   487927         
  10466   246    infeasible                            0.0000   556797         
  11722   311        0.0000    29                      0.0000   641587         
  14115   153    infeasible                            0.0000   729722         

Clique cuts applied:  316
Cover cuts applied:  21

Root node processing (before b&c):
  Real time             =   12.16 sec. (8642.40 ticks)
Parallel b&c, 12 threads:
  Real time             =   44.33 sec. (12161.67 ticks)
  Sync time (average)   =   25.33 sec.
  Wait time (average)   =    0.00 sec.
                          ------------
Total (root+branch&cut) =   56.48 sec. (20804.07 ticks)
56.593000 
FALSE-modelo
 Salgo lazy
Dentro lazy
camion 0, FALSE-heu 0.000
Version identifier: 12.10.0.0 | 2019-11-26 | 843d4de2ae
CPXPARAM_Threads                                 12
CPXPARAM_MIP_Strategy_Probe                      -1
CPXPARAM_Emphasis_MIP                            1
Tried aggregator 2 times.
MIP Presolve eliminated 14596 rows and 34 columns.
MIP Presolve modified 3891 coefficients.
Aggregator did 2 substitutions.
Reduced MIP has 2848 rows, 653 columns, and 67787 nonzeros.
Reduced MIP has 653 binaries, 0 generals, 0 SOSs, and 0 indicators.
Presolve time = 0.53 sec. (737.46 ticks)
Tried aggregator 1 time.
Detecting symmetries...
Reduced MIP has 2848 rows, 653 columns, and 67787 nonzeros.
Reduced MIP has 653 binaries, 0 generals, 0 SOSs, and 0 indicators.
Presolve time = 0.08 sec. (96.13 ticks)
Clique table members: 2786.
MIP emphasis: integer feasibility.
MIP search method: dynamic search.
Parallel mode: deterministic, using up to 12 threads.
Root relaxation solution time = 0.08 sec. (61.77 ticks)

        Nodes                                         Cuts/
   Node  Left     Objective  IInf  Best Integer    Best Bound    ItCnt     Gap

      0     0        0.0000   151                      0.0000      507         
*     0+    0                            0.0000        0.0000             0.00%
      0     0        cutoff              0.0000        0.0000      566    0.00%
Elapsed time = 4.20 sec. (3269.48 ticks, tree = 0.01 MB, solutions = 1)

Clique cuts applied:  4

Root node processing (before b&c):
  Real time             =    4.20 sec. (3269.70 ticks)
Parallel b&c, 12 threads:
  Real time             =    0.00 sec. (0.00 ticks)
  Sync time (average)   =    0.00 sec.
  Wait time (average)   =    0.00 sec.
                          ------------
Total (root+branch&cut) =    4.20 sec. (3269.70 ticks)
4.203000 
TRUE-modelo
camion 1, FALSE-heu 0.000
Version identifier: 12.10.0.0 | 2019-11-26 | 843d4de2ae
CPXPARAM_Threads                                 12
CPXPARAM_MIP_Strategy_Probe                      -1
CPXPARAM_Emphasis_MIP                            1
Tried aggregator 2 times.
MIP Presolve eliminated 10278 rows and 34 columns.
MIP Presolve modified 4560 coefficients.
Aggregator did 2 substitutions.
Reduced MIP has 3327 rows, 717 columns, and 72744 nonzeros.
Reduced MIP has 717 binaries, 0 generals, 0 SOSs, and 0 indicators.
Presolve time = 0.45 sec. (607.90 ticks)
Tried aggregator 1 time.
Detecting symmetries...
Reduced MIP has 3327 rows, 717 columns, and 72744 nonzeros.
Reduced MIP has 717 binaries, 0 generals, 0 SOSs, and 0 indicators.
Presolve time = 0.09 sec. (103.44 ticks)
Clique table members: 3265.
MIP emphasis: integer feasibility.
MIP search method: dynamic search.
Parallel mode: deterministic, using up to 12 threads.
Root relaxation solution time = 0.14 sec. (68.17 ticks)

        Nodes                                         Cuts/
   Node  Left     Objective  IInf  Best Integer    Best Bound    ItCnt     Gap

      0     0        0.0000   170                      0.0000      454         
      0     0        0.0000   170                 Cliques: 80     1877         
*     0+    0                            0.0000        0.0000             0.00%
      0     0        cutoff              0.0000        0.0000     2165    0.00%
Elapsed time = 6.27 sec. (4826.85 ticks, tree = 0.01 MB, solutions = 1)

Clique cuts applied:  131

Root node processing (before b&c):
  Real time             =    6.28 sec. (4827.10 ticks)
Parallel b&c, 12 threads:
  Real time             =    0.00 sec. (0.00 ticks)
  Sync time (average)   =    0.00 sec.
  Wait time (average)   =    0.00 sec.
                          ------------
Total (root+branch&cut) =    6.28 sec. (4827.10 ticks)
6.281000 
TRUE-modelo
Salgo lazy
Dentro lazy
camion 0, FALSE-heu 0.000
Version identifier: 12.10.0.0 | 2019-11-26 | 843d4de2ae
CPXPARAM_Threads                                 12
CPXPARAM_MIP_Strategy_Probe                      -1
CPXPARAM_Emphasis_MIP                            1
Tried aggregator 2 times.
MIP Presolve eliminated 14078 rows and 34 columns.
MIP Presolve modified 4504 coefficients.
Aggregator did 2 substitutions.
Reduced MIP has 3366 rows, 685 columns, and 82838 nonzeros.
Reduced MIP has 685 binaries, 0 generals, 0 SOSs, and 0 indicators.
Presolve time = 0.81 sec. (1097.13 ticks)
Tried aggregator 1 time.
Detecting symmetries...
Reduced MIP has 3366 rows, 685 columns, and 82838 nonzeros.
Reduced MIP has 685 binaries, 0 generals, 0 SOSs, and 0 indicators.
Presolve time = 0.09 sec. (116.34 ticks)
Clique table members: 3304.
MIP emphasis: integer feasibility.
MIP search method: dynamic search.
Parallel mode: deterministic, using up to 12 threads.
Root relaxation solution time = 0.09 sec. (67.64 ticks)

        Nodes                                         Cuts/
   Node  Left     Objective  IInf  Best Integer    Best Bound    ItCnt     Gap

      0     0        0.0000   156                      0.0000      455         
      0     0        0.0000   156                   Cuts: 175     2147         
      0     0        0.0000   156                   Cuts: 160     4126         
Detecting symmetries...
      0     2        0.0000    40                      0.0000     4163         
Elapsed time = 9.83 sec. (6108.60 ticks, tree = 0.02 MB, solutions = 0)
    252    62        0.0000    26                      0.0000    12288         
    843   184        0.0000    36                      0.0000    31408         
   1364   320        0.0000    27                      0.0000    51296         
   1792   244    infeasible                            0.0000    73834         
   2155   220    infeasible                            0.0000    96979         
   2491   281        0.0000    32                      0.0000   115241         
   2791   302        0.0000    58                      0.0000   137164         
   3043   317        0.0000    52                      0.0000   161808         
   3335   358        0.0000    64                      0.0000   178690         
   4292   304        0.0000    73                      0.0000   265097         
Elapsed time = 22.91 sec. (9214.21 ticks, tree = 1.76 MB, solutions = 0)
   5303   137    infeasible                            0.0000   345707         
   6997    30        0.0000    22                      0.0000   460351         

Clique cuts applied:  193

Root node processing (before b&c):
  Real time             =    8.00 sec. (6077.22 ticks)
Parallel b&c, 12 threads:
  Real time             =   32.03 sec. (5551.09 ticks)
  Sync time (average)   =   20.51 sec.
  Wait time (average)   =    0.00 sec.
                          ------------
Total (root+branch&cut) =   40.03 sec. (11628.31 ticks)
40.047000 
FALSE-modelo
 Salgo lazy
Dentro lazy
camion 0, FALSE-heu 0.000
Version identifier: 12.10.0.0 | 2019-11-26 | 843d4de2ae
CPXPARAM_Threads                                 12
CPXPARAM_MIP_Strategy_Probe                      -1
CPXPARAM_Emphasis_MIP                            1
Tried aggregator 2 times.
MIP Presolve eliminated 10278 rows and 34 columns.
MIP Presolve modified 4560 coefficients.
Aggregator did 2 substitutions.
Reduced MIP has 3327 rows, 717 columns, and 72744 nonzeros.
Reduced MIP has 717 binaries, 0 generals, 0 SOSs, and 0 indicators.
Presolve time = 0.45 sec. (595.19 ticks)
Tried aggregator 1 time.
Detecting symmetries...
Reduced MIP has 3327 rows, 717 columns, and 72744 nonzeros.
Reduced MIP has 717 binaries, 0 generals, 0 SOSs, and 0 indicators.
Presolve time = 0.08 sec. (103.43 ticks)
Clique table members: 3265.
MIP emphasis: integer feasibility.
MIP search method: dynamic search.
Parallel mode: deterministic, using up to 12 threads.
Root relaxation solution time = 0.59 sec. (69.71 ticks)

        Nodes                                         Cuts/
   Node  Left     Objective  IInf  Best Integer    Best Bound    ItCnt     Gap

      0     0        0.0000   148                      0.0000      485         
      0     0        0.0000   148                 Cliques: 92     1978         
*     0+    0                            0.0000        0.0000             0.00%
      0     0        cutoff              0.0000        0.0000     2035    0.00%
Elapsed time = 5.08 sec. (4093.25 ticks, tree = 0.01 MB, solutions = 1)

Clique cuts applied:  88

Root node processing (before b&c):
  Real time             =    5.08 sec. (4093.50 ticks)
Parallel b&c, 12 threads:
  Real time             =    0.00 sec. (0.00 ticks)
  Sync time (average)   =    0.00 sec.
  Wait time (average)   =    0.00 sec.
                          ------------
Total (root+branch&cut) =    5.08 sec. (4093.50 ticks)
5.094000 
TRUE-modelo
camion 1, FALSE-heu 0.001
Version identifier: 12.10.0.0 | 2019-11-26 | 843d4de2ae
CPXPARAM_Threads                                 12
CPXPARAM_MIP_Strategy_Probe                      -1
CPXPARAM_Emphasis_MIP                            1
Tried aggregator 2 times.
MIP Presolve eliminated 7372 rows and 34 columns.
MIP Presolve modified 3979 coefficients.
Aggregator did 2 substitutions.
Reduced MIP has 2872 rows, 653 columns, and 57219 nonzeros.
Reduced MIP has 653 binaries, 0 generals, 0 SOSs, and 0 indicators.
Presolve time = 0.30 sec. (398.02 ticks)
Tried aggregator 1 time.
Detecting symmetries...
Reduced MIP has 2872 rows, 653 columns, and 57219 nonzeros.
Reduced MIP has 653 binaries, 0 generals, 0 SOSs, and 0 indicators.
Presolve time = 0.08 sec. (82.35 ticks)
Clique table members: 2810.
MIP emphasis: integer feasibility.
MIP search method: dynamic search.
Parallel mode: deterministic, using up to 12 threads.
Root relaxation solution time = 0.05 sec. (40.53 ticks)

        Nodes                                         Cuts/
   Node  Left     Objective  IInf  Best Integer    Best Bound    ItCnt     Gap

      0     0        0.0000   128                      0.0000      330         
*     0+    0                            0.0000        0.0000             0.00%
      0     0        cutoff              0.0000        0.0000     1016    0.00%
Elapsed time = 1.59 sec. (1625.71 ticks, tree = 0.01 MB, solutions = 1)

Clique cuts applied:  62

Root node processing (before b&c):
  Real time             =    1.59 sec. (1625.91 ticks)
Parallel b&c, 12 threads:
  Real time             =    0.00 sec. (0.00 ticks)
  Sync time (average)   =    0.00 sec.
  Wait time (average)   =    0.00 sec.
                          ------------
Total (root+branch&cut) =    1.59 sec. (1625.91 ticks)
1.610000 
TRUE-modelo
Salgo lazy
Dentro lazy
camion 0, FALSE-heu 0.001
Version identifier: 12.10.0.0 | 2019-11-26 | 843d4de2ae
CPXPARAM_Threads                                 12
CPXPARAM_MIP_Strategy_Probe                      -1
CPXPARAM_Emphasis_MIP                            1
Tried aggregator 2 times.
MIP Presolve eliminated 10278 rows and 34 columns.
MIP Presolve modified 4560 coefficients.
Aggregator did 2 substitutions.
Reduced MIP has 3327 rows, 717 columns, and 72744 nonzeros.
Reduced MIP has 717 binaries, 0 generals, 0 SOSs, and 0 indicators.
Presolve time = 0.44 sec. (595.06 ticks)
Tried aggregator 1 time.
Detecting symmetries...
Reduced MIP has 3327 rows, 717 columns, and 72744 nonzeros.
Reduced MIP has 717 binaries, 0 generals, 0 SOSs, and 0 indicators.
Presolve time = 0.09 sec. (103.33 ticks)
Clique table members: 3265.
MIP emphasis: integer feasibility.
MIP search method: dynamic search.
Parallel mode: deterministic, using up to 12 threads.
Root relaxation solution time = 0.08 sec. (63.59 ticks)

        Nodes                                         Cuts/
   Node  Left     Objective  IInf  Best Integer    Best Bound    ItCnt     Gap

      0     0        0.0000   147                      0.0000      447         
      0     0        0.0000   147                 Cliques: 53      855         
      0     0        0.0000   147                 Cliques: 12      910         
      0     0        0.0000   147                    Cuts: 41     1717         
*     0+    0                            0.0000        0.0000             0.00%
      0     0        cutoff              0.0000        0.0000     1717    0.00%
Elapsed time = 4.75 sec. (3900.69 ticks, tree = 0.01 MB, solutions = 1)

Clique cuts applied:  22
Zero-half cuts applied:  2

Root node processing (before b&c):
  Real time             =    4.77 sec. (3900.93 ticks)
Parallel b&c, 12 threads:
  Real time             =    0.00 sec. (0.00 ticks)
  Sync time (average)   =    0.00 sec.
  Wait time (average)   =    0.00 sec.
                          ------------
Total (root+branch&cut) =    4.77 sec. (3900.93 ticks)
4.765000 
TRUE-modelo
camion 1, FALSE-heu 0.001
Version identifier: 12.10.0.0 | 2019-11-26 | 843d4de2ae
CPXPARAM_Threads                                 12
CPXPARAM_MIP_Strategy_Probe                      -1
CPXPARAM_Emphasis_MIP                            1
Tried aggregator 2 times.
MIP Presolve eliminated 7372 rows and 34 columns.
MIP Presolve modified 3979 coefficients.
Aggregator did 2 substitutions.
Reduced MIP has 2872 rows, 653 columns, and 57219 nonzeros.
Reduced MIP has 653 binaries, 0 generals, 0 SOSs, and 0 indicators.
Presolve time = 0.33 sec. (398.02 ticks)
Tried aggregator 1 time.
Detecting symmetries...
Reduced MIP has 2872 rows, 653 columns, and 57219 nonzeros.
Reduced MIP has 653 binaries, 0 generals, 0 SOSs, and 0 indicators.
Presolve time = 0.09 sec. (82.35 ticks)
Clique table members: 2810.
MIP emphasis: integer feasibility.
MIP search method: dynamic search.
Parallel mode: deterministic, using up to 12 threads.
Root relaxation solution time = 0.09 sec. (40.53 ticks)

        Nodes                                         Cuts/
   Node  Left     Objective  IInf  Best Integer    Best Bound    ItCnt     Gap

      0     0        0.0000   128                      0.0000      330         
*     0+    0                            0.0000        0.0000             0.00%
      0     0        cutoff              0.0000        0.0000     1016    0.00%
Elapsed time = 1.75 sec. (1625.71 ticks, tree = 0.01 MB, solutions = 1)

Clique cuts applied:  62

Root node processing (before b&c):
  Real time             =    1.75 sec. (1625.91 ticks)
Parallel b&c, 12 threads:
  Real time             =    0.00 sec. (0.00 ticks)
  Sync time (average)   =    0.00 sec.
  Wait time (average)   =    0.00 sec.
                          ------------
Total (root+branch&cut) =    1.75 sec. (1625.91 ticks)
1.750000 
TRUE-modelo
Salgo lazy
     46    29     6697.6912   118     7532.0000     6499.7753    12546   13.70%        X_0_3_11 U     96     88     12
*    57+    4                         7531.0000     6499.7753            13.69%
*    59+    7                         7496.0000     6499.7753            13.29%
     98    65     6950.6610    87     7496.0000     6499.7753    22412   13.29%        X_1_15_0 D     26     10      9
Dentro lazy
camion 0, FALSE-heu 0.001
Version identifier: 12.10.0.0 | 2019-11-26 | 843d4de2ae
CPXPARAM_Threads                                 12
CPXPARAM_MIP_Strategy_Probe                      -1
CPXPARAM_Emphasis_MIP                            1
Tried aggregator 2 times.
MIP Presolve eliminated 7372 rows and 34 columns.
MIP Presolve modified 3979 coefficients.
Aggregator did 2 substitutions.
Reduced MIP has 2872 rows, 653 columns, and 57219 nonzeros.
Reduced MIP has 653 binaries, 0 generals, 0 SOSs, and 0 indicators.
Presolve time = 0.34 sec. (400.80 ticks)
Tried aggregator 1 time.
Detecting symmetries...
Reduced MIP has 2872 rows, 653 columns, and 57219 nonzeros.
Reduced MIP has 653 binaries, 0 generals, 0 SOSs, and 0 indicators.
Presolve time = 0.06 sec. (82.28 ticks)
Clique table members: 2810.
MIP emphasis: integer feasibility.
MIP search method: dynamic search.
Parallel mode: deterministic, using up to 12 threads.
Root relaxation solution time = 0.06 sec. (35.12 ticks)

        Nodes                                         Cuts/
   Node  Left     Objective  IInf  Best Integer    Best Bound    ItCnt     Gap

      0     0        0.0000    97                      0.0000      279         
      0     0        0.0000    97                 Cliques: 91     1018         
      0     0        0.0000    97                 Cliques: 13     1183         
      0     0        0.0000    97                    Cuts: 80     1542         
*     0+    0                            0.0000        0.0000             0.00%
      0     0        cutoff              0.0000        0.0000     1542    0.00%
Elapsed time = 3.50 sec. (2874.61 ticks, tree = 0.01 MB, solutions = 1)

Clique cuts applied:  64
Zero-half cuts applied:  3

Root node processing (before b&c):
  Real time             =    3.50 sec. (2874.81 ticks)
Parallel b&c, 12 threads:
  Real time             =    0.00 sec. (0.00 ticks)
  Sync time (average)   =    0.00 sec.
  Wait time (average)   =    0.00 sec.
                          ------------
Total (root+branch&cut) =    3.50 sec. (2874.81 ticks)
3.500000 
TRUE-modelo
camion 1, TRUE-heu 0.000654
Salgo lazy
    192   141     7183.5246    93     7496.0000     6499.7753    40748   13.29%        X_0_3_13 D    390    382     18
*   193+   92                         7449.0000     6499.7753            12.74%
    326   214     7042.7414    91     7449.0000     6593.1902    55281   11.49%        X_0_5_10 D    404    396     25
    536   336     6883.9998   101     7449.0000     6623.7234    76432   11.08%        X_0_14_4 U    408     47      6
    743   409     7335.6495   116     7449.0000     6671.4097    90977   10.44%         X_0_1_7 D    918    910     24
    929   637        cutoff           7449.0000     6730.5625   116351    9.64%        X_1_15_0 U   1206   1198     13
Dentro lazy
camion 0, FALSE-heu 0.001
Version identifier: 12.10.0.0 | 2019-11-26 | 843d4de2ae
CPXPARAM_Threads                                 12
CPXPARAM_MIP_Strategy_Probe                      -1
CPXPARAM_Emphasis_MIP                            1
Tried aggregator 2 times.
MIP Presolve eliminated 7372 rows and 34 columns.
MIP Presolve modified 3979 coefficients.
Aggregator did 2 substitutions.
Reduced MIP has 2872 rows, 653 columns, and 57219 nonzeros.
Reduced MIP has 653 binaries, 0 generals, 0 SOSs, and 0 indicators.
Presolve time = 0.30 sec. (399.11 ticks)
Tried aggregator 1 time.
Detecting symmetries...
Reduced MIP has 2872 rows, 653 columns, and 57219 nonzeros.
Reduced MIP has 653 binaries, 0 generals, 0 SOSs, and 0 indicators.
Presolve time = 0.06 sec. (82.40 ticks)
Clique table members: 2810.
MIP emphasis: integer feasibility.
MIP search method: dynamic search.
Parallel mode: deterministic, using up to 12 threads.
Root relaxation solution time = 0.05 sec. (39.44 ticks)

        Nodes                                         Cuts/
   Node  Left     Objective  IInf  Best Integer    Best Bound    ItCnt     Gap

      0     0        0.0000   117                      0.0000      294         
      0     0        0.0000   117                Cliques: 132     1514         
*     0+    0                            0.0000        0.0000             0.00%
      0     0        cutoff              0.0000        0.0000     3012    0.00%
Elapsed time = 4.78 sec. (3685.38 ticks, tree = 0.01 MB, solutions = 1)

Clique cuts applied:  161

Root node processing (before b&c):
  Real time             =    4.78 sec. (3685.59 ticks)
Parallel b&c, 12 threads:
  Real time             =    0.00 sec. (0.00 ticks)
  Sync time (average)   =    0.00 sec.
  Wait time (average)   =    0.00 sec.
                          ------------
Total (root+branch&cut) =    4.78 sec. (3685.59 ticks)
4.781000 
TRUE-modelo
camion 1, TRUE-heu 0.000718
Salgo lazy
*  1138+  671                         7425.0000     6746.1429             9.14%
Dentro lazy
camion 0, FALSE-heu 0.001
Version identifier: 12.10.0.0 | 2019-11-26 | 843d4de2ae
CPXPARAM_Threads                                 12
CPXPARAM_MIP_Strategy_Probe                      -1
CPXPARAM_Emphasis_MIP                            1
Tried aggregator 2 times.
MIP Presolve eliminated 7372 rows and 34 columns.
MIP Presolve modified 3979 coefficients.
Aggregator did 2 substitutions.
Reduced MIP has 2872 rows, 653 columns, and 57219 nonzeros.
Reduced MIP has 653 binaries, 0 generals, 0 SOSs, and 0 indicators.
Presolve time = 0.30 sec. (399.11 ticks)
Tried aggregator 1 time.
Detecting symmetries...
Reduced MIP has 2872 rows, 653 columns, and 57219 nonzeros.
Reduced MIP has 653 binaries, 0 generals, 0 SOSs, and 0 indicators.
Presolve time = 0.06 sec. (82.40 ticks)
Clique table members: 2810.
MIP emphasis: integer feasibility.
MIP search method: dynamic search.
Parallel mode: deterministic, using up to 12 threads.
Root relaxation solution time = 0.05 sec. (39.44 ticks)

        Nodes                                         Cuts/
   Node  Left     Objective  IInf  Best Integer    Best Bound    ItCnt     Gap

      0     0        0.0000   117                      0.0000      294         
      0     0        0.0000   117                Cliques: 132     1514         
*     0+    0                            0.0000        0.0000             0.00%
      0     0        cutoff              0.0000        0.0000     3012    0.00%
Elapsed time = 4.61 sec. (3685.38 ticks, tree = 0.01 MB, solutions = 1)

Clique cuts applied:  161

Root node processing (before b&c):
  Real time             =    4.61 sec. (3685.59 ticks)
Parallel b&c, 12 threads:
  Real time             =    0.00 sec. (0.00 ticks)
  Sync time (average)   =    0.00 sec.
  Wait time (average)   =    0.00 sec.
                          ------------
Total (root+branch&cut) =    4.61 sec. (3685.59 ticks)
4.609000 
TRUE-modelo
camion 1, TRUE-heu 0.000777
Salgo lazy
*  1355+  832                         7386.0000     6825.7705             7.59%
   1612   846     7030.1561   106     7386.0000     6855.2461   184396    7.19%         X_1_7_0 N   1780    530     13
Elapsed time = 144.58 sec. (5643.28 ticks, tree = 1.03 MB, solutions = 9)
   2395  1175        cutoff           7386.0000     6974.5068   305139    5.57%        X_0_0_15 D   2079   2071     17
   3291  1382        cutoff           7386.0000     7040.6366   405370    4.68%       X_1_15_11 U   2735   2711     19
   4120  1503     7229.6516    79     7386.0000     7097.5712   490488    3.91%         X_0_6_0 N   4284     57     10
Dentro lazy
camion 0, FALSE-heu 0.001
Version identifier: 12.10.0.0 | 2019-11-26 | 843d4de2ae
CPXPARAM_Threads                                 12
CPXPARAM_MIP_Strategy_Probe                      -1
CPXPARAM_Emphasis_MIP                            1
Tried aggregator 2 times.
MIP Presolve eliminated 7372 rows and 34 columns.
MIP Presolve modified 3979 coefficients.
Aggregator did 2 substitutions.
Reduced MIP has 2872 rows, 653 columns, and 57219 nonzeros.
Reduced MIP has 653 binaries, 0 generals, 0 SOSs, and 0 indicators.
Presolve time = 0.30 sec. (399.19 ticks)
Tried aggregator 1 time.
Detecting symmetries...
Reduced MIP has 2872 rows, 653 columns, and 57219 nonzeros.
Reduced MIP has 653 binaries, 0 generals, 0 SOSs, and 0 indicators.
Presolve time = 0.06 sec. (82.33 ticks)
Clique table members: 2810.
MIP emphasis: integer feasibility.
MIP search method: dynamic search.
Parallel mode: deterministic, using up to 12 threads.
Root relaxation solution time = 0.06 sec. (44.15 ticks)

        Nodes                                         Cuts/
   Node  Left     Objective  IInf  Best Integer    Best Bound    ItCnt     Gap

      0     0        0.0000   139                      0.0000      352         
*     0+    0                            0.0000        0.0000             0.00%
      0     0        cutoff              0.0000        0.0000     1600    0.00%
Elapsed time = 2.00 sec. (2079.01 ticks, tree = 0.01 MB, solutions = 1)

Clique cuts applied:  80

Root node processing (before b&c):
  Real time             =    2.00 sec. (2079.21 ticks)
Parallel b&c, 12 threads:
  Real time             =    0.00 sec. (0.00 ticks)
  Sync time (average)   =    0.00 sec.
  Wait time (average)   =    0.00 sec.
                          ------------
Total (root+branch&cut) =    2.00 sec. (2079.21 ticks)
2.000000 
TRUE-modelo
camion 1, FALSE-heu 0.001
Version identifier: 12.10.0.0 | 2019-11-26 | 843d4de2ae
CPXPARAM_Threads                                 12
CPXPARAM_MIP_Strategy_Probe                      -1
CPXPARAM_Emphasis_MIP                            1
Tried aggregator 2 times.
MIP Presolve eliminated 10278 rows and 34 columns.
MIP Presolve modified 4560 coefficients.
Aggregator did 2 substitutions.
Reduced MIP has 3327 rows, 717 columns, and 72744 nonzeros.
Reduced MIP has 717 binaries, 0 generals, 0 SOSs, and 0 indicators.
Presolve time = 0.48 sec. (601.22 ticks)
Tried aggregator 1 time.
Detecting symmetries...
Reduced MIP has 3327 rows, 717 columns, and 72744 nonzeros.
Reduced MIP has 717 binaries, 0 generals, 0 SOSs, and 0 indicators.
Presolve time = 0.09 sec. (103.42 ticks)
Clique table members: 3265.
MIP emphasis: integer feasibility.
MIP search method: dynamic search.
Parallel mode: deterministic, using up to 12 threads.
Root relaxation solution time = 0.09 sec. (60.21 ticks)

        Nodes                                         Cuts/
   Node  Left     Objective  IInf  Best Integer    Best Bound    ItCnt     Gap

      0     0        0.0000   159                      0.0000      399         
      0     0        0.0000   159                 Cliques: 38      534         
      0     0        0.0000   159                   Cuts: 179     1956         
*     0+    0                            0.0000        0.0000             0.00%
      0     0        cutoff              0.0000        0.0000     4226    0.00%
Elapsed time = 4.20 sec. (4425.16 ticks, tree = 0.01 MB, solutions = 1)

Clique cuts applied:  417

Root node processing (before b&c):
  Real time             =    4.20 sec. (4425.45 ticks)
Parallel b&c, 12 threads:
  Real time             =    0.00 sec. (0.00 ticks)
  Sync time (average)   =    0.00 sec.
  Wait time (average)   =    0.00 sec.
                          ------------
Total (root+branch&cut) =    4.20 sec. (4425.45 ticks)
4.203000 
TRUE-modelo
Salgo lazy
Dentro lazy
camion 0, FALSE-heu 0.001
Version identifier: 12.10.0.0 | 2019-11-26 | 843d4de2ae
CPXPARAM_Threads                                 12
CPXPARAM_MIP_Strategy_Probe                      -1
CPXPARAM_Emphasis_MIP                            1
Tried aggregator 2 times.
MIP Presolve eliminated 7372 rows and 34 columns.
MIP Presolve modified 3979 coefficients.
Aggregator did 2 substitutions.
Reduced MIP has 2872 rows, 653 columns, and 57219 nonzeros.
Reduced MIP has 653 binaries, 0 generals, 0 SOSs, and 0 indicators.
Presolve time = 0.30 sec. (394.85 ticks)
Tried aggregator 1 time.
Detecting symmetries...
Reduced MIP has 2872 rows, 653 columns, and 57219 nonzeros.
Reduced MIP has 653 binaries, 0 generals, 0 SOSs, and 0 indicators.
Presolve time = 0.06 sec. (82.27 ticks)
Clique table members: 2810.
MIP emphasis: integer feasibility.
MIP search method: dynamic search.
Parallel mode: deterministic, using up to 12 threads.
Root relaxation solution time = 0.05 sec. (41.78 ticks)

        Nodes                                         Cuts/
   Node  Left     Objective  IInf  Best Integer    Best Bound    ItCnt     Gap

      0     0        0.0000   126                      0.0000      333         
      0     0        0.0000   126                 Cliques: 96     1173         
      0     0        0.0000   126                Cliques: 125     2693         
Detecting symmetries...
      0     2        0.0000    31                      0.0000     2743         
Elapsed time = 5.22 sec. (3070.96 ticks, tree = 0.02 MB, solutions = 0)
    625    78    infeasible                            0.0000    26617         
    737     5        0.0000   104                      0.0000    40043         
   1142    91        0.0000    28                      0.0000    59031         
*  1388   133      integral     0        0.0000        0.0000    66256    0.00%

Clique cuts applied:  92
Lift and project cuts applied:  1

Root node processing (before b&c):
  Real time             =    3.50 sec. (3046.80 ticks)
Parallel b&c, 12 threads:
  Real time             =   16.98 sec. (881.42 ticks)
  Sync time (average)   =   15.03 sec.
  Wait time (average)   =    0.00 sec.
                          ------------
Total (root+branch&cut) =   20.48 sec. (3928.21 ticks)
20.500000 
TRUE-modelo
camion 1, TRUE-heu 0.000900
Salgo lazy
*  4323+ 1566                         7381.0000     7108.9646             3.69%
*  4331+ 1523                         7376.0000     7108.9646             3.62%
Dentro lazy
camion 0, FALSE-heu 0.001
Version identifier: 12.10.0.0 | 2019-11-26 | 843d4de2ae
CPXPARAM_Threads                                 12
CPXPARAM_MIP_Strategy_Probe                      -1
CPXPARAM_Emphasis_MIP                            1
Tried aggregator 2 times.
MIP Presolve eliminated 7372 rows and 34 columns.
MIP Presolve modified 3979 coefficients.
Aggregator did 2 substitutions.
Reduced MIP has 2872 rows, 653 columns, and 57219 nonzeros.
Reduced MIP has 653 binaries, 0 generals, 0 SOSs, and 0 indicators.
Presolve time = 0.31 sec. (399.11 ticks)
Tried aggregator 1 time.
Detecting symmetries...
Reduced MIP has 2872 rows, 653 columns, and 57219 nonzeros.
Reduced MIP has 653 binaries, 0 generals, 0 SOSs, and 0 indicators.
Presolve time = 0.08 sec. (82.40 ticks)
Clique table members: 2810.
MIP emphasis: integer feasibility.
MIP search method: dynamic search.
Parallel mode: deterministic, using up to 12 threads.
Root relaxation solution time = 0.06 sec. (39.44 ticks)

        Nodes                                         Cuts/
   Node  Left     Objective  IInf  Best Integer    Best Bound    ItCnt     Gap

      0     0        0.0000   117                      0.0000      294         
      0     0        0.0000   117                Cliques: 132     1514         
*     0+    0                            0.0000        0.0000             0.00%
      0     0        cutoff              0.0000        0.0000     3012    0.00%
Elapsed time = 4.41 sec. (3685.38 ticks, tree = 0.01 MB, solutions = 1)

Clique cuts applied:  161

Root node processing (before b&c):
  Real time             =    4.41 sec. (3685.59 ticks)
Parallel b&c, 12 threads:
  Real time             =    0.00 sec. (0.00 ticks)
  Sync time (average)   =    0.00 sec.
  Wait time (average)   =    0.00 sec.
                          ------------
Total (root+branch&cut) =    4.41 sec. (3685.59 ticks)
4.406000 
TRUE-modelo
camion 1, FALSE-heu 0.001
Version identifier: 12.10.0.0 | 2019-11-26 | 843d4de2ae
CPXPARAM_Threads                                 12
CPXPARAM_MIP_Strategy_Probe                      -1
CPXPARAM_Emphasis_MIP                            1
Tried aggregator 2 times.
MIP Presolve eliminated 10278 rows and 34 columns.
MIP Presolve modified 4560 coefficients.
Aggregator did 2 substitutions.
Reduced MIP has 3327 rows, 717 columns, and 72744 nonzeros.
Reduced MIP has 717 binaries, 0 generals, 0 SOSs, and 0 indicators.
Presolve time = 0.45 sec. (601.22 ticks)
Tried aggregator 1 time.
Detecting symmetries...
Reduced MIP has 3327 rows, 717 columns, and 72744 nonzeros.
Reduced MIP has 717 binaries, 0 generals, 0 SOSs, and 0 indicators.
Presolve time = 0.09 sec. (103.42 ticks)
Clique table members: 3265.
MIP emphasis: integer feasibility.
MIP search method: dynamic search.
Parallel mode: deterministic, using up to 12 threads.
Root relaxation solution time = 0.17 sec. (60.21 ticks)

        Nodes                                         Cuts/
   Node  Left     Objective  IInf  Best Integer    Best Bound    ItCnt     Gap

      0     0        0.0000   159                      0.0000      399         
      0     0        0.0000   159                 Cliques: 38      534         
      0     0        0.0000   159                   Cuts: 179     1956         
*     0+    0                            0.0000        0.0000             0.00%
      0     0        cutoff              0.0000        0.0000     4226    0.00%
Elapsed time = 4.56 sec. (4425.16 ticks, tree = 0.01 MB, solutions = 1)

Clique cuts applied:  417

Root node processing (before b&c):
  Real time             =    4.56 sec. (4425.45 ticks)
Parallel b&c, 12 threads:
  Real time             =    0.00 sec. (0.00 ticks)
  Sync time (average)   =    0.00 sec.
  Wait time (average)   =    0.00 sec.
                          ------------
Total (root+branch&cut) =    4.56 sec. (4425.45 ticks)
4.562000 
TRUE-modelo
Salgo lazy
Dentro lazy
camion 0, FALSE-heu 0.001
Version identifier: 12.10.0.0 | 2019-11-26 | 843d4de2ae
CPXPARAM_Threads                                 12
CPXPARAM_MIP_Strategy_Probe                      -1
CPXPARAM_Emphasis_MIP                            1
Tried aggregator 2 times.
MIP Presolve eliminated 7372 rows and 34 columns.
MIP Presolve modified 3979 coefficients.
Aggregator did 2 substitutions.
Reduced MIP has 2872 rows, 653 columns, and 57219 nonzeros.
Reduced MIP has 653 binaries, 0 generals, 0 SOSs, and 0 indicators.
Presolve time = 0.30 sec. (394.85 ticks)
Tried aggregator 1 time.
Detecting symmetries...
Reduced MIP has 2872 rows, 653 columns, and 57219 nonzeros.
Reduced MIP has 653 binaries, 0 generals, 0 SOSs, and 0 indicators.
Presolve time = 0.08 sec. (82.27 ticks)
Clique table members: 2810.
MIP emphasis: integer feasibility.
MIP search method: dynamic search.
Parallel mode: deterministic, using up to 12 threads.
Root relaxation solution time = 0.06 sec. (41.78 ticks)

        Nodes                                         Cuts/
   Node  Left     Objective  IInf  Best Integer    Best Bound    ItCnt     Gap

      0     0        0.0000   126                      0.0000      333         
      0     0        0.0000   126                 Cliques: 96     1173         
      0     0        0.0000   126                Cliques: 125     2693         
Detecting symmetries...
      0     2        0.0000    31                      0.0000     2743         
Elapsed time = 6.38 sec. (3070.96 ticks, tree = 0.02 MB, solutions = 0)
    625    78    infeasible                            0.0000    26617         
    737     5        0.0000   104                      0.0000    40043         
   1142    91        0.0000    28                      0.0000    59031         
*  1388   133      integral     0        0.0000        0.0000    66256    0.00%

Clique cuts applied:  92
Lift and project cuts applied:  1

Root node processing (before b&c):
  Real time             =    3.77 sec. (3046.80 ticks)
Parallel b&c, 12 threads:
  Real time             =   19.27 sec. (881.42 ticks)
  Sync time (average)   =   16.73 sec.
  Wait time (average)   =    0.00 sec.
                          ------------
Total (root+branch&cut) =   23.03 sec. (3928.21 ticks)
23.047000 
TRUE-modelo
camion 1, FALSE-heu 0.001
Version identifier: 12.10.0.0 | 2019-11-26 | 843d4de2ae
CPXPARAM_Threads                                 12
CPXPARAM_MIP_Strategy_Probe                      -1
CPXPARAM_Emphasis_MIP                            1
Tried aggregator 2 times.
MIP Presolve eliminated 10278 rows and 34 columns.
MIP Presolve modified 4560 coefficients.
Aggregator did 2 substitutions.
Reduced MIP has 3327 rows, 717 columns, and 72744 nonzeros.
Reduced MIP has 717 binaries, 0 generals, 0 SOSs, and 0 indicators.
Presolve time = 0.44 sec. (603.11 ticks)
Tried aggregator 1 time.
Detecting symmetries...
Reduced MIP has 3327 rows, 717 columns, and 72744 nonzeros.
Reduced MIP has 717 binaries, 0 generals, 0 SOSs, and 0 indicators.
Presolve time = 0.09 sec. (103.45 ticks)
Clique table members: 3265.
MIP emphasis: integer feasibility.
MIP search method: dynamic search.
Parallel mode: deterministic, using up to 12 threads.
Root relaxation solution time = 0.08 sec. (61.46 ticks)

        Nodes                                         Cuts/
   Node  Left     Objective  IInf  Best Integer    Best Bound    ItCnt     Gap

      0     0        0.0000   154                      0.0000      417         
*     0+    0                            0.0000        0.0000             0.00%
      0     0        cutoff              0.0000        0.0000     2053    0.00%
Elapsed time = 3.31 sec. (2840.63 ticks, tree = 0.01 MB, solutions = 1)

Clique cuts applied:  177
Lift and project cuts applied:  1

Root node processing (before b&c):
  Real time             =    3.31 sec. (2840.89 ticks)
Parallel b&c, 12 threads:
  Real time             =    0.00 sec. (0.00 ticks)
  Sync time (average)   =    0.00 sec.
  Wait time (average)   =    0.00 sec.
                          ------------
Total (root+branch&cut) =    3.31 sec. (2840.89 ticks)
3.312000 
TRUE-modelo
Salgo lazy
*  4444+ 1517                         7320.0000     7116.8346             2.78%
Dentro lazy
camion 0, FALSE-heu 0.001
Version identifier: 12.10.0.0 | 2019-11-26 | 843d4de2ae
CPXPARAM_Threads                                 12
CPXPARAM_MIP_Strategy_Probe                      -1
CPXPARAM_Emphasis_MIP                            1
Tried aggregator 2 times.
MIP Presolve eliminated 7372 rows and 34 columns.
MIP Presolve modified 3979 coefficients.
Aggregator did 2 substitutions.
Reduced MIP has 2872 rows, 653 columns, and 57219 nonzeros.
Reduced MIP has 653 binaries, 0 generals, 0 SOSs, and 0 indicators.
Presolve time = 0.30 sec. (399.11 ticks)
Tried aggregator 1 time.
Detecting symmetries...
Reduced MIP has 2872 rows, 653 columns, and 57219 nonzeros.
Reduced MIP has 653 binaries, 0 generals, 0 SOSs, and 0 indicators.
Presolve time = 0.08 sec. (82.40 ticks)
Clique table members: 2810.
MIP emphasis: integer feasibility.
MIP search method: dynamic search.
Parallel mode: deterministic, using up to 12 threads.
Root relaxation solution time = 0.05 sec. (39.44 ticks)

        Nodes                                         Cuts/
   Node  Left     Objective  IInf  Best Integer    Best Bound    ItCnt     Gap

      0     0        0.0000   117                      0.0000      294         
      0     0        0.0000   117                Cliques: 132     1514         
*     0+    0                            0.0000        0.0000             0.00%
      0     0        cutoff              0.0000        0.0000     3012    0.00%
Elapsed time = 4.31 sec. (3685.38 ticks, tree = 0.01 MB, solutions = 1)

Clique cuts applied:  161

Root node processing (before b&c):
  Real time             =    4.31 sec. (3685.59 ticks)
Parallel b&c, 12 threads:
  Real time             =    0.00 sec. (0.00 ticks)
  Sync time (average)   =    0.00 sec.
  Wait time (average)   =    0.00 sec.
                          ------------
Total (root+branch&cut) =    4.31 sec. (3685.59 ticks)
4.328000 
TRUE-modelo
camion 1, FALSE-heu 0.001
Version identifier: 12.10.0.0 | 2019-11-26 | 843d4de2ae
CPXPARAM_Threads                                 12
CPXPARAM_MIP_Strategy_Probe                      -1
CPXPARAM_Emphasis_MIP                            1
Tried aggregator 2 times.
MIP Presolve eliminated 10278 rows and 34 columns.
MIP Presolve modified 4560 coefficients.
Aggregator did 2 substitutions.
Reduced MIP has 3327 rows, 717 columns, and 72744 nonzeros.
Reduced MIP has 717 binaries, 0 generals, 0 SOSs, and 0 indicators.
Presolve time = 0.44 sec. (601.22 ticks)
Tried aggregator 1 time.
Detecting symmetries...
Reduced MIP has 3327 rows, 717 columns, and 72744 nonzeros.
Reduced MIP has 717 binaries, 0 generals, 0 SOSs, and 0 indicators.
Presolve time = 0.08 sec. (103.42 ticks)
Clique table members: 3265.
MIP emphasis: integer feasibility.
MIP search method: dynamic search.
Parallel mode: deterministic, using up to 12 threads.
Root relaxation solution time = 0.08 sec. (60.21 ticks)

        Nodes                                         Cuts/
   Node  Left     Objective  IInf  Best Integer    Best Bound    ItCnt     Gap

      0     0        0.0000   159                      0.0000      399         
      0     0        0.0000   159                 Cliques: 38      534         
      0     0        0.0000   159                   Cuts: 179     1956         
*     0+    0                            0.0000        0.0000             0.00%
      0     0        cutoff              0.0000        0.0000     4226    0.00%
Elapsed time = 4.39 sec. (4425.16 ticks, tree = 0.01 MB, solutions = 1)

Clique cuts applied:  417

Root node processing (before b&c):
  Real time             =    4.39 sec. (4425.45 ticks)
Parallel b&c, 12 threads:
  Real time             =    0.00 sec. (0.00 ticks)
  Sync time (average)   =    0.00 sec.
  Wait time (average)   =    0.00 sec.
                          ------------
Total (root+branch&cut) =    4.39 sec. (4425.45 ticks)
4.391000 
TRUE-modelo
Salgo lazy
Dentro lazy
camion 0, FALSE-heu 0.001
Version identifier: 12.10.0.0 | 2019-11-26 | 843d4de2ae
CPXPARAM_Threads                                 12
CPXPARAM_MIP_Strategy_Probe                      -1
CPXPARAM_Emphasis_MIP                            1
Tried aggregator 2 times.
MIP Presolve eliminated 7372 rows and 34 columns.
MIP Presolve modified 3979 coefficients.
Aggregator did 2 substitutions.
Reduced MIP has 2872 rows, 653 columns, and 57219 nonzeros.
Reduced MIP has 653 binaries, 0 generals, 0 SOSs, and 0 indicators.
Presolve time = 0.31 sec. (399.11 ticks)
Tried aggregator 1 time.
Detecting symmetries...
Reduced MIP has 2872 rows, 653 columns, and 57219 nonzeros.
Reduced MIP has 653 binaries, 0 generals, 0 SOSs, and 0 indicators.
Presolve time = 0.06 sec. (82.40 ticks)
Clique table members: 2810.
MIP emphasis: integer feasibility.
MIP search method: dynamic search.
Parallel mode: deterministic, using up to 12 threads.
Root relaxation solution time = 0.05 sec. (39.44 ticks)

        Nodes                                         Cuts/
   Node  Left     Objective  IInf  Best Integer    Best Bound    ItCnt     Gap

      0     0        0.0000   117                      0.0000      294         
      0     0        0.0000   117                Cliques: 132     1514         
*     0+    0                            0.0000        0.0000             0.00%
      0     0        cutoff              0.0000        0.0000     3012    0.00%
Elapsed time = 4.33 sec. (3685.38 ticks, tree = 0.01 MB, solutions = 1)

Clique cuts applied:  161

Root node processing (before b&c):
  Real time             =    4.33 sec. (3685.59 ticks)
Parallel b&c, 12 threads:
  Real time             =    0.00 sec. (0.00 ticks)
  Sync time (average)   =    0.00 sec.
  Wait time (average)   =    0.00 sec.
                          ------------
Total (root+branch&cut) =    4.33 sec. (3685.59 ticks)
4.329000 
TRUE-modelo
camion 1, FALSE-heu 0.001
Version identifier: 12.10.0.0 | 2019-11-26 | 843d4de2ae
CPXPARAM_Threads                                 12
CPXPARAM_MIP_Strategy_Probe                      -1
CPXPARAM_Emphasis_MIP                            1
Tried aggregator 2 times.
MIP Presolve eliminated 10278 rows and 34 columns.
MIP Presolve modified 4560 coefficients.
Aggregator did 2 substitutions.
Reduced MIP has 3327 rows, 717 columns, and 72744 nonzeros.
Reduced MIP has 717 binaries, 0 generals, 0 SOSs, and 0 indicators.
Presolve time = 0.44 sec. (601.22 ticks)
Tried aggregator 1 time.
Detecting symmetries...
Reduced MIP has 3327 rows, 717 columns, and 72744 nonzeros.
Reduced MIP has 717 binaries, 0 generals, 0 SOSs, and 0 indicators.
Presolve time = 0.08 sec. (103.42 ticks)
Clique table members: 3265.
MIP emphasis: integer feasibility.
MIP search method: dynamic search.
Parallel mode: deterministic, using up to 12 threads.
Root relaxation solution time = 0.11 sec. (60.21 ticks)

        Nodes                                         Cuts/
   Node  Left     Objective  IInf  Best Integer    Best Bound    ItCnt     Gap

      0     0        0.0000   159                      0.0000      399         
      0     0        0.0000   159                 Cliques: 38      534         
      0     0        0.0000   159                   Cuts: 179     1956         
*     0+    0                            0.0000        0.0000             0.00%
      0     0        cutoff              0.0000        0.0000     4226    0.00%
Elapsed time = 4.31 sec. (4425.16 ticks, tree = 0.01 MB, solutions = 1)

Clique cuts applied:  417

Root node processing (before b&c):
  Real time             =    4.31 sec. (4425.45 ticks)
Parallel b&c, 12 threads:
  Real time             =    0.00 sec. (0.00 ticks)
  Sync time (average)   =    0.00 sec.
  Wait time (average)   =    0.00 sec.
                          ------------
Total (root+branch&cut) =    4.31 sec. (4425.45 ticks)
4.313000 
TRUE-modelo
Salgo lazy
Dentro lazy
camion 0, FALSE-heu 0.001
Version identifier: 12.10.0.0 | 2019-11-26 | 843d4de2ae
CPXPARAM_Threads                                 12
CPXPARAM_MIP_Strategy_Probe                      -1
CPXPARAM_Emphasis_MIP                            1
Tried aggregator 2 times.
MIP Presolve eliminated 7372 rows and 34 columns.
MIP Presolve modified 3979 coefficients.
Aggregator did 2 substitutions.
Reduced MIP has 2872 rows, 653 columns, and 57219 nonzeros.
Reduced MIP has 653 binaries, 0 generals, 0 SOSs, and 0 indicators.
Presolve time = 0.30 sec. (400.80 ticks)
Tried aggregator 1 time.
Detecting symmetries...
Reduced MIP has 2872 rows, 653 columns, and 57219 nonzeros.
Reduced MIP has 653 binaries, 0 generals, 0 SOSs, and 0 indicators.
Presolve time = 0.06 sec. (82.28 ticks)
Clique table members: 2810.
MIP emphasis: integer feasibility.
MIP search method: dynamic search.
Parallel mode: deterministic, using up to 12 threads.
Root relaxation solution time = 0.05 sec. (35.12 ticks)

        Nodes                                         Cuts/
   Node  Left     Objective  IInf  Best Integer    Best Bound    ItCnt     Gap

      0     0        0.0000    97                      0.0000      279         
      0     0        0.0000    97                 Cliques: 91     1018         
      0     0        0.0000    97                 Cliques: 13     1183         
      0     0        0.0000    97                    Cuts: 80     1542         
*     0+    0                            0.0000        0.0000             0.00%
      0     0        cutoff              0.0000        0.0000     1542    0.00%
Elapsed time = 3.20 sec. (2874.61 ticks, tree = 0.01 MB, solutions = 1)

Clique cuts applied:  64
Zero-half cuts applied:  3

Root node processing (before b&c):
  Real time             =    3.20 sec. (2874.81 ticks)
Parallel b&c, 12 threads:
  Real time             =    0.00 sec. (0.00 ticks)
  Sync time (average)   =    0.00 sec.
  Wait time (average)   =    0.00 sec.
                          ------------
Total (root+branch&cut) =    3.20 sec. (2874.81 ticks)
3.203000 
TRUE-modelo
camion 1, FALSE-heu 0.001
Version identifier: 12.10.0.0 | 2019-11-26 | 843d4de2ae
CPXPARAM_Threads                                 12
CPXPARAM_MIP_Strategy_Probe                      -1
CPXPARAM_Emphasis_MIP                            1
Tried aggregator 2 times.
MIP Presolve eliminated 10278 rows and 34 columns.
MIP Presolve modified 4560 coefficients.
Aggregator did 2 substitutions.
Reduced MIP has 3327 rows, 717 columns, and 72744 nonzeros.
Reduced MIP has 717 binaries, 0 generals, 0 SOSs, and 0 indicators.
Presolve time = 0.45 sec. (602.15 ticks)
Tried aggregator 1 time.
Detecting symmetries...
Reduced MIP has 3327 rows, 717 columns, and 72744 nonzeros.
Reduced MIP has 717 binaries, 0 generals, 0 SOSs, and 0 indicators.
Presolve time = 0.09 sec. (103.43 ticks)
Clique table members: 3265.
MIP emphasis: integer feasibility.
MIP search method: dynamic search.
Parallel mode: deterministic, using up to 12 threads.
Root relaxation solution time = 0.13 sec. (55.70 ticks)

        Nodes                                         Cuts/
   Node  Left     Objective  IInf  Best Integer    Best Bound    ItCnt     Gap

      0     0        0.0000   132                      0.0000      412         
      0     0        0.0000   132                  Cliques: 5      413         
      0     0        0.0000   132                    Cuts: 18      496         
      0     0        0.0000   132                ZeroHalf: 17      622         
Detecting symmetries...
      0     2        0.0000     8                      0.0000      622         
Elapsed time = 5.08 sec. (2453.81 ticks, tree = 0.02 MB, solutions = 0)
*     1     1      integral     0        0.0000        0.0000      625    0.00%

Clique cuts applied:  4
Zero-half cuts applied:  6

Root node processing (before b&c):
  Real time             =    3.30 sec. (2452.24 ticks)
Parallel b&c, 12 threads:
  Real time             =    8.11 sec. (41.93 ticks)
  Sync time (average)   =    5.88 sec.
  Wait time (average)   =    0.00 sec.
                          ------------
Total (root+branch&cut) =   11.41 sec. (2494.17 ticks)
11.406000 
TRUE-modelo
Salgo lazy
Dentro lazy
camion 0, FALSE-heu 0.001
Version identifier: 12.10.0.0 | 2019-11-26 | 843d4de2ae
CPXPARAM_Threads                                 12
CPXPARAM_MIP_Strategy_Probe                      -1
CPXPARAM_Emphasis_MIP                            1
Tried aggregator 2 times.
MIP Presolve eliminated 7372 rows and 34 columns.
MIP Presolve modified 3979 coefficients.
Aggregator did 2 substitutions.
Reduced MIP has 2872 rows, 653 columns, and 57219 nonzeros.
Reduced MIP has 653 binaries, 0 generals, 0 SOSs, and 0 indicators.
Presolve time = 0.30 sec. (399.11 ticks)
Tried aggregator 1 time.
Detecting symmetries...
Reduced MIP has 2872 rows, 653 columns, and 57219 nonzeros.
Reduced MIP has 653 binaries, 0 generals, 0 SOSs, and 0 indicators.
Presolve time = 0.06 sec. (82.40 ticks)
Clique table members: 2810.
MIP emphasis: integer feasibility.
MIP search method: dynamic search.
Parallel mode: deterministic, using up to 12 threads.
Root relaxation solution time = 0.05 sec. (39.44 ticks)

        Nodes                                         Cuts/
   Node  Left     Objective  IInf  Best Integer    Best Bound    ItCnt     Gap

      0     0        0.0000   117                      0.0000      294         
      0     0        0.0000   117                Cliques: 132     1514         
*     0+    0                            0.0000        0.0000             0.00%
      0     0        cutoff              0.0000        0.0000     3012    0.00%
Elapsed time = 4.23 sec. (3685.38 ticks, tree = 0.01 MB, solutions = 1)

Clique cuts applied:  161

Root node processing (before b&c):
  Real time             =    4.23 sec. (3685.59 ticks)
Parallel b&c, 12 threads:
  Real time             =    0.00 sec. (0.00 ticks)
  Sync time (average)   =    0.00 sec.
  Wait time (average)   =    0.00 sec.
                          ------------
Total (root+branch&cut) =    4.23 sec. (3685.59 ticks)
4.250000 
TRUE-modelo
camion 1, FALSE-heu 0.001
Version identifier: 12.10.0.0 | 2019-11-26 | 843d4de2ae
CPXPARAM_Threads                                 12
CPXPARAM_MIP_Strategy_Probe                      -1
CPXPARAM_Emphasis_MIP                            1
Tried aggregator 2 times.
MIP Presolve eliminated 10278 rows and 34 columns.
MIP Presolve modified 4560 coefficients.
Aggregator did 2 substitutions.
Reduced MIP has 3327 rows, 717 columns, and 72744 nonzeros.
Reduced MIP has 717 binaries, 0 generals, 0 SOSs, and 0 indicators.
Presolve time = 0.44 sec. (601.22 ticks)
Tried aggregator 1 time.
Detecting symmetries...
Reduced MIP has 3327 rows, 717 columns, and 72744 nonzeros.
Reduced MIP has 717 binaries, 0 generals, 0 SOSs, and 0 indicators.
Presolve time = 0.09 sec. (103.42 ticks)
Clique table members: 3265.
MIP emphasis: integer feasibility.
MIP search method: dynamic search.
Parallel mode: deterministic, using up to 12 threads.
Root relaxation solution time = 0.08 sec. (60.21 ticks)

        Nodes                                         Cuts/
   Node  Left     Objective  IInf  Best Integer    Best Bound    ItCnt     Gap

      0     0        0.0000   159                      0.0000      399         
      0     0        0.0000   159                 Cliques: 38      534         
      0     0        0.0000   159                   Cuts: 179     1956         
*     0+    0                            0.0000        0.0000             0.00%
      0     0        cutoff              0.0000        0.0000     4226    0.00%
Elapsed time = 4.55 sec. (4425.16 ticks, tree = 0.01 MB, solutions = 1)

Clique cuts applied:  417

Root node processing (before b&c):
  Real time             =    4.55 sec. (4425.45 ticks)
Parallel b&c, 12 threads:
  Real time             =    0.00 sec. (0.00 ticks)
  Sync time (average)   =    0.00 sec.
  Wait time (average)   =    0.00 sec.
                          ------------
Total (root+branch&cut) =    4.55 sec. (4425.45 ticks)
4.547000 
TRUE-modelo
Salgo lazy
   5140  1006     7258.9666    42     7320.0000     7172.6069   604596    2.01%       X_1_15_13 D   5356   5348     28
Dentro lazy
camion 0, FALSE-heu 0.001
Version identifier: 12.10.0.0 | 2019-11-26 | 843d4de2ae
CPXPARAM_Threads                                 12
CPXPARAM_MIP_Strategy_Probe                      -1
CPXPARAM_Emphasis_MIP                            1
Tried aggregator 2 times.
MIP Presolve eliminated 7372 rows and 34 columns.
MIP Presolve modified 3979 coefficients.
Aggregator did 2 substitutions.
Reduced MIP has 2872 rows, 653 columns, and 57219 nonzeros.
Reduced MIP has 653 binaries, 0 generals, 0 SOSs, and 0 indicators.
Presolve time = 0.31 sec. (400.73 ticks)
Tried aggregator 1 time.
Detecting symmetries...
Reduced MIP has 2872 rows, 653 columns, and 57219 nonzeros.
Reduced MIP has 653 binaries, 0 generals, 0 SOSs, and 0 indicators.
Presolve time = 0.06 sec. (82.28 ticks)
Clique table members: 2810.
MIP emphasis: integer feasibility.
MIP search method: dynamic search.
Parallel mode: deterministic, using up to 12 threads.
Root relaxation solution time = 0.13 sec. (41.61 ticks)

        Nodes                                         Cuts/
   Node  Left     Objective  IInf  Best Integer    Best Bound    ItCnt     Gap

      0     0        0.0000   138                      0.0000      326         
      0     0        0.0000   138                   Cuts: 239     2070         
*     0+    0                            0.0000        0.0000             0.00%
      0     0        cutoff              0.0000        0.0000     3332    0.00%
Elapsed time = 3.41 sec. (3129.58 ticks, tree = 0.01 MB, solutions = 1)

Clique cuts applied:  148

Root node processing (before b&c):
  Real time             =    3.41 sec. (3129.79 ticks)
Parallel b&c, 12 threads:
  Real time             =    0.00 sec. (0.00 ticks)
  Sync time (average)   =    0.00 sec.
  Wait time (average)   =    0.00 sec.
                          ------------
Total (root+branch&cut) =    3.41 sec. (3129.79 ticks)
3.406000 
TRUE-modelo
camion 1, FALSE-heu 0.001
Version identifier: 12.10.0.0 | 2019-11-26 | 843d4de2ae
CPXPARAM_Threads                                 12
CPXPARAM_MIP_Strategy_Probe                      -1
CPXPARAM_Emphasis_MIP                            1
Tried aggregator 2 times.
MIP Presolve eliminated 10278 rows and 34 columns.
MIP Presolve modified 4560 coefficients.
Aggregator did 2 substitutions.
Reduced MIP has 3327 rows, 717 columns, and 72744 nonzeros.
Reduced MIP has 717 binaries, 0 generals, 0 SOSs, and 0 indicators.
Presolve time = 0.44 sec. (603.11 ticks)
Tried aggregator 1 time.
Detecting symmetries...
Reduced MIP has 3327 rows, 717 columns, and 72744 nonzeros.
Reduced MIP has 717 binaries, 0 generals, 0 SOSs, and 0 indicators.
Presolve time = 0.08 sec. (103.45 ticks)
Clique table members: 3265.
MIP emphasis: integer feasibility.
MIP search method: dynamic search.
Parallel mode: deterministic, using up to 12 threads.
Root relaxation solution time = 0.09 sec. (61.46 ticks)

        Nodes                                         Cuts/
   Node  Left     Objective  IInf  Best Integer    Best Bound    ItCnt     Gap

      0     0        0.0000   154                      0.0000      417         
*     0+    0                            0.0000        0.0000             0.00%
      0     0        cutoff              0.0000        0.0000     2053    0.00%
Elapsed time = 3.14 sec. (2840.63 ticks, tree = 0.01 MB, solutions = 1)

Clique cuts applied:  177
Lift and project cuts applied:  1

Root node processing (before b&c):
  Real time             =    3.14 sec. (2840.89 ticks)
Parallel b&c, 12 threads:
  Real time             =    0.00 sec. (0.00 ticks)
  Sync time (average)   =    0.00 sec.
  Wait time (average)   =    0.00 sec.
                          ------------
Total (root+branch&cut) =    3.14 sec. (2840.89 ticks)
3.141000 
TRUE-modelo
Salgo lazy
Dentro lazy
camion 0, FALSE-heu 0.001
Version identifier: 12.10.0.0 | 2019-11-26 | 843d4de2ae
CPXPARAM_Threads                                 12
CPXPARAM_MIP_Strategy_Probe                      -1
CPXPARAM_Emphasis_MIP                            1
Tried aggregator 2 times.
MIP Presolve eliminated 7372 rows and 34 columns.
MIP Presolve modified 3979 coefficients.
Aggregator did 2 substitutions.
Reduced MIP has 2872 rows, 653 columns, and 57219 nonzeros.
Reduced MIP has 653 binaries, 0 generals, 0 SOSs, and 0 indicators.
Presolve time = 0.31 sec. (400.73 ticks)
Tried aggregator 1 time.
Detecting symmetries...
Reduced MIP has 2872 rows, 653 columns, and 57219 nonzeros.
Reduced MIP has 653 binaries, 0 generals, 0 SOSs, and 0 indicators.
Presolve time = 0.08 sec. (82.28 ticks)
Clique table members: 2810.
MIP emphasis: integer feasibility.
MIP search method: dynamic search.
Parallel mode: deterministic, using up to 12 threads.
Root relaxation solution time = 0.16 sec. (41.61 ticks)

        Nodes                                         Cuts/
   Node  Left     Objective  IInf  Best Integer    Best Bound    ItCnt     Gap

      0     0        0.0000   138                      0.0000      326         
      0     0        0.0000   138                   Cuts: 239     2070         
*     0+    0                            0.0000        0.0000             0.00%
      0     0        cutoff              0.0000        0.0000     3332    0.00%
Elapsed time = 3.30 sec. (3129.58 ticks, tree = 0.01 MB, solutions = 1)

Clique cuts applied:  148

Root node processing (before b&c):
  Real time             =    3.31 sec. (3129.79 ticks)
Parallel b&c, 12 threads:
  Real time             =    0.00 sec. (0.00 ticks)
  Sync time (average)   =    0.00 sec.
  Wait time (average)   =    0.00 sec.
                          ------------
Total (root+branch&cut) =    3.31 sec. (3129.79 ticks)
3.313000 
TRUE-modelo
camion 1, FALSE-heu 0.001
Version identifier: 12.10.0.0 | 2019-11-26 | 843d4de2ae
CPXPARAM_Threads                                 12
CPXPARAM_MIP_Strategy_Probe                      -1
CPXPARAM_Emphasis_MIP                            1
Tried aggregator 2 times.
MIP Presolve eliminated 10278 rows and 34 columns.
MIP Presolve modified 4560 coefficients.
Aggregator did 2 substitutions.
Reduced MIP has 3327 rows, 717 columns, and 72744 nonzeros.
Reduced MIP has 717 binaries, 0 generals, 0 SOSs, and 0 indicators.
Presolve time = 0.44 sec. (602.15 ticks)
Tried aggregator 1 time.
Detecting symmetries...
Reduced MIP has 3327 rows, 717 columns, and 72744 nonzeros.
Reduced MIP has 717 binaries, 0 generals, 0 SOSs, and 0 indicators.
Presolve time = 0.08 sec. (103.43 ticks)
Clique table members: 3265.
MIP emphasis: integer feasibility.
MIP search method: dynamic search.
Parallel mode: deterministic, using up to 12 threads.
Root relaxation solution time = 0.06 sec. (55.70 ticks)

        Nodes                                         Cuts/
   Node  Left     Objective  IInf  Best Integer    Best Bound    ItCnt     Gap

      0     0        0.0000   132                      0.0000      412         
      0     0        0.0000   132                  Cliques: 5      413         
      0     0        0.0000   132                    Cuts: 18      496         
      0     0        0.0000   132                ZeroHalf: 17      622         
Detecting symmetries...
      0     2        0.0000     8                      0.0000      622         
Elapsed time = 3.86 sec. (2453.81 ticks, tree = 0.02 MB, solutions = 0)
*     1     1      integral     0        0.0000        0.0000      625    0.00%

Clique cuts applied:  4
Zero-half cuts applied:  6

Root node processing (before b&c):
  Real time             =    2.50 sec. (2452.24 ticks)
Parallel b&c, 12 threads:
  Real time             =    7.97 sec. (41.93 ticks)
  Sync time (average)   =    6.12 sec.
  Wait time (average)   =    0.00 sec.
                          ------------
Total (root+branch&cut) =   10.47 sec. (2494.17 ticks)
10.484000 
TRUE-modelo
Salgo lazy
*  6395   791      integral     0     7297.0000     7252.4845   652104    0.61%

GUB cover cuts applied:  36
Cover cuts applied:  684
Flow cuts applied:  147
Mixed integer rounding cuts applied:  31
Zero-half cuts applied:  44
Gomory fractional cuts applied:  1
User cuts applied:  2

Root node processing (before b&c):
  Real time             =    5.66 sec. (2373.17 ticks)
Parallel b&c, 8 threads:
  Real time             =  270.78 sec. (7887.90 ticks)
  Sync time (average)   =   78.37 sec.
  Wait time (average)   =    0.00 sec.
                          ------------
Total (root+branch&cut) =  276.44 sec. (10261.07 ticks)
276.454000 
