GAP:; 0.08;  F.O:; 7603.00; Tiempo:;3614.17; 
ROUTING 
X0;0;4;1240.00 
X0;4;5;397.00 
X0;5;10;206.00 
X0;10;14;1011.00 
X0;14;1;571.00 
X0;1;11;309.00 
X0;11;3;76.00 
X0;3;7;437.00 
X0;7;0;681.00 
ruta 0;4928.00 
X1;0;7;681.00 
X1;7;2;543.00 
X1;2;12;86.00 
X1;12;13;43.00 
X1;13;9;116.00 
X1;9;6;143.00 
X1;6;8;80.00 
X1;8;15;286.00 
X1;15;0;697.00 
ruta 1;7603.00 
PACKING 
Z0 3 0 6 	 2282.00 
Z0 1 0 7 	 2025.00 
Z0 14 0 8 	 1821.00 
Z0 10 0 9 	 1903.00 
Z0 4 0 10 	 1718.00 
Z0 7 1 22 	 1947.00 
Z0 11 0 23 	 2298.00 
Z0 14 1 24 	 2179.00 
Z0 10 1 25 	 1702.00 
Z0 5 0 26 	 2150.00 
truck weigth 0: 20025.00 axle 1: 10135.56 axle2: 9889.44 media kg/km:4.06
Z1 15 0 6 	 1825.00 
Z1 6 0 7 	 1850.00 
Z1 9 0 8 	 1757.00 
Z1 12 0 9 	 1744.00 
Z1 7 0 10 	 2053.00 
Z1 15 1 22 	 2175.00 
Z1 8 0 23 	 2243.00 
Z1 9 1 24 	 2097.00 
Z1 13 0 25 	 2256.00 
Z1 2 0 26 	 1975.00 
truck weigth 1: 19975.00 axle 1: 10015.40 axle2: 9959.60 media kg/km:7.47
