GAP:; 0.07;  F.O:; 7516.00; Tiempo:;3722.17; 
ROUTING 
X0;0;7;681.00 
X0;7;11;422.00 
X0;11;3;76.00 
X0;3;1;361.00 
X0;1;14;571.00 
X0;14;12;643.00 
X0;12;2;86.00 
X0;2;8;112.00 
X0;8;0;861.00 
ruta 0;3813.00 
X1;0;15;697.00 
X1;15;6;282.00 
X1;6;2;34.00 
X1;2;13;44.00 
X1;13;9;116.00 
X1;9;4;538.00 
X1;4;10;255.00 
X1;10;5;206.00 
X1;5;0;1531.00 
ruta 1;7516.00 
PACKING 
Z0 2 0 6 	 2225.00 
Z0 14 0 7 	 1733.00 
Z0 1 0 8 	 1775.00 
Z0 3 0 9 	 1957.00 
Z0 7 0 10 	 2165.00 
Z0 8 0 22 	 1835.00 
Z0 12 0 23 	 2253.00 
Z0 1 1 24 	 2063.00 
Z0 3 1 25 	 2195.00 
Z0 11 0 26 	 1747.00 
truck weigth 0: 19948.00 axle 1: 10008.17 axle2: 9939.83 media kg/km:5.23
Z1 5 0 6 	 2210.00 
Z1 4 1 7 	 1862.00 
Z1 9 0 8 	 1817.00 
Z1 2 1 9 	 1805.00 
Z1 15 0 10 	 1937.00 
Z1 5 1 22 	 2138.00 
Z1 10 0 23 	 2183.00 
Z1 4 0 24 	 2043.00 
Z1 13 0 25 	 2267.00 
Z1 6 0 26 	 1790.00 
truck weigth 1: 20052.00 axle 1: 10133.84 axle2: 9918.16 media kg/km:5.42
