GAP:; 0.00;  F.O:; 7300.00; Tiempo:;2274.22; 
ROUTING 
X0;0;15;697.00 
X0;15;3;293.00 
X0;3;11;76.00 
X0;11;1;309.00 
X0;1;14;571.00 
X0;14;10;1011.00 
X0;10;5;206.00 
X0;5;4;397.00 
X0;4;0;1240.00 
ruta 0;4800.00 
X1;0;7;681.00 
X1;7;15;297.00 
X1;15;2;271.00 
X1;2;13;44.00 
X1;13;12;43.00 
X1;12;9;80.00 
X1;9;6;143.00 
X1;6;8;80.00 
X1;8;0;861.00 
ruta 1;7300.00 
PACKING 
Z0 4 2 1 	 784.00 
Z0 4 0 2 	 806.00 
Z0 5 2 3 	 575.00 
Z0 5 0 4 	 623.00 
Z0 10 2 5 	 504.00 
Z0 10 0 6 	 679.00 
Z0 14 2 7 	 793.00 
Z0 14 0 8 	 972.00 
Z0 1 2 9 	 735.00 
Z0 1 0 10 	 476.00 
Z0 11 2 11 	 863.00 
Z0 11 0 12 	 633.00 
Z0 3 2 13 	 516.00 
Z0 3 0 14 	 494.00 
Z0 15 0 15 	 949.00 
Z0 4 3 17 	 805.00 
Z0 4 1 18 	 490.00 
Z0 5 3 19 	 495.00 
Z0 5 1 20 	 810.00 
Z0 10 3 21 	 938.00 
Z0 10 1 22 	 543.00 
Z0 14 3 23 	 632.00 
Z0 14 1 24 	 417.00 
Z0 1 3 25 	 390.00 
Z0 1 1 26 	 351.00 
Z0 11 3 27 	 362.00 
Z0 11 1 28 	 757.00 
Z0 3 3 29 	 505.00 
Z0 3 1 30 	 757.00 
Z0 15 3 31 	 668.00 
truck weigth 0: 19322.00 axle 1: 9836.85 axle2: 9485.15 media kg/km:4.03
Z1 8 0 0 	 632.00 
Z1 8 1 1 	 783.00 
Z1 8 3 2 	 780.00 
Z1 6 3 3 	 787.00 
Z1 9 2 4 	 796.00 
Z1 9 1 5 	 517.00 
Z1 12 3 6 	 602.00 
Z1 12 0 7 	 667.00 
Z1 13 1 8 	 630.00 
Z1 13 0 9 	 328.00 
Z1 13 3 10 	 698.00 
Z1 2 2 11 	 565.00 
Z1 2 0 12 	 824.00 
Z1 7 2 13 	 923.00 
Z1 7 0 14 	 668.00 
Z1 7 1 15 	 836.00 
Z1 8 2 17 	 377.00 
Z1 6 1 18 	 464.00 
Z1 6 2 19 	 725.00 
Z1 6 0 20 	 677.00 
Z1 9 3 21 	 520.00 
Z1 9 0 22 	 621.00 
Z1 12 1 23 	 670.00 
Z1 12 2 24 	 437.00 
Z1 13 2 25 	 507.00 
Z1 2 3 26 	 795.00 
Z1 2 1 27 	 543.00 
Z1 15 2 28 	 910.00 
Z1 15 1 29 	 883.00 
Z1 7 3 30 	 513.00 
truck weigth 1: 19678.00 axle 1: 10198.67 axle2: 9479.33 media kg/km:7.87
