GAP:; 0.06;  F.O:; 7420.00; Tiempo:;3725.83; 
ROUTING 
X0;0;15;697.00 
X0;15;3;293.00 
X0;3;11;76.00 
X0;11;1;309.00 
X0;1;14;571.00 
X0;14;10;1011.00 
X0;10;5;206.00 
X0;5;4;397.00 
X0;4;0;1240.00 
ruta 0;4800.00 
X1;0;8;861.00 
X1;8;6;80.00 
X1;6;2;34.00 
X1;2;12;86.00 
X1;12;9;80.00 
X1;9;13;116.00 
X1;13;3;245.00 
X1;3;7;437.00 
X1;7;0;681.00 
ruta 1;7420.00 
PACKING 
Z0 4 2 3 	 754.00 
Z0 4 0 4 	 848.00 
Z0 5 1 5 	 1820.00 
Z0 10 2 6 	 1577.00 
Z0 10 0 7 	 1672.00 
Z0 14 0 8 	 997.00 
Z0 1 1 9 	 1840.00 
Z0 11 1 10 	 1642.00 
Z0 3 0 11 	 1152.00 
Z0 15 0 12 	 160.00 
Z0 4 1 20 	 180.00 
Z0 5 2 21 	 482.00 
Z0 5 0 22 	 155.00 
Z0 10 1 23 	 358.00 
Z0 14 1 24 	 1452.00 
Z0 1 2 25 	 1316.00 
Z0 1 0 26 	 1692.00 
Z0 11 0 27 	 1309.00 
Z0 15 1 28 	 548.00 
truck weigth 0: 19954.00 axle 1: 10018.83 axle2: 9935.17 media kg/km:4.16
Z1 7 1 2 	 429.00 
Z1 7 0 3 	 375.00 
Z1 3 2 4 	 1246.00 
Z1 13 1 5 	 481.00 
Z1 9 1 6 	 515.00 
Z1 12 1 7 	 1519.00 
Z1 2 1 8 	 1550.00 
Z1 2 2 9 	 684.00 
Z1 6 1 10 	 1571.00 
Z1 8 1 11 	 1485.00 
Z1 7 2 18 	 530.00 
Z1 3 1 19 	 450.00 
Z1 13 0 20 	 1003.00 
Z1 9 0 21 	 328.00 
Z1 9 2 22 	 423.00 
Z1 12 0 23 	 691.00 
Z1 2 0 24 	 308.00 
Z1 6 0 25 	 1845.00 
Z1 6 2 26 	 1518.00 
Z1 8 2 27 	 1470.00 
Z1 8 0 28 	 1625.00 
truck weigth 1: 20046.00 axle 1: 10137.68 axle2: 9908.32 media kg/km:7.65
