GAP:; 0.00;  F.O:; 7275.00; Tiempo:;219.28; 
ROUTING 
X0;0;4;1240.00 
X0;4;5;397.00 
X0;5;10;206.00 
X0;10;14;1011.00 
X0;14;1;571.00 
X0;1;11;309.00 
X0;11;3;76.00 
X0;3;15;293.00 
X0;15;0;697.00 
ruta 0;4800.00 
X1;0;7;681.00 
X1;7;2;543.00 
X1;2;13;44.00 
X1;13;12;43.00 
X1;12;9;80.00 
X1;9;6;143.00 
X1;6;8;80.00 
X1;8;0;861.00 
ruta 1;7275.00 
PACKING 
Z0 15 0 3 	 436.00 
Z0 3 1 4 	 846.00 
Z0 11 0 5 	 1582.00 
Z0 1 0 6 	 801.00 
Z0 1 1 7 	 1564.00 
Z0 14 0 8 	 720.00 
Z0 10 1 9 	 387.00 
Z0 5 2 10 	 854.00 
Z0 5 0 11 	 582.00 
Z0 4 1 12 	 231.00 
Z0 15 1 19 	 371.00 
Z0 3 2 20 	 330.00 
Z0 3 0 21 	 1695.00 
Z0 11 1 22 	 1613.00 
Z0 1 2 23 	 1398.00 
Z0 14 1 24 	 1629.00 
Z0 10 0 25 	 416.00 
Z0 10 2 26 	 1012.00 
Z0 5 1 27 	 1769.00 
Z0 4 0 28 	 305.00 
Z0 4 2 29 	 1670.00 
truck weigth 0: 20211.00 axle 1: 10421.17 axle2: 9789.83 media kg/km:4.21
Z1 8 2 3 	 591.00 
Z1 8 0 4 	 1757.00 
Z1 6 1 5 	 400.00 
Z1 9 2 6 	 988.00 
Z1 9 0 7 	 1584.00 
Z1 12 0 8 	 418.00 
Z1 13 0 9 	 1280.00 
Z1 2 1 10 	 1154.00 
Z1 7 2 11 	 1409.00 
Z1 7 0 12 	 243.00 
Z1 8 1 20 	 348.00 
Z1 6 2 21 	 1146.00 
Z1 6 0 22 	 1418.00 
Z1 9 1 23 	 1652.00 
Z1 12 1 24 	 1205.00 
Z1 13 1 25 	 795.00 
Z1 2 2 26 	 602.00 
Z1 2 0 27 	 1199.00 
Z1 7 1 28 	 1600.00 
truck weigth 1: 19789.00 axle 1: 10141.85 axle2: 9647.15 media kg/km:8.00
