GAP:; 0.00;  F.O:; 6323.00; Tiempo:;5.88; 
ROUTING 
X0;0;1;1311.00 
X0;1;3;361.00 
X0;3;2;243.00 
X0;2;0;918.00 
ruta 0;2833.00 
X1;0;5;1531.00 
X1;5;4;397.00 
X1;4;2;644.00 
X1;2;0;918.00 
ruta 1;6323.00 
PACKING 
Z0 2 2 6 	 1719.00 
Z0 2 1 7 	 1777.00 
Z0 3 0 8 	 1727.00 
Z0 1 2 9 	 2291.00 
Z0 1 3 10 	 1709.00 
Z0 2 0 22 	 2223.00 
Z0 3 2 23 	 2238.00 
Z0 3 1 24 	 2273.00 
Z0 1 0 25 	 2191.00 
Z0 1 1 26 	 1809.00 
truck weigth 0: 19957.00 axle 1: 10029.69 axle2: 9927.31 media kg/km:7.04
Z1 4 2 6 	 2120.00 
Z1 4 0 7 	 1762.00 
Z1 5 4 8 	 1992.00 
Z1 5 2 9 	 1853.00 
Z1 5 0 10 	 1996.00 
Z1 2 3 22 	 2281.00 
Z1 4 1 23 	 1880.00 
Z1 5 5 24 	 2008.00 
Z1 5 3 25 	 2147.00 
Z1 5 1 26 	 2004.00 
truck weigth 1: 20043.00 axle 1: 10077.07 axle2: 9965.93 media kg/km:5.74
