GAP:; 0.00;  F.O:; 6323.00; Tiempo:;9.94; 
ROUTING 
X0;0;2;918.00 
X0;2;3;243.00 
X0;3;1;361.00 
X0;1;0;1311.00 
ruta 0;2833.00 
X1;0;5;1531.00 
X1;5;4;397.00 
X1;4;2;644.00 
X1;2;0;918.00 
ruta 1;6323.00 
PACKING 
Z0 1 11 0 	 671.00 
Z0 1 9 1 	 697.00 
Z0 1 7 2 	 881.00 
Z0 1 5 3 	 391.00 
Z0 1 3 4 	 560.00 
Z0 1 1 5 	 809.00 
Z0 3 11 6 	 833.00 
Z0 3 9 7 	 794.00 
Z0 3 7 8 	 951.00 
Z0 3 5 9 	 416.00 
Z0 3 3 10 	 850.00 
Z0 3 1 11 	 769.00 
Z0 2 9 12 	 506.00 
Z0 2 7 13 	 349.00 
Z0 2 4 14 	 753.00 
Z0 2 1 15 	 531.00 
Z0 1 10 17 	 331.00 
Z0 1 8 18 	 368.00 
Z0 1 6 19 	 695.00 
Z0 1 4 20 	 547.00 
Z0 1 2 21 	 560.00 
Z0 1 0 22 	 658.00 
Z0 3 10 23 	 565.00 
Z0 3 8 24 	 437.00 
Z0 3 6 25 	 573.00 
Z0 3 4 26 	 606.00 
Z0 3 2 27 	 898.00 
Z0 3 0 28 	 803.00 
Z0 2 8 29 	 932.00 
Z0 2 6 30 	 605.00 
Z0 2 3 31 	 450.00 
truck weigth 0: 19789.00 axle 1: 10109.86 axle2: 9679.14 media kg/km:6.99
Z1 2 11 1 	 467.00 
Z1 2 5 2 	 884.00 
Z1 2 0 3 	 642.00 
Z1 4 10 4 	 735.00 
Z1 4 8 5 	 863.00 
Z1 4 6 6 	 727.00 
Z1 4 4 7 	 694.00 
Z1 4 2 8 	 402.00 
Z1 4 0 9 	 497.00 
Z1 5 10 10 	 629.00 
Z1 5 8 11 	 603.00 
Z1 5 6 12 	 419.00 
Z1 5 4 13 	 909.00 
Z1 5 2 14 	 740.00 
Z1 5 0 15 	 491.00 
Z1 2 10 18 	 969.00 
Z1 2 2 19 	 740.00 
Z1 4 11 20 	 639.00 
Z1 4 9 21 	 368.00 
Z1 4 7 22 	 970.00 
Z1 4 5 23 	 881.00 
Z1 4 3 24 	 314.00 
Z1 4 1 25 	 398.00 
Z1 5 11 26 	 661.00 
Z1 5 9 27 	 932.00 
Z1 5 7 28 	 330.00 
Z1 5 5 29 	 419.00 
Z1 5 3 30 	 986.00 
Z1 5 1 31 	 902.00 
truck weigth 1: 19211.00 axle 1: 9469.40 axle2: 9741.60 media kg/km:5.50
