GAP:; 0.04;  F.O:; 6331.00; Tiempo:;3788.52; 
ROUTING 
X0;0;2;918.00 
X0;2;1;575.00 
X0;1;3;361.00 
X0;3;0;987.00 
ruta 0;2841.00 
X1;0;2;918.00 
X1;2;4;644.00 
X1;4;5;397.00 
X1;5;0;1531.00 
ruta 1;6331.00 
PACKING 
Z0 3 7 3 	 1204.00 
Z0 3 5 4 	 787.00 
Z0 3 3 5 	 1188.00 
Z0 3 1 6 	 1239.00 
Z0 1 7 7 	 804.00 
Z0 1 5 8 	 870.00 
Z0 1 3 9 	 958.00 
Z0 1 1 10 	 1108.00 
Z0 2 6 11 	 899.00 
Z0 2 0 12 	 1238.00 
Z0 3 6 20 	 868.00 
Z0 3 4 21 	 1133.00 
Z0 3 2 22 	 1124.00 
Z0 3 0 23 	 1202.00 
Z0 1 6 24 	 1101.00 
Z0 1 4 25 	 1189.00 
Z0 1 2 26 	 1078.00 
Z0 1 0 27 	 762.00 
Z0 2 2 28 	 922.00 
truck weigth 0: 19674.00 axle 1: 10281.80 axle2: 9392.20 media kg/km:6.93
Z1 5 6 3 	 1196.00 
Z1 5 1 4 	 1178.00 
Z1 5 2 5 	 1042.00 
Z1 5 0 6 	 892.00 
Z1 5 5 7 	 1025.00 
Z1 4 4 8 	 867.00 
Z1 4 3 9 	 835.00 
Z1 4 0 10 	 798.00 
Z1 2 4 11 	 811.00 
Z1 2 5 12 	 1213.00 
Z1 2 7 13 	 796.00 
Z1 5 3 20 	 1165.00 
Z1 5 7 21 	 1235.00 
Z1 5 4 22 	 1130.00 
Z1 4 6 23 	 1132.00 
Z1 4 7 24 	 765.00 
Z1 4 5 25 	 975.00 
Z1 4 1 26 	 822.00 
Z1 4 2 27 	 876.00 
Z1 2 3 28 	 812.00 
Z1 2 1 29 	 761.00 
truck weigth 1: 20326.00 axle 1: 10350.70 axle2: 9975.30 media kg/km:5.82
