GAP:; 0.00;  F.O:; 6323.00; Tiempo:;8.48; 
ROUTING 
X0;0;1;1311.00 
X0;1;3;361.00 
X0;3;2;243.00 
X0;2;0;918.00 
ruta 0;2833.00 
X1;0;5;1531.00 
X1;5;4;397.00 
X1;4;2;644.00 
X1;2;0;918.00 
ruta 1;6323.00 
PACKING 
Z0 2 9 1 	 852.00 
Z0 2 4 2 	 751.00 
Z0 2 0 3 	 519.00 
Z0 3 10 4 	 759.00 
Z0 3 8 5 	 938.00 
Z0 3 6 6 	 578.00 
Z0 3 4 7 	 822.00 
Z0 3 2 8 	 667.00 
Z0 3 0 9 	 860.00 
Z0 1 10 10 	 621.00 
Z0 1 8 11 	 402.00 
Z0 1 6 12 	 572.00 
Z0 1 4 13 	 549.00 
Z0 1 2 14 	 752.00 
Z0 1 0 15 	 781.00 
Z0 2 8 18 	 898.00 
Z0 2 1 19 	 972.00 
Z0 3 11 20 	 597.00 
Z0 3 9 21 	 448.00 
Z0 3 7 22 	 512.00 
Z0 3 5 23 	 686.00 
Z0 3 3 24 	 893.00 
Z0 3 1 25 	 328.00 
Z0 1 11 26 	 721.00 
Z0 1 9 27 	 486.00 
Z0 1 7 28 	 469.00 
Z0 1 5 29 	 939.00 
Z0 1 3 30 	 459.00 
Z0 1 1 31 	 485.00 
truck weigth 0: 19316.00 axle 1: 9839.47 axle2: 9476.53 media kg/km:6.82
Z1 2 11 0 	 703.00 
Z1 2 7 1 	 788.00 
Z1 2 5 2 	 614.00 
Z1 2 2 3 	 548.00 
Z1 4 10 4 	 541.00 
Z1 4 8 5 	 362.00 
Z1 4 6 6 	 722.00 
Z1 4 4 7 	 478.00 
Z1 4 2 8 	 633.00 
Z1 4 0 9 	 440.00 
Z1 5 10 10 	 579.00 
Z1 5 8 11 	 814.00 
Z1 5 6 12 	 831.00 
Z1 5 4 13 	 361.00 
Z1 5 2 14 	 841.00 
Z1 5 0 15 	 815.00 
Z1 2 10 17 	 679.00 
Z1 2 6 18 	 728.00 
Z1 2 3 19 	 407.00 
Z1 4 11 20 	 322.00 
Z1 4 9 21 	 830.00 
Z1 4 7 22 	 583.00 
Z1 4 5 23 	 412.00 
Z1 4 3 24 	 966.00 
Z1 4 1 25 	 321.00 
Z1 5 11 26 	 978.00 
Z1 5 9 27 	 470.00 
Z1 5 7 28 	 717.00 
Z1 5 5 29 	 888.00 
Z1 5 3 30 	 334.00 
Z1 5 1 31 	 979.00 
truck weigth 1: 19684.00 axle 1: 9831.50 axle2: 9852.50 media kg/km:5.64
