GAP:; 0.00;  F.O:; 6323.00; Tiempo:;11.16; 
ROUTING 
X0;0;1;1311.00 
X0;1;3;361.00 
X0;3;2;243.00 
X0;2;0;918.00 
ruta 0;2833.00 
X1;0;5;1531.00 
X1;5;4;397.00 
X1;4;2;644.00 
X1;2;0;918.00 
ruta 1;6323.00 
PACKING 
Z0 2 1 3 	 832.00 
Z0 2 3 4 	 773.00 
Z0 3 6 5 	 882.00 
Z0 3 1 6 	 725.00 
Z0 3 2 7 	 992.00 
Z0 1 3 8 	 997.00 
Z0 1 2 9 	 1003.00 
Z0 1 0 10 	 1282.00 
Z0 1 8 11 	 1144.00 
Z0 1 4 12 	 1061.00 
Z0 1 6 13 	 1136.00 
Z0 2 6 19 	 896.00 
Z0 2 4 20 	 753.00 
Z0 3 0 21 	 1275.00 
Z0 3 4 22 	 989.00 
Z0 3 5 23 	 1011.00 
Z0 3 3 24 	 1008.00 
Z0 1 7 25 	 864.00 
Z0 1 5 26 	 939.00 
Z0 1 9 27 	 856.00 
Z0 1 1 28 	 718.00 
truck weigth 0: 20136.00 axle 1: 10198.05 axle2: 9937.95 media kg/km:7.11
Z1 2 0 4 	 1168.00 
Z1 2 2 5 	 1227.00 
Z1 4 2 6 	 1203.00 
Z1 5 8 7 	 946.00 
Z1 5 4 8 	 1169.00 
Z1 5 10 9 	 1078.00 
Z1 5 11 10 	 922.00 
Z1 5 0 11 	 1167.00 
Z1 5 2 12 	 822.00 
Z1 2 7 19 	 1104.00 
Z1 2 5 20 	 1247.00 
Z1 4 1 21 	 797.00 
Z1 4 0 22 	 1118.00 
Z1 5 5 23 	 831.00 
Z1 5 9 24 	 1054.00 
Z1 5 6 25 	 707.00 
Z1 5 1 26 	 833.00 
Z1 5 7 27 	 1293.00 
Z1 5 3 28 	 1178.00 
truck weigth 1: 19864.00 axle 1: 10431.47 axle2: 9432.53 media kg/km:5.69
