GAP:; 0.00;  F.O:; 6461.00; Tiempo:;30.80; 
ROUTING 
X0;0;1;1311.00 
X0;1;3;361.00 
X0;3;0;987.00 
ruta 0;2659.00 
X1;0;5;1531.00 
X1;5;4;397.00 
X1;4;2;644.00 
X1;2;3;243.00 
X1;3;0;987.00 
ruta 1;6461.00 
PACKING 
Z0 3 1 3 	 824.00 
Z0 3 3 4 	 919.00 
Z0 3 9 5 	 882.00 
Z0 3 8 6 	 1118.00 
Z0 3 10 7 	 1549.00 
Z0 1 0 8 	 1104.00 
Z0 1 2 9 	 424.00 
Z0 1 8 10 	 1146.00 
Z0 1 9 11 	 854.00 
Z0 1 4 12 	 1462.00 
Z0 3 4 19 	 538.00 
Z0 3 6 20 	 370.00 
Z0 3 2 21 	 1081.00 
Z0 3 5 22 	 1462.00 
Z0 3 7 23 	 1630.00 
Z0 1 5 24 	 538.00 
Z0 1 3 25 	 1576.00 
Z0 1 6 26 	 182.00 
Z0 1 1 27 	 896.00 
Z0 1 7 28 	 1818.00 
truck weigth 0: 20373.00 axle 1: 10427.14 axle2: 9945.86 media kg/km:7.66
Z1 2 5 3 	 1046.00 
Z1 2 3 4 	 738.00 
Z1 2 1 5 	 812.00 
Z1 4 11 6 	 225.00 
Z1 4 9 7 	 543.00 
Z1 4 7 8 	 177.00 
Z1 4 5 9 	 1099.00 
Z1 4 3 10 	 1640.00 
Z1 4 1 11 	 1408.00 
Z1 5 0 12 	 1775.00 
Z1 3 0 19 	 1176.00 
Z1 2 4 20 	 954.00 
Z1 2 2 21 	 1262.00 
Z1 2 0 22 	 1188.00 
Z1 4 10 23 	 1457.00 
Z1 4 8 24 	 1823.00 
Z1 4 6 25 	 901.00 
Z1 4 4 26 	 360.00 
Z1 4 2 27 	 592.00 
Z1 4 0 28 	 451.00 
truck weigth 1: 19627.00 axle 1: 10382.22 axle2: 9244.78 media kg/km:5.16
