GAP:; 0.00;  F.O:; 6323.00; Tiempo:;7.14; 
ROUTING 
X0;0;2;918.00 
X0;2;3;243.00 
X0;3;1;361.00 
X0;1;0;1311.00 
ruta 0;2833.00 
X1;0;5;1531.00 
X1;5;4;397.00 
X1;4;2;644.00 
X1;2;0;918.00 
ruta 1;6323.00 
PACKING 
Z0 1 10 0 	 860.00 
Z0 1 8 1 	 867.00 
Z0 1 6 2 	 458.00 
Z0 1 4 3 	 572.00 
Z0 1 2 4 	 399.00 
Z0 1 0 5 	 324.00 
Z0 3 10 6 	 376.00 
Z0 3 8 7 	 791.00 
Z0 3 6 8 	 888.00 
Z0 3 4 9 	 769.00 
Z0 3 2 10 	 492.00 
Z0 3 0 11 	 414.00 
Z0 2 10 12 	 440.00 
Z0 2 6 13 	 842.00 
Z0 2 2 14 	 901.00 
Z0 2 0 15 	 976.00 
Z0 1 11 16 	 565.00 
Z0 1 9 17 	 312.00 
Z0 1 7 18 	 306.00 
Z0 1 5 19 	 413.00 
Z0 1 3 20 	 604.00 
Z0 1 1 21 	 675.00 
Z0 3 11 22 	 321.00 
Z0 3 9 23 	 421.00 
Z0 3 7 24 	 741.00 
Z0 3 5 25 	 729.00 
Z0 3 3 26 	 526.00 
Z0 3 1 27 	 918.00 
Z0 2 11 28 	 979.00 
Z0 2 9 29 	 879.00 
Z0 2 5 30 	 571.00 
Z0 2 1 31 	 382.00 
truck weigth 0: 19711.00 axle 1: 9787.55 axle2: 9923.45 media kg/km:6.96
Z1 2 7 1 	 559.00 
Z1 2 3 2 	 774.00 
Z1 4 10 3 	 924.00 
Z1 4 8 4 	 509.00 
Z1 4 6 5 	 412.00 
Z1 4 4 6 	 531.00 
Z1 4 2 7 	 808.00 
Z1 4 0 8 	 886.00 
Z1 5 10 9 	 735.00 
Z1 5 8 10 	 988.00 
Z1 5 6 11 	 994.00 
Z1 5 4 12 	 887.00 
Z1 5 2 13 	 696.00 
Z1 5 0 14 	 625.00 
Z1 2 8 17 	 433.00 
Z1 2 4 18 	 728.00 
Z1 4 11 19 	 313.00 
Z1 4 9 20 	 561.00 
Z1 4 7 21 	 637.00 
Z1 4 5 22 	 802.00 
Z1 4 3 23 	 733.00 
Z1 4 1 24 	 458.00 
Z1 5 11 25 	 987.00 
Z1 5 9 26 	 739.00 
Z1 5 7 27 	 663.00 
Z1 5 5 28 	 498.00 
Z1 5 3 29 	 567.00 
Z1 5 1 30 	 842.00 
truck weigth 1: 19289.00 axle 1: 9870.41 axle2: 9418.59 media kg/km:5.53
