GAP:; 0.00;  F.O:; 6323.00; Tiempo:;7.02; 
ROUTING 
X0;0;2;918.00 
X0;2;3;243.00 
X0;3;1;361.00 
X0;1;0;1311.00 
ruta 0;2833.00 
X1;0;2;918.00 
X1;2;4;644.00 
X1;4;5;397.00 
X1;5;0;1531.00 
ruta 1;6323.00 
PACKING 
Z0 1 3 6 	 2210.00 
Z0 1 1 7 	 2262.00 
Z0 3 2 8 	 2221.00 
Z0 3 0 9 	 2234.00 
Z0 2 0 10 	 1953.00 
Z0 1 4 22 	 2047.00 
Z0 1 2 23 	 1790.00 
Z0 1 0 24 	 1738.00 
Z0 3 1 25 	 1779.00 
Z0 2 3 26 	 1766.00 
truck weigth 0: 20000.00 axle 1: 10101.00 axle2: 9899.00 media kg/km:7.06
Z1 5 2 6 	 1978.00 
Z1 5 0 7 	 1907.00 
Z1 4 2 8 	 2156.00 
Z1 4 0 9 	 2125.00 
Z1 2 1 10 	 1819.00 
Z1 5 3 22 	 2022.00 
Z1 5 1 23 	 2093.00 
Z1 4 3 24 	 1844.00 
Z1 4 1 25 	 1875.00 
Z1 2 2 26 	 2181.00 
truck weigth 1: 20000.00 axle 1: 10025.42 axle2: 9974.58 media kg/km:5.73
