.\M_Inst5P1Du_1.txt_sol.txt;1;2;
.\M_Inst5P1Du_2.txt_sol.txt;1;2;
.\M_Inst5P1Du_3.txt_sol.txt;1;1;
.\M_Inst5P1Du_4.txt_sol.txt;1;3;
.\M_Inst5P1Du_5.txt_sol.txt;1;2;
.\M_Inst5P1Dv_1.txt_sol.txt;1;2;
.\M_Inst5P1Dv_2.txt_sol.txt;1;2;
.\M_Inst5P1Dv_3.txt_sol.txt;1;2;
.\M_Inst5P1Dv_4.txt_sol.txt;1;2;
.\M_Inst5P1Dv_5.txt_sol.txt;0;
.\M_Inst5P2Du_1.txt_sol.txt;1;2;
.\M_Inst5P2Du_2.txt_sol.txt;1;2;
.\M_Inst5P2Du_3.txt_sol.txt;1;2;
.\M_Inst5P2Du_4.txt_sol.txt;1;2;
.\M_Inst5P2Du_5.txt_sol.txt;1;2;
.\M_Inst5P2Dv_1.txt_sol.txt;1;2;
.\M_Inst5P2Dv_2.txt_sol.txt;2;2;3;
.\M_Inst5P2Dv_3.txt_sol.txt;1;2;
.\M_Inst5P2Dv_4.txt_sol.txt;1;2;
.\M_Inst5P2Dv_5.txt_sol.txt;1;2;
.\M_Inst5P3Du_1.txt_sol.txt;1;2;
.\M_Inst5P3Du_2.txt_sol.txt;1;2;
.\M_Inst5P3Du_3.txt_sol.txt;1;2;
.\M_Inst5P3Du_4.txt_sol.txt;1;2;
.\M_Inst5P3Du_5.txt_sol.txt;1;2;
.\M_Inst5P3Dv_1.txt_sol.txt;1;2;
.\M_Inst5P3Dv_2.txt_sol.txt;1;2;
.\M_Inst5P3Dv_3.txt_sol.txt;1;2;
.\M_Inst5P3Dv_4.txt_sol.txt;0;
.\M_Inst5P3Dv_5.txt_sol.txt;1;2;
.\M_Inst5P4Du_1.txt_sol.txt;1;2;
.\M_Inst5P4Du_2.txt_sol.txt;1;2;
.\M_Inst5P4Du_3.txt_sol.txt;1;2;
.\M_Inst5P4Du_4.txt_sol.txt;1;2;
.\M_Inst5P4Du_5.txt_sol.txt;1;2;
.\M_Inst5P4Dv_1.txt_sol.txt;1;2;
.\M_Inst5P4Dv_2.txt_sol.txt;0;
.\M_Inst5P4Dv_3.txt_sol.txt;1;2;
.\M_Inst5P4Dv_4.txt_sol.txt;1;3;
.\M_Inst5P4Dv_5.txt_sol.txt;1;2;
