Instances\Inst15P1Du_2.csvVersion identifier: 12.10.0.0 | 2019-11-26 | 843d4de2ae
CPXPARAM_Threads                                 8
CPXPARAM_MIP_Strategy_File                       3
CPXPARAM_MIP_Strategy_Probe                      -1
CPXPARAM_TimeLimit                               3600
Lazy constraint(s) or lazy constraint/branch callback is present.
    Disabling dual reductions (CPX_PARAM_REDUCE) in presolve.
    Disabling non-linear reductions (CPX_PARAM_PRELINEAR) in presolve.
    Disabling presolve reductions that prevent crushing forms.
         Disabling repeat represolve because of lazy constraint/incumbent callback.
Dentro lazy
camion 0, TRUE-heu 0.000038
camion 1, TRUE-heu 0.000078
camion 2, TRUE-heu 0.000117
camion 3, TRUE-heu 0.000152
camion 4, TRUE-heu 0.000194
Salgo lazy
1 of 1 MIP starts provided solutions.
MIP start 'm1' defined initial solution with objective 12358.0000.
Tried aggregator 1 time.
MIP Presolve eliminated 1365 rows and 395 columns.
MIP Presolve modified 7029 coefficients.
Reduced MIP has 1805 rows, 8485 columns, and 67186 nonzeros.
Reduced MIP has 7360 binaries, 0 generals, 0 SOSs, and 0 indicators.
Presolve time = 0.08 sec. (57.98 ticks)
Clique table members: 355.
MIP emphasis: balance optimality and feasibility.
MIP search method: traditional branch-and-cut.
Parallel mode: deterministic, using up to 8 threads.
Root relaxation solution time = 0.27 sec. (182.06 ticks)

        Nodes                                         Cuts/
   Node  Left     Objective  IInf  Best Integer    Best Bound    ItCnt     Gap         Variable B NodeID Parent  Depth

*     0+    0                        12358.0000        0.0000           100.00%
      0     0     5060.8837   243    12358.0000     5060.8837       20   59.05%
      0     0     6118.8410   243    12358.0000     Cuts: 183     2426   50.49%
      0     0     6259.8365   243    12358.0000     Cuts: 222     3289   49.35%
      0     0     6455.1092   243    12358.0000     Cuts: 248     5876   47.77%
      0     0     6577.1003   243    12358.0000     Cuts: 176     7175   46.78%
      0     0     6612.6455   243    12358.0000     Cuts: 179     8636   46.49%
      0     0     6647.2207   243    12358.0000     Cuts: 154     9502   46.21%
      0     0     6714.2300   243    12358.0000     Cuts: 160    10951   45.67%
      0     0     6745.5763   243    12358.0000     Cuts: 121    11413   45.42%
      0     0     6786.0153   243    12358.0000     Cuts: 153    15186   45.09%
      0     0     6825.8023   243    12358.0000     Cuts: 135    16964   44.77%
      0     0     6833.1537   243    12358.0000     Cuts: 174    18198   44.71%
      0     0     6851.8160   243    12358.0000     Cuts: 111    18675   44.56%
      0     0     6863.4284   243    12358.0000     Cuts: 141    19121   44.46%
      0     0     6878.5517   243    12358.0000     Cuts: 115    19503   44.34%
      0     0     6885.4201   243    12358.0000     Cuts: 107    19828   44.28%
      0     0     6887.2633   243    12358.0000      Cuts: 91    20056   44.27%
      0     0     6901.8007   243    12358.0000      Cuts: 68    20826   44.15%
      0     0     6909.2927   243    12358.0000     Cuts: 128    21806   44.09%
      0     0     6923.9125   243    12358.0000      Cuts: 89    22191   43.97%
      0     0     6939.8771   243    12358.0000     Cuts: 118    23625   43.84%
      0     0     6943.6936   243    12358.0000     Cuts: 122    23935   43.81%
      0     0     6946.8573   243    12358.0000     Cuts: 107    24594   43.79%
      0     0     6955.5356   243    12358.0000     Cuts: 111    25883   43.72%
      0     0     6957.5806   243    12358.0000     Cuts: 105    26154   43.70%
      0     0     6965.4002   243    12358.0000     Cuts: 104    26594   43.64%
      0     0     6990.2665   243    12358.0000     Cuts: 155    28385   43.44%
      0     0     7001.9385   243    12358.0000     Cuts: 108    28724   43.34%
      0     0     7011.4259   243    12358.0000     Cuts: 130    29190   43.26%
      0     0     7015.9987   243    12358.0000     Cuts: 121    29597   43.23%
      0     0     7017.6241   243    12358.0000     Cuts: 125    29943   43.21%
      0     0     7020.1480   243    12358.0000      Cuts: 80    30428   43.19%
      0     0     7020.4804   243    12358.0000     Cuts: 106    30588   43.19%
      0     2     7020.4804   408    12358.0000     7020.4804    30588   43.19%                        0             0
Elapsed time = 28.52 sec. (20171.16 ticks, tree = 0.02 MB, solutions = 1)
      1     3     7124.2636   315    12358.0000     7033.2531    33676   43.09%              Y1 D      8      0      1
      3     3     7640.1073   327    12358.0000     7033.2531    34695   43.09%              Y1 U      7      0      1
      4     4     7670.4239   277    12358.0000     7033.2531    36553   43.09%              Y4 U      6      8      2
      6     5     7750.3760   259    12358.0000     7640.1073    41489   38.18%         X_4_4_5 N      5      6      3
      7     4     7769.9567   348    12358.0000     7640.1073    40289   38.18%        X_1_12_9 N     24      7      2
      9     6     8289.1152   256    12358.0000     7640.1073    44006   38.18%              Y4 U     23     15      3
     12    11     7881.8889   273    12358.0000     7658.1801    51289   38.03%         X_3_0_7 D     21     13      5
     16    13     7897.1251   249    12358.0000     7658.1801    53168   38.03%        X_3_0_15 D     29     21      6
     23    18     8268.7527   237    12358.0000     7658.1801    60548   38.03%        X_0_0_10 D      9      1      5
     69    30    10210.9869   168    12358.0000     7658.1801    65263   38.03%         X_3_0_4 D     99     91     14
Elapsed time = 36.91 sec. (25591.57 ticks, tree = 0.26 MB, solutions = 1)
    156   110     8149.1743   237    12358.0000     7881.6678    94874   36.22%         X_4_5_0 D    213    205     26
    322   188    12158.4492   138    12358.0000     7881.6678   109461   36.22%         X_2_0_3 D    742    734     77
    442   284     8378.7560   232    12358.0000     7881.6678   126941   36.22%        X_3_10_4 N     90     82     13
    610   447     9305.8697   237    12358.0000     7881.6678   156555   36.22%        X_2_7_11 D    304    296     30
    756   559     9521.4526   183    12358.0000     7881.6678   179142   36.22%         X_0_0_2 U   1097   1081     29
    898   744     9376.7630   200    12358.0000     7881.8889   213927   36.22%        X_4_7_15 D   1161   1153     37
   1046   810     8366.0411   195    12358.0000     7881.8889   230099   36.22%       X_3_13_11 D    324    308     37
   1221  1030     8747.3199   205    12358.0000     7881.8889   273124   36.22%        X_4_7_11 D   2043   2035     31
   1438  1189     9549.7446   181    12358.0000     7881.8889   293945   36.22%        X_2_9_10 D   2395   2387     75
   1777  1381    10359.5098   150    12358.0000     7881.8889   325266   36.22%         X_2_7_4 D   1797   1789    118
Elapsed time = 58.00 sec. (35192.72 ticks, tree = 23.51 MB, solutions = 1)
   2028  1654    10406.8270   162    12358.0000     7881.8889   356283   36.22%         X_2_4_0 D   3022   3014     50
   2291  2022     9077.7084   176    12358.0000     7881.8889   405841   36.22%       X_0_10_14 D   1028   1020    117
   2562  2311    11756.5216   167    12358.0000     7945.2250   440009   35.71%        X_2_6_11 D   3024   3016    199
   2827  2546     9340.7562   180    12358.0000     7945.2250   476432   35.71%        X_2_5_10 D   3253   3245     25
   3170  2681    11449.5128   162    12358.0000     7945.2250   494294   35.71%        X_2_1_10 D   4001   3993    127
   3626  2940     9118.0644   180    12358.0000     7945.2250   522572   35.71%        X_2_10_4 D   4473   4465     24
   4050  3570    10894.3215   124    12358.0000     7945.2250   570431   35.71%         X_4_0_1 D   3375   3367    201
   4563  4116    11107.9824   172    12358.0000     7945.2250   616445   35.71%         X_3_6_5 D   5331   5323    269
   4950  4542    11395.3283    99    12358.0000     7945.2250   647267   35.71%        X_3_4_12 D   5848   5840    136
   5308  4738    11438.3069   138    12358.0000     8149.1783   674288   34.06%         X_2_0_3 D   7166   7158    106
Elapsed time = 80.45 sec. (44763.12 ticks, tree = 89.27 MB, solutions = 1)
   5703  5315    10849.9307   147    12358.0000     8151.4357   737910   34.04%         X_2_7_1 D   6331   6323     73
   6064  5603    11602.1917   113    12358.0000     8151.4357   770306   34.04%        X_3_2_13 D   6907   6899    137
   6443  5880     9209.0289   240    12358.0000     8161.7322   803118   33.96%        X_3_10_4 D   7363   7355     27
   6717  6221    10396.8153   126    12358.0000     8169.3517   841372   33.89%        X_0_7_11 D   3892   3884     78
   7087  6584     9526.6064   153    12358.0000     8184.5953   881901   33.77%        X_2_5_15 D   6655   6647     44
   7464  6878    10823.9949    92    12358.0000     8184.5953   908378   33.77%        X_2_7_13 D   7071   7063     86
   7954  7150     9646.0982   135    12358.0000     8184.5953   926658   33.77%        X_0_10_5 D   9784   9776     28
   8428  7618    10984.3385   174    12358.0000     8206.6523   961669   33.59%        X_0_1_11 D   8239   8231     47
   8900  7905     9736.8908   184    12358.0000     8206.6523   989484   33.59%        X_2_3_11 D   9437   9429     41
   9269  8428    10085.0328   130    12358.0000     8206.6523  1030737   33.59%        X_4_7_14 D   9143   9135     51
Elapsed time = 102.11 sec. (54325.22 ticks, tree = 161.90 MB, solutions = 1)
   9645  8942     9288.6210   232    12358.0000     8268.3694  1078822   33.09%         X_2_0_7 D  11670  11654     24
  10009  9322    10055.6102   171    12358.0000     8277.1052  1114295   33.02%         X_1_4_5 D  10923  10915     35
  10381  9675    11906.3681   125    12358.0000     8281.3628  1159692   32.99%        X_2_3_15 D  12230  12222     84
  10694 10017     9242.5408   152    12358.0000     8281.3628  1187621   32.99%         X_3_5_4 D  11665  11657     24
  11007 10420    11416.5344   124    12358.0000     8289.1900  1244611   32.92%        X_2_1_13 D   8812   8804    177
  11342 10654     9995.7240   168    12358.0000     8289.1900  1278379   32.92%         X_1_0_3 D  12934  12926     75
  11625 10921     8441.0011   241    12358.0000     8289.1900  1303520   32.92%         X_2_0_7 D  13416  13408      8
  11887 11091     9173.6292   166    12358.0000     8300.7076  1334237   32.83%         X_3_5_4 D  12011  12003     34
  12236 11438     9661.7246   131    12358.0000     8300.7076  1376258   32.83%         X_1_0_5 D  13133  13125     93
  12581 11771    10078.7440   142    12358.0000     8300.7076  1423380   32.83%         X_2_7_0 D  14438  14430     33
Elapsed time = 123.05 sec. (63888.37 ticks, tree = 222.38 MB, solutions = 1)
  12937 12101     9804.7775   181    12358.0000     8301.8447  1467940   32.82%        X_2_7_15 D   8074   8066     23
  13386 12596     9646.5200   165    12358.0000     8333.1002  1517165   32.57%        X_3_14_1 D  14405  14397     17
  13792 12525     9323.6298   201    12358.0000     8333.1002  1515676   32.57%        X_0_10_5 D  16038  16030     33
  14144 12949    10120.8519   184    12358.0000     8333.1002  1554595   32.57%         X_0_7_2 D  16598  16590    103
  14381 13404     9930.1322   193    12358.0000     8333.1002  1604810   32.57%         X_4_4_0 D  15725  15717     53
  14741 13746    10217.3593   143    12358.0000     8333.1002  1645265   32.57%        X_4_7_11 D  13868  13860     68
  15016 14213    10886.4810   120    12358.0000     8333.1002  1694772   32.57%        X_4_10_6 D  14812  14804    186
  15392 14376    11093.8377   167    12358.0000     8333.1002  1712127   32.57%        X_0_7_14 D  16809  16801    193
  15566 14649    11783.6994   121    12358.0000     8333.1002  1750290   32.57%        X_4_4_10 D  18542  18526     57
  15741 14802    10243.5548   182    12358.0000     8333.1002  1761907   32.57%        X_2_12_9 D  17713  17705     46
Elapsed time = 143.61 sec. (73445.48 ticks, tree = 281.37 MB, solutions = 1)
  16019 15047    11144.6277   151    12358.0000     8356.9312  1798461   32.38%         X_4_5_2 D  19630  19622    105
  16288 15483    11785.8436   132    12358.0000     8356.9312  1850264   32.38%        X_0_11_2 D  17980  17972    265
  16704 15432    11548.6616   160    12358.0000     8356.9312  1841601   32.38%        X_3_4_13 D  16877  16869    197
  16992 16056    11186.3192   155    12358.0000     8359.0724  1910753   32.36%        X_1_1_10 D  14991  14983    144
  17446 16153    10720.2076   148    12358.0000     8366.1391  1922687   32.30%        X_3_10_0 D  21358  21350     58
  17825 16448    10408.9314   145    12358.0000     8366.1391  1946950   32.30%         X_2_5_2 D  12546  12538     81
  18160 17136    10135.1960   197    12358.0000     8366.1391  2023065   32.30%        X_3_2_13 D  15527  15519     67
  18623 17314     9328.5079   152    12358.0000     8366.1391  2041546   32.30%        X_1_2_15 D  21721  21713     78
  19013 17812    11660.1299   166    12358.0000     8366.1391  2092627   32.30%        X_3_14_6 D  22289  22281    148
  19506 18279    12177.7869   140    12358.0000     8395.9595  2133762   32.06%        X_3_6_12 D  21019  21011    290
Elapsed time = 162.97 sec. (83001.31 ticks, tree = 351.73 MB, solutions = 1)
  19858 18536    10587.4893   148    12358.0000     8408.5940  2165874   31.96%        X_3_8_11 D  20125  20117    135
  20128 19100    11860.2489   164    12358.0000     8408.5940  2227224   31.96%        X_4_9_10 D  20741  20733    211
  20474 19224    10501.7740   160    12358.0000     8412.9157  2248310   31.92%         X_0_1_0 D  17616  17608     66
  20745 19703    10813.4859   172    12358.0000     8414.1333  2313681   31.91%        X_1_0_14 D  17872  17864     98
  20945 19717    10064.4611   153    12358.0000     8423.1225  2319221   31.84%       X_2_14_10 D  18016  18008     11
  21183 20031     9786.8004   144    12358.0000     8429.7180  2386445   31.79%        X_3_1_11 D  22203  22195     46
  21488 20102    10850.9926   167    12358.0000     8439.2975  2391779   31.71%         X_0_1_2 D  22771  22763    117
  21970 20504    12076.3684   155    12358.0000     8439.2975  2453795   31.71%       X_3_14_13 D  23507  23499    209
  22298 20979    10893.1479   187    12358.0000     8439.2975  2517423   31.71%        X_4_14_9 D  23365  23357    140
  22778 21351     8904.9227   240    12358.0000     8439.2975  2564183   31.71%         X_3_4_5 D  26534  26526     34
Elapsed time = 184.64 sec. (92581.35 ticks, tree = 413.66 MB, solutions = 1)
  23099 21408    10298.0704   179    12358.0000     8440.8755  2576559   31.70%        X_2_0_10 D  23860  23852     58
  23644 21605    10033.5317   194    12358.0000     8470.1154  2590434   31.46%         X_1_7_1 D  22239  22231    110
  24079 22714     8486.3533   202    12358.0000     8474.2880  2706695   31.43%         X_2_0_7 D  17690  17682     20
  24497 22904    10225.3142   116    12358.0000     8474.2880  2728181   31.43%        X_3_14_1 D  24972  24964     42
  25046 23265     9839.1488   188    12358.0000     8478.8536  2768555   31.39%         X_3_0_7 D  25875  25867     37
  25579 24001    12149.6421   153    12358.0000     8483.8780  2818394   31.35%         X_4_7_6 D  27661  27653    239
  25914 24187    10222.7091   138    12358.0000     8483.8780  2843621   31.35%        X_1_0_11 D  23208  23200     72
  26393 24697    10002.9455   118    12358.0000     8500.6978  2890975   31.21%       X_0_13_14 D  28068  28060    127
  26778 25054    10250.9825   141    12358.0000     8500.6978  2941562   31.21%         X_2_0_2 D  20554  20546     81
  27260 25187    10968.1429   169    12358.0000     8500.6978  2957370   31.21%         X_2_0_6 D  30409  30401    105
Elapsed time = 205.59 sec. (102137.71 ticks, tree = 491.46 MB, solutions = 1)
  27696 25624    11783.0260   118    12358.0000     8503.9065  2988064   31.19%        X_3_12_3 D  31157  31149    173
  28113 25936    10773.2693   134    12358.0000     8522.2939  3026796   31.04%         X_3_2_6 D  21650  21642     58
  28540 26891    11333.6682   146    12358.0000     8542.5385  3122487   30.87%        X_3_10_8 D  31710  31702     70
  28926 27044    10947.8444   111    12358.0000     8542.8787  3137300   30.87%        X_4_14_9 D  30572  30564    112
  29355 27140    11997.9722   128    12358.0000     8543.0491  3150819   30.87%       X_1_10_13 D  32829  32821     44
  29790 27398        cutoff          12358.0000     8545.9706  3176111   30.85%              Y3 U  27799  27791     25
  30231 28254    10993.8239   109    12358.0000     8545.9706  3267574   30.85%         X_1_0_3 D  23994  23986     60
  30721 28156    11104.4233   128    12358.0000     8545.9706  3262652   30.85%        X_0_11_1 D  29227  29219     52
  31079 28550    11828.1469   168    12358.0000     8556.6064  3294639   30.76%       X_4_11_12 D  33084  33076    128
  32710 30091    11615.7290   149    12358.0000     8574.7465  3458940   30.61%         X_3_4_0 D  35062  35054     95
Elapsed time = 232.97 sec. (114590.58 ticks, tree = 590.68 MB, solutions = 1)
  34231 31675    10112.9528   150    12358.0000     8595.6840  3611315   30.44%       X_2_12_13 D  32431  32423     47
  35385 33015    10870.2124   131    12358.0000     8609.7233  3756332   30.33%        X_3_11_3 D  33999  33991     33
  37216 34757    11599.6946    79    12358.0000     8640.6687  3954124   30.08%        X_3_6_13 D  31786  31778    218
  38856 36456    11559.2821   135    12358.0000     8664.5497  4110069   29.89%        X_1_7_13 D  35328  35320     89
  40267 37741    11712.9651   161    12358.0000     8687.0521  4270115   29.71%         X_1_7_8 D  39039  39031     97
  41757 38894    11049.2616   154    12358.0000     8702.8136  4411025   29.58%         X_1_7_3 D  44126  44118     75
  43263 40019     9948.2078   162    12358.0000     8715.0372  4558528   29.48%         X_4_8_0 D  46061  46053     13
  44887 41796    11264.0875    87    12358.0000     8735.3583  4732069   29.31%         X_1_2_0 U  43423  43407     87
  46214 42496    10080.4585   131    12358.0000     8746.1289  4805154   29.23%         X_3_5_4 D  51121  51113     22
  47690 44060    10576.9285   130    12358.0000     8756.3100  4968082   29.14%       X_3_10_14 D  51333  51325     61
Elapsed time = 328.91 sec. (152763.39 ticks, tree = 876.31 MB, solutions = 1)
  49317 45419     9026.0348   171    12358.0000     8770.3795  5134201   29.03%         X_2_0_7 U  50892  12296     16
  50810 47568    11292.9748   133    12358.0000     8785.5608  5385271   28.91%        X_3_3_11 D  47848  47840     55
  52071 48290    11899.4883    86    12358.0000     8792.2751  5480302   28.85%        X_0_1_11 D  54284  54276     63
  53379 49749    11657.3667   138    12358.0000     8812.0781  5667331   28.69%         X_4_2_4 D  57713  57705     62
  54804 50726        cutoff          12358.0000     8821.8691  5772613   28.61%         X_1_0_1 U  58865  58849     93
  56234 52558    11248.4508   118    12358.0000     8826.3620  5949922   28.58%         X_1_7_2 D  55855  55847     58
  57481 53429    11124.4950   140    12358.0000     8839.8696  6068769   28.47%        X_3_11_3 D  57007  56999     96
  58789 54741    11523.2379   117    12358.0000     8853.5991  6237400   28.36%         X_4_0_6 D  62453  62445     39
  60090 56140    11776.9258   122    12358.0000     8858.7536  6407426   28.32%       X_3_10_14 D  58048  58032     31
  61473 56843    10402.2178   116    12358.0000     8878.7460  6511971   28.15%         X_1_4_5 D  65046  65038     27
Elapsed time = 422.39 sec. (190941.50 ticks, tree = 1176.50 MB, solutions = 1)
  62769 58396    11985.3606    63    12358.0000     8892.3403  6720937   28.04%        X_1_15_0 D  63780  63772     44
Dentro lazy
camion 0, FALSE-heu 0.000
Version identifier: 12.10.0.0 | 2019-11-26 | 843d4de2ae
CPXPARAM_Threads                                 12
CPXPARAM_MIP_Strategy_Probe                      -1
CPXPARAM_Emphasis_MIP                            1
Tried aggregator 2 times.
MIP Presolve eliminated 1534 rows and 34 columns.
MIP Presolve modified 2044 coefficients.
Aggregator did 2 substitutions.
Reduced MIP has 1504 rows, 365 columns, and 16575 nonzeros.
Reduced MIP has 365 binaries, 0 generals, 0 SOSs, and 0 indicators.
Presolve time = 0.06 sec. (55.62 ticks)
Tried aggregator 1 time.
Detecting symmetries...
Reduced MIP has 1504 rows, 365 columns, and 16575 nonzeros.
Reduced MIP has 365 binaries, 0 generals, 0 SOSs, and 0 indicators.
Presolve time = 0.02 sec. (20.53 ticks)
Clique table members: 1442.
MIP emphasis: integer feasibility.
MIP search method: dynamic search.
Parallel mode: deterministic, using up to 12 threads.
Root relaxation solution time = 0.03 sec. (11.20 ticks)

        Nodes                                         Cuts/
   Node  Left     Objective  IInf  Best Integer    Best Bound    ItCnt     Gap

      0     0        0.0000    59                      0.0000      176         
      0     0        0.0000    59                    Cuts: 22      400         
      0     0        0.0000    59                    Cuts: 24      476         
      0     0        0.0000    59                    Cuts: 85      632         
Detecting symmetries...
      0     2        0.0000    28                      0.0000      632         
Elapsed time = 3.66 sec. (718.16 ticks, tree = 0.02 MB, solutions = 0)
    146    20    infeasible                            0.0000     6567         
    551     9    infeasible                            0.0000    23894         
    687     4    infeasible                            0.0000    35970         
    772     2        0.0000    38                      0.0000    41483         

Clique cuts applied:  66
Cover cuts applied:  15
Zero-half cuts applied:  28

Root node processing (before b&c):
  Real time             =    1.45 sec. (717.52 ticks)
Parallel b&c, 12 threads:
  Real time             =   82.75 sec. (1009.45 ticks)
  Sync time (average)   =   79.04 sec.
  Wait time (average)   =    0.00 sec.
                          ------------
Total (root+branch&cut) =   84.20 sec. (1726.96 ticks)
84.203000 
FALSE-modelo
 Salgo lazy
Dentro lazy
camion 0, FALSE-heu 0.000
Version identifier: 12.10.0.0 | 2019-11-26 | 843d4de2ae
CPXPARAM_Threads                                 12
CPXPARAM_MIP_Strategy_Probe                      -1
CPXPARAM_Emphasis_MIP                            1
Tried aggregator 2 times.
MIP Presolve eliminated 1534 rows and 34 columns.
MIP Presolve modified 2044 coefficients.
Aggregator did 2 substitutions.
Reduced MIP has 1504 rows, 365 columns, and 16575 nonzeros.
Reduced MIP has 365 binaries, 0 generals, 0 SOSs, and 0 indicators.
Presolve time = 0.06 sec. (55.62 ticks)
Tried aggregator 1 time.
Detecting symmetries...
Reduced MIP has 1504 rows, 365 columns, and 16575 nonzeros.
Reduced MIP has 365 binaries, 0 generals, 0 SOSs, and 0 indicators.
Presolve time = 0.03 sec. (20.53 ticks)
Clique table members: 1442.
MIP emphasis: integer feasibility.
MIP search method: dynamic search.
Parallel mode: deterministic, using up to 12 threads.
Root relaxation solution time = 0.03 sec. (11.20 ticks)

        Nodes                                         Cuts/
   Node  Left     Objective  IInf  Best Integer    Best Bound    ItCnt     Gap

      0     0        0.0000    59                      0.0000      176         
      0     0        0.0000    59                    Cuts: 22      400         
      0     0        0.0000    59                    Cuts: 24      476         
      0     0        0.0000    59                    Cuts: 85      632         
Detecting symmetries...
      0     2        0.0000    28                      0.0000      632         
Elapsed time = 3.20 sec. (718.16 ticks, tree = 0.02 MB, solutions = 0)
    146    20    infeasible                            0.0000     6567         
    551     9    infeasible                            0.0000    23894         
    687     4    infeasible                            0.0000    35970         
    772     2        0.0000    38                      0.0000    41483         

Clique cuts applied:  66
Cover cuts applied:  15
Zero-half cuts applied:  28

Root node processing (before b&c):
  Real time             =    1.83 sec. (717.52 ticks)
Parallel b&c, 12 threads:
  Real time             =   62.88 sec. (1009.45 ticks)
  Sync time (average)   =   60.13 sec.
  Wait time (average)   =    0.00 sec.
                          ------------
Total (root+branch&cut) =   64.70 sec. (1726.96 ticks)
64.703000 
FALSE-modelo
 Salgo lazy
  64095 59192    11185.8759   137    12358.0000     8900.0952  6833669   27.98%         X_2_0_8 D  61904  61896     60
  65327 60395    10508.6683   142    12358.0000     8914.5993  6971609   27.86%         X_0_0_4 D  62768  62760     15
Dentro lazy
camion 0, FALSE-heu 0.000
Version identifier: 12.10.0.0 | 2019-11-26 | 843d4de2ae
CPXPARAM_Threads                                 12
CPXPARAM_MIP_Strategy_Probe                      -1
CPXPARAM_Emphasis_MIP                            1
Tried aggregator 2 times.
MIP Presolve eliminated 1534 rows and 34 columns.
MIP Presolve modified 2044 coefficients.
Aggregator did 2 substitutions.
Reduced MIP has 1504 rows, 365 columns, and 16575 nonzeros.
Reduced MIP has 365 binaries, 0 generals, 0 SOSs, and 0 indicators.
Presolve time = 0.08 sec. (55.78 ticks)
Tried aggregator 1 time.
Detecting symmetries...
Reduced MIP has 1504 rows, 365 columns, and 16575 nonzeros.
Reduced MIP has 365 binaries, 0 generals, 0 SOSs, and 0 indicators.
Presolve time = 0.03 sec. (20.64 ticks)
Clique table members: 1442.
MIP emphasis: integer feasibility.
MIP search method: dynamic search.
Parallel mode: deterministic, using up to 12 threads.
Root relaxation solution time = 0.02 sec. (6.01 ticks)

        Nodes                                         Cuts/
   Node  Left     Objective  IInf  Best Integer    Best Bound    ItCnt     Gap

      0     0        0.0000    47                      0.0000       97         
      0     0        0.0000    47                    Cuts: 34      187         
      0     0        0.0000    47                     Cuts: 4      246         
Detecting symmetries...
      0     2        0.0000    29                      0.0000      246         
Elapsed time = 4.23 sec. (564.06 ticks, tree = 0.02 MB, solutions = 0)
     33     3        0.0000    38                      0.0000     4601         
    444    17    infeasible                            0.0000    25829         

Clique cuts applied:  48
Cover cuts applied:  20
Zero-half cuts applied:  9
Gomory fractional cuts applied:  1

Root node processing (before b&c):
  Real time             =    2.06 sec. (563.42 ticks)
Parallel b&c, 12 threads:
  Real time             =   94.14 sec. (718.91 ticks)
  Sync time (average)   =   90.21 sec.
  Wait time (average)   =    0.00 sec.
                          ------------
Total (root+branch&cut) =   96.20 sec. (1282.33 ticks)
96.219000 
FALSE-modelo
 Salgo lazy
  66518 61444    12010.9758    83    12358.0000     8929.2451  7113049   27.75%        X_3_13_7 D  64083  64075     97
  67701 62769    10710.5980   156    12358.0000     8933.9229  7294924   27.71%        X_0_5_10 D  65272  65264     31
  68830 63833    10197.5643   129    12358.0000     8943.1963  7435690   27.63%         X_1_0_2 D  68652  68644     35
  70137 64738    10818.1788   122    12358.0000     8950.0261  7558139   27.58%         X_0_7_1 D  70524  70516     58
  71346 66181    11374.1839   119    12358.0000     8960.0644  7754252   27.50%         X_4_0_6 D  69167  69159     47
  72624 67317    11371.5716   150    12358.0000     8969.0928  7912815   27.42%        X_1_7_14 D  70248  70240    131
  73846 67962    11518.6985   107    12358.0000     8978.4634  8010742   27.35%        X_1_2_10 D  74188  74180     57
Elapsed time = 768.64 sec. (229117.31 ticks, tree = 1440.69 MB, solutions = 1)
  74820 69164    11199.1750   152    12358.0000     8978.4634  8182236   27.35%         X_2_4_5 D  75836  75828     41
  76109 70141    11460.9287    81    12358.0000     8988.0588  8291100   27.27%         X_1_2_1 D  72963  72955     98
  77159 71268    10145.3720   164    12358.0000     8998.1433  8450721   27.19%         X_2_4_5 D  74391  74383     25
  78386 71986    11460.0232   166    12358.0000     9009.2501  8567805   27.10%         X_4_0_4 D  75223  75215     33
  79765 73270    11724.3779   123    12358.0000     9015.6777  8742573   27.05%        X_1_7_12 U  78224  78208    131
  80982 74412    11621.8324   141    12358.0000     9029.2178  8879878   26.94%        X_1_0_10 D  74274  74266     81
  82176 75852    12118.3266    95    12358.0000     9040.2881  9069821   26.85%         X_0_3_0 D  82628  82620    149
  82991 76638    10822.3784   148    12358.0000     9045.3464  9195285   26.81%        X_1_0_14 D  80131  80123     67
  84020 77329    11916.3066   179    12358.0000     9049.1025  9299765   26.78%         X_3_4_5 D  89097  89089     41
  85163 78604    11415.6501    65    12358.0000     9059.0036  9492519   26.70%         X_1_4_9 D  88886  88878     70
Elapsed time = 860.31 sec. (267335.11 ticks, tree = 1718.53 MB, solutions = 1)
  86418 78983    10366.3936   109    12358.0000     9066.0061  9562733   26.64%         X_2_4_5 U  89669   3412     19
  87513 80753    11828.2242    61    12358.0000     9070.7390  9776057   26.60%         X_4_0_9 D  91285  91277    131
  88835 81892    11773.0321   130    12358.0000     9077.5316  9941190   26.55%        X_2_3_15 D  89860  89852     43
  90166 82395    11449.2238   155    12358.0000     9083.5223 10013563   26.50%         X_2_0_8 D  93869  93861     35
  91228 83630    10769.9003   148    12358.0000     9084.9719 10168642   26.49%         X_4_0_5 D  84786  84778     36
  92350 84886    12083.6333   118    12358.0000     9090.3806 10333825   26.44%        X_0_11_0 D  89211  89203     78
  93454 86087    10170.9642   186    12358.0000     9105.6981 10488609   26.32%        X_3_10_4 U  95324   3259     11
  94380 86703    11415.6532   121    12358.0000     9115.6160 10576562   26.24%         X_2_0_3 D  97445  97437     56
  95608 87357    11312.6775   170    12358.0000     9124.0929 10686427   26.17%         X_1_0_1 D  99069  99061     58
  96991 88680    10705.8923   109    12358.0000     9131.1344 10875292   26.11%         X_1_7_2 D 100926 100918     53
Elapsed time = 950.73 sec. (305524.50 ticks, tree = 1968.93 MB, solutions = 1)
  98104 89903    10657.5525   111    12358.0000     9140.7924 11035104   26.03%         X_1_7_3 D 101181 101173     44
  99179 90957    11280.3034   115    12358.0000     9148.1505 11204345   25.97%        X_2_7_11 D 101252 101244     33
Began writing nodes to disk (directory ./cpxa05896 created)
 100266 91624    11783.1125   107    12358.0000     9151.1912 11284040   25.95%        X_3_10_0 D  96507  96499     61
 101564 93055    11481.6989    95    12358.0000     9159.3414 11456928   25.88%        X_3_2_13 U  99183  99167     53
 102666 94280    11472.4735   143    12358.0000     9168.6852 11630446   25.81%         X_1_7_3 D  99443  99435     78
 103961 95136    11673.6693   127    12358.0000     9173.0822 11744423   25.77%         X_4_0_8 D 101448 101440     41
 105228 96100    11829.6650    87    12358.0000     9177.0013 11854895   25.74%        X_2_0_10 D 102520 102512     66
 106590 96796    12050.7132   133    12358.0000     9182.1729 11959321   25.70%         X_3_6_7 D 103879 103871    115
 107444 98137    11322.1657   126    12358.0000     9184.2917 12125802   25.68%        X_1_7_12 D 112145 112137     80
 108278 98978    11471.6543   123    12358.0000     9188.5564 12253445   25.65%        X_0_1_14 D 111790 111782     56
Elapsed time = 1044.95 sec. (343719.39 ticks, tree = 2266.13 MB, solutions = 1)
Nodefile size = 214.86 MB (159.91 MB after compression)
 109308 100202    11286.4695   126    12358.0000     9196.7034 12447282   25.58%         X_1_5_0 D 106176 106168     65
 110333 101095    12284.0922   113    12358.0000     9201.5453 12577462   25.54%         X_4_0_3 D 108407 108399    150
 111588 102097    11837.5592   108    12358.0000     9204.9834 12705825   25.51%        X_1_0_13 D 109519 109511     62
 112796 102327    10759.5811   168    12358.0000     9210.6283 12745401   25.47%        X_1_10_4 D 108347 108339     22
 113984 103360    11245.4664   111    12358.0000     9215.9814 12890237   25.42%        X_1_14_4 D 119249 119241     71
 115044 104908    11614.9436   116    12358.0000     9224.0938 13103822   25.36%         X_1_7_8 D 119078 119070     48
 116286 106062    10681.3119   123    12358.0000     9229.5074 13237988   25.32%        X_4_11_3 D 118788 118780     45
 117484 107077    12189.5133    69    12358.0000     9232.5386 13347816   25.29%         X_0_6_0 D 116407 116399    121
 118616 108230    10323.8225   163    12358.0000     9242.1353 13489680   25.21%         X_1_0_6 D 117455 117447     36
 119928 109516    11572.1908   131    12358.0000     9248.7442 13651496   25.16%         X_2_0_8 D 124169 124161     67
Elapsed time = 1138.36 sec. (381907.17 ticks, tree = 2579.16 MB, solutions = 1)
Nodefile size = 527.56 MB (391.24 MB after compression)
 121142 109736    11868.3304   136    12358.0000     9255.2403 13694297   25.11%        X_2_3_11 D 114794 114786     28
 122267 110842    12102.2724   148    12358.0000     9261.1314 13853314   25.06%        X_1_7_11 D 126829 126821     55
 123331 112604    12079.0366    86    12358.0000     9267.5819 14094844   25.01%       X_4_11_13 D 126804 126796    225
 124412 113196    12227.5956   119    12358.0000     9272.0005 14194468   24.97%       X_4_11_14 D 128966 128958    133
 125625 113873    12088.6233    92    12358.0000     9276.6793 14293306   24.93%        X_4_7_12 D 130649 130641     73
 126811 115142    11366.1853   131    12358.0000     9281.7749 14445946   24.89%        X_4_15_0 D 130292 130284     60
 128101 116644    11631.9152    66    12358.0000     9286.7308 14636620   24.85%        X_2_7_15 D 123851 123843    154
 129397 117881    11214.1360   109    12358.0000     9290.4508 14811307   24.82%        X_3_14_1 U 134742 134726     74
 130451 118058    10572.7867   114    12358.0000     9295.8832 14841085   24.78%       X_2_14_10 D 133988 133980     41
 131377 119266    12019.3721   103    12358.0000     9298.9484 15017350   24.75%        X_4_5_10 U 124722 124706     27
Elapsed time = 1230.19 sec. (420101.62 ticks, tree = 2818.83 MB, solutions = 1)
Nodefile size = 765.33 MB (565.78 MB after compression)
 132321 120533    11037.2569    89    12358.0000     9303.2921 15193565   24.72%         X_0_2_1 D 127272 127264     96
 133730 121560    10252.4840   126    12358.0000     9307.3563 15315740   24.69%              Y2 U 128544 128536     45
 135160 122200    12281.1190   109    12358.0000     9311.7853 15395871   24.65%        X_3_9_13 D 131339 131331    102
 136314 123876    12183.5563   136    12358.0000     9315.4214 15586876   24.62%         X_1_7_3 D 129322 129314     86
 137515 125149    10132.2437   124    12358.0000     9319.6093 15771237   24.59%         X_1_0_4 D 133267 133259     47
 138646 125803    11108.8120   138    12358.0000     9322.6112 15868722   24.56%         X_1_0_8 D 143217 143209     66
 139556 126145    11035.1711   108    12358.0000     9325.2662 15924924   24.54%         X_3_0_7 D 142420 142404     17
 140891 127226    11429.0017   107    12358.0000     9330.1985 16040244   24.50%        X_3_10_8 D 143860 143852     95
 142145 128139        cutoff          12358.0000     9335.2379 16158218   24.46%        X_1_10_0 D 146193 146185     64
 143156 129974    10565.1716   123    12358.0000     9339.2059 16375431   24.43%        X_1_0_14 D 140267 140259     57
Elapsed time = 1336.58 sec. (458280.74 ticks, tree = 3151.26 MB, solutions = 1)
Nodefile size = 1100.28 MB (812.99 MB after compression)
 144318 130600    11292.9671   143    12358.0000     9341.0914 16490733   24.41%        X_2_3_11 D 140200 140192     38
 145567 131543    10554.1510   149    12358.0000     9347.8247 16611739   24.36%         X_1_0_4 D 137378 137370     74
Dentro lazy
camion 0, TRUE-heu 0.000452
camion 1, TRUE-heu 0.000511
camion 2, TRUE-heu 0.000550
camion 3, TRUE-heu 0.000592
camion 4, TRUE-heu 0.000627
Salgo lazy
*146100+132367                        12357.0000     9353.6757            24.30%
 146715 132964    12089.3974   122    12357.0000     9353.7586 16802777   24.30%         X_2_9_4 D 149044 149036    126
 147907 133970    11539.5046   106    12357.0000     9358.0452 16925388   24.27%         X_4_0_3 D 151012 151004    187
 148699 134914    10645.6801   145    12357.0000     9358.5954 17040855   24.26%        X_2_14_9 U 153001  21817     91
 149928 135665    11729.0161   107    12357.0000     9366.4592 17144506   24.20%         X_0_1_2 D 147967 147959     89
 151142 136996    11736.3769    94    12357.0000     9369.2836 17317115   24.18%        X_0_1_13 D 146392 146384    114
 152299 137722        cutoff          12357.0000     9373.1229 17414745   24.15%         X_0_9_2 U 150815 150799    164
 153431 138661    12022.8913   129    12357.0000     9375.0136 17547810   24.13%       X_2_12_13 D 156852 156844     49
 154864 139614    11620.3647    79    12357.0000     9380.1625 17677133   24.09%        X_1_7_13 D 159897 159889     49
Elapsed time = 1438.42 sec. (496480.46 ticks, tree = 3430.99 MB, solutions = 2)
Nodefile size = 1377.58 MB (1016.48 MB after compression)
 155905 141317    11052.8965    92    12357.0000     9383.8515 17867415   24.06%        X_1_7_11 D 159757 159749     50
 157078 142252    11877.0450   126    12357.0000     9388.1192 17999542   24.03%         X_1_0_9 D 156487 156479     67
 158247 142826    12011.5696   114    12357.0000     9392.7082 18085384   23.99%        X_0_15_1 D 154688 154680     78
 159663 144292    10843.0722   168    12357.0000     9398.4082 18256525   23.94%              Y3 U 160295 160287     31
 160984 145072    12146.3210   131    12357.0000     9400.7506 18346727   23.92%       X_4_11_14 D 165921 165913     61
 162215 146772    10641.3665   134    12357.0000     9407.0850 18507956   23.87%        X_2_3_15 D 163031 163023     42
 163345 147204    10492.6272   128    12357.0000     9410.5282 18568644   23.84%        X_2_5_10 D 156979 156971     24
 164622 148644    11385.5101   150    12357.0000     9414.8700 18775714   23.81%        X_2_10_4 D 168460 168452     48
Dentro lazy
camion 0, TRUE-heu 0.000687
camion 1, TRUE-heu 0.000734
camion 2, FALSE-heu 0.001
Version identifier: 12.10.0.0 | 2019-11-26 | 843d4de2ae
CPXPARAM_Threads                                 12
CPXPARAM_MIP_Strategy_Probe                      -1
CPXPARAM_Emphasis_MIP                            1
Tried aggregator 2 times.
MIP Presolve eliminated 3353 rows and 34 columns.
MIP Presolve modified 1873 coefficients.
Aggregator did 2 substitutions.
Reduced MIP has 1605 rows, 365 columns, and 28007 nonzeros.
Reduced MIP has 365 binaries, 0 generals, 0 SOSs, and 0 indicators.
Presolve time = 0.36 sec. (346.28 ticks)
Tried aggregator 1 time.
Detecting symmetries...
Reduced MIP has 1605 rows, 365 columns, and 28007 nonzeros.
Reduced MIP has 365 binaries, 0 generals, 0 SOSs, and 0 indicators.
Presolve time = 0.06 sec. (40.64 ticks)
Clique table members: 1543.
MIP emphasis: integer feasibility.
MIP search method: dynamic search.
Parallel mode: deterministic, using up to 12 threads.
Root relaxation solution time = 0.03 sec. (7.50 ticks)

        Nodes                                         Cuts/
   Node  Left     Objective  IInf  Best Integer    Best Bound    ItCnt     Gap

      0     0        0.0000    47                      0.0000       96         
*     0+    0                            0.0000        0.0000             0.00%
      0     0        cutoff              0.0000        0.0000      148    0.00%
Elapsed time = 1.11 sec. (704.64 ticks, tree = 0.01 MB, solutions = 1)

Clique cuts applied:  4
Zero-half cuts applied:  1

Root node processing (before b&c):
  Real time             =    1.13 sec. (704.74 ticks)
Parallel b&c, 12 threads:
  Real time             =    0.00 sec. (0.00 ticks)
  Sync time (average)   =    0.00 sec.
  Wait time (average)   =    0.00 sec.
                          ------------
Total (root+branch&cut) =    1.13 sec. (704.74 ticks)
1.125000 
TRUE-modelo
camion 3, TRUE-heu 0.000824
camion 4, TRUE-heu 0.000862
Salgo lazy
*165775+149294                        12335.0000     9420.6841            23.63%
Dentro lazy
camion 0, TRUE-heu 0.000921
camion 1, TRUE-heu 0.000963
camion 2, FALSE-heu 0.001
Version identifier: 12.10.0.0 | 2019-11-26 | 843d4de2ae
CPXPARAM_Threads                                 12
CPXPARAM_MIP_Strategy_Probe                      -1
CPXPARAM_Emphasis_MIP                            1
Tried aggregator 2 times.
MIP Presolve eliminated 3353 rows and 34 columns.
MIP Presolve modified 1873 coefficients.
Aggregator did 2 substitutions.
Reduced MIP has 1605 rows, 365 columns, and 28007 nonzeros.
Reduced MIP has 365 binaries, 0 generals, 0 SOSs, and 0 indicators.
Presolve time = 0.41 sec. (346.28 ticks)
Tried aggregator 1 time.
Detecting symmetries...
Reduced MIP has 1605 rows, 365 columns, and 28007 nonzeros.
Reduced MIP has 365 binaries, 0 generals, 0 SOSs, and 0 indicators.
Presolve time = 0.08 sec. (40.64 ticks)
Clique table members: 1543.
MIP emphasis: integer feasibility.
MIP search method: dynamic search.
Parallel mode: deterministic, using up to 12 threads.
Root relaxation solution time = 0.05 sec. (7.50 ticks)

        Nodes                                         Cuts/
   Node  Left     Objective  IInf  Best Integer    Best Bound    ItCnt     Gap

      0     0        0.0000    47                      0.0000       96         
*     0+    0                            0.0000        0.0000             0.00%
      0     0        cutoff              0.0000        0.0000      148    0.00%
Elapsed time = 1.44 sec. (704.64 ticks, tree = 0.01 MB, solutions = 1)

Clique cuts applied:  4
Zero-half cuts applied:  1

Root node processing (before b&c):
  Real time             =    1.45 sec. (704.74 ticks)
Parallel b&c, 12 threads:
  Real time             =    0.00 sec. (0.00 ticks)
  Sync time (average)   =    0.00 sec.
  Wait time (average)   =    0.00 sec.
                          ------------
Total (root+branch&cut) =    1.45 sec. (704.74 ticks)
1.453000 
TRUE-modelo
camion 3, TRUE-heu 0.001066
camion 4, TRUE-heu 0.001100
Salgo lazy
 166119 149262        cutoff          12335.0000     9420.6841 18833746   23.63%        X_1_10_9 U 172550 172534     99
*166208+149294                        12311.0000     9420.6841            23.48%
 167624 151028    11921.1747   104    12311.0000     9423.1283 19001531   23.46%        X_4_8_12 D 173892 173884    185
Elapsed time = 1549.45 sec. (534662.11 ticks, tree = 3781.66 MB, solutions = 4)
Nodefile size = 1726.67 MB (1273.11 MB after compression)
Dentro lazy
camion 0, TRUE-heu 0.001143
camion 1, TRUE-heu 0.001213
camion 2, TRUE-heu 0.001251
camion 3, TRUE-heu 0.001291
camion 4, TRUE-heu 0.001325
Salgo lazy
*168769+151908                        12304.0000     9427.7262            23.38%
 169069 152599    12201.6970   117    12304.0000     9427.7262 19154949   23.38%        X_2_2_15 D 162779 162771    174
 170456 153727    12064.2696    67    12304.0000     9430.4535 19267343   23.35%        X_4_8_15 D 164139 164131    100
 171594 155194    11836.1298   114    12304.0000     9437.8696 19431737   23.29%        X_2_3_15 D 166512 166504     36
 172963 155842    12170.5368    81    12304.0000     9443.3454 19496599   23.25%        X_4_12_8 D 180158 180150    174
 174254 156639    10868.3184   103    12304.0000     9447.4036 19602937   23.22%         X_4_0_6 D 180961 180953     50
 175524 157758    12086.7124   144    12304.0000     9452.2198 19725189   23.18%        X_1_7_13 D 183126 183118     53
 176678 159410    11454.3494   106    12304.0000     9455.5877 19907882   23.15%         X_0_1_0 D 168667 168659     51
 177735 160055    11691.2583   113    12304.0000     9459.9036 19995332   23.12%         X_4_7_0 U 169667 169659     14
 178983 161079    11622.9237   152    12304.0000     9462.9743 20107084   23.09%         X_4_0_4 D 170963 170955     46
 180414 162513    11440.7519   143    12304.0000     9468.1098 20289773   23.05%              Y2 U 171794 171786     31
Elapsed time = 1659.31 sec. (572834.63 ticks, tree = 4129.49 MB, solutions = 5)
Nodefile size = 2078.74 MB (1531.52 MB after compression)
 181788 163685    10886.5158   153    12304.0000     9473.6446 20396495   23.00%         X_1_4_0 D 173683 173675     71
 183138 165093    11972.7440    58    12304.0000     9478.7388 20544306   22.96%         X_3_0_5 U 191238 191230    104
Dentro lazy
camion 0, TRUE-heu 0.001387
camion 1, TRUE-heu 0.001454
camion 2, TRUE-heu 0.001498
camion 3, TRUE-heu 0.001543
camion 4, TRUE-heu 0.001579
Salgo lazy
*183973+165177                        12303.0000     9480.8472            22.94%
 184403 166216        cutoff          12303.0000     9483.2685 20682578   22.92%        X_1_0_10 U 192422 192406     66
 185712 166808        cutoff          12303.0000     9486.2273 20741974   22.90%        X_1_7_14 U 188989 188973     99
 186953 168121    11275.1597   121    12303.0000     9488.3623 20900075   22.88%         X_0_0_1 D 179171 179163     90
 188040 169741    11759.4277   108    12303.0000     9492.8644 21085907   22.84%        X_4_15_3 D 187943 187935    107
 189217 170311    11356.7566   109    12303.0000     9497.2499 21172152   22.81%         X_2_0_3 D 179970 179962     35
 190659 171860    11242.8136   140    12303.0000     9501.1903 21367943   22.77%        X_1_7_13 D 196313 196305     74
 191841 172847    11274.0626   147    12303.0000     9504.6794 21479080   22.75%        X_2_3_15 D 199518 199510     46
 193100 173526    11855.0662   168    12303.0000     9510.7402 21549328   22.70%        X_2_3_11 D 199093 199085     50
Elapsed time = 1772.17 sec. (611003.90 ticks, tree = 4467.50 MB, solutions = 6)
Nodefile size = 2408.17 MB (1773.02 MB after compression)
 194333 174926    11883.5527   126    12303.0000     9512.0918 21748668   22.68%         X_1_0_6 D 199873 199865     39
 195735 176136    12272.9264   121    12303.0000     9519.1864 21873205   22.63%        X_4_4_10 D 200505 200497     63
 197004 177509    12246.1548   101    12303.0000     9522.3822 22016477   22.60%         X_0_1_4 D 202881 202873    262
 198375 177800    12126.3873   147    12303.0000     9526.2946 22064844   22.57%        X_2_4_14 D 203549 203541     33
 199632 179379    10993.5944   122    12303.0000     9527.7966 22240446   22.56%        X_0_11_7 D 190210 190202     83
 200780 180842        cutoff          12303.0000     9531.3297 22403309   22.53%        X_1_10_0 U 206921 206905     65
 202164 181455    12030.5421   130    12303.0000     9535.7254 22477122   22.49%        X_2_3_15 D 195928 195912     45
 203501 182070    12054.0617   139    12303.0000     9538.4416 22566819   22.47%        X_1_10_2 D 207973 207965     89
 204689 183326    11073.8122    87    12303.0000     9541.5476 22687945   22.45%        X_4_3_12 D 198544 198536    122
 206304 185037    10770.4270   116    12303.0000     9544.7930 22858543   22.42%        X_3_9_12 D 198763 198755     84
Elapsed time = 1892.19 sec. (649189.85 ticks, tree = 4835.13 MB, solutions = 6)
Nodefile size = 2780.79 MB (2047.48 MB after compression)
 207608 186994    11523.6621   130    12303.0000     9548.5528 23057032   22.39%        X_0_1_11 D 212269 212261     47
 208889 187717    11912.5129   113    12303.0000     9553.7002 23140946   22.35%         X_2_5_6 D 199346 199338     68
 209980 189061    11703.0896   133    12303.0000     9555.9793 23291282   22.33%         X_4_6_4 D 214893 214885     38
 211381 189671    11900.9721    83    12303.0000     9561.0545 23365353   22.29%        X_3_9_13 U 204152 204136    102
 212543 190466    11249.3239   124    12303.0000     9564.9185 23483763   22.26%       X_3_14_11 D 202402 202394     47
 213641 191592    11752.3506    96    12303.0000     9568.6552 23580950   22.23%         X_0_2_1 D 220220 220212    170
 214553 193039        cutoff          12303.0000     9570.6558 23756599   22.21%         X_0_1_5 U 221665 221649    126
 215856 193351    11784.3168   148    12303.0000     9573.5248 23791460   22.19%        X_1_0_11 D 219941 219933     80
 216972 194196    12016.5789   116    12303.0000     9574.3557 23902300   22.18%        X_3_10_8 D 209448 209440    111
 217959 195865    11792.7305    63    12303.0000     9578.5589 24106958   22.14%        X_4_6_11 D 217607 217599     83
Elapsed time = 2010.03 sec. (687350.55 ticks, tree = 5200.38 MB, solutions = 6)
Nodefile size = 3147.22 MB (2318.65 MB after compression)
 219167 196938    11750.0032   113    12303.0000     9583.8929 24248214   22.10%       X_4_11_13 D 219295 219287     98
 220542 197550    11316.6883   139    12303.0000     9586.5206 24330992   22.08%        X_2_7_12 D 225181 225173    133
 222089 199000    11044.2661    95    12303.0000     9590.0501 24489922   22.05%         X_0_6_1 D 211194 211178     90
 223511 199324    10915.1155   141    12303.0000     9593.5654 24541685   22.02%        X_1_7_11 D 229988 229980     36
 224895 201430    11601.3107   110    12303.0000     9597.6056 24753040   21.99%         X_0_8_5 D 225751 225735     69
 225610 202232    11100.9444   136    12303.0000     9601.2538 24841568   21.96%        X_1_0_11 U 232137 232121     29
 226810 202847        cutoff          12303.0000     9605.5575 24952030   21.93%        X_0_4_10 D 216802 216794     60
 228194 203842    10746.9704   127    12303.0000     9607.7226 25087279   21.91%        X_1_0_11 D 233988 233980     35
 229743 205867    12189.5863   145    12303.0000     9610.8303 25301404   21.88%       X_2_12_13 D 236909 236901    103
 231035 206208    11459.5080    98    12303.0000     9614.0420 25333042   21.86%        X_2_2_11 D 222504 222496    204
Elapsed time = 2123.20 sec. (725524.21 ticks, tree = 5530.54 MB, solutions = 6)
Nodefile size = 3479.18 MB (2563.65 MB after compression)
 232277 208211    11271.8062   117    12303.0000     9617.4912 25577762   21.83%         X_1_0_8 D 239693 239685     45
 233611 209284    11992.2873   136    12303.0000     9622.5277 25699476   21.79%        X_1_4_10 D 233359 233351     58
 234745 210280    11213.2726   145    12303.0000     9624.5789 25795801   21.77%         X_0_7_2 D 240342 240334     94
 236098 210987    11912.8043   106    12303.0000     9627.6925 25860805   21.75%         X_1_0_2 D 228179 228171     44
 237414 212355    11830.0871   151    12303.0000     9632.1902 26024116   21.71%        X_1_7_14 D 245233 245225     46
 238637 213207    11707.3927   137    12303.0000     9634.1506 26129596   21.69%        X_3_2_13 D 239551 239543    141
 239871 214152    10720.1067   141    12303.0000     9636.0648 26264038   21.68%        X_0_10_4 D 231008 231000     36
 241110 215670    10895.4869   122    12303.0000     9640.5302 26438497   21.64%       X_2_14_11 D 234331 234323     33
 242291 216042    11599.1810   127    12303.0000     9642.8075 26503582   21.62%              Y2 U 246774 246766     34
 243624 217308    10676.7053   103    12303.0000     9646.7671 26626236   21.59%         X_1_0_9 D 234530 234514     41
Elapsed time = 2239.27 sec. (763707.83 ticks, tree = 5846.86 MB, solutions = 6)
Nodefile size = 3794.13 MB (2794.20 MB after compression)
 244937 219158    10878.2281   158    12303.0000     9650.1213 26835439   21.56%        X_1_10_5 D 249741 249733     35
 246327 220142    12145.5259    47    12303.0000     9653.9683 26968810   21.53%         X_1_9_6 D 237664 237656     71
 247364 221303    11043.5009   118    12303.0000     9656.6523 27092399   21.51%        X_1_0_12 D 249207 249199     54
 248573 221799    11777.0074    91    12303.0000     9659.2450 27159075   21.49%        X_4_3_11 D 255332 255324    123
 249759 223152    11630.9032   175    12303.0000     9662.0563 27331157   21.47%              Y3 U 240152 240144     45
 251131 224332    11773.9500   125    12303.0000     9665.8523 27460508   21.43%        X_2_6_15 D 241786 241778    100
 252383 225813    11406.8700   109    12303.0000     9668.8807 27640789   21.41%        X_0_7_11 D 259497 259481     72
 253632 226637    11964.4772    78    12303.0000     9671.3388 27741118   21.39%        X_4_3_12 D 245024 245016    119
 254809 227229    11741.6775   114    12303.0000     9674.5045 27824125   21.36%        X_2_3_15 D 260877 260869     48
 255975 227912    11494.4600   132    12303.0000     9678.2638 27909094   21.33%         X_1_7_2 D 246282 246274     52
Elapsed time = 2357.41 sec. (801873.27 ticks, tree = 6139.93 MB, solutions = 6)
Nodefile size = 4084.55 MB (3005.76 MB after compression)
 257250 229167    11720.1985   121    12303.0000     9681.0460 28053560   21.31%         X_2_7_0 D 247522 247514     28
 258097 230259    12070.1303   104    12303.0000     9684.0739 28199813   21.29%       X_2_12_10 D 265756 265748    222
 259534 231246    11070.3327   157    12303.0000     9687.8881 28337466   21.26%         X_1_0_3 D 267196 267188     20
 260934 232499    11007.1273   165    12303.0000     9691.0611 28488581   21.23%        X_1_10_4 U 268028 268012     10
 262278 234084    10900.6357   114    12303.0000     9692.2057 28639319   21.22%        X_1_7_14 D 265983 265975     64
 263690 234719    12068.8696    75    12303.0000     9695.5122 28722083   21.19%        X_0_15_1 D 269753 269737     61
 264998 236570    11882.4769   132    12303.0000     9697.9992 28914193   21.17%        X_1_0_10 D 271820 271812     73
 265957 237574    12261.3174    85    12303.0000     9699.7764 29032651   21.16%         X_0_1_0 D 272657 272649    171
 267103 238136    10998.7499    95    12303.0000     9701.8782 29099500   21.14%         X_2_7_2 D 260779 260771    100
 268330 239460    11182.9352   105    12303.0000     9704.0271 29261972   21.12%         X_3_8_6 U 261915 261899     49
Elapsed time = 2484.97 sec. (840063.15 ticks, tree = 6509.96 MB, solutions = 6)
Nodefile size = 4458.67 MB (3282.05 MB after compression)
 269925 239930    12067.2624    96    12303.0000     9706.7877 29311172   21.10%        X_4_11_6 D 276529 276521    137
 271336 241245    11828.0536   143    12303.0000     9708.5394 29446741   21.09%        X_0_10_5 D 261562 261554     69
 272957 243357    11218.2644   112    12303.0000     9712.2226 29665970   21.06%         X_0_0_8 D 279108 279100    153
 274217 243693    10989.5533   110    12303.0000     9716.1912 29703997   21.03%        X_4_0_13 D 279231 279223     51
 275321 245387    12102.2066   117    12303.0000     9720.5470 29882241   20.99%        X_3_10_8 D 281001 280993    111
 276616 246377    11160.0628   167    12303.0000     9722.8328 29990068   20.97%         X_1_7_1 D 282541 282533     57
 277858 248087    11275.8876   116    12303.0000     9724.9858 30216593   20.95%         X_4_0_2 D 281814 281806     47
 279392 248440    11183.0238   146    12303.0000     9729.4461 30242618   20.92%       X_4_14_12 D 284879 284871    122
 280763 249871    11957.1368    83    12303.0000     9731.3210 30391357   20.90%        X_4_14_0 D 286022 286014    166
 281814 250817    12278.9292   132    12303.0000     9733.4570 30508607   20.89%        X_0_4_10 D 287281 287265     66
Elapsed time = 2600.05 sec. (878251.86 ticks, tree = 6831.00 MB, solutions = 6)
Nodefile size = 4777.02 MB (3514.58 MB after compression)
 283110 251918    11029.0006   105    12303.0000     9735.8093 30636225   20.87%       X_3_14_11 D 287998 287990     71
 284203 253239    11583.1549   147    12303.0000     9739.0007 30761067   20.84%        X_1_0_12 D 274674 274666    100
 285550 254696    12298.9817   131    12303.0000     9740.7874 30936565   20.83%         X_2_4_0 D 290550 290542    160
 287062 255340    11771.1612   125    12303.0000     9743.3807 31002057   20.80%         X_0_7_1 D 294999 294991    130
 288881 257261    10999.5145   134    12303.0000     9748.1100 31198151   20.77%        X_1_6_10 D 294337 294329     67
 289929 258468    10712.1556   114    12303.0000     9750.8955 31321560   20.74%       X_0_11_14 D 296156 296148     56
 291292 259324        cutoff          12303.0000     9753.4383 31400785   20.72%         X_2_1_0 U 296637 296629    141
 292412 259702    11573.0759   126    12303.0000     9755.7238 31453994   20.70%        X_3_1_11 D 300935 300927    135
 293723 260922    11455.6915   103    12303.0000     9758.3761 31560320   20.68%         X_3_0_2 D 280424 280416    196
 295115 262830        cutoff          12303.0000     9759.9899 31792007   20.67%              Y2 D 299894 131264     50
Elapsed time = 2728.73 sec. (916417.61 ticks, tree = 7222.86 MB, solutions = 6)
Nodefile size = 5169.48 MB (3804.67 MB after compression)
 296454 263884    11843.0748    90    12303.0000     9761.5764 31926386   20.66%        X_3_9_14 U 301006 300990     74
 297699 264680    10436.9010   156    12303.0000     9764.6305 32011449   20.63%        X_3_14_4 D 284336 284328     25
 298935 266546    11757.2050    43    12303.0000     9767.8011 32212823   20.61%         X_1_7_9 D 290250 290242     77
 300174 267204    10987.0033   107    12303.0000     9769.8823 32296479   20.59%         X_1_0_5 D 308748 308740     72
 301425 267678    11727.8186   146    12303.0000     9771.8904 32350317   20.57%         X_1_7_6 D 311167 311159     59
 302653 269016    11923.3540   120    12303.0000     9774.2912 32535295   20.55%         X_1_7_8 D 288736 288728     95
 303928 270541    11286.9980   133    12303.0000     9776.0717 32693185   20.54%        X_4_14_1 D 309190 309182     77
 305096 271182    11786.0115    90    12303.0000     9778.7109 32785941   20.52%        X_0_15_2 D 295643 295635    112
 306255 272368    11038.9323   150    12303.0000     9780.9367 32925100   20.50%        X_1_10_4 D 298402 298394     26
 307320 273345    11904.2820   117    12303.0000     9783.3867 33043446   20.48%        X_0_11_1 D 315780 315772     90
Elapsed time = 2858.06 sec. (954591.78 ticks, tree = 7571.97 MB, solutions = 6)
Nodefile size = 5517.46 MB (4062.66 MB after compression)
 308473 273867    11376.7915   139    12303.0000     9786.7993 33136053   20.45%         X_2_7_8 D 295344 295336    155
 309523 274543    11441.8970   141    12303.0000     9789.8800 33221044   20.43%         X_4_8_0 D 318596 318588     33
 310570 276194    12027.0329    89    12303.0000     9793.3114 33445301   20.40%         X_3_8_6 D 318399 318391    109
 311760 276936    12173.8560   120    12303.0000     9794.9832 33546801   20.39%         X_2_0_8 D 304682 304674     32
 312987 277815    12120.9297   119    12303.0000     9797.1953 33664328   20.37%        X_2_14_9 D 322140 322132     69
 314125 278300    10889.5826   101    12303.0000     9800.2932 33734603   20.34%        X_4_10_4 D 318805 318789     21
 315285 279663    10989.1710   171    12303.0000     9802.8783 33903643   20.32%              Y2 U 301408 301400     77
 316614 280810    10718.3606   168    12303.0000     9804.7480 34044792   20.31%         X_2_4_5 D 302888 302880     30
 317700 282079        cutoff          12303.0000     9807.4323 34198918   20.28%        X_4_15_4 U 303680 303672     41
 318997 283383    10771.4941   123    12303.0000     9809.3003 34351947   20.27%        X_0_7_15 D 325854 325846    110
Elapsed time = 2979.61 sec. (992758.18 ticks, tree = 7904.35 MB, solutions = 6)
Nodefile size = 5851.55 MB (4310.58 MB after compression)
 320379 283754    11453.9891    45    12303.0000     9811.1302 34403076   20.25%         X_2_7_1 D 324437 324429     84
 321242 284628    11771.5310    98    12303.0000     9812.4606 34506689   20.24%         X_1_7_3 D 316322 316314     30
 322448 285999    11633.1236   103    12303.0000     9816.5792 34661437   20.21%        X_4_7_13 D 308152 308144    151
 323652 287186    11178.5151   110    12303.0000     9818.5935 34833248   20.19%         X_3_2_6 D 330550 330542    113
 324843 288038    10955.8691   186    12303.0000     9821.4883 34960277   20.17%              Y3 U 330751 330743     60
 326215 289142    11940.8887   114    12303.0000     9824.3947 35085113   20.15%         X_2_3_0 D 317483 317475    219
 327416 290486        cutoff          12303.0000     9825.6193 35235590   20.14%        X_0_15_1 D 318691 318683    111
 328736 290903    12094.3622   104    12303.0000     9826.7341 35289265   20.13%        X_2_0_11 D 324130 324122     37
 329962 292425    11728.1087   118    12303.0000     9829.7388 35475374   20.10%         X_4_7_2 D 335589 335581    189
 331019 293513    11890.8810   156    12303.0000     9831.3508 35601495   20.09%        X_1_0_13 D 316104 316096    163
Elapsed time = 3098.48 sec. (1030928.28 ticks, tree = 8221.90 MB, solutions = 6)
Nodefile size = 6167.25 MB (4543.08 MB after compression)
 332211 294900    11066.5214   164    12303.0000     9834.6315 35766807   20.06%        X_2_4_14 D 338061 338053     31
 333332 295623    11627.3071   145    12303.0000     9835.1740 35853161   20.06%         X_1_0_3 D 340164 340156     34
 334344 296333    12073.9982    97    12303.0000     9837.3652 35959945   20.04%         X_0_0_1 D 337689 337681     50
 335737 297100    11954.7759   132    12303.0000     9839.6846 36051382   20.02%         X_2_9_5 U 330682 330674     13
Dentro lazy
camion 0, FALSE-heu 0.002
Version identifier: 12.10.0.0 | 2019-11-26 | 843d4de2ae
CPXPARAM_Threads                                 12
CPXPARAM_MIP_Strategy_Probe                      -1
CPXPARAM_Emphasis_MIP                            1
Tried aggregator 2 times.
MIP Presolve eliminated 1534 rows and 34 columns.
MIP Presolve modified 2044 coefficients.
Aggregator did 2 substitutions.
Reduced MIP has 1504 rows, 365 columns, and 16575 nonzeros.
Reduced MIP has 365 binaries, 0 generals, 0 SOSs, and 0 indicators.
Presolve time = 0.06 sec. (55.62 ticks)
Tried aggregator 1 time.
Detecting symmetries...
Reduced MIP has 1504 rows, 365 columns, and 16575 nonzeros.
Reduced MIP has 365 binaries, 0 generals, 0 SOSs, and 0 indicators.
Presolve time = 0.02 sec. (20.53 ticks)
Clique table members: 1442.
MIP emphasis: integer feasibility.
MIP search method: dynamic search.
Parallel mode: deterministic, using up to 12 threads.
Root relaxation solution time = 0.05 sec. (11.20 ticks)

        Nodes                                         Cuts/
   Node  Left     Objective  IInf  Best Integer    Best Bound    ItCnt     Gap

      0     0        0.0000    59                      0.0000      176         
      0     0        0.0000    59                    Cuts: 22      400         
      0     0        0.0000    59                    Cuts: 24      476         
      0     0        0.0000    59                    Cuts: 85      632         
Detecting symmetries...
      0     2        0.0000    28                      0.0000      632         
Elapsed time = 4.17 sec. (718.16 ticks, tree = 0.02 MB, solutions = 0)
    146    20    infeasible                            0.0000     6567         
    551     9    infeasible                            0.0000    23894         
    687     4    infeasible                            0.0000    35970         
    772     2        0.0000    38                      0.0000    41483         

Clique cuts applied:  66
Cover cuts applied:  15
Zero-half cuts applied:  28

Root node processing (before b&c):
  Real time             =    2.08 sec. (717.52 ticks)
Parallel b&c, 12 threads:
  Real time             =   76.42 sec. (1009.45 ticks)
  Sync time (average)   =   72.72 sec.
  Wait time (average)   =    0.00 sec.
                          ------------
Total (root+branch&cut) =   78.50 sec. (1726.96 ticks)
78.531000 
FALSE-modelo
 Salgo lazy
 336991 298188    10867.2387   133    12303.0000     9842.2971 36184267   20.00%        X_1_0_13 D 344444 344436     45
Starting limited solution polishing.
 338161 299901    12105.6078   115    12303.0000     9845.4578 36401376   19.98%        X_1_7_13 D 323624 323616     86
 338902 300103    10937.8768   129    12303.0000     9845.7677 36417407   19.97%        X_1_10_5 D 325368 325360    117
 339483 300875    11994.9228    85    12303.0000     9846.3362 36527805   19.97%         X_4_0_6 D 345126 345118     79
 340166 301402        cutoff          12303.0000     9848.1669 36615245   19.95%        X_4_13_2 U 345087 345071    146
 340713 301834    10620.8454   123    12303.0000     9851.0587 36680428   19.93%         X_1_7_6 D 344473 344465     47
Elapsed time = 3296.83 sec. (1069110.49 ticks, tree = 8511.50 MB, solutions = 6)
Nodefile size = 6457.18 MB (4758.85 MB after compression)
 341431 302554    10746.0517   111    12303.0000     9851.1400 36757785   19.93%        X_3_0_15 D 346127 346119     33
 342117 302707    11832.7318   161    12303.0000     9853.1484 36773698   19.91%        X_0_1_10 D 334539 334531     50
 342763 303643    11377.5548   138    12303.0000     9853.2777 36896261   19.91%         X_1_7_2 D 329392 329384     77
 343166 303855    11110.0319   148    12303.0000     9855.6632 36928002   19.89%        X_3_5_14 U 349342 349334     12
 343836 304687    11583.7054    82    12303.0000     9856.1244 37012486   19.89%        X_4_9_14 D 349253 349245     54
 344482 305294    11591.1559   118    12303.0000     9856.3933 37090368   19.89%       X_2_15_11 D 347809 347801    142
 345000 305318    11791.3269   114    12303.0000     9858.6240 37091528   19.87%         X_2_1_3 D 348001 347993    166
 345611 305950    11928.1983   112    12303.0000     9859.9626 37171438   19.86%         X_1_7_2 D 351061 351053    102
 346111 306525    11907.0075    80    12303.0000     9859.9626 37231556   19.86%        X_1_7_12 D 341058 341050     62
 346578 306982    10395.9789   132    12303.0000     9861.9023 37278285   19.84%        X_3_10_4 D 352708 352700     22
Elapsed time = 3431.89 sec. (1107522.20 ticks, tree = 8681.38 MB, solutions = 6)
Nodefile size = 6626.63 MB (4884.55 MB after compression)
 346692 307015    11778.5701   126    12303.0000     9861.9249 37281932   19.84%              Y3 U 339403 339395     90
 347263 307575    12053.4734    95    12303.0000     9861.9249 37341537   19.84%         X_2_9_4 D 352645 352637    129
 348040 308332    10272.7770   138    12303.0000     9864.2098 37436572   19.82%         X_1_0_2 D 353189 353181     24
Dentro lazy
camion 0, FALSE-heu 0.002
Version identifier: 12.10.0.0 | 2019-11-26 | 843d4de2ae
CPXPARAM_Threads                                 12
CPXPARAM_MIP_Strategy_Probe                      -1
CPXPARAM_Emphasis_MIP                            1
Tried aggregator 2 times.
MIP Presolve eliminated 1534 rows and 34 columns.
MIP Presolve modified 2044 coefficients.
Aggregator did 2 substitutions.
Reduced MIP has 1504 rows, 365 columns, and 16575 nonzeros.
Reduced MIP has 365 binaries, 0 generals, 0 SOSs, and 0 indicators.
Presolve time = 0.19 sec. (55.78 ticks)
Tried aggregator 1 time.
Detecting symmetries...
Reduced MIP has 1504 rows, 365 columns, and 16575 nonzeros.
Reduced MIP has 365 binaries, 0 generals, 0 SOSs, and 0 indicators.
Presolve time = 0.06 sec. (20.64 ticks)
Clique table members: 1442.
MIP emphasis: integer feasibility.
MIP search method: dynamic search.
Parallel mode: deterministic, using up to 12 threads.
Root relaxation solution time = 0.05 sec. (6.01 ticks)

        Nodes                                         Cuts/
   Node  Left     Objective  IInf  Best Integer    Best Bound    ItCnt     Gap

      0     0        0.0000    47                      0.0000       97         
      0     0        0.0000    47                    Cuts: 34      187         
      0     0        0.0000    47                     Cuts: 4      246         
Detecting symmetries...
      0     2        0.0000    29                      0.0000      246         
Elapsed time = 5.53 sec. (564.06 ticks, tree = 0.02 MB, solutions = 0)
     33     3        0.0000    38                      0.0000     4601         
    444    17    infeasible                            0.0000    25829         

Clique cuts applied:  48
Cover cuts applied:  20
Zero-half cuts applied:  9
Gomory fractional cuts applied:  1

Root node processing (before b&c):
  Real time             =    2.88 sec. (563.42 ticks)
Parallel b&c, 12 threads:
  Real time             =   87.25 sec. (718.91 ticks)
  Sync time (average)   =   83.28 sec.
  Wait time (average)   =    0.00 sec.
                          ------------
Total (root+branch&cut) =   90.13 sec. (1282.33 ticks)
90.156000 
FALSE-modelo
 Salgo lazy
Dentro lazy
camion 0, FALSE-heu 0.002
Version identifier: 12.10.0.0 | 2019-11-26 | 843d4de2ae
CPXPARAM_Threads                                 12
CPXPARAM_MIP_Strategy_Probe                      -1
CPXPARAM_Emphasis_MIP                            1
Tried aggregator 2 times.
MIP Presolve eliminated 1534 rows and 34 columns.
MIP Presolve modified 2044 coefficients.
Aggregator did 2 substitutions.
Reduced MIP has 1504 rows, 365 columns, and 16575 nonzeros.
Reduced MIP has 365 binaries, 0 generals, 0 SOSs, and 0 indicators.
Presolve time = 0.06 sec. (55.78 ticks)
Tried aggregator 1 time.
Detecting symmetries...
Reduced MIP has 1504 rows, 365 columns, and 16575 nonzeros.
Reduced MIP has 365 binaries, 0 generals, 0 SOSs, and 0 indicators.
Presolve time = 0.03 sec. (20.64 ticks)
Clique table members: 1442.
MIP emphasis: integer feasibility.
MIP search method: dynamic search.
Parallel mode: deterministic, using up to 12 threads.
Root relaxation solution time = 0.05 sec. (6.01 ticks)

        Nodes                                         Cuts/
   Node  Left     Objective  IInf  Best Integer    Best Bound    ItCnt     Gap

      0     0        0.0000    47                      0.0000       97         
      0     0        0.0000    47                    Cuts: 34      187         
      0     0        0.0000    47                     Cuts: 4      246         
Detecting symmetries...
      0     2        0.0000    29                      0.0000      246         
Elapsed time = 4.77 sec. (564.06 ticks, tree = 0.02 MB, solutions = 0)
     33     3        0.0000    38                      0.0000     4601         
    444    17    infeasible                            0.0000    25829         

Clique cuts applied:  48
Cover cuts applied:  20
Zero-half cuts applied:  9
Gomory fractional cuts applied:  1

Root node processing (before b&c):
  Real time             =    1.91 sec. (563.42 ticks)
Parallel b&c, 12 threads:
  Real time             =  100.13 sec. (718.91 ticks)
  Sync time (average)   =   95.45 sec.
  Wait time (average)   =    0.00 sec.
                          ------------
Total (root+branch&cut) =  102.03 sec. (1282.33 ticks)
102.047000 
FALSE-modelo
 Salgo lazy
 348269 308494    12079.2463   111    12303.0000     9864.2098 37449299   19.82%        X_1_15_0 D 355076 355060     65
 348289 307813    11951.5796   152    12303.0000     9864.2098 37381760   19.82%        X_2_10_5 D 352807 352799     75
 348290 307511    11660.1245    69    12303.0000     9864.2098 37317995   19.82%        X_1_14_3 D 343202 343194    130

GUB cover cuts applied:  105
Cover cuts applied:  1730
Flow cuts applied:  140
Mixed integer rounding cuts applied:  238
Zero-half cuts applied:  147
Gomory fractional cuts applied:  3
User cuts applied:  6

Root node processing (before b&c):
  Real time             =   28.09 sec. (20015.40 ticks)
Parallel b&c, 8 threads:
  Real time             = 3643.95 sec. (1124365.78 ticks)
  Sync time (average)   =  562.44 sec.
  Wait time (average)   =    0.00 sec.
                          ------------
Total (root+branch&cut) = 3672.05 sec. (1144381.18 ticks)
3672.062000 
