GAP:; 0.13;  F.O:; 11251.00; Tiempo:;3600.44; 
ROUTING 
X0;0;15;697.00 
X0;15;1;641.00 
X0;1;14;571.00 
X0;14;9;621.00 
X0;9;2;151.00 
X0;2;0;918.00 
ruta 0;3599.00 
X1;0;15;697.00 
X1;15;3;293.00 
X1;3;11;76.00 
X1;11;7;422.00 
X1;7;0;681.00 
ruta 1;5768.00 
X2;0;8;861.00 
X2;8;4;575.00 
X2;4;10;255.00 
X2;10;5;206.00 
X2;5;0;1531.00 
ruta 2;9196.00 
X3;0;12;1001.00 
X3;12;13;43.00 
X3;13;6;59.00 
X3;6;2;34.00 
X3;2;0;918.00 
ruta 3;11251.00 
PACKING 
Z0 2 5 0 	 810.00 
Z0 9 3 1 	 432.00 
Z0 9 0 2 	 313.00 
Z0 9 5 3 	 529.00 
Z0 9 1 4 	 898.00 
Z0 14 6 5 	 520.00 
Z0 14 0 6 	 787.00 
Z0 14 3 7 	 589.00 
Z0 14 1 8 	 560.00 
Z0 1 4 9 	 864.00 
Z0 1 2 10 	 823.00 
Z0 1 3 11 	 425.00 
Z0 1 5 12 	 635.00 
Z0 15 7 13 	 885.00 
Z0 15 1 14 	 740.00 
Z0 2 0 17 	 818.00 
Z0 9 7 18 	 689.00 
Z0 9 6 19 	 669.00 
Z0 9 4 20 	 654.00 
Z0 9 2 21 	 896.00 
Z0 14 5 22 	 332.00 
Z0 14 4 23 	 324.00 
Z0 14 2 24 	 809.00 
Z0 14 7 25 	 415.00 
Z0 1 7 26 	 565.00 
Z0 1 1 27 	 812.00 
Z0 1 6 28 	 880.00 
Z0 1 0 29 	 482.00 
Z0 15 2 30 	 875.00 
truck weigth 0: 19030.00 axle 1: 10250.12 axle2: 8779.88 media kg/km:5.29
Z1 7 7 1 	 999.00 
Z1 7 5 2 	 957.00 
Z1 7 3 3 	 430.00 
Z1 7 1 4 	 714.00 
Z1 11 7 5 	 781.00 
Z1 11 5 6 	 959.00 
Z1 11 3 7 	 857.00 
Z1 11 1 8 	 744.00 
Z1 3 7 9 	 450.00 
Z1 3 5 10 	 490.00 
Z1 3 3 11 	 859.00 
Z1 3 1 12 	 821.00 
Z1 15 6 13 	 735.00 
Z1 15 4 14 	 665.00 
Z1 15 0 15 	 488.00 
Z1 7 6 18 	 566.00 
Z1 7 4 19 	 804.00 
Z1 7 2 20 	 988.00 
Z1 7 0 21 	 956.00 
Z1 11 6 22 	 347.00 
Z1 11 4 23 	 448.00 
Z1 11 2 24 	 547.00 
Z1 11 0 25 	 318.00 
Z1 3 6 26 	 909.00 
Z1 3 4 27 	 327.00 
Z1 3 2 28 	 538.00 
Z1 3 0 29 	 558.00 
Z1 15 5 30 	 968.00 
Z1 15 3 31 	 711.00 
truck weigth 1: 19934.00 axle 1: 10061.54 axle2: 9872.46 media kg/km:9.19
Z2 5 4 0 	 787.00 
Z2 5 6 1 	 774.00 
Z2 5 0 2 	 541.00 
Z2 5 3 3 	 586.00 
Z2 10 5 4 	 341.00 
Z2 10 4 5 	 646.00 
Z2 10 7 6 	 519.00 
Z2 10 0 7 	 987.00 
Z2 4 7 8 	 979.00 
Z2 4 5 9 	 739.00 
Z2 4 6 10 	 391.00 
Z2 4 3 11 	 714.00 
Z2 8 3 12 	 868.00 
Z2 8 2 13 	 312.00 
Z2 8 4 14 	 496.00 
Z2 8 6 15 	 734.00 
Z2 5 2 16 	 432.00 
Z2 5 7 17 	 321.00 
Z2 5 5 18 	 561.00 
Z2 5 1 19 	 729.00 
Z2 10 6 20 	 631.00 
Z2 10 1 21 	 556.00 
Z2 10 3 22 	 443.00 
Z2 10 2 23 	 404.00 
Z2 4 0 24 	 742.00 
Z2 4 2 25 	 762.00 
Z2 4 1 26 	 571.00 
Z2 4 4 27 	 973.00 
Z2 8 0 28 	 344.00 
Z2 8 1 29 	 402.00 
Z2 8 5 30 	 771.00 
Z2 8 7 31 	 611.00 
truck weigth 2: 19667.00 axle 1: 10366.34 axle2: 9300.66 media kg/km:5.74
Z3 2 3 1 	 441.00 
Z3 2 4 2 	 436.00 
Z3 2 1 3 	 479.00 
Z3 6 2 4 	 868.00 
Z3 6 1 5 	 586.00 
Z3 6 3 6 	 870.00 
Z3 13 5 7 	 677.00 
Z3 13 0 8 	 513.00 
Z3 13 4 9 	 976.00 
Z3 13 1 10 	 636.00 
Z3 13 3 11 	 711.00 
Z3 12 6 12 	 953.00 
Z3 12 3 13 	 589.00 
Z3 12 5 14 	 623.00 
Z3 2 6 16 	 420.00 
Z3 2 2 17 	 477.00 
Z3 2 7 18 	 850.00 
Z3 6 0 19 	 759.00 
Z3 6 5 20 	 343.00 
Z3 6 4 21 	 513.00 
Z3 6 7 22 	 301.00 
Z3 6 6 23 	 526.00 
Z3 13 6 24 	 780.00 
Z3 13 7 25 	 689.00 
Z3 13 2 26 	 491.00 
Z3 12 0 27 	 982.00 
Z3 12 7 28 	 611.00 
Z3 12 4 29 	 852.00 
Z3 12 1 30 	 664.00 
Z3 12 2 31 	 753.00 
truck weigth 3: 19369.00 axle 1: 9704.10 axle2: 9664.90 media kg/km:9.43
