GAP:; 0.20;  F.O:; 11326.00; Tiempo:;3600.27; 
ROUTING 
X0;0;3;987.00 
X0;3;14;688.00 
X0;14;1;571.00 
X0;1;11;309.00 
X0;11;0;1013.00 
ruta 0;3568.00 
X1;0;2;918.00 
X1;2;13;44.00 
X1;13;12;43.00 
X1;12;9;80.00 
X1;9;0;1044.00 
ruta 1;5697.00 
X2;0;5;1531.00 
X2;5;10;206.00 
X2;10;4;255.00 
X2;4;8;575.00 
X2;8;0;861.00 
ruta 2;9125.00 
X3;0;8;861.00 
X3;8;6;80.00 
X3;6;15;282.00 
X3;15;7;297.00 
X3;7;0;681.00 
ruta 3;11326.00 
PACKING 
Z0 11 0 6 	 1919.00 
Z0 1 1 7 	 1946.00 
Z0 14 1 8 	 2105.00 
Z0 3 2 9 	 1960.00 
Z0 3 0 10 	 1801.00 
Z0 11 1 22 	 2163.00 
Z0 1 2 23 	 2081.00 
Z0 1 0 24 	 2204.00 
Z0 14 0 25 	 1883.00 
Z0 3 1 26 	 1934.00 
truck weigth 0: 19996.00 axle 1: 10082.93 axle2: 9913.07 media kg/km:5.60
Z1 9 1 6 	 1826.00 
Z1 12 1 7 	 2043.00 
Z1 13 1 8 	 1957.00 
Z1 2 2 9 	 1919.00 
Z1 2 0 10 	 1796.00 
Z1 9 2 22 	 2060.00 
Z1 9 0 23 	 1810.00 
Z1 12 0 24 	 2081.00 
Z1 13 0 25 	 2117.00 
Z1 2 1 26 	 2066.00 
truck weigth 1: 19675.00 axle 1: 9853.36 axle2: 9821.64 media kg/km:9.24
Z2 8 2 6 	 2151.00 
Z2 4 0 7 	 2199.00 
Z2 10 2 8 	 1940.00 
Z2 5 2 9 	 2087.00 
Z2 5 1 10 	 1782.00 
Z2 4 1 22 	 2218.00 
Z2 4 2 23 	 2040.00 
Z2 10 0 24 	 2190.00 
Z2 10 1 25 	 1837.00 
Z2 5 0 26 	 1815.00 
truck weigth 2: 20259.00 axle 1: 10281.26 axle2: 9977.74 media kg/km:5.91
Z3 7 2 6 	 1849.00 
Z3 7 0 7 	 2088.00 
Z3 15 1 8 	 1895.00 
Z3 6 1 9 	 1749.00 
Z3 8 0 10 	 1912.00 
Z3 7 1 22 	 2251.00 
Z3 15 0 23 	 2054.00 
Z3 6 0 24 	 2185.00 
Z3 6 2 25 	 1913.00 
Z3 8 1 26 	 2174.00 
truck weigth 3: 20070.00 axle 1: 10094.94 axle2: 9975.06 media kg/km:9.12
