GAP:; 0.08;  F.O:; 11220.00; Tiempo:;3600.33; 
ROUTING 
X0;0;3;987.00 
X0;3;1;361.00 
X0;1;14;571.00 
X0;14;9;621.00 
X0;9;0;1044.00 
ruta 0;3584.00 
X1;0;2;918.00 
X1;2;13;44.00 
X1;13;12;43.00 
X1;12;6;93.00 
X1;6;8;80.00 
X1;8;0;861.00 
ruta 1;5623.00 
X2;0;5;1531.00 
X2;5;10;206.00 
X2;10;4;255.00 
X2;4;8;575.00 
X2;8;0;861.00 
ruta 2;9051.00 
X3;0;7;681.00 
X3;7;11;422.00 
X3;11;3;76.00 
X3;3;15;293.00 
X3;15;0;697.00 
ruta 3;11220.00 
PACKING 
Z0 9 3 3 	 108.00 
Z0 9 1 4 	 1578.00 
Z0 14 4 5 	 1237.00 
Z0 14 2 6 	 149.00 
Z0 14 0 7 	 1384.00 
Z0 1 4 8 	 1838.00 
Z0 1 2 9 	 251.00 
Z0 1 0 10 	 1553.00 
Z0 3 3 11 	 1550.00 
Z0 3 0 12 	 1539.00 
Z0 9 4 19 	 636.00 
Z0 9 2 20 	 1535.00 
Z0 9 0 21 	 1052.00 
Z0 14 3 22 	 1175.00 
Z0 14 1 23 	 1052.00 
Z0 1 5 24 	 540.00 
Z0 1 3 25 	 627.00 
Z0 1 1 26 	 279.00 
Z0 3 4 27 	 1370.00 
Z0 3 2 28 	 299.00 
truck weigth 0: 19752.00 axle 1: 10407.39 axle2: 9344.61 media kg/km:5.51
Z1 8 0 3 	 1606.00 
Z1 6 2 4 	 277.00 
Z1 6 4 5 	 1847.00 
Z1 12 4 6 	 558.00 
Z1 12 1 7 	 1495.00 
Z1 12 3 8 	 1603.00 
Z1 13 1 9 	 505.00 
Z1 13 4 10 	 763.00 
Z1 2 2 11 	 1749.00 
Z1 2 0 12 	 447.00 
Z1 2 3 13 	 450.00 
Z1 6 3 19 	 135.00 
Z1 6 1 20 	 545.00 
Z1 6 0 21 	 979.00 
Z1 12 0 22 	 832.00 
Z1 12 2 23 	 1729.00 
Z1 13 0 24 	 616.00 
Z1 13 3 25 	 397.00 
Z1 13 2 26 	 1851.00 
Z1 2 1 27 	 566.00 
Z1 2 4 28 	 162.00 
Z1 2 5 29 	 1187.00 
truck weigth 1: 20299.00 axle 1: 10363.67 axle2: 9935.33 media kg/km:9.96
Z2 8 1 3 	 422.00 
Z2 8 4 4 	 1024.00 
Z2 8 3 5 	 1892.00 
Z2 4 4 6 	 630.00 
Z2 4 5 7 	 1776.00 
Z2 10 3 8 	 685.00 
Z2 10 0 9 	 948.00 
Z2 10 4 10 	 1364.00 
Z2 5 3 11 	 631.00 
Z2 5 1 12 	 128.00 
Z2 5 2 13 	 1723.00 
Z2 8 2 20 	 1199.00 
Z2 4 3 21 	 1369.00 
Z2 4 0 22 	 461.00 
Z2 4 1 23 	 1872.00 
Z2 4 2 24 	 1701.00 
Z2 10 2 25 	 465.00 
Z2 10 1 26 	 569.00 
Z2 5 4 27 	 153.00 
Z2 5 5 28 	 224.00 
Z2 5 0 29 	 1021.00 
truck weigth 2: 20257.00 axle 1: 10415.63 axle2: 9841.37 media kg/km:5.91
Z3 15 4 4 	 1460.00 
Z3 15 2 5 	 1373.00 
Z3 15 0 6 	 1721.00 
Z3 3 1 7 	 1434.00 
Z3 11 3 8 	 1315.00 
Z3 11 1 9 	 1431.00 
Z3 7 4 10 	 976.00 
Z3 7 2 11 	 801.00 
Z3 7 0 12 	 394.00 
Z3 15 3 21 	 825.00 
Z3 15 1 22 	 948.00 
Z3 3 5 23 	 813.00 
Z3 11 4 24 	 1442.00 
Z3 11 2 25 	 271.00 
Z3 11 0 26 	 1168.00 
Z3 7 3 27 	 1865.00 
Z3 7 1 28 	 1455.00 
truck weigth 3: 19692.00 axle 1: 9778.50 axle2: 9913.50 media kg/km:9.08
