GAP:; 0.24;  F.O:; 12797.00; Tiempo:;3678.55; 
ROUTING 
X0;0;1;1311.00 
X0;1;14;571.00 
X0;14;9;621.00 
X0;9;0;1044.00 
ruta 0;3547.00 
X1;0;6;910.00 
X1;6;12;93.00 
X1;12;13;43.00 
X1;13;2;44.00 
X1;2;0;918.00 
ruta 1;5555.00 
X2;0;3;987.00 
X2;3;11;76.00 
X2;11;7;422.00 
X2;7;0;681.00 
ruta 2;7721.00 
X3;0;5;1531.00 
X3;5;10;206.00 
X3;10;4;255.00 
X3;4;0;1240.00 
ruta 3;10953.00 
X4;0;8;861.00 
X4;8;15;286.00 
X4;15;0;697.00 
ruta 4;12797.00 
PACKING 
Z0 9 3 4 	 1070.00 
Z0 9 1 5 	 724.00 
Z0 14 6 6 	 845.00 
Z0 14 4 7 	 945.00 
Z0 14 2 8 	 914.00 
Z0 14 0 9 	 1105.00 
Z0 1 4 10 	 1057.00 
Z0 1 2 11 	 956.00 
Z0 1 0 12 	 1074.00 
Z0 9 4 20 	 932.00 
Z0 9 2 21 	 930.00 
Z0 9 0 22 	 1276.00 
Z0 14 5 23 	 1055.00 
Z0 14 3 24 	 1086.00 
Z0 14 1 25 	 895.00 
Z0 1 5 26 	 943.00 
Z0 1 3 27 	 1044.00 
Z0 1 1 28 	 926.00 
truck weigth 0: 17777.00 axle 1: 8857.68 axle2: 8919.32 media kg/km:5.01
Z1 2 3 10 	 937.00 
Z1 2 1 11 	 936.00 
Z1 13 2 12 	 991.00 
Z1 13 0 13 	 880.00 
Z1 12 0 14 	 1114.00 
Z1 6 0 15 	 845.00 
Z1 2 4 26 	 812.00 
Z1 2 2 27 	 1063.00 
Z1 2 0 28 	 1064.00 
Z1 13 1 29 	 1009.00 
Z1 12 1 30 	 1120.00 
Z1 6 1 31 	 1155.00 
truck weigth 1: 11926.00 axle 1: 2279.53 axle2: 9646.47 media kg/km:5.94
Z2 7 0 8 	 881.00 
Z2 11 5 9 	 1056.00 
Z2 11 3 10 	 1222.00 
Z2 11 1 11 	 781.00 
Z2 3 4 12 	 1117.00 
Z2 3 2 13 	 1262.00 
Z2 3 0 14 	 1188.00 
Z2 7 1 24 	 1119.00 
Z2 11 6 25 	 886.00 
Z2 11 4 26 	 944.00 
Z2 11 2 27 	 778.00 
Z2 11 0 28 	 1219.00 
Z2 3 3 29 	 883.00 
Z2 3 1 30 	 738.00 
truck weigth 2: 14074.00 axle 1: 4168.87 axle2: 9905.13 media kg/km:6.50
Z3 4 6 3 	 839.00 
Z3 4 4 4 	 728.00 
Z3 4 2 5 	 972.00 
Z3 4 0 6 	 1208.00 
Z3 10 5 7 	 1109.00 
Z3 10 3 8 	 1195.00 
Z3 10 1 9 	 922.00 
Z3 5 4 10 	 1092.00 
Z3 5 2 11 	 1140.00 
Z3 5 0 12 	 1161.00 
Z3 4 5 20 	 1272.00 
Z3 4 3 21 	 1028.00 
Z3 4 1 22 	 792.00 
Z3 10 6 23 	 891.00 
Z3 10 4 24 	 805.00 
Z3 10 2 25 	 1078.00 
Z3 10 0 26 	 1068.00 
Z3 5 3 27 	 908.00 
Z3 5 1 28 	 860.00 
truck weigth 3: 19068.00 axle 1: 9805.45 axle2: 9262.55 media kg/km:5.90
Z4 15 8 5 	 1010.00 
Z4 15 6 6 	 895.00 
Z4 15 4 7 	 1280.00 
Z4 15 2 8 	 1195.00 
Z4 15 0 9 	 1155.00 
Z4 8 6 10 	 792.00 
Z4 8 4 11 	 1225.00 
Z4 8 2 12 	 750.00 
Z4 8 0 13 	 1283.00 
Z4 15 7 22 	 990.00 
Z4 15 5 23 	 1105.00 
Z4 15 3 24 	 720.00 
Z4 15 1 25 	 805.00 
Z4 8 7 26 	 1208.00 
Z4 8 5 27 	 775.00 
Z4 8 3 28 	 1250.00 
Z4 8 1 29 	 717.00 
truck weigth 4: 17155.00 axle 1: 7191.07 axle2: 9963.93 media kg/km:9.30
