GAP:; 0.30;  F.O:; 13048.00; Tiempo:;3690.67; 
ROUTING 
X0;0;1;1311.00 
X0;1;14;571.00 
X0;14;9;621.00 
X0;9;0;1044.00 
ruta 0;3547.00 
X1;0;12;1001.00 
X1;12;13;43.00 
X1;13;2;44.00 
X1;2;0;918.00 
ruta 1;5553.00 
X2;0;15;697.00 
X2;15;3;293.00 
X2;3;11;76.00 
X2;11;0;1013.00 
ruta 2;7632.00 
X3;0;5;1531.00 
X3;5;10;206.00 
X3;10;4;255.00 
X3;4;0;1240.00 
ruta 3;10864.00 
X4;0;7;681.00 
X4;7;6;562.00 
X4;6;8;80.00 
X4;8;0;861.00 
ruta 4;13048.00 
PACKING 
Z0 9 3 6 	 1047.00 
Z0 9 1 7 	 1106.00 
Z0 14 4 8 	 751.00 
Z0 14 2 9 	 945.00 
Z0 14 0 10 	 779.00 
Z0 1 4 11 	 979.00 
Z0 1 2 12 	 1065.00 
Z0 1 0 13 	 987.00 
Z0 9 4 22 	 1063.00 
Z0 9 2 23 	 849.00 
Z0 9 0 24 	 1264.00 
Z0 14 3 25 	 1077.00 
Z0 14 1 26 	 823.00 
Z0 1 5 27 	 1163.00 
Z0 1 3 28 	 1027.00 
Z0 1 1 29 	 761.00 
truck weigth 0: 15686.00 axle 1: 6332.01 axle2: 9353.99 media kg/km:4.42
Z1 2 4 6 	 1021.00 
Z1 2 2 7 	 935.00 
Z1 2 0 8 	 1013.00 
Z1 13 3 9 	 939.00 
Z1 13 1 10 	 1095.00 
Z1 12 4 11 	 1155.00 
Z1 12 2 12 	 830.00 
Z1 12 0 13 	 760.00 
Z1 2 5 22 	 816.00 
Z1 2 3 23 	 862.00 
Z1 2 1 24 	 1013.00 
Z1 13 4 25 	 1249.00 
Z1 13 2 26 	 1055.00 
Z1 13 0 27 	 1221.00 
Z1 12 3 28 	 1061.00 
Z1 12 1 29 	 905.00 
truck weigth 1: 15930.00 axle 1: 6356.10 axle2: 9573.90 media kg/km:7.94
Z2 11 3 6 	 826.00 
Z2 11 1 7 	 1037.00 
Z2 3 5 8 	 1184.00 
Z2 3 3 9 	 1138.00 
Z2 3 1 10 	 987.00 
Z2 15 4 11 	 837.00 
Z2 15 2 12 	 973.00 
Z2 15 0 13 	 1239.00 
Z2 11 4 22 	 845.00 
Z2 11 2 23 	 1170.00 
Z2 11 0 24 	 1240.00 
Z2 3 4 25 	 1005.00 
Z2 3 2 26 	 959.00 
Z2 3 0 27 	 950.00 
Z2 15 3 28 	 923.00 
Z2 15 1 29 	 1177.00 
truck weigth 2: 16490.00 axle 1: 6536.69 axle2: 9953.31 media kg/km:7.93
Z3 4 5 4 	 853.00 
Z3 4 3 5 	 1178.00 
Z3 4 1 6 	 888.00 
Z3 10 4 7 	 937.00 
Z3 10 2 8 	 1151.00 
Z3 10 0 9 	 736.00 
Z3 5 4 10 	 1242.00 
Z3 5 2 11 	 813.00 
Z3 5 0 12 	 1163.00 
Z3 4 4 21 	 995.00 
Z3 4 2 22 	 1041.00 
Z3 4 0 23 	 1050.00 
Z3 10 3 24 	 1174.00 
Z3 10 1 25 	 963.00 
Z3 5 5 26 	 1147.00 
Z3 5 3 27 	 822.00 
Z3 5 1 28 	 1112.00 
truck weigth 3: 17265.00 axle 1: 8335.45 axle2: 8929.55 media kg/km:5.34
Z4 8 4 6 	 1127.00 
Z4 8 2 7 	 724.00 
Z4 8 0 8 	 742.00 
Z4 6 3 9 	 708.00 
Z4 6 1 10 	 1125.00 
Z4 7 4 11 	 873.00 
Z4 7 2 12 	 1276.00 
Z4 7 0 13 	 1258.00 
Z4 8 3 23 	 953.00 
Z4 8 1 24 	 894.00 
Z4 6 4 25 	 758.00 
Z4 6 2 26 	 1187.00 
Z4 6 0 27 	 837.00 
Z4 7 3 28 	 1292.00 
Z4 7 1 29 	 875.00 
truck weigth 4: 14629.00 axle 1: 5419.79 axle2: 9209.21 media kg/km:6.70
