Instances\Inst10P1Du_4.csvVersion identifier: 12.10.0.0 | 2019-11-26 | 843d4de2ae
CPXPARAM_Threads                                 8
CPXPARAM_MIP_Strategy_File                       3
CPXPARAM_MIP_Strategy_Probe                      -1
CPXPARAM_TimeLimit                               3600
Lazy constraint(s) or lazy constraint/branch callback is present.
    Disabling dual reductions (CPX_PARAM_REDUCE) in presolve.
    Disabling non-linear reductions (CPX_PARAM_PRELINEAR) in presolve.
    Disabling presolve reductions that prevent crushing forms.
         Disabling repeat represolve because of lazy constraint/incumbent callback.
Dentro lazy
camion 0, TRUE-heu 0.000034
camion 1, TRUE-heu 0.000064
Salgo lazy
1 of 1 MIP starts provided solutions.
MIP start 'm1' defined initial solution with objective 6973.0000.
Tried aggregator 1 time.
MIP Presolve eliminated 282 rows and 52 columns.
MIP Presolve modified 774 coefficients.
Reduced MIP has 400 rows, 1370 columns, and 10068 nonzeros.
Reduced MIP has 1170 binaries, 0 generals, 0 SOSs, and 0 indicators.
Presolve time = 0.02 sec. (8.46 ticks)
Clique table members: 121.
MIP emphasis: balance optimality and feasibility.
MIP search method: traditional branch-and-cut.
Parallel mode: deterministic, using up to 8 threads.
Root relaxation solution time = 0.03 sec. (12.15 ticks)

        Nodes                                         Cuts/
   Node  Left     Objective  IInf  Best Integer    Best Bound    ItCnt     Gap         Variable B NodeID Parent  Depth

*     0+    0                         6973.0000        0.0000           100.00%
      0     0     4287.0002    80     6973.0000     4287.0002      571   38.52%
      0     0     5177.6168    80     6973.0000      Cuts: 36      815   25.75%
      0     0     5260.7222    80     6973.0000      Cuts: 27      893   24.56%
      0     0     5421.2806    80     6973.0000      Cuts: 27     1057   22.25%
      0     0     5434.1512    80     6973.0000      Cuts: 46     1108   22.07%
      0     0     5494.6662    80     6973.0000      Cuts: 48     1260   21.20%
      0     0     5530.9821    80     6973.0000      Cuts: 27     1492   20.68%
      0     0     5601.6045    80     6973.0000      Cuts: 43     1594   19.67%
      0     0     5701.8462    80     6973.0000      Cuts: 45     1764   18.23%
      0     0     5726.8856    80     6973.0000      Cuts: 32     1964   17.87%
      0     0     5759.7717    80     6973.0000      Cuts: 51     2099   17.40%
      0     0     5818.9236    80     6973.0000      Cuts: 41     2174   16.55%
      0     0     5821.2413    80     6973.0000      Cuts: 39     2303   16.52%
      0     0     5848.1513    80     6973.0000      Cuts: 43     2341   16.13%
      0     0     5950.0068    80     6973.0000      Cuts: 44     2440   14.67%
      0     0     6083.2071    80     6973.0000      Cuts: 44     2545   12.76%
      0     0     6085.6288    80     6973.0000      Cuts: 32     2588   12.73%
      0     0     6087.5075    80     6973.0000      Cuts: 38     2650   12.70%
      0     0     6087.8366    80     6973.0000      Cuts: 30     2703   12.69%
      0     0     6088.3506    80     6973.0000      Cuts: 25     2728   12.69%
      0     2     6088.3506    61     6973.0000     6088.3506     2728   12.69%                        0             0
Elapsed time = 1.75 sec. (343.54 ticks, tree = 0.02 MB, solutions = 1)
Dentro lazy
camion 0, FALSE-heu 0.000
Version identifier: 12.10.0.0 | 2019-11-26 | 843d4de2ae
CPXPARAM_Threads                                 12
CPXPARAM_MIP_Strategy_Probe                      -1
CPXPARAM_Emphasis_MIP                            1
Tried aggregator 2 times.
MIP Presolve eliminated 8093 rows and 34 columns.
MIP Presolve modified 1795 coefficients.
Aggregator did 2 substitutions.
Reduced MIP has 2141 rows, 365 columns, and 33642 nonzeros.
Reduced MIP has 365 binaries, 0 generals, 0 SOSs, and 0 indicators.
Presolve time = 0.47 sec. (480.69 ticks)
Tried aggregator 1 time.
Detecting symmetries...
Reduced MIP has 2141 rows, 365 columns, and 33642 nonzeros.
Reduced MIP has 365 binaries, 0 generals, 0 SOSs, and 0 indicators.
Presolve time = 0.05 sec. (48.93 ticks)
Clique table members: 2387.
MIP emphasis: integer feasibility.
MIP search method: dynamic search.
Parallel mode: deterministic, using up to 12 threads.
Root relaxation solution time = 0.17 sec. (9.97 ticks)

        Nodes                                         Cuts/
   Node  Left     Objective  IInf  Best Integer    Best Bound    ItCnt     Gap

      0     0        0.0000    55                      0.0000      115         
      0     0        0.0000    55                  Cliques: 4      172         
      0     0        0.0000    55                   Cuts: 102      309         
      0     0        0.0000    55                 Cliques: 11      363         
Detecting symmetries...
      0     2        0.0000    41                      0.0000      363         
Elapsed time = 3.97 sec. (1428.95 ticks, tree = 0.02 MB, solutions = 0)
    121     5    infeasible                            0.0000    12036         
    368     6    infeasible                            0.0000    28715         

Clique cuts applied:  56
Cover cuts applied:  1
Zero-half cuts applied:  11

Root node processing (before b&c):
  Real time             =    2.63 sec. (1427.99 ticks)
Parallel b&c, 12 threads:
  Real time             =   45.38 sec. (552.47 ticks)
  Sync time (average)   =   42.20 sec.
  Wait time (average)   =    0.00 sec.
                          ------------
Total (root+branch&cut) =   48.00 sec. (1980.45 ticks)
48.234000 
FALSE-modelo
 Salgo lazy
Dentro lazy
camion 0, TRUE-heu 0.000129
camion 1, FALSE-heu 0.000
Version identifier: 12.10.0.0 | 2019-11-26 | 843d4de2ae
CPXPARAM_Threads                                 12
CPXPARAM_MIP_Strategy_Probe                      -1
CPXPARAM_Emphasis_MIP                            1
Tried aggregator 2 times.
MIP Presolve eliminated 9105 rows and 34 columns.
MIP Presolve modified 1572 coefficients.
Aggregator did 2 substitutions.
Reduced MIP has 1129 rows, 365 columns, and 34126 nonzeros.
Reduced MIP has 365 binaries, 0 generals, 0 SOSs, and 0 indicators.
Presolve time = 0.41 sec. (427.89 ticks)
Tried aggregator 1 time.
Detecting symmetries...
Reduced MIP has 1129 rows, 365 columns, and 34126 nonzeros.
Reduced MIP has 365 binaries, 0 generals, 0 SOSs, and 0 indicators.
Presolve time = 0.05 sec. (48.76 ticks)
Clique table members: 1316.
MIP emphasis: integer feasibility.
MIP search method: dynamic search.
Parallel mode: deterministic, using up to 12 threads.
Root relaxation solution time = 0.03 sec. (15.39 ticks)

        Nodes                                         Cuts/
   Node  Left     Objective  IInf  Best Integer    Best Bound    ItCnt     Gap

      0     0        0.0000    59                      0.0000      194         
      0     0        0.0000    59                  Cliques: 2      227         
      0     0        0.0000    59                     Cuts: 9      286         
      0     0        0.0000    59                    Cuts: 43      437         
Detecting symmetries...
      0     2        0.0000    42                      0.0000      437         
Elapsed time = 4.70 sec. (1492.20 ticks, tree = 0.02 MB, solutions = 0)
    145    12        0.0000    84                      0.0000    10110         
    205     3    infeasible                            0.0000    19760         
    249     5        0.0000    59                      0.0000    24615         

Clique cuts applied:  28
Zero-half cuts applied:  26

Root node processing (before b&c):
  Real time             =    2.58 sec. (1491.46 ticks)
Parallel b&c, 12 threads:
  Real time             =   88.06 sec. (809.54 ticks)
  Sync time (average)   =   84.22 sec.
  Wait time (average)   =    0.00 sec.
                          ------------
Total (root+branch&cut) =   90.64 sec. (2301.01 ticks)
90.703000 
FALSE-modelo
 Salgo lazy
Dentro lazy
camion 0, TRUE-heu 0.000193
camion 1, TRUE-heu 0.000212
Salgo lazy
Dentro lazy
camion 0, TRUE-heu 0.000234
camion 1, FALSE-heu 0.000
Version identifier: 12.10.0.0 | 2019-11-26 | 843d4de2ae
CPXPARAM_Threads                                 12
CPXPARAM_MIP_Strategy_Probe                      -1
CPXPARAM_Emphasis_MIP                            1
Tried aggregator 2 times.
MIP Presolve eliminated 9105 rows and 34 columns.
MIP Presolve modified 1572 coefficients.
Aggregator did 2 substitutions.
Reduced MIP has 1129 rows, 365 columns, and 34126 nonzeros.
Reduced MIP has 365 binaries, 0 generals, 0 SOSs, and 0 indicators.
Presolve time = 0.42 sec. (427.89 ticks)
Tried aggregator 1 time.
Detecting symmetries...
Reduced MIP has 1129 rows, 365 columns, and 34126 nonzeros.
Reduced MIP has 365 binaries, 0 generals, 0 SOSs, and 0 indicators.
Presolve time = 0.05 sec. (48.76 ticks)
Clique table members: 1316.
MIP emphasis: integer feasibility.
MIP search method: dynamic search.
Parallel mode: deterministic, using up to 12 threads.
Root relaxation solution time = 0.05 sec. (15.39 ticks)

        Nodes                                         Cuts/
   Node  Left     Objective  IInf  Best Integer    Best Bound    ItCnt     Gap

      0     0        0.0000    59                      0.0000      194         
      0     0        0.0000    59                  Cliques: 2      227         
      0     0        0.0000    59                     Cuts: 9      286         
      0     0        0.0000    59                    Cuts: 43      437         
Detecting symmetries...
      0     2        0.0000    42                      0.0000      437         
Elapsed time = 4.39 sec. (1492.20 ticks, tree = 0.02 MB, solutions = 0)
    145    12        0.0000    84                      0.0000    10110         
    205     3    infeasible                            0.0000    19760         
    249     5        0.0000    59                      0.0000    24615         

Clique cuts applied:  28
Zero-half cuts applied:  26

Root node processing (before b&c):
  Real time             =    2.52 sec. (1491.46 ticks)
Parallel b&c, 12 threads:
  Real time             =   88.20 sec. (809.54 ticks)
  Sync time (average)   =   84.72 sec.
  Wait time (average)   =    0.00 sec.
                          ------------
Total (root+branch&cut) =   90.72 sec. (2301.01 ticks)
90.719000 
FALSE-modelo
 Salgo lazy
Dentro lazy
camion 0, TRUE-heu 0.000294
camion 1, TRUE-heu 0.000314
Salgo lazy
Dentro lazy
camion 0, *    11+    3                         6444.0000     6259.7241             2.86%
TRUE-heu 0.000342
camion 1, FALSE-heu 0.000
Version identifier: 12.10.0.0 | 2019-11-26 | 843d4de2ae
CPXPARAM_Threads                                 12
CPXPARAM_MIP_Strategy_Probe                      -1
CPXPARAM_Emphasis_MIP                            1
Tried aggregator 2 times.
MIP Presolve eliminated 9105 rows and 34 columns.
MIP Presolve modified 1572 coefficients.
Aggregator did 2 substitutions.
Reduced MIP has 1129 rows, 365 columns, and 34126 nonzeros.
Reduced MIP has 365 binaries, 0 generals, 0 SOSs, and 0 indicators.
Presolve time = 0.41 sec. (427.89 ticks)
Tried aggregator 1 time.
Detecting symmetries...
Reduced MIP has 1129 rows, 365 columns, and 34126 nonzeros.
Reduced MIP has 365 binaries, 0 generals, 0 SOSs, and 0 indicators.
Presolve time = 0.06 sec. (48.76 ticks)
Clique table members: 1316.
MIP emphasis: integer feasibility.
MIP search method: dynamic search.
Parallel mode: deterministic, using up to 12 threads.
Root relaxation solution time = 0.02 sec. (15.39 ticks)

        Nodes                                         Cuts/
   Node  Left     Objective  IInf  Best Integer    Best Bound    ItCnt     Gap

      0     0        0.0000    59                      0.0000      194         
      0     0        0.0000    59                  Cliques: 2      227         
      0     0        0.0000    59                     Cuts: 9      286         
      0     0        0.0000    59                    Cuts: 43      437         
Detecting symmetries...
      0     2        0.0000    42                      0.0000      437         
Elapsed time = 4.23 sec. (1492.20 ticks, tree = 0.02 MB, solutions = 0)
    145    12        0.0000    84                      0.0000    10110         
    205     3    infeasible                            0.0000    19760         
    249     5        0.0000    59                      0.0000    24615         

Clique cuts applied:  28
Zero-half cuts applied:  26

Root node processing (before b&c):
  Real time             =    2.53 sec. (1491.46 ticks)
Parallel b&c, 12 threads:
  Real time             =   86.72 sec. (809.54 ticks)
  Sync time (average)   =   83.58 sec.
  Wait time (average)   =    0.00 sec.
                          ------------
Total (root+branch&cut) =   89.25 sec. (2301.01 ticks)
89.281000 
FALSE-modelo
 Salgo lazy
Dentro lazy
camion 0, FALSE-heu 0.000
Version identifier: 12.10.0.0 | 2019-11-26 | 843d4de2ae
CPXPARAM_Threads                                 12
CPXPARAM_MIP_Strategy_Probe                      -1
CPXPARAM_Emphasis_MIP                            1
Tried aggregator 2 times.
MIP Presolve eliminated 8986 rows and 34 columns.
MIP Presolve modified 1731 coefficients.
Aggregator did 2 substitutions.
Reduced MIP has 1248 rows, 365 columns, and 34075 nonzeros.
Reduced MIP has 365 binaries, 0 generals, 0 SOSs, and 0 indicators.
Presolve time = 0.56 sec. (480.43 ticks)
Tried aggregator 1 time.
Detecting symmetries...
Reduced MIP has 1248 rows, 365 columns, and 34075 nonzeros.
Reduced MIP has 365 binaries, 0 generals, 0 SOSs, and 0 indicators.
Presolve time = 0.05 sec. (49.34 ticks)
Clique table members: 1494.
MIP emphasis: integer feasibility.
MIP search method: dynamic search.
Parallel mode: deterministic, using up to 12 threads.
Root relaxation solution time = 0.03 sec. (9.31 ticks)

        Nodes                                         Cuts/
   Node  Left     Objective  IInf  Best Integer    Best Bound    ItCnt     Gap

      0     0        0.0000    54                      0.0000      121         
      0     0        0.0000    54                    Cuts: 29      225         
      0     0        0.0000    54                 ZeroHalf: 1      265         
      0     0        0.0000    54                    Cuts: 61      416         
      0     0        cutoff                                        416         
Elapsed time = 2.53 sec. (1324.16 ticks, tree = 0.01 MB, solutions = 0)

Clique cuts applied:  3
Zero-half cuts applied:  19

Root node processing (before b&c):
  Real time             =    2.53 sec. (1324.27 ticks)
Parallel b&c, 12 threads:
  Real time             =    0.00 sec. (0.00 ticks)
  Sync time (average)   =    0.00 sec.
  Wait time (average)   =    0.00 sec.
                          ------------
Total (root+branch&cut) =    2.53 sec. (1324.27 ticks)
2.532000 
FALSE-modelo
 Salgo lazy
Dentro lazy
camion 0, TRUE-heu 0.000445
camion 1, FALSE-heu 0.000
Version identifier: 12.10.0.0 | 2019-11-26 | 843d4de2ae
CPXPARAM_Threads                                 12
CPXPARAM_MIP_Strategy_Probe                      -1
CPXPARAM_Emphasis_MIP                            1
Tried aggregator 2 times.
MIP Presolve eliminated 9105 rows and 34 columns.
MIP Presolve modified 1572 coefficients.
Aggregator did 2 substitutions.
Reduced MIP has 1129 rows, 365 columns, and 34126 nonzeros.
Reduced MIP has 365 binaries, 0 generals, 0 SOSs, and 0 indicators.
Presolve time = 0.42 sec. (427.89 ticks)
Tried aggregator 1 time.
Detecting symmetries...
Reduced MIP has 1129 rows, 365 columns, and 34126 nonzeros.
Reduced MIP has 365 binaries, 0 generals, 0 SOSs, and 0 indicators.
Presolve time = 0.06 sec. (48.76 ticks)
Clique table members: 1316.
MIP emphasis: integer feasibility.
MIP search method: dynamic search.
Parallel mode: deterministic, using up to 12 threads.
Root relaxation solution time = 0.05 sec. (15.39 ticks)

        Nodes                                         Cuts/
   Node  Left     Objective  IInf  Best Integer    Best Bound    ItCnt     Gap

      0     0        0.0000    59                      0.0000      194         
      0     0        0.0000    59                  Cliques: 2      227         
      0     0        0.0000    59                     Cuts: 9      286         
      0     0        0.0000    59                    Cuts: 43      437         
Detecting symmetries...
      0     2        0.0000    42                      0.0000      437         
Elapsed time = 4.83 sec. (1492.20 ticks, tree = 0.02 MB, solutions = 0)
    145    12        0.0000    84                      0.0000    10110         
    205     3    infeasible                            0.0000    19760         
    249     5        0.0000    59                      0.0000    24615         

Clique cuts applied:  28
Zero-half cuts applied:  26

Root node processing (before b&c):
  Real time             =    2.63 sec. (1491.46 ticks)
Parallel b&c, 12 threads:
  Real time             =   89.66 sec. (809.54 ticks)
  Sync time (average)   =   85.99 sec.
  Wait time (average)   =    0.00 sec.
                          ------------
Total (root+branch&cut) =   92.28 sec. (2301.01 ticks)
92.282000 
FALSE-modelo
 Salgo lazy
Dentro lazy
camion 0, TRUE-heu 0.000501
camion 1, FALSE-heu 0.001
Version identifier: 12.10.0.0 | 2019-11-26 | 843d4de2ae
CPXPARAM_Threads                                 12
CPXPARAM_MIP_Strategy_Probe                      -1
CPXPARAM_Emphasis_MIP                            1
Tried aggregator 2 times.
MIP Presolve eliminated 9105 rows and 34 columns.
MIP Presolve modified 1572 coefficients.
Aggregator did 2 substitutions.
Reduced MIP has 1129 rows, 365 columns, and 34126 nonzeros.
Reduced MIP has 365 binaries, 0 generals, 0 SOSs, and 0 indicators.
Presolve time = 0.44 sec. (427.89 ticks)
Tried aggregator 1 time.
Detecting symmetries...
Reduced MIP has 1129 rows, 365 columns, and 34126 nonzeros.
Reduced MIP has 365 binaries, 0 generals, 0 SOSs, and 0 indicators.
Presolve time = 0.06 sec. (48.76 ticks)
Clique table members: 1316.
MIP emphasis: integer feasibility.
MIP search method: dynamic search.
Parallel mode: deterministic, using up to 12 threads.
Root relaxation solution time = 0.03 sec. (15.39 ticks)

        Nodes                                         Cuts/
   Node  Left     Objective  IInf  Best Integer    Best Bound    ItCnt     Gap

      0     0        0.0000    59                      0.0000      194         
      0     0        0.0000    59                  Cliques: 2      227         
      0     0        0.0000    59                     Cuts: 9      286         
      0     0        0.0000    59                    Cuts: 43      437         
Detecting symmetries...
      0     2        0.0000    42                      0.0000      437         
Elapsed time = 4.41 sec. (1492.20 ticks, tree = 0.02 MB, solutions = 0)
    145    12        0.0000    84                      0.0000    10110         
    205     3    infeasible                            0.0000    19760         
    249     5        0.0000    59                      0.0000    24615         

Clique cuts applied:  28
Zero-half cuts applied:  26

Root node processing (before b&c):
  Real time             =    2.66 sec. (1491.46 ticks)
Parallel b&c, 12 threads:
  Real time             =   87.97 sec. (809.54 ticks)
  Sync time (average)   =   84.71 sec.
  Wait time (average)   =    0.00 sec.
                          ------------
Total (root+branch&cut) =   90.63 sec. (2301.01 ticks)
90.625000 
FALSE-modelo
 Salgo lazy
Dentro lazy
camion 0, TRUE-heu 0.000560
camion 1, FALSE-heu 0.001
Version identifier: 12.10.0.0 | 2019-11-26 | 843d4de2ae
CPXPARAM_Threads                                 12
CPXPARAM_MIP_Strategy_Probe                      -1
CPXPARAM_Emphasis_MIP                            1
Tried aggregator 2 times.
MIP Presolve eliminated 9105 rows and 34 columns.
MIP Presolve modified 1572 coefficients.
Aggregator did 2 substitutions.
Reduced MIP has 1129 rows, 365 columns, and 34126 nonzeros.
Reduced MIP has 365 binaries, 0 generals, 0 SOSs, and 0 indicators.
Presolve time = 0.44 sec. (427.89 ticks)
Tried aggregator 1 time.
Detecting symmetries...
Reduced MIP has 1129 rows, 365 columns, and 34126 nonzeros.
Reduced MIP has 365 binaries, 0 generals, 0 SOSs, and 0 indicators.
Presolve time = 0.05 sec. (48.76 ticks)
Clique table members: 1316.
MIP emphasis: integer feasibility.
MIP search method: dynamic search.
Parallel mode: deterministic, using up to 12 threads.
Root relaxation solution time = 0.03 sec. (15.39 ticks)

        Nodes                                         Cuts/
   Node  Left     Objective  IInf  Best Integer    Best Bound    ItCnt     Gap

      0     0        0.0000    59                      0.0000      194         
      0     0        0.0000    59                  Cliques: 2      227         
      0     0        0.0000    59                     Cuts: 9      286         
      0     0        0.0000    59                    Cuts: 43      437         
Detecting symmetries...
      0     2        0.0000    42                      0.0000      437         
Elapsed time = 5.19 sec. (1492.20 ticks, tree = 0.02 MB, solutions = 0)
    145    12        0.0000    84                      0.0000    10110         
    205     3    infeasible                            0.0000    19760         
    249     5        0.0000    59                      0.0000    24615         

Clique cuts applied:  28
Zero-half cuts applied:  26

Root node processing (before b&c):
  Real time             =    2.77 sec. (1491.46 ticks)
Parallel b&c, 12 threads:
  Real time             =   86.67 sec. (809.54 ticks)
  Sync time (average)   =   82.76 sec.
  Wait time (average)   =    0.00 sec.
                          ------------
Total (root+branch&cut) =   89.44 sec. (2301.01 ticks)
89.438000 
FALSE-modelo
 Salgo lazy
Dentro lazy
camion 0, TRUE-heu 0.000616
camion 1, FALSE-heu 0.001
Version identifier: 12.10.0.0 | 2019-11-26 | 843d4de2ae
CPXPARAM_Threads                                 12
CPXPARAM_MIP_Strategy_Probe                      -1
CPXPARAM_Emphasis_MIP                            1
Tried aggregator 2 times.
MIP Presolve eliminated 9105 rows and 34 columns.
MIP Presolve modified 1572 coefficients.
Aggregator did 2 substitutions.
Reduced MIP has 1129 rows, 365 columns, and 34126 nonzeros.
Reduced MIP has 365 binaries, 0 generals, 0 SOSs, and 0 indicators.
Presolve time = 0.42 sec. (427.89 ticks)
Tried aggregator 1 time.
Detecting symmetries...
Reduced MIP has 1129 rows, 365 columns, and 34126 nonzeros.
Reduced MIP has 365 binaries, 0 generals, 0 SOSs, and 0 indicators.
Presolve time = 0.06 sec. (48.76 ticks)
Clique table members: 1316.
MIP emphasis: integer feasibility.
MIP search method: dynamic search.
Parallel mode: deterministic, using up to 12 threads.
Root relaxation solution time = 0.03 sec. (15.39 ticks)

        Nodes                                         Cuts/
   Node  Left     Objective  IInf  Best Integer    Best Bound    ItCnt     Gap

      0     0        0.0000    59                      0.0000      194         
      0     0        0.0000    59                  Cliques: 2      227         
      0     0        0.0000    59                     Cuts: 9      286         
      0     0        0.0000    59                    Cuts: 43      437         
Detecting symmetries...
      0     2        0.0000    42                      0.0000      437         
Elapsed time = 4.77 sec. (1492.20 ticks, tree = 0.02 MB, solutions = 0)
    145    12        0.0000    84                      0.0000    10110         
    205     3    infeasible                            0.0000    19760         
    249     5        0.0000    59                      0.0000    24615         

Clique cuts applied:  28
Zero-half cuts applied:  26

Root node processing (before b&c):
  Real time             =    2.61 sec. (1491.46 ticks)
Parallel b&c, 12 threads:
  Real time             =   85.14 sec. (809.54 ticks)
  Sync time (average)   =   81.44 sec.
  Wait time (average)   =    0.00 sec.
                          ------------
Total (root+branch&cut) =   87.75 sec. (2301.01 ticks)
87.766000 
FALSE-modelo
 Salgo lazy
Dentro lazy
camion 0, TRUE-heu 0.000673
camion 1, TRUE-heu 0.000711
Salgo lazy
Dentro lazy
camion 0, TRUE-heu 0.000735
camion 1, FALSE-heu 0.001
Version identifier: 12.10.0.0 | 2019-11-26 | 843d4de2ae
CPXPARAM_Threads                                 12
CPXPARAM_MIP_Strategy_Probe                      -1
CPXPARAM_Emphasis_MIP                            1
Tried aggregator 2 times.
MIP Presolve eliminated 9105 rows and 34 columns.
MIP Presolve modified 1572 coefficients.
Aggregator did 2 substitutions.
Reduced MIP has 1129 rows, 365 columns, and 34126 nonzeros.
Reduced MIP has 365 binaries, 0 generals, 0 SOSs, and 0 indicators.
Presolve time = 0.42 sec. (427.89 ticks)
Tried aggregator 1 time.
Detecting symmetries...
Reduced MIP has 1129 rows, 365 columns, and 34126 nonzeros.
Reduced MIP has 365 binaries, 0 generals, 0 SOSs, and 0 indicators.
Presolve time = 0.06 sec. (48.76 ticks)
Clique table members: 1316.
MIP emphasis: integer feasibility.
MIP search method: dynamic search.
Parallel mode: deterministic, using up to 12 threads.
Root relaxation solution time = 0.02 sec. (15.39 ticks)

        Nodes                                         Cuts/
   Node  Left     Objective  IInf  Best Integer    Best Bound    ItCnt     Gap

      0     0        0.0000    59                      0.0000      194         
      0     0        0.0000    59                  Cliques: 2      227         
      0     0        0.0000    59                     Cuts: 9      286         
      0     0        0.0000    59                    Cuts: 43      437         
Detecting symmetries...
      0     2        0.0000    42                      0.0000      437         
Elapsed time = 4.89 sec. (1492.20 ticks, tree = 0.02 MB, solutions = 0)
    145    12        0.0000    84                      0.0000    10110         
    205     3    infeasible                            0.0000    19760         
    249     5        0.0000    59                      0.0000    24615         

Clique cuts applied:  28
Zero-half cuts applied:  26

Root node processing (before b&c):
  Real time             =    2.56 sec. (1491.46 ticks)
Parallel b&c, 12 threads:
  Real time             =   87.61 sec. (809.54 ticks)
  Sync time (average)   =   83.88 sec.
  Wait time (average)   =    0.00 sec.
                          ------------
Total (root+branch&cut) =   90.17 sec. (2301.01 ticks)
90.171000 
FALSE-modelo
 Salgo lazy
Dentro lazy
camion 0, TRUE-heu 0.000790
camion 1, FALSE-heu 0.001
Version identifier: 12.10.0.0 | 2019-11-26 | 843d4de2ae
CPXPARAM_Threads                                 12
CPXPARAM_MIP_Strategy_Probe                      -1
CPXPARAM_Emphasis_MIP                            1
Tried aggregator 2 times.
MIP Presolve eliminated 9105 rows and 34 columns.
MIP Presolve modified 1572 coefficients.
Aggregator did 2 substitutions.
Reduced MIP has 1129 rows, 365 columns, and 34126 nonzeros.
Reduced MIP has 365 binaries, 0 generals, 0 SOSs, and 0 indicators.
Presolve time = 0.41 sec. (427.89 ticks)
Tried aggregator 1 time.
Detecting symmetries...
Reduced MIP has 1129 rows, 365 columns, and 34126 nonzeros.
Reduced MIP has 365 binaries, 0 generals, 0 SOSs, and 0 indicators.
Presolve time = 0.05 sec. (48.76 ticks)
Clique table members: 1316.
MIP emphasis: integer feasibility.
MIP search method: dynamic search.
Parallel mode: deterministic, using up to 12 threads.
Root relaxation solution time = 0.05 sec. (15.39 ticks)

        Nodes                                         Cuts/
   Node  Left     Objective  IInf  Best Integer    Best Bound    ItCnt     Gap

      0     0        0.0000    59                      0.0000      194         
      0     0        0.0000    59                  Cliques: 2      227         
      0     0        0.0000    59                     Cuts: 9      286         
      0     0        0.0000    59                    Cuts: 43      437         
Detecting symmetries...
      0     2        0.0000    42                      0.0000      437         
Elapsed time = 4.64 sec. (1492.20 ticks, tree = 0.02 MB, solutions = 0)
    145    12        0.0000    84                      0.0000    10110         
    205     3    infeasible                            0.0000    19760         
    249     5        0.0000    59                      0.0000    24615         

Clique cuts applied:  28
Zero-half cuts applied:  26

Root node processing (before b&c):
  Real time             =    2.64 sec. (1491.46 ticks)
Parallel b&c, 12 threads:
  Real time             =   90.02 sec. (809.54 ticks)
  Sync time (average)   =   86.66 sec.
  Wait time (average)   =    0.00 sec.
                          ------------
Total (root+branch&cut) =   92.66 sec. (2301.01 ticks)
92.672000 
FALSE-modelo
 Salgo lazy
Dentro lazy
camion 0, TRUE-heu 0.000845
camion 1, FALSE-heu 0.001
Version identifier: 12.10.0.0 | 2019-11-26 | 843d4de2ae
CPXPARAM_Threads                                 12
CPXPARAM_MIP_Strategy_Probe                      -1
CPXPARAM_Emphasis_MIP                            1
Tried aggregator 2 times.
MIP Presolve eliminated 9105 rows and 34 columns.
MIP Presolve modified 1572 coefficients.
Aggregator did 2 substitutions.
Reduced MIP has 1129 rows, 365 columns, and 34126 nonzeros.
Reduced MIP has 365 binaries, 0 generals, 0 SOSs, and 0 indicators.
Presolve time = 0.42 sec. (427.89 ticks)
Tried aggregator 1 time.
Detecting symmetries...
Reduced MIP has 1129 rows, 365 columns, and 34126 nonzeros.
Reduced MIP has 365 binaries, 0 generals, 0 SOSs, and 0 indicators.
Presolve time = 0.05 sec. (48.76 ticks)
Clique table members: 1316.
MIP emphasis: integer feasibility.
MIP search method: dynamic search.
Parallel mode: deterministic, using up to 12 threads.
Root relaxation solution time = 0.03 sec. (15.39 ticks)

        Nodes                                         Cuts/
   Node  Left     Objective  IInf  Best Integer    Best Bound    ItCnt     Gap

      0     0        0.0000    59                      0.0000      194         
      0     0        0.0000    59                  Cliques: 2      227         
      0     0        0.0000    59                     Cuts: 9      286         
      0     0        0.0000    59                    Cuts: 43      437         
Detecting symmetries...
      0     2        0.0000    42                      0.0000      437         
Elapsed time = 4.33 sec. (1492.20 ticks, tree = 0.02 MB, solutions = 0)
    145    12        0.0000    84                      0.0000    10110         
    205     3    infeasible                            0.0000    19760         
    249     5        0.0000    59                      0.0000    24615         

Clique cuts applied:  28
Zero-half cuts applied:  26

Root node processing (before b&c):
  Real time             =    2.84 sec. (1491.46 ticks)
Parallel b&c, 12 threads:
  Real time             =   90.89 sec. (809.54 ticks)
  Sync time (average)   =   87.61 sec.
  Wait time (average)   =    0.00 sec.
                          ------------
Total (root+branch&cut) =   93.73 sec. (2301.01 ticks)
93.734000 
FALSE-modelo
 Salgo lazy
Dentro lazy
camion 0, TRUE-heu 0.000898
camion 1, FALSE-heu 0.001
Version identifier: 12.10.0.0 | 2019-11-26 | 843d4de2ae
CPXPARAM_Threads                                 12
CPXPARAM_MIP_Strategy_Probe                      -1
CPXPARAM_Emphasis_MIP                            1
Tried aggregator 2 times.
MIP Presolve eliminated 9105 rows and 34 columns.
MIP Presolve modified 1572 coefficients.
Aggregator did 2 substitutions.
Reduced MIP has 1129 rows, 365 columns, and 34126 nonzeros.
Reduced MIP has 365 binaries, 0 generals, 0 SOSs, and 0 indicators.
Presolve time = 0.41 sec. (427.89 ticks)
Tried aggregator 1 time.
Detecting symmetries...
Reduced MIP has 1129 rows, 365 columns, and 34126 nonzeros.
Reduced MIP has 365 binaries, 0 generals, 0 SOSs, and 0 indicators.
Presolve time = 0.06 sec. (48.76 ticks)
Clique table members: 1316.
MIP emphasis: integer feasibility.
MIP search method: dynamic search.
Parallel mode: deterministic, using up to 12 threads.
Root relaxation solution time = 0.06 sec. (15.39 ticks)

        Nodes                                         Cuts/
   Node  Left     Objective  IInf  Best Integer    Best Bound    ItCnt     Gap

      0     0        0.0000    59                      0.0000      194         
      0     0        0.0000    59                  Cliques: 2      227         
      0     0        0.0000    59                     Cuts: 9      286         
      0     0        0.0000    59                    Cuts: 43      437         
Detecting symmetries...
      0     2        0.0000    42                      0.0000      437         
Elapsed time = 4.30 sec. (1492.20 ticks, tree = 0.02 MB, solutions = 0)
    145    12        0.0000    84                      0.0000    10110         
    205     3    infeasible                            0.0000    19760         
    249     5        0.0000    59                      0.0000    24615         

Clique cuts applied:  28
Zero-half cuts applied:  26

Root node processing (before b&c):
  Real time             =    2.69 sec. (1491.46 ticks)
Parallel b&c, 12 threads:
  Real time             =   86.30 sec. (809.54 ticks)
  Sync time (average)   =   83.15 sec.
  Wait time (average)   =    0.00 sec.
                          ------------
Total (root+branch&cut) =   88.98 sec. (2301.01 ticks)
88.985000 
FALSE-modelo
 Salgo lazy
*    88+   14                         6356.0000     6356.0000             0.00%
Dentro lazy
camion 0, TRUE-heu 0.001525
camion 1, FALSE-heu 0.002
Version identifier: 12.10.0.0 | 2019-11-26 | 843d4de2ae
CPXPARAM_Threads                                 12
CPXPARAM_MIP_Strategy_Probe                      -1
CPXPARAM_Emphasis_MIP                            1
Tried aggregator 2 times.
MIP Presolve eliminated 9105 rows and 34 columns.
MIP Presolve modified 1572 coefficients.
Aggregator did 2 substitutions.
Reduced MIP has 1129 rows, 365 columns, and 34126 nonzeros.
Reduced MIP has 365 binaries, 0 generals, 0 SOSs, and 0 indicators.
Presolve time = 0.41 sec. (427.89 ticks)
Tried aggregator 1 time.
Detecting symmetries...
Reduced MIP has 1129 rows, 365 columns, and 34126 nonzeros.
Reduced MIP has 365 binaries, 0 generals, 0 SOSs, and 0 indicators.
Presolve time = 0.06 sec. (48.76 ticks)
Clique table members: 1316.
MIP emphasis: integer feasibility.
MIP search method: dynamic search.
Parallel mode: deterministic, using up to 12 threads.
Root relaxation solution time = 0.03 sec. (15.39 ticks)

        Nodes                                         Cuts/
   Node  Left     Objective  IInf  Best Integer    Best Bound    ItCnt     Gap

      0     0        0.0000    59                      0.0000      194         
      0     0        0.0000    59                  Cliques: 2      227         
      0     0        0.0000    59                     Cuts: 9      286         
      0     0        0.0000    59                    Cuts: 43      437         
Detecting symmetries...
      0     2        0.0000    42                      0.0000      437         
Elapsed time = 4.31 sec. (1492.20 ticks, tree = 0.02 MB, solutions = 0)
    145    12        0.0000    84                      0.0000    10110         
    205     3    infeasible                            0.0000    19760         
    249     5        0.0000    59                      0.0000    24615         

Clique cuts applied:  28
Zero-half cuts applied:  26

Root node processing (before b&c):
  Real time             =    2.31 sec. (1491.46 ticks)
Parallel b&c, 12 threads:
  Real time             =   85.58 sec. (809.54 ticks)
  Sync time (average)   =   82.16 sec.
  Wait time (average)   =    0.00 sec.
                          ------------
Total (root+branch&cut) =   87.89 sec. (2301.01 ticks)
87.907000 
FALSE-modelo
 Salgo lazy
Dentro lazy
camion 0, TRUE-heu 0.001584
camion 1, FALSE-heu 0.002
Version identifier: 12.10.0.0 | 2019-11-26 | 843d4de2ae
CPXPARAM_Threads                                 12
CPXPARAM_MIP_Strategy_Probe                      -1
CPXPARAM_Emphasis_MIP                            1
Tried aggregator 2 times.
MIP Presolve eliminated 9105 rows and 34 columns.
MIP Presolve modified 1572 coefficients.
Aggregator did 2 substitutions.
Reduced MIP has 1129 rows, 365 columns, and 34126 nonzeros.
Reduced MIP has 365 binaries, 0 generals, 0 SOSs, and 0 indicators.
Presolve time = 0.44 sec. (427.89 ticks)
Tried aggregator 1 time.
Detecting symmetries...
Reduced MIP has 1129 rows, 365 columns, and 34126 nonzeros.
Reduced MIP has 365 binaries, 0 generals, 0 SOSs, and 0 indicators.
Presolve time = 0.06 sec. (48.76 ticks)
Clique table members: 1316.
MIP emphasis: integer feasibility.
MIP search method: dynamic search.
Parallel mode: deterministic, using up to 12 threads.
Root relaxation solution time = 0.03 sec. (15.39 ticks)

        Nodes                                         Cuts/
   Node  Left     Objective  IInf  Best Integer    Best Bound    ItCnt     Gap

      0     0        0.0000    59                      0.0000      194         
      0     0        0.0000    59                  Cliques: 2      227         
      0     0        0.0000    59                     Cuts: 9      286         
      0     0        0.0000    59                    Cuts: 43      437         
Detecting symmetries...
      0     2        0.0000    42                      0.0000      437         
Elapsed time = 4.47 sec. (1492.20 ticks, tree = 0.02 MB, solutions = 0)
    145    12        0.0000    84                      0.0000    10110         
    205     3    infeasible                            0.0000    19760         
    249     5        0.0000    59                      0.0000    24615         

Clique cuts applied:  28
Zero-half cuts applied:  26

Root node processing (before b&c):
  Real time             =    2.38 sec. (1491.46 ticks)
Parallel b&c, 12 threads:
  Real time             =   91.08 sec. (809.54 ticks)
  Sync time (average)   =   87.41 sec.
  Wait time (average)   =    0.00 sec.
                          ------------
Total (root+branch&cut) =   93.45 sec. (2301.01 ticks)
93.454000 
FALSE-modelo
 Salgo lazy
Dentro lazy
camion 0, TRUE-heu 0.001635
camion 1, FALSE-heu 0.002
Version identifier: 12.10.0.0 | 2019-11-26 | 843d4de2ae
CPXPARAM_Threads                                 12
CPXPARAM_MIP_Strategy_Probe                      -1
CPXPARAM_Emphasis_MIP                            1
Tried aggregator 2 times.
MIP Presolve eliminated 9105 rows and 34 columns.
MIP Presolve modified 1572 coefficients.
Aggregator did 2 substitutions.
Reduced MIP has 1129 rows, 365 columns, and 34126 nonzeros.
Reduced MIP has 365 binaries, 0 generals, 0 SOSs, and 0 indicators.
Presolve time = 0.41 sec. (427.89 ticks)
Tried aggregator 1 time.
Detecting symmetries...
Reduced MIP has 1129 rows, 365 columns, and 34126 nonzeros.
Reduced MIP has 365 binaries, 0 generals, 0 SOSs, and 0 indicators.
Presolve time = 0.05 sec. (48.76 ticks)
Clique table members: 1316.
MIP emphasis: integer feasibility.
MIP search method: dynamic search.
Parallel mode: deterministic, using up to 12 threads.
Root relaxation solution time = 0.02 sec. (15.39 ticks)

        Nodes                                         Cuts/
   Node  Left     Objective  IInf  Best Integer    Best Bound    ItCnt     Gap

      0     0        0.0000    59                      0.0000      194         
      0     0        0.0000    59                  Cliques: 2      227         
      0     0        0.0000    59                     Cuts: 9      286         
      0     0        0.0000    59                    Cuts: 43      437         
Detecting symmetries...
      0     2        0.0000    42                      0.0000      437         
Elapsed time = 4.39 sec. (1492.20 ticks, tree = 0.02 MB, solutions = 0)
    145    12        0.0000    84                      0.0000    10110         
    205     3    infeasible                            0.0000    19760         
    249     5        0.0000    59                      0.0000    24615         

Clique cuts applied:  28
Zero-half cuts applied:  26

Root node processing (before b&c):
  Real time             =    2.44 sec. (1491.46 ticks)
Parallel b&c, 12 threads:
  Real time             =   87.81 sec. (809.54 ticks)
  Sync time (average)   =   84.23 sec.
  Wait time (average)   =    0.00 sec.
                          ------------
Total (root+branch&cut) =   90.25 sec. (2301.01 ticks)
90.250000 
FALSE-modelo
 Salgo lazy
Dentro lazy
camion 0, TRUE-heu 0.001727
camion 1, FALSE-heu 0.002
Version identifier: 12.10.0.0 | 2019-11-26 | 843d4de2ae
CPXPARAM_Threads                                 12
CPXPARAM_MIP_Strategy_Probe                      -1
CPXPARAM_Emphasis_MIP                            1
Tried aggregator 2 times.
MIP Presolve eliminated 9105 rows and 34 columns.
MIP Presolve modified 1572 coefficients.
Aggregator did 2 substitutions.
Reduced MIP has 1129 rows, 365 columns, and 34126 nonzeros.
Reduced MIP has 365 binaries, 0 generals, 0 SOSs, and 0 indicators.
Presolve time = 0.44 sec. (427.89 ticks)
Tried aggregator 1 time.
Detecting symmetries...
Reduced MIP has 1129 rows, 365 columns, and 34126 nonzeros.
Reduced MIP has 365 binaries, 0 generals, 0 SOSs, and 0 indicators.
Presolve time = 0.05 sec. (48.76 ticks)
Clique table members: 1316.
MIP emphasis: integer feasibility.
MIP search method: dynamic search.
Parallel mode: deterministic, using up to 12 threads.
Root relaxation solution time = 0.03 sec. (15.39 ticks)

        Nodes                                         Cuts/
   Node  Left     Objective  IInf  Best Integer    Best Bound    ItCnt     Gap

      0     0        0.0000    59                      0.0000      194         
      0     0        0.0000    59                  Cliques: 2      227         
      0     0        0.0000    59                     Cuts: 9      286         
      0     0        0.0000    59                    Cuts: 43      437         
Detecting symmetries...
      0     2        0.0000    42                      0.0000      437         
Elapsed time = 4.91 sec. (1492.20 ticks, tree = 0.02 MB, solutions = 0)
    145    12        0.0000    84                      0.0000    10110         
    205     3    infeasible                            0.0000    19760         
    249     5        0.0000    59                      0.0000    24615         

Clique cuts applied:  28
Zero-half cuts applied:  26

Root node processing (before b&c):
  Real time             =    2.72 sec. (1491.46 ticks)
Parallel b&c, 12 threads:
  Real time             =   89.42 sec. (809.54 ticks)
  Sync time (average)   =   85.77 sec.
  Wait time (average)   =    0.00 sec.
                          ------------
Total (root+branch&cut) =   92.14 sec. (2301.01 ticks)
92.141000 
FALSE-modelo
 Salgo lazy
Dentro lazy
camion 0, TRUE-heu 0.001783
camion 1, FALSE-heu 0.002
Version identifier: 12.10.0.0 | 2019-11-26 | 843d4de2ae
CPXPARAM_Threads                                 12
CPXPARAM_MIP_Strategy_Probe                      -1
CPXPARAM_Emphasis_MIP                            1
Tried aggregator 2 times.
MIP Presolve eliminated 9105 rows and 34 columns.
MIP Presolve modified 1572 coefficients.
Aggregator did 2 substitutions.
Reduced MIP has 1129 rows, 365 columns, and 34126 nonzeros.
Reduced MIP has 365 binaries, 0 generals, 0 SOSs, and 0 indicators.
Presolve time = 0.42 sec. (427.89 ticks)
Tried aggregator 1 time.
Detecting symmetries...
Reduced MIP has 1129 rows, 365 columns, and 34126 nonzeros.
Reduced MIP has 365 binaries, 0 generals, 0 SOSs, and 0 indicators.
Presolve time = 0.06 sec. (48.76 ticks)
Clique table members: 1316.
MIP emphasis: integer feasibility.
MIP search method: dynamic search.
Parallel mode: deterministic, using up to 12 threads.
Root relaxation solution time = 0.05 sec. (15.39 ticks)

        Nodes                                         Cuts/
   Node  Left     Objective  IInf  Best Integer    Best Bound    ItCnt     Gap

      0     0        0.0000    59                      0.0000      194         
      0     0        0.0000    59                  Cliques: 2      227         
      0     0        0.0000    59                     Cuts: 9      286         
      0     0        0.0000    59                    Cuts: 43      437         
Detecting symmetries...
      0     2        0.0000    42                      0.0000      437         
Elapsed time = 3.28 sec. (1492.20 ticks, tree = 0.02 MB, solutions = 0)
    145    12        0.0000    84                      0.0000    10110         
    205     3    infeasible                            0.0000    19760         
    249     5        0.0000    59                      0.0000    24615         

Clique cuts applied:  28
Zero-half cuts applied:  26

Root node processing (before b&c):
  Real time             =    2.06 sec. (1491.46 ticks)
Parallel b&c, 12 threads:
  Real time             =   69.45 sec. (809.54 ticks)
  Sync time (average)   =   66.81 sec.
  Wait time (average)   =    0.00 sec.
                          ------------
Total (root+branch&cut) =   71.52 sec. (2301.01 ticks)
71.516000 
FALSE-modelo
 Salgo lazy
Dentro lazy
camion 0, TRUE-heu 0.001838
camion 1, FALSE-heu 0.002
Version identifier: 12.10.0.0 | 2019-11-26 | 843d4de2ae
CPXPARAM_Threads                                 12
CPXPARAM_MIP_Strategy_Probe                      -1
CPXPARAM_Emphasis_MIP                            1
Tried aggregator 2 times.
MIP Presolve eliminated 9105 rows and 34 columns.
MIP Presolve modified 1572 coefficients.
Aggregator did 2 substitutions.
Reduced MIP has 1129 rows, 365 columns, and 34126 nonzeros.
Reduced MIP has 365 binaries, 0 generals, 0 SOSs, and 0 indicators.
Presolve time = 0.44 sec. (427.89 ticks)
Tried aggregator 1 time.
Detecting symmetries...
Reduced MIP has 1129 rows, 365 columns, and 34126 nonzeros.
Reduced MIP has 365 binaries, 0 generals, 0 SOSs, and 0 indicators.
Presolve time = 0.06 sec. (48.76 ticks)
Clique table members: 1316.
MIP emphasis: integer feasibility.
MIP search method: dynamic search.
Parallel mode: deterministic, using up to 12 threads.
Root relaxation solution time = 0.05 sec. (15.39 ticks)

        Nodes                                         Cuts/
   Node  Left     Objective  IInf  Best Integer    Best Bound    ItCnt     Gap

      0     0        0.0000    59                      0.0000      194         
      0     0        0.0000    59                  Cliques: 2      227         
      0     0        0.0000    59                     Cuts: 9      286         
      0     0        0.0000    59                    Cuts: 43      437         
Detecting symmetries...
      0     2        0.0000    42                      0.0000      437         
Elapsed time = 3.36 sec. (1492.20 ticks, tree = 0.02 MB, solutions = 0)
    145    12        0.0000    84                      0.0000    10110         
    205     3    infeasible                            0.0000    19760         
    249     5        0.0000    59                      0.0000    24615         

Clique cuts applied:  28
Zero-half cuts applied:  26

Root node processing (before b&c):
  Real time             =    2.19 sec. (1491.46 ticks)
Parallel b&c, 12 threads:
  Real time             =   67.13 sec. (809.54 ticks)
  Sync time (average)   =   64.51 sec.
  Wait time (average)   =    0.00 sec.
                          ------------
Total (root+branch&cut) =   69.31 sec. (2301.01 ticks)
69.313000 
FALSE-modelo
 Salgo lazy
Dentro lazy
camion 0, TRUE-heu 0.001894
camion 1, FALSE-heu 0.002
Version identifier: 12.10.0.0 | 2019-11-26 | 843d4de2ae
CPXPARAM_Threads                                 12
CPXPARAM_MIP_Strategy_Probe                      -1
CPXPARAM_Emphasis_MIP                            1
Tried aggregator 2 times.
MIP Presolve eliminated 9105 rows and 34 columns.
MIP Presolve modified 1572 coefficients.
Aggregator did 2 substitutions.
Reduced MIP has 1129 rows, 365 columns, and 34126 nonzeros.
Reduced MIP has 365 binaries, 0 generals, 0 SOSs, and 0 indicators.
Presolve time = 0.47 sec. (427.89 ticks)
Tried aggregator 1 time.
Detecting symmetries...
Reduced MIP has 1129 rows, 365 columns, and 34126 nonzeros.
Reduced MIP has 365 binaries, 0 generals, 0 SOSs, and 0 indicators.
Presolve time = 0.06 sec. (48.76 ticks)
Clique table members: 1316.
MIP emphasis: integer feasibility.
MIP search method: dynamic search.
Parallel mode: deterministic, using up to 12 threads.
Root relaxation solution time = 0.03 sec. (15.39 ticks)

        Nodes                                         Cuts/
   Node  Left     Objective  IInf  Best Integer    Best Bound    ItCnt     Gap

      0     0        0.0000    59                      0.0000      194         
      0     0        0.0000    59                  Cliques: 2      227         
      0     0        0.0000    59                     Cuts: 9      286         
      0     0        0.0000    59                    Cuts: 43      437         
Detecting symmetries...
      0     2        0.0000    42                      0.0000      437         
Elapsed time = 3.98 sec. (1492.20 ticks, tree = 0.02 MB, solutions = 0)
    145    12        0.0000    84                      0.0000    10110         
    205     3    infeasible                            0.0000    19760         
    249     5        0.0000    59                      0.0000    24615         

Clique cuts applied:  28
Zero-half cuts applied:  26

Root node processing (before b&c):
  Real time             =    2.28 sec. (1491.46 ticks)
Parallel b&c, 12 threads:
  Real time             =   69.13 sec. (809.54 ticks)
  Sync time (average)   =   66.24 sec.
  Wait time (average)   =    0.00 sec.
                          ------------
Total (root+branch&cut) =   71.41 sec. (2301.01 ticks)
71.406000 
FALSE-modelo
 Salgo lazy

GUB cover cuts applied:  7
Cover cuts applied:  14
Flow cuts applied:  9
Mixed integer rounding cuts applied:  6
Zero-half cuts applied:  31
Lift and project cuts applied:  1
Gomory fractional cuts applied:  1
User cuts applied:  17

Root node processing (before b&c):
  Real time             =    1.52 sec. (343.07 ticks)
Parallel b&c, 8 threads:
  Real time             = 1624.45 sec. (206.14 ticks)
  Sync time (average)   =  200.88 sec.
  Wait time (average)   =    0.00 sec.
                          ------------
Total (root+branch&cut) = 1625.97 sec. (549.21 ticks)
1625.969000 
