GAP:; 0.00;  F.O:; 6475.00; Tiempo:;127.06; 
ROUTING 
X0;0;7;681.00 
X0;7;1;671.00 
X0;1;3;361.00 
X0;3;2;243.00 
X0;2;6;34.00 
X0;6;0;910.00 
ruta 0;2900.00 
X1;0;5;1531.00 
X1;5;10;206.00 
X1;10;4;255.00 
X1;4;9;538.00 
X1;9;8;184.00 
X1;8;0;861.00 
ruta 1;6475.00 
PACKING 
Z0 6 2 6 	 913.00 
Z0 6 0 7 	 922.00 
Z0 2 1 8 	 971.00 
Z0 3 2 9 	 937.00 
Z0 3 0 10 	 1095.00 
Z0 1 1 11 	 1029.00 
Z0 7 2 12 	 1106.00 
Z0 7 0 13 	 847.00 
Z0 6 1 23 	 1295.00 
Z0 2 2 24 	 873.00 
Z0 2 0 25 	 1078.00 
Z0 3 1 26 	 1049.00 
Z0 1 2 27 	 1127.00 
Z0 1 0 28 	 922.00 
Z0 7 1 29 	 1073.00 
truck weigth 0: 15237.00 axle 1: 5845.63 axle2: 9391.37 media kg/km:5.25
Z1 8 2 6 	 894.00 
Z1 8 0 7 	 1153.00 
Z1 9 1 8 	 860.00 
Z1 4 2 9 	 1063.00 
Z1 4 0 10 	 905.00 
Z1 10 1 11 	 1140.00 
Z1 5 2 12 	 1087.00 
Z1 5 0 13 	 1078.00 
Z1 8 1 23 	 927.00 
Z1 9 2 24 	 822.00 
Z1 9 0 25 	 722.00 
Z1 4 1 26 	 951.00 
Z1 10 2 27 	 1178.00 
Z1 10 0 28 	 1278.00 
Z1 5 1 29 	 705.00 
truck weigth 1: 14763.00 axle 1: 5572.91 axle2: 9190.09 media kg/km:4.13
