GAP:; 0.00;  F.O:; 6356.00; Tiempo:;13.22; 
ROUTING 
X0;0;3;987.00 
X0;3;1;361.00 
X0;1;7;671.00 
X0;7;0;681.00 
ruta 0;2700.00 
X1;0;8;861.00 
X1;8;6;80.00 
X1;6;2;34.00 
X1;2;9;151.00 
X1;9;4;538.00 
X1;4;10;255.00 
X1;10;5;206.00 
X1;5;0;1531.00 
ruta 1;6356.00 
PACKING 
Z0 7 0 13 	 2150.00 
Z0 1 1 14 	 2036.00 
Z0 3 0 15 	 2025.00 
Z0 1 2 30 	 1818.00 
Z0 1 0 31 	 1964.00 
truck weigth 0: 9993.00 axle 1: 820.28 axle2: 9172.72 media kg/km:3.70
Z1 10 0 6 	 2243.00 
Z1 4 0 7 	 1975.00 
Z1 2 0 8 	 2182.00 
Z1 2 2 9 	 1970.00 
Z1 8 0 10 	 1850.00 
Z1 5 0 22 	 2282.00 
Z1 9 0 23 	 2053.00 
Z1 9 1 24 	 1947.00 
Z1 2 1 25 	 2030.00 
Z1 6 0 26 	 1718.00 
truck weigth 1: 20250.00 axle 1: 10282.38 axle2: 9967.62 media kg/km:5.54
