Instances\Inst5P4Du_4.csvVersion identifier: 12.10.0.0 | 2019-11-26 | 843d4de2ae
CPXPARAM_Threads                                 8
CPXPARAM_MIP_Strategy_File                       3
CPXPARAM_MIP_Strategy_Probe                      -1
CPXPARAM_TimeLimit                               3600
Lazy constraint(s) or lazy constraint/branch callback is present.
    Disabling dual reductions (CPX_PARAM_REDUCE) in presolve.
    Disabling non-linear reductions (CPX_PARAM_PRELINEAR) in presolve.
    Disabling presolve reductions that prevent crushing forms.
         Disabling repeat represolve because of lazy constraint/incumbent callback.
Dentro lazy
camion 0, TRUE-heu 0.000032
camion 1, TRUE-heu 0.000058
camion 2, TRUE-heu 0.000082
camion 3, TRUE-heu 0.000108
camion 4, TRUE-heu 0.000128
Salgo lazy
1 of 1 MIP starts provided solutions.
MIP start 'm1' defined initial solution with objective 11974.0000.
Tried aggregator 1 time.
MIP Presolve eliminated 215 rows and 345 columns.
MIP Presolve modified 10079 coefficients.
Reduced MIP has 525 rows, 9585 columns, and 84886 nonzeros.
Reduced MIP has 9460 binaries, 0 generals, 0 SOSs, and 0 indicators.
Presolve time = 0.11 sec. (71.62 ticks)
Clique table members: 275.
MIP emphasis: balance optimality and feasibility.
MIP search method: traditional branch-and-cut.
Parallel mode: deterministic, using up to 8 threads.
Root relaxation solution time = 0.19 sec. (169.71 ticks)

        Nodes                                         Cuts/
   Node  Left     Objective  IInf  Best Integer    Best Bound    ItCnt     Gap         Variable B NodeID Parent  Depth

*     0+    0                        11974.0000        0.0000           100.00%
      0     0     3851.1055   103    11974.0000     3851.1055       21   67.84%
      0     0     5025.6466   103    11974.0000      Cuts: 64     3062   58.03%
      0     0     5248.2163   103    11974.0000      Cuts: 71     4288   56.17%
      0     0     5546.1228   103    11974.0000     Cuts: 124     5479   53.68%
Dentro lazy
camion 0, TRUE-heu 0.000165
camion 1, TRUE-heu 0.000187
camion 2, TRUE-heu 0.000209
camion 3, TRUE-heu 0.000226
Salgo lazy
*     0+    0                        11099.0000     5546.1228            50.03%
Dentro lazy
camion 0, FALSE-heu 0.000
Version identifier: 12.10.0.0 | 2019-11-26 | 843d4de2ae
CPXPARAM_Threads                                 12
CPXPARAM_MIP_Strategy_Probe                      -1
CPXPARAM_Emphasis_MIP                            1
Tried aggregator 2 times.
MIP Presolve eliminated 1005 rows and 34 columns.
MIP Presolve modified 2032 coefficients.
Aggregator did 2 substitutions.
Reduced MIP has 599 rows, 813 columns, and 22524 nonzeros.
Reduced MIP has 813 binaries, 0 generals, 0 SOSs, and 0 indicators.
Presolve time = 0.14 sec. (141.65 ticks)
Tried aggregator 1 time.
Detecting symmetries...
Reduced MIP has 599 rows, 813 columns, and 22524 nonzeros.
Reduced MIP has 813 binaries, 0 generals, 0 SOSs, and 0 indicators.
Presolve time = 0.03 sec. (31.84 ticks)
Clique table members: 537.
MIP emphasis: integer feasibility.
MIP search method: dynamic search.
Parallel mode: deterministic, using up to 12 threads.
Root relaxation solution time = 0.01 sec. (9.61 ticks)

        Nodes                                         Cuts/
   Node  Left     Objective  IInf  Best Integer    Best Bound    ItCnt     Gap

      0     0        0.0000    84                      0.0000      190         
Detecting symmetries...
      0     2        0.0000    20                      0.0000      190         
Elapsed time = 2.64 sec. (367.40 ticks, tree = 0.02 MB, solutions = 0)
*   145    48      integral     0        0.0000        0.0000     7919    0.00%

Clique cuts applied:  1

Root node processing (before b&c):
  Real time             =    0.64 sec. (366.95 ticks)
Parallel b&c, 12 threads:
  Real time             =    7.81 sec. (60.08 ticks)
  Sync time (average)   =    6.36 sec.
  Wait time (average)   =    0.00 sec.
                          ------------
Total (root+branch&cut) =    8.45 sec. (427.04 ticks)
8.453000 
TRUE-modelo
camion 2, TRUE-heu 0.000313
camion 4, FALSE-heu 0.000
Version identifier: 12.10.0.0 | 2019-11-26 | 843d4de2ae
CPXPARAM_Threads                                 12
CPXPARAM_MIP_Strategy_Probe                      -1
CPXPARAM_Emphasis_MIP                            1
Tried aggregator 2 times.
MIP Presolve eliminated 1976 rows and 34 columns.
MIP Presolve modified 1753 coefficients.
Aggregator did 2 substitutions.
Reduced MIP has 1056 rows, 461 columns, and 22156 nonzeros.
Reduced MIP has 461 binaries, 0 generals, 0 SOSs, and 0 indicators.
Presolve time = 0.14 sec. (139.21 ticks)
Tried aggregator 1 time.
Detecting symmetries...
Reduced MIP has 1056 rows, 461 columns, and 22156 nonzeros.
Reduced MIP has 461 binaries, 0 generals, 0 SOSs, and 0 indicators.
Presolve time = 0.05 sec. (33.51 ticks)
Clique table members: 994.
MIP emphasis: integer feasibility.
MIP search method: dynamic search.
Parallel mode: deterministic, using up to 12 threads.
Root relaxation solution time = 0.01 sec. (9.47 ticks)

        Nodes                                         Cuts/
   Node  Left     Objective  IInf  Best Integer    Best Bound    ItCnt     Gap

      0     0        0.0000    61                      0.0000      123         
      0     0        0.0000    61                     Cuts: 6      191         
      0     0        0.0000    61                    Cuts: 51      306         
*     0+    0                            0.0000        0.0000             0.00%
      0     0        cutoff              0.0000        0.0000      380    0.00%
Elapsed time = 1.09 sec. (648.47 ticks, tree = 0.01 MB, solutions = 1)

Clique cuts applied:  7
Zero-half cuts applied:  13
Gomory fractional cuts applied:  1

Root node processing (before b&c):
  Real time             =    1.09 sec. (648.55 ticks)
Parallel b&c, 12 threads:
  Real time             =    0.00 sec. (0.00 ticks)
  Sync time (average)   =    0.00 sec.
  Wait time (average)   =    0.00 sec.
                          ------------
Total (root+branch&cut) =    1.09 sec. (648.55 ticks)
1.109000 
TRUE-modelo
Salgo lazy
*     0+    0                        10285.0000     5546.1228            46.08%
Dentro lazy
camion 0, FALSE-heu 0.000
Version identifier: 12.10.0.0 | 2019-11-26 | 843d4de2ae
CPXPARAM_Threads                                 12
CPXPARAM_MIP_Strategy_Probe                      -1
CPXPARAM_Emphasis_MIP                            1
Tried aggregator 2 times.
MIP Presolve eliminated 1005 rows and 34 columns.
MIP Presolve modified 2032 coefficients.
Aggregator did 2 substitutions.
Reduced MIP has 599 rows, 813 columns, and 22524 nonzeros.
Reduced MIP has 813 binaries, 0 generals, 0 SOSs, and 0 indicators.
Presolve time = 0.16 sec. (141.65 ticks)
Tried aggregator 1 time.
Detecting symmetries...
Reduced MIP has 599 rows, 813 columns, and 22524 nonzeros.
Reduced MIP has 813 binaries, 0 generals, 0 SOSs, and 0 indicators.
Presolve time = 0.05 sec. (31.84 ticks)
Clique table members: 537.
MIP emphasis: integer feasibility.
MIP search method: dynamic search.
Parallel mode: deterministic, using up to 12 threads.
Root relaxation solution time = 0.02 sec. (10.42 ticks)

        Nodes                                         Cuts/
   Node  Left     Objective  IInf  Best Integer    Best Bound    ItCnt     Gap

      0     0        0.0000    85                      0.0000      204         
      0     0        0.0000    85                  Cliques: 3      213         
      0     0        0.0000    85                    Cuts: 36      279         
*     0+    0                            0.0000        0.0000             0.00%
      0     0        cutoff              0.0000        0.0000      279    0.00%
Elapsed time = 1.03 sec. (577.94 ticks, tree = 0.01 MB, solutions = 1)

Clique cuts applied:  2
Zero-half cuts applied:  1
Gomory fractional cuts applied:  1

Root node processing (before b&c):
  Real time             =    1.03 sec. (578.03 ticks)
Parallel b&c, 12 threads:
  Real time             =    0.00 sec. (0.00 ticks)
  Sync time (average)   =    0.00 sec.
  Wait time (average)   =    0.00 sec.
                          ------------
Total (root+branch&cut) =    1.03 sec. (578.03 ticks)
1.032000 
TRUE-modelo
camion 2, FALSE-heu 0.000
Version identifier: 12.10.0.0 | 2019-11-26 | 843d4de2ae
CPXPARAM_Threads                                 12
CPXPARAM_MIP_Strategy_Probe                      -1
CPXPARAM_Emphasis_MIP                            1
Tried aggregator 2 times.
MIP Presolve eliminated 45 rows and 34 columns.
MIP Presolve modified 1285 coefficients.
Aggregator did 2 substitutions.
Reduced MIP has 595 rows, 685 columns, and 14665 nonzeros.
Reduced MIP has 685 binaries, 0 generals, 0 SOSs, and 0 indicators.
Presolve time = 0.03 sec. (23.67 ticks)
Tried aggregator 1 time.
Detecting symmetries...
Reduced MIP has 595 rows, 685 columns, and 14665 nonzeros.
Reduced MIP has 685 binaries, 0 generals, 0 SOSs, and 0 indicators.
Presolve time = 0.02 sec. (14.92 ticks)
Clique table members: 533.
MIP emphasis: integer feasibility.
MIP search method: dynamic search.
Parallel mode: deterministic, using up to 12 threads.
Root relaxation solution time = 0.02 sec. (7.14 ticks)

        Nodes                                         Cuts/
   Node  Left     Objective  IInf  Best Integer    Best Bound    ItCnt     Gap

      0     0        0.0000    71                      0.0000      156         
*     0+    0                            0.0000        0.0000             0.00%
      0     0        cutoff              0.0000        0.0000      231    0.00%
Elapsed time = 0.53 sec. (265.19 ticks, tree = 0.01 MB, solutions = 1)

Clique cuts applied:  10

Root node processing (before b&c):
  Real time             =    0.53 sec. (265.26 ticks)
Parallel b&c, 12 threads:
  Real time             =    0.00 sec. (0.00 ticks)
  Sync time (average)   =    0.00 sec.
  Wait time (average)   =    0.00 sec.
                          ------------
Total (root+branch&cut) =    0.53 sec. (265.26 ticks)
0.531000 
TRUE-modelo
camion 4, TRUE-heu 0.000411
Salgo lazy
*     0+    0                         9275.0000     5546.1228            40.20%
Dentro lazy
camion 0, FALSE-heu 0.000
Version identifier: 12.10.0.0 | 2019-11-26 | 843d4de2ae
CPXPARAM_Threads                                 12
CPXPARAM_MIP_Strategy_Probe                      -1
CPXPARAM_Emphasis_MIP                            1
Tried aggregator 2 times.
MIP Presolve eliminated 1524 rows and 34 columns.
MIP Presolve modified 2876 coefficients.
Aggregator did 2 substitutions.
Reduced MIP has 1517 rows, 781 columns, and 37986 nonzeros.
Reduced MIP has 781 binaries, 0 generals, 0 SOSs, and 0 indicators.
Presolve time = 0.17 sec. (179.76 ticks)
Tried aggregator 1 time.
Detecting symmetries...
Reduced MIP has 1517 rows, 781 columns, and 37986 nonzeros.
Reduced MIP has 781 binaries, 0 generals, 0 SOSs, and 0 indicators.
Presolve time = 0.06 sec. (47.60 ticks)
Clique table members: 1455.
MIP emphasis: integer feasibility.
MIP search method: dynamic search.
Parallel mode: deterministic, using up to 12 threads.
Root relaxation solution time = 0.05 sec. (26.36 ticks)

        Nodes                                         Cuts/
   Node  Left     Objective  IInf  Best Integer    Best Bound    ItCnt     Gap

      0     0        0.0000    98                      0.0000      279         
      0     0        0.0000    98                  Cliques: 6      360         
      0     0        0.0000    98                    Cuts: 36      466         
      0     0        0.0000    98                  Cliques: 2      540         
Detecting symmetries...
      0     2        0.0000    43                      0.0000      540         
Elapsed time = 3.08 sec. (1037.90 ticks, tree = 0.02 MB, solutions = 0)
*    40    13      integral     0        0.0000        0.0000     1438    0.00%

Clique cuts applied:  8
Cover cuts applied:  1
Zero-half cuts applied:  1
Gomory fractional cuts applied:  1

Root node processing (before b&c):
  Real time             =    1.41 sec. (1036.89 ticks)
Parallel b&c, 12 threads:
  Real time             =    5.72 sec. (56.98 ticks)
  Sync time (average)   =    4.51 sec.
  Wait time (average)   =    0.00 sec.
                          ------------
Total (root+branch&cut) =    7.13 sec. (1093.88 ticks)
7.141000 
TRUE-modelo
camion 2, TRUE-heu 0.000461
camion 4, FALSE-heu 0.000
Version identifier: 12.10.0.0 | 2019-11-26 | 843d4de2ae
CPXPARAM_Threads                                 12
CPXPARAM_MIP_Strategy_Probe                      -1
CPXPARAM_Emphasis_MIP                            1
Tried aggregator 2 times.
MIP Presolve eliminated 45 rows and 34 columns.
MIP Presolve modified 1285 coefficients.
Aggregator did 2 substitutions.
Reduced MIP has 595 rows, 685 columns, and 14665 nonzeros.
Reduced MIP has 685 binaries, 0 generals, 0 SOSs, and 0 indicators.
Presolve time = 0.03 sec. (23.67 ticks)
Tried aggregator 1 time.
Detecting symmetries...
Reduced MIP has 595 rows, 685 columns, and 14665 nonzeros.
Reduced MIP has 685 binaries, 0 generals, 0 SOSs, and 0 indicators.
Presolve time = 0.00 sec. (14.92 ticks)
Clique table members: 533.
MIP emphasis: integer feasibility.
MIP search method: dynamic search.
Parallel mode: deterministic, using up to 12 threads.
Root relaxation solution time = 0.02 sec. (5.79 ticks)

        Nodes                                         Cuts/
   Node  Left     Objective  IInf  Best Integer    Best Bound    ItCnt     Gap

      0     0        0.0000    72                      0.0000      129         
*     0+    0                            0.0000        0.0000             0.00%
      0     0        cutoff              0.0000        0.0000      226    0.00%
Elapsed time = 0.80 sec. (335.17 ticks, tree = 0.01 MB, solutions = 1)

Clique cuts applied:  13
Zero-half cuts applied:  1

Root node processing (before b&c):
  Real time             =    0.81 sec. (335.24 ticks)
Parallel b&c, 12 threads:
  Real time             =    0.00 sec. (0.00 ticks)
  Sync time (average)   =    0.00 sec.
  Wait time (average)   =    0.00 sec.
                          ------------
Total (root+branch&cut) =    0.81 sec. (335.24 ticks)
0.813000 
TRUE-modelo
Salgo lazy
*     0+    0                         9115.0000     5546.1228            39.15%
Dentro lazy
camion 0, FALSE-heu 0.001
Version identifier: 12.10.0.0 | 2019-11-26 | 843d4de2ae
CPXPARAM_Threads                                 12
CPXPARAM_MIP_Strategy_Probe                      -1
CPXPARAM_Emphasis_MIP                            1
Tried aggregator 2 times.
MIP Presolve eliminated 45 rows and 34 columns.
MIP Presolve modified 1413 coefficients.
Aggregator did 2 substitutions.
Reduced MIP has 597 rows, 749 columns, and 16121 nonzeros.
Reduced MIP has 749 binaries, 0 generals, 0 SOSs, and 0 indicators.
Presolve time = 0.03 sec. (25.28 ticks)
Tried aggregator 1 time.
Detecting symmetries...
Reduced MIP has 597 rows, 749 columns, and 16121 nonzeros.
Reduced MIP has 749 binaries, 0 generals, 0 SOSs, and 0 indicators.
Presolve time = 0.02 sec. (15.76 ticks)
Clique table members: 535.
MIP emphasis: integer feasibility.
MIP search method: dynamic search.
Parallel mode: deterministic, using up to 12 threads.
Root relaxation solution time = 0.02 sec. (6.41 ticks)

        Nodes                                         Cuts/
   Node  Left     Objective  IInf  Best Integer    Best Bound    ItCnt     Gap

      0     0        0.0000    83                      0.0000      138         
      0     0        0.0000    83                    Cuts: 36      247         
*     0+    0                            0.0000        0.0000             0.00%
      0     0        cutoff              0.0000        0.0000      247    0.00%
Elapsed time = 0.61 sec. (394.65 ticks, tree = 0.01 MB, solutions = 1)

Clique cuts applied:  4

Root node processing (before b&c):
  Real time             =    0.61 sec. (394.72 ticks)
Parallel b&c, 12 threads:
  Real time             =    0.00 sec. (0.00 ticks)
  Sync time (average)   =    0.00 sec.
  Wait time (average)   =    0.00 sec.
                          ------------
Total (root+branch&cut) =    0.61 sec. (394.72 ticks)
0.609000 
TRUE-modelo
camion 1, FALSE-heu 0.001
Version identifier: 12.10.0.0 | 2019-11-26 | 843d4de2ae
CPXPARAM_Threads                                 12
CPXPARAM_MIP_Strategy_Probe                      -1
CPXPARAM_Emphasis_MIP                            1
Tried aggregator 2 times.
MIP Presolve eliminated 538 rows and 34 columns.
MIP Presolve modified 2103 coefficients.
Aggregator did 2 substitutions.
Reduced MIP has 1059 rows, 621 columns, and 21597 nonzeros.
Reduced MIP has 621 binaries, 0 generals, 0 SOSs, and 0 indicators.
Presolve time = 0.06 sec. (69.39 ticks)
Tried aggregator 1 time.
Detecting symmetries...
Reduced MIP has 1059 rows, 621 columns, and 21597 nonzeros.
Reduced MIP has 621 binaries, 0 generals, 0 SOSs, and 0 indicators.
Presolve time = 0.03 sec. (22.46 ticks)
Clique table members: 997.
MIP emphasis: integer feasibility.
MIP search method: dynamic search.
Parallel mode: deterministic, using up to 12 threads.
Root relaxation solution time = 0.03 sec. (11.46 ticks)

        Nodes                                         Cuts/
   Node  Left     Objective  IInf  Best Integer    Best Bound    ItCnt     Gap

      0     0        0.0000    53                      0.0000      170         
      0     0        0.0000    53                    Cuts: 15      308         
      0     0        0.0000    53                    Cuts: 19      385         
*     0+    0                            0.0000        0.0000             0.00%
      0     0        cutoff              0.0000        0.0000      385    0.00%
Elapsed time = 1.09 sec. (618.66 ticks, tree = 0.01 MB, solutions = 1)

Clique cuts applied:  7
Zero-half cuts applied:  4
Gomory fractional cuts applied:  1

Root node processing (before b&c):
  Real time             =    1.09 sec. (618.75 ticks)
Parallel b&c, 12 threads:
  Real time             =    0.00 sec. (0.00 ticks)
  Sync time (average)   =    0.00 sec.
  Wait time (average)   =    0.00 sec.
                          ------------
Total (root+branch&cut) =    1.09 sec. (618.75 ticks)
1.110000 
TRUE-modelo
camion 2, FALSE-heu 0.001
Version identifier: 12.10.0.0 | 2019-11-26 | 843d4de2ae
CPXPARAM_Threads                                 12
CPXPARAM_MIP_Strategy_Probe                      -1
CPXPARAM_Emphasis_MIP                            1
Tried aggregator 2 times.
MIP Presolve eliminated 45 rows and 34 columns.
MIP Presolve modified 1285 coefficients.
Aggregator did 2 substitutions.
Reduced MIP has 595 rows, 685 columns, and 14665 nonzeros.
Reduced MIP has 685 binaries, 0 generals, 0 SOSs, and 0 indicators.
Presolve time = 0.03 sec. (23.67 ticks)
Tried aggregator 1 time.
Detecting symmetries...
Reduced MIP has 595 rows, 685 columns, and 14665 nonzeros.
Reduced MIP has 685 binaries, 0 generals, 0 SOSs, and 0 indicators.
Presolve time = 0.02 sec. (14.92 ticks)
Clique table members: 533.
MIP emphasis: integer feasibility.
MIP search method: dynamic search.
Parallel mode: deterministic, using up to 12 threads.
Root relaxation solution time = 0.02 sec. (5.57 ticks)

        Nodes                                         Cuts/
   Node  Left     Objective  IInf  Best Integer    Best Bound    ItCnt     Gap

      0     0        0.0000    66                      0.0000      124         
*     0+    0                            0.0000        0.0000             0.00%
      0     0        cutoff              0.0000        0.0000      184    0.00%
Elapsed time = 0.45 sec. (234.21 ticks, tree = 0.01 MB, solutions = 1)

Clique cuts applied:  12

Root node processing (before b&c):
  Real time             =    0.45 sec. (234.28 ticks)
Parallel b&c, 12 threads:
  Real time             =    0.00 sec. (0.00 ticks)
  Sync time (average)   =    0.00 sec.
  Wait time (average)   =    0.00 sec.
                          ------------
Total (root+branch&cut) =    0.45 sec. (234.28 ticks)
0.469000 
TRUE-modelo
Salgo lazy
*     0+    0                         9101.0000     5546.1228            39.06%
      0     0  -1.00000e+75     0     9101.0000     5546.1228     5479   39.06%
      0     0     5647.4339   103     9101.0000      Cuts: 98     6321   37.95%
      0     0     5780.7582   103     9101.0000      Cuts: 91     7370   36.48%
      0     0     5824.5413   103     9101.0000      Cuts: 91     7956   36.00%
      0     0     5880.8615   103     9101.0000      Cuts: 77     8467   35.38%
      0     0     5977.5610   103     9101.0000      Cuts: 80    10386   34.32%
      0     0     6035.0633   103     9101.0000      Cuts: 75    10967   33.69%
      0     0     6071.8118   103     9101.0000      Cuts: 84    11224   33.28%
      0     0     6081.7322   103     9101.0000      Cuts: 67    11436   33.18%
      0     0     6105.7120   103     9101.0000      Cuts: 88    11626   32.91%
      0     0     6124.3603   103     9101.0000      Cuts: 54    11798   32.71%
      0     0     6136.4246   103     9101.0000      Cuts: 64    11992   32.57%
      0     0     6147.6996   103     9101.0000      Cuts: 70    12148   32.45%
      0     0     6155.9453   103     9101.0000      Cuts: 29    12299   32.36%
      0     0     6162.2943   103     9101.0000      Cuts: 41    12419   32.29%
      0     0     6166.4641   103     9101.0000      Cuts: 65    12566   32.24%
      0     0     6166.5430   103     9101.0000      Cuts: 31    12638   32.24%
      0     0     6166.5430   103     9101.0000   ZeroHalf: 4    12657   32.24%
      0     2     6166.5430   246     9101.0000     6166.5430    12657   32.24%                        0             0
Elapsed time = 35.19 sec. (10889.79 ticks, tree = 0.02 MB, solutions = 6)
      1     3     6237.9970   271     9101.0000     6211.5946    13254   31.75%              Y2 D      8      0      1
      3     4     6634.1683   204     9101.0000     6211.5946    13527   31.75%              Y3 U      6      8      2
     11     9     7118.6885   174     9101.0000     6520.2296    16382   28.36%              Y1 D     13      5      3
     25    22     8280.1442   101     9101.0000     6957.0523    19415   23.56%         X_3_0_2 D     27     19      6
     43    29     8145.4721    95     9101.0000     6957.0523    21034   23.56%         X_4_2_0 D     62     54      9
     91    58     8378.3318    32     9101.0000     6957.0523    23703   23.56%         X_0_4_1 D    174    166     19
    181   132     8858.6450    25     9101.0000     7062.7311    26871   22.40%         X_4_0_5 D    395    387     48
    215   143     7896.8768   120     9101.0000     7086.1040    31616   22.14%              Y1 U    435    419      6
    252   158     8598.7826    54     9101.0000     7121.9969    35939   21.74%         X_3_0_1 D    197    189     16
    583   340        cutoff           9101.0000     7307.2746    65821   19.71%              Y4 U    779    763     20
Elapsed time = 39.94 sec. (14393.88 ticks, tree = 2.17 MB, solutions = 6)
    884   493     8334.4931   118     9101.0000     7875.1337    95835   13.47%         X_2_0_2 U    960    643      5
Dentro lazy
camion 0, FALSE-heu 0.001
Version identifier: 12.10.0.0 | 2019-11-26 | 843d4de2ae
CPXPARAM_Threads                                 12
CPXPARAM_MIP_Strategy_Probe                      -1
CPXPARAM_Emphasis_MIP                            1
Tried aggregator 2 times.
MIP Presolve eliminated 45 rows and 34 columns.
MIP Presolve modified 1285 coefficients.
Aggregator did 2 substitutions.
Reduced MIP has 595 rows, 685 columns, and 14665 nonzeros.
Reduced MIP has 685 binaries, 0 generals, 0 SOSs, and 0 indicators.
Presolve time = 0.03 sec. (22.81 ticks)
Tried aggregator 1 time.
Detecting symmetries...
Reduced MIP has 595 rows, 685 columns, and 14665 nonzeros.
Reduced MIP has 685 binaries, 0 generals, 0 SOSs, and 0 indicators.
Presolve time = 0.02 sec. (14.16 ticks)
Clique table members: 533.
MIP emphasis: integer feasibility.
MIP search method: dynamic search.
Parallel mode: deterministic, using up to 12 threads.
Root relaxation solution time = 0.02 sec. (7.27 ticks)

        Nodes                                         Cuts/
   Node  Left     Objective  IInf  Best Integer    Best Bound    ItCnt     Gap

      0     0        0.0000    73                      0.0000      163         
      0     0        0.0000    73                  Cliques: 9      219         
      0     0        0.0000    73                    Cuts: 43      260         
      0     0        0.0000    73                    Cuts: 18      317         
      0     2        0.0000    21                      0.0000      317         
Elapsed time = 2.53 sec. (307.35 ticks, tree = 0.02 MB, solutions = 0)
*   227   101      integral     0        0.0000        0.0000     6239    0.00%

Clique cuts applied:  10
Zero-half cuts applied:  13

Root node processing (before b&c):
  Real time             =    0.73 sec. (306.96 ticks)
Parallel b&c, 12 threads:
  Real time             =    7.84 sec. (40.83 ticks)
  Sync time (average)   =    6.54 sec.
  Wait time (average)   =    0.00 sec.
                          ------------
Total (root+branch&cut) =    8.58 sec. (347.79 ticks)
8.578000 
TRUE-modelo
camion 2, FALSE-heu 0.001
Version identifier: 12.10.0.0 | 2019-11-26 | 843d4de2ae
CPXPARAM_Threads                                 12
CPXPARAM_MIP_Strategy_Probe                      -1
CPXPARAM_Emphasis_MIP                            1
Tried aggregator 2 times.
MIP Presolve eliminated 538 rows and 34 columns.
MIP Presolve modified 2295 coefficients.
Aggregator did 2 substitutions.
Reduced MIP has 1062 rows, 717 columns, and 25179 nonzeros.
Reduced MIP has 717 binaries, 0 generals, 0 SOSs, and 0 indicators.
Presolve time = 0.08 sec. (88.74 ticks)
Tried aggregator 1 time.
Detecting symmetries...
Reduced MIP has 1062 rows, 717 columns, and 25179 nonzeros.
Reduced MIP has 717 binaries, 0 generals, 0 SOSs, and 0 indicators.
Presolve time = 0.03 sec. (26.15 ticks)
Clique table members: 1000.
MIP emphasis: integer feasibility.
MIP search method: dynamic search.
Parallel mode: deterministic, using up to 12 threads.
Root relaxation solution time = 0.03 sec. (13.05 ticks)

        Nodes                                         Cuts/
   Node  Left     Objective  IInf  Best Integer    Best Bound    ItCnt     Gap

      0     0        0.0000    89                      0.0000      177         
*     0+    0                            0.0000        0.0000             0.00%
      0     0        cutoff              0.0000        0.0000      207    0.00%
Elapsed time = 0.45 sec. (337.59 ticks, tree = 0.01 MB, solutions = 1)

Clique cuts applied:  9

Root node processing (before b&c):
  Real time             =    0.45 sec. (337.69 ticks)
Parallel b&c, 12 threads:
  Real time             =    0.00 sec. (0.00 ticks)
  Sync time (average)   =    0.00 sec.
  Wait time (average)   =    0.00 sec.
                          ------------
Total (root+branch&cut) =    0.45 sec. (337.69 ticks)
0.453000 
TRUE-modelo
camion 4, FALSE-heu 0.001
Version identifier: 12.10.0.0 | 2019-11-26 | 843d4de2ae
CPXPARAM_Threads                                 12
CPXPARAM_MIP_Strategy_Probe                      -1
CPXPARAM_Emphasis_MIP                            1
Tried aggregator 2 times.
MIP Presolve eliminated 45 rows and 34 columns.
MIP Presolve modified 1221 coefficients.
Aggregator did 2 substitutions.
Reduced MIP has 594 rows, 653 columns, and 13937 nonzeros.
Reduced MIP has 653 binaries, 0 generals, 0 SOSs, and 0 indicators.
Presolve time = 0.03 sec. (22.60 ticks)
Tried aggregator 1 time.
Detecting symmetries...
Reduced MIP has 594 rows, 653 columns, and 13937 nonzeros.
Reduced MIP has 653 binaries, 0 generals, 0 SOSs, and 0 indicators.
Presolve time = 0.02 sec. (14.30 ticks)
Clique table members: 532.
MIP emphasis: integer feasibility.
MIP search method: dynamic search.
Parallel mode: deterministic, using up to 12 threads.
Root relaxation solution time = 0.01 sec. (6.55 ticks)

        Nodes                                         Cuts/
   Node  Left     Objective  IInf  Best Integer    Best Bound    ItCnt     Gap

      0     0        0.0000    71                      0.0000      153         
*     0+    0                            0.0000        0.0000             0.00%
      0     0        cutoff              0.0000        0.0000      188    0.00%
Elapsed time = 0.48 sec. (218.15 ticks, tree = 0.01 MB, solutions = 1)

Clique cuts applied:  1

Root node processing (before b&c):
  Real time             =    0.48 sec. (218.22 ticks)
Parallel b&c, 12 threads:
  Real time             =    0.00 sec. (0.00 ticks)
  Sync time (average)   =    0.00 sec.
  Wait time (average)   =    0.00 sec.
                          ------------
Total (root+branch&cut) =    0.48 sec. (218.22 ticks)
0.484000 
TRUE-modelo
Salgo lazy
   1310   640        cutoff           9101.0000     8059.0753   122230   11.45%         X_4_4_3 U   1161   1145     26
Dentro lazy
camion 0, FALSE-heu 0.001
Version identifier: 12.10.0.0 | 2019-11-26 | 843d4de2ae
CPXPARAM_Threads                                 12
CPXPARAM_MIP_Strategy_Probe                      -1
CPXPARAM_Emphasis_MIP                            1
Tried aggregator 2 times.
MIP Presolve eliminated 538 rows and 34 columns.
MIP Presolve modified 2167 coefficients.
Aggregator did 2 substitutions.
Reduced MIP has 1060 rows, 653 columns, and 22791 nonzeros.
Reduced MIP has 653 binaries, 0 generals, 0 SOSs, and 0 indicators.
Presolve time = 0.08 sec. (74.48 ticks)
Tried aggregator 1 time.
Detecting symmetries...
Reduced MIP has 1060 rows, 653 columns, and 22791 nonzeros.
Reduced MIP has 653 binaries, 0 generals, 0 SOSs, and 0 indicators.
Presolve time = 0.03 sec. (23.56 ticks)
Clique table members: 998.
MIP emphasis: integer feasibility.
MIP search method: dynamic search.
Parallel mode: deterministic, using up to 12 threads.
Root relaxation solution time = 0.02 sec. (10.41 ticks)

        Nodes                                         Cuts/
   Node  Left     Objective  IInf  Best Integer    Best Bound    ItCnt     Gap

      0     0        0.0000    70                      0.0000      157         
*     0+    0                            0.0000        0.0000             0.00%
      0     0        cutoff              0.0000        0.0000      310    0.00%
Elapsed time = 0.48 sec. (310.96 ticks, tree = 0.01 MB, solutions = 1)

Clique cuts applied:  54
Zero-half cuts applied:  4

Root node processing (before b&c):
  Real time             =    0.48 sec. (311.06 ticks)
Parallel b&c, 12 threads:
  Real time             =    0.00 sec. (0.00 ticks)
  Sync time (average)   =    0.00 sec.
  Wait time (average)   =    0.00 sec.
                          ------------
Total (root+branch&cut) =    0.48 sec. (311.06 ticks)
0.485000 
TRUE-modelo
camion 1, FALSE-heu 0.001
Version identifier: 12.10.0.0 | 2019-11-26 | 843d4de2ae
CPXPARAM_Threads                                 12
CPXPARAM_MIP_Strategy_Probe                      -1
CPXPARAM_Emphasis_MIP                            1
Tried aggregator 2 times.
MIP Presolve eliminated 45 rows and 34 columns.
MIP Presolve modified 1349 coefficients.
Aggregator did 2 substitutions.
Reduced MIP has 596 rows, 717 columns, and 15393 nonzeros.
Reduced MIP has 717 binaries, 0 generals, 0 SOSs, and 0 indicators.
Presolve time = 0.01 sec. (24.72 ticks)
Tried aggregator 1 time.
Detecting symmetries...
Reduced MIP has 596 rows, 717 columns, and 15393 nonzeros.
Reduced MIP has 717 binaries, 0 generals, 0 SOSs, and 0 indicators.
Presolve time = 0.02 sec. (15.53 ticks)
Clique table members: 534.
MIP emphasis: integer feasibility.
MIP search method: dynamic search.
Parallel mode: deterministic, using up to 12 threads.
Root relaxation solution time = 0.02 sec. (7.65 ticks)

        Nodes                                         Cuts/
   Node  Left     Objective  IInf  Best Integer    Best Bound    ItCnt     Gap

      0     0        0.0000    74                      0.0000      166         
      0     2        0.0000    45                      0.0000      166         
Elapsed time = 2.63 sec. (184.54 ticks, tree = 0.02 MB, solutions = 0)
*    39    25      integral     0        0.0000        0.0000     1238    0.00%

Clique cuts applied:  1
Cover cuts applied:  1

Root node processing (before b&c):
  Real time             =    0.38 sec. (184.16 ticks)
Parallel b&c, 12 threads:
  Real time             =    9.26 sec. (15.70 ticks)
  Sync time (average)   =    7.66 sec.
  Wait time (average)   =    0.00 sec.
                          ------------
Total (root+branch&cut) =    9.64 sec. (199.86 ticks)
9.656000 
TRUE-modelo
camion 3, FALSE-heu 0.001
Version identifier: 12.10.0.0 | 2019-11-26 | 843d4de2ae
CPXPARAM_Threads                                 12
CPXPARAM_MIP_Strategy_Probe                      -1
CPXPARAM_Emphasis_MIP                            1
Tried aggregator 2 times.
MIP Presolve eliminated 45 rows and 34 columns.
MIP Presolve modified 1285 coefficients.
Aggregator did 2 substitutions.
Reduced MIP has 595 rows, 685 columns, and 14665 nonzeros.
Reduced MIP has 685 binaries, 0 generals, 0 SOSs, and 0 indicators.
Presolve time = 0.03 sec. (23.67 ticks)
Tried aggregator 1 time.
Detecting symmetries...
Reduced MIP has 595 rows, 685 columns, and 14665 nonzeros.
Reduced MIP has 685 binaries, 0 generals, 0 SOSs, and 0 indicators.
Presolve time = 0.03 sec. (14.92 ticks)
Clique table members: 533.
MIP emphasis: integer feasibility.
MIP search method: dynamic search.
Parallel mode: deterministic, using up to 12 threads.
Root relaxation solution time = 0.02 sec. (6.78 ticks)

        Nodes                                         Cuts/
   Node  Left     Objective  IInf  Best Integer    Best Bound    ItCnt     Gap

      0     0        0.0000    67                      0.0000      153         
*     0+    0                            0.0000        0.0000             0.00%
      0     0        cutoff              0.0000        0.0000      153    0.00%
Elapsed time = 0.56 sec. (195.34 ticks, tree = 0.01 MB, solutions = 1)

Root node processing (before b&c):
  Real time             =    0.56 sec. (195.41 ticks)
Parallel b&c, 12 threads:
  Real time             =    0.00 sec. (0.00 ticks)
  Sync time (average)   =    0.00 sec.
  Wait time (average)   =    0.00 sec.
                          ------------
Total (root+branch&cut) =    0.56 sec. (195.41 ticks)
0.562000 
TRUE-modelo
Salgo lazy
Dentro lazy
camion 0, FALSE-heu 0.001
Version identifier: 12.10.0.0 | 2019-11-26 | 843d4de2ae
CPXPARAM_Threads                                 12
CPXPARAM_MIP_Strategy_Probe                      -1
CPXPARAM_Emphasis_MIP                            1
Tried aggregator 2 times.
MIP Presolve eliminated 538 rows and 34 columns.
MIP Presolve modified 2295 coefficients.
Aggregator did 2 substitutions.
Reduced MIP has 1062 rows, 717 columns, and 25179 nonzeros.
Reduced MIP has 717 binaries, 0 generals, 0 SOSs, and 0 indicators.
Presolve time = 0.06 sec. (80.21 ticks)
Tried aggregator 1 time.
Detecting symmetries...
Reduced MIP has 1062 rows, 717 columns, and 25179 nonzeros.
Reduced MIP has 717 binaries, 0 generals, 0 SOSs, and 0 indicators.
Presolve time = 0.03 sec. (24.62 ticks)
Clique table members: 1000.
MIP emphasis: integer feasibility.
MIP search method: dynamic search.
Parallel mode: deterministic, using up to 12 threads.
Root relaxation solution time = 0.05 sec. (11.54 ticks)

        Nodes                                         Cuts/
   Node  Left     Objective  IInf  Best Integer    Best Bound    ItCnt     Gap

      0     0        0.0000    92                      0.0000      159         
*     0+    0                            0.0000        0.0000             0.00%
      0     0        cutoff              0.0000        0.0000      181    0.00%
Elapsed time = 0.92 sec. (421.94 ticks, tree = 0.01 MB, solutions = 1)

Clique cuts applied:  9

Root node processing (before b&c):
  Real time             =    0.92 sec. (422.04 ticks)
Parallel b&c, 12 threads:
  Real time             =    0.00 sec. (0.00 ticks)
  Sync time (average)   =    0.00 sec.
  Wait time (average)   =    0.00 sec.
                          ------------
Total (root+branch&cut) =    0.92 sec. (422.04 ticks)
0.938000 
TRUE-modelo
camion 1, FALSE-heu 0.001
Version identifier: 12.10.0.0 | 2019-11-26 | 843d4de2ae
CPXPARAM_Threads                                 12
CPXPARAM_MIP_Strategy_Probe                      -1
CPXPARAM_Emphasis_MIP                            1
Tried aggregator 2 times.
MIP Presolve eliminated 45 rows and 34 columns.
MIP Presolve modified 1221 coefficients.
Aggregator did 2 substitutions.
Reduced MIP has 594 rows, 653 columns, and 13937 nonzeros.
Reduced MIP has 653 binaries, 0 generals, 0 SOSs, and 0 indicators.
Presolve time = 0.02 sec. (21.56 ticks)
Tried aggregator 1 time.
Detecting symmetries...
Reduced MIP has 594 rows, 653 columns, and 13937 nonzeros.
Reduced MIP has 653 binaries, 0 generals, 0 SOSs, and 0 indicators.
Presolve time = 0.01 sec. (13.38 ticks)
Clique table members: 532.
MIP emphasis: integer feasibility.
MIP search method: dynamic search.
Parallel mode: deterministic, using up to 12 threads.
Root relaxation solution time = 0.02 sec. (6.83 ticks)

        Nodes                                         Cuts/
   Node  Left     Objective  IInf  Best Integer    Best Bound    ItCnt     Gap

      0     0        0.0000    62                      0.0000      152         
      0     0        0.0000    62                     Cuts: 9      240         
      0     0        0.0000    62                    Cuts: 71      304         
      0     0        0.0000    62                    Cuts: 55      369         
      0     2        0.0000    49                      0.0000      369         
Elapsed time = 3.36 sec. (305.72 ticks, tree = 0.02 MB, solutions = 0)
*   398   118      integral     0        0.0000        0.0000    14872    0.00%

Clique cuts applied:  19
Zero-half cuts applied:  12

Root node processing (before b&c):
  Real time             =    0.88 sec. (305.33 ticks)
Parallel b&c, 12 threads:
  Real time             =    9.13 sec. (64.25 ticks)
  Sync time (average)   =    7.29 sec.
  Wait time (average)   =    0.00 sec.
                          ------------
Total (root+branch&cut) =   10.00 sec. (369.58 ticks)
10.000000 
TRUE-modelo
camion 3, FALSE-heu 0.001
Version identifier: 12.10.0.0 | 2019-11-26 | 843d4de2ae
CPXPARAM_Threads                                 12
CPXPARAM_MIP_Strategy_Probe                      -1
CPXPARAM_Emphasis_MIP                            1
Tried aggregator 2 times.
MIP Presolve eliminated 45 rows and 34 columns.
MIP Presolve modified 1285 coefficients.
Aggregator did 2 substitutions.
Reduced MIP has 595 rows, 685 columns, and 14665 nonzeros.
Reduced MIP has 685 binaries, 0 generals, 0 SOSs, and 0 indicators.
Presolve time = 0.03 sec. (22.90 ticks)
Tried aggregator 1 time.
Detecting symmetries...
Reduced MIP has 595 rows, 685 columns, and 14665 nonzeros.
Reduced MIP has 685 binaries, 0 generals, 0 SOSs, and 0 indicators.
Presolve time = 0.02 sec. (14.25 ticks)
Clique table members: 533.
MIP emphasis: integer feasibility.
MIP search method: dynamic search.
Parallel mode: deterministic, using up to 12 threads.
Root relaxation solution time = 0.02 sec. (7.35 ticks)

        Nodes                                         Cuts/
   Node  Left     Objective  IInf  Best Integer    Best Bound    ItCnt     Gap

      0     0        0.0000    78                      0.0000      168         
      0     2        0.0000    18                      0.0000      168         
Elapsed time = 1.91 sec. (199.64 ticks, tree = 0.02 MB, solutions = 0)
*   184+   76                            0.0000        0.0000             0.00%

Root node processing (before b&c):
  Real time             =    0.34 sec. (199.29 ticks)
Parallel b&c, 12 threads:
  Real time             =    7.47 sec. (40.35 ticks)
  Sync time (average)   =    6.39 sec.
  Wait time (average)   =    0.00 sec.
                          ------------
Total (root+branch&cut) =    7.81 sec. (239.64 ticks)
7.812000 
TRUE-modelo
Salgo lazy
*  1419+  610                         9086.0000     8069.8121            11.18%
Dentro lazy
camion 0, FALSE-heu 0.001
Version identifier: 12.10.0.0 | 2019-11-26 | 843d4de2ae
CPXPARAM_Threads                                 12
CPXPARAM_MIP_Strategy_Probe                      -1
CPXPARAM_Emphasis_MIP                            1
Tried aggregator 2 times.
MIP Presolve eliminated 538 rows and 34 columns.
MIP Presolve modified 2231 coefficients.
Aggregator did 2 substitutions.
Reduced MIP has 1061 rows, 685 columns, and 23985 nonzeros.
Reduced MIP has 685 binaries, 0 generals, 0 SOSs, and 0 indicators.
Presolve time = 0.06 sec. (74.33 ticks)
Tried aggregator 1 time.
Detecting symmetries...
Reduced MIP has 1061 rows, 685 columns, and 23985 nonzeros.
Reduced MIP has 685 binaries, 0 generals, 0 SOSs, and 0 indicators.
Presolve time = 0.03 sec. (23.43 ticks)
Clique table members: 999.
MIP emphasis: integer feasibility.
MIP search method: dynamic search.
Parallel mode: deterministic, using up to 12 threads.
Root relaxation solution time = 0.02 sec. (8.83 ticks)

        Nodes                                         Cuts/
   Node  Left     Objective  IInf  Best Integer    Best Bound    ItCnt     Gap

      0     0        0.0000    71                      0.0000      128         
*     0+    0                            0.0000        0.0000             0.00%
      0     0        cutoff              0.0000        0.0000      185    0.00%
Elapsed time = 0.69 sec. (464.62 ticks, tree = 0.01 MB, solutions = 1)

Clique cuts applied:  2

Root node processing (before b&c):
  Real time             =    0.69 sec. (464.71 ticks)
Parallel b&c, 12 threads:
  Real time             =    0.00 sec. (0.00 ticks)
  Sync time (average)   =    0.00 sec.
  Wait time (average)   =    0.00 sec.
                          ------------
Total (root+branch&cut) =    0.69 sec. (464.71 ticks)
0.703000 
TRUE-modelo
camion 1, FALSE-heu 0.001
Version identifier: 12.10.0.0 | 2019-11-26 | 843d4de2ae
CPXPARAM_Threads                                 12
CPXPARAM_MIP_Strategy_Probe                      -1
CPXPARAM_Emphasis_MIP                            1
Tried aggregator 2 times.
MIP Presolve eliminated 45 rows and 34 columns.
MIP Presolve modified 1285 coefficients.
Aggregator did 2 substitutions.
Reduced MIP has 595 rows, 685 columns, and 14665 nonzeros.
Reduced MIP has 685 binaries, 0 generals, 0 SOSs, and 0 indicators.
Presolve time = 0.03 sec. (23.55 ticks)
Tried aggregator 1 time.
Detecting symmetries...
Reduced MIP has 595 rows, 685 columns, and 14665 nonzeros.
Reduced MIP has 685 binaries, 0 generals, 0 SOSs, and 0 indicators.
Presolve time = 0.02 sec. (14.81 ticks)
Clique table members: 533.
MIP emphasis: integer feasibility.
MIP search method: dynamic search.
Parallel mode: deterministic, using up to 12 threads.
Root relaxation solution time = 0.02 sec. (6.20 ticks)

        Nodes                                         Cuts/
   Node  Left     Objective  IInf  Best Integer    Best Bound    ItCnt     Gap

      0     0        0.0000    63                      0.0000      137         
*     0+    0                            0.0000        0.0000             0.00%
      0     0        cutoff              0.0000        0.0000      137    0.00%
Elapsed time = 0.34 sec. (208.34 ticks, tree = 0.01 MB, solutions = 1)

Root node processing (before b&c):
  Real time             =    0.34 sec. (208.41 ticks)
Parallel b&c, 12 threads:
  Real time             =    0.00 sec. (0.00 ticks)
  Sync time (average)   =    0.00 sec.
  Wait time (average)   =    0.00 sec.
                          ------------
Total (root+branch&cut) =    0.34 sec. (208.41 ticks)
0.343000 
TRUE-modelo
camion 2, TRUE-heu 0.000980
Salgo lazy
*  1654+  680                         9031.0000     8072.4248            10.61%
   1696   808     9031.0000    20     9031.0000     8072.4248   149864   10.61%       Z_1_3_9_2 D   1918   1910     33
Dentro lazy
camion 0, TRUE-heu 0.001014
camion 1, FALSE-heu 0.001
Version identifier: 12.10.0.0 | 2019-11-26 | 843d4de2ae
CPXPARAM_Threads                                 12
CPXPARAM_MIP_Strategy_Probe                      -1
CPXPARAM_Emphasis_MIP                            1
Tried aggregator 2 times.
MIP Presolve eliminated 45 rows and 34 columns.
MIP Presolve modified 1349 coefficients.
Aggregator did 2 substitutions.
Reduced MIP has 596 rows, 717 columns, and 15393 nonzeros.
Reduced MIP has 717 binaries, 0 generals, 0 SOSs, and 0 indicators.
Presolve time = 0.03 sec. (24.62 ticks)
Tried aggregator 1 time.
Detecting symmetries...
Reduced MIP has 596 rows, 717 columns, and 15393 nonzeros.
Reduced MIP has 717 binaries, 0 generals, 0 SOSs, and 0 indicators.
Presolve time = 0.02 sec. (15.44 ticks)
Clique table members: 534.
MIP emphasis: integer feasibility.
MIP search method: dynamic search.
Parallel mode: deterministic, using up to 12 threads.
Root relaxation solution time = 0.02 sec. (7.52 ticks)

        Nodes                                         Cuts/
   Node  Left     Objective  IInf  Best Integer    Best Bound    ItCnt     Gap

      0     0        0.0000    79                      0.0000      156         
*     0+    0                            0.0000        0.0000             0.00%
      0     0        cutoff              0.0000        0.0000      156    0.00%
Elapsed time = 0.41 sec. (246.37 ticks, tree = 0.01 MB, solutions = 1)

Root node processing (before b&c):
  Real time             =    0.41 sec. (246.44 ticks)
Parallel b&c, 12 threads:
  Real time             =    0.00 sec. (0.00 ticks)
  Sync time (average)   =    0.00 sec.
  Wait time (average)   =    0.00 sec.
                          ------------
Total (root+branch&cut) =    0.41 sec. (246.44 ticks)
0.406000 
TRUE-modelo
camion 2, FALSE-heu 0.001
Version identifier: 12.10.0.0 | 2019-11-26 | 843d4de2ae
CPXPARAM_Threads                                 12
CPXPARAM_MIP_Strategy_Probe                      -1
CPXPARAM_Emphasis_MIP                            1
Tried aggregator 2 times.
MIP Presolve eliminated 45 rows and 34 columns.
MIP Presolve modified 1285 coefficients.
Aggregator did 2 substitutions.
Reduced MIP has 595 rows, 685 columns, and 14665 nonzeros.
Reduced MIP has 685 binaries, 0 generals, 0 SOSs, and 0 indicators.
Presolve time = 0.03 sec. (23.67 ticks)
Tried aggregator 1 time.
Detecting symmetries...
Reduced MIP has 595 rows, 685 columns, and 14665 nonzeros.
Reduced MIP has 685 binaries, 0 generals, 0 SOSs, and 0 indicators.
Presolve time = 0.02 sec. (14.92 ticks)
Clique table members: 533.
MIP emphasis: integer feasibility.
MIP search method: dynamic search.
Parallel mode: deterministic, using up to 12 threads.
Root relaxation solution time = 0.02 sec. (5.99 ticks)

        Nodes                                         Cuts/
   Node  Left     Objective  IInf  Best Integer    Best Bound    ItCnt     Gap

      0     0        0.0000    57                      0.0000      133         
      0     0        0.0000    57                  Cliques: 9      197         
      0     2        0.0000    29                      0.0000      197         
Elapsed time = 3.08 sec. (371.24 ticks, tree = 0.02 MB, solutions = 0)
*   202+   86                            0.0000        0.0000             0.00%

Clique cuts applied:  4
Zero-half cuts applied:  2

Root node processing (before b&c):
  Real time             =    1.02 sec. (370.86 ticks)
Parallel b&c, 12 threads:
  Real time             =    9.03 sec. (39.06 ticks)
  Sync time (average)   =    7.58 sec.
  Wait time (average)   =    0.00 sec.
                          ------------
Total (root+branch&cut) =   10.05 sec. (409.93 ticks)
10.046000 
TRUE-modelo
Salgo lazy
   2047   992     8739.1146    62     9031.0000     8195.5854   188708    9.25%         X_0_0_5 D   2219   2211     15
Dentro lazy
camion 0, FALSE-heu 0.001
Version identifier: 12.10.0.0 | 2019-11-26 | 843d4de2ae
CPXPARAM_Threads                                 12
CPXPARAM_MIP_Strategy_Probe                      -1
CPXPARAM_Emphasis_MIP                            1
Tried aggregator 2 times.
MIP Presolve eliminated 45 rows and 34 columns.
MIP Presolve modified 1413 coefficients.
Aggregator did 2 substitutions.
Reduced MIP has 597 rows, 749 columns, and 16121 nonzeros.
Reduced MIP has 749 binaries, 0 generals, 0 SOSs, and 0 indicators.
Presolve time = 0.03 sec. (25.28 ticks)
Tried aggregator 1 time.
Detecting symmetries...
Reduced MIP has 597 rows, 749 columns, and 16121 nonzeros.
Reduced MIP has 749 binaries, 0 generals, 0 SOSs, and 0 indicators.
Presolve time = 0.02 sec. (15.77 ticks)
Clique table members: 535.
MIP emphasis: integer feasibility.
MIP search method: dynamic search.
Parallel mode: deterministic, using up to 12 threads.
Root relaxation solution time = 0.02 sec. (6.53 ticks)

        Nodes                                         Cuts/
   Node  Left     Objective  IInf  Best Integer    Best Bound    ItCnt     Gap

      0     0        0.0000    84                      0.0000      143         
*     0+    0                            0.0000        0.0000             0.00%
      0     0        cutoff              0.0000        0.0000      143    0.00%
Elapsed time = 0.48 sec. (174.06 ticks, tree = 0.01 MB, solutions = 1)

Root node processing (before b&c):
  Real time             =    0.48 sec. (174.13 ticks)
Parallel b&c, 12 threads:
  Real time             =    0.00 sec. (0.00 ticks)
  Sync time (average)   =    0.00 sec.
  Wait time (average)   =    0.00 sec.
                          ------------
Total (root+branch&cut) =    0.48 sec. (174.13 ticks)
0.484000 
TRUE-modelo
camion 1, TRUE-heu 0.001117
camion 2, FALSE-heu 0.001
Version identifier: 12.10.0.0 | 2019-11-26 | 843d4de2ae
CPXPARAM_Threads                                 12
CPXPARAM_MIP_Strategy_Probe                      -1
CPXPARAM_Emphasis_MIP                            1
Tried aggregator 2 times.
MIP Presolve eliminated 45 rows and 34 columns.
MIP Presolve modified 1285 coefficients.
Aggregator did 2 substitutions.
Reduced MIP has 595 rows, 685 columns, and 14665 nonzeros.
Reduced MIP has 685 binaries, 0 generals, 0 SOSs, and 0 indicators.
Presolve time = 0.03 sec. (22.90 ticks)
Tried aggregator 1 time.
Detecting symmetries...
Reduced MIP has 595 rows, 685 columns, and 14665 nonzeros.
Reduced MIP has 685 binaries, 0 generals, 0 SOSs, and 0 indicators.
Presolve time = 0.02 sec. (14.25 ticks)
Clique table members: 533.
MIP emphasis: integer feasibility.
MIP search method: dynamic search.
Parallel mode: deterministic, using up to 12 threads.
Root relaxation solution time = 0.02 sec. (7.22 ticks)

        Nodes                                         Cuts/
   Node  Left     Objective  IInf  Best Integer    Best Bound    ItCnt     Gap

      0     0        0.0000    78                      0.0000      165         
      0     2        0.0000    31                      0.0000      165         
Elapsed time = 2.67 sec. (191.64 ticks, tree = 0.02 MB, solutions = 0)
*   687+  231                            0.0000        0.0000             0.00%

Clique cuts applied:  4
Zero-half cuts applied:  1

Root node processing (before b&c):
  Real time             =    0.48 sec. (191.27 ticks)
Parallel b&c, 12 threads:
  Real time             =    9.23 sec. (92.32 ticks)
  Sync time (average)   =    7.62 sec.
  Wait time (average)   =    0.00 sec.
                          ------------
Total (root+branch&cut) =    9.72 sec. (283.59 ticks)
9.719000 
TRUE-modelo
Salgo lazy
Dentro lazy
camion 0, TRUE-heu 0.001172
camion 1, TRUE-heu 0.001207
camion 3, FALSE-heu 0.001
Version identifier: 12.10.0.0 | 2019-11-26 | 843d4de2ae
CPXPARAM_Threads                                 12
CPXPARAM_MIP_Strategy_Probe                      -1
CPXPARAM_Emphasis_MIP                            1
Tried aggregator 2 times.
MIP Presolve eliminated 45 rows and 34 columns.
MIP Presolve modified 1221 coefficients.
Aggregator did 2 substitutions.
Reduced MIP has 594 rows, 653 columns, and 13937 nonzeros.
Reduced MIP has 653 binaries, 0 generals, 0 SOSs, and 0 indicators.
Presolve time = 0.03 sec. (21.68 ticks)
Tried aggregator 1 time.
Detecting symmetries...
Reduced MIP has 594 rows, 653 columns, and 13937 nonzeros.
Reduced MIP has 653 binaries, 0 generals, 0 SOSs, and 0 indicators.
Presolve time = 0.02 sec. (13.47 ticks)
Clique table members: 532.
MIP emphasis: integer feasibility.
MIP search method: dynamic search.
Parallel mode: deterministic, using up to 12 threads.
Root relaxation solution time = 0.01 sec. (8.94 ticks)

        Nodes                                         Cuts/
   Node  Left     Objective  IInf  Best Integer    Best Bound    ItCnt     Gap

      0     0        0.0000    73                      0.0000      193         
      0     0        0.0000    73                    Cuts: 78      314         
      0     0        0.0000    73                    Cuts: 76      386         
*     0+    0                            0.0000        0.0000             0.00%
      0     0        cutoff              0.0000        0.0000      386    0.00%
Elapsed time = 1.03 sec. (347.96 ticks, tree = 0.01 MB, solutions = 1)

Clique cuts applied:  31
Zero-half cuts applied:  3

Root node processing (before b&c):
  Real time             =    1.03 sec. (348.04 ticks)
Parallel b&c, 12 threads:
  Real time             =    0.00 sec. (0.00 ticks)
  Sync time (average)   =    0.00 sec.
  Wait time (average)   =    0.00 sec.
                          ------------
Total (root+branch&cut) =    1.03 sec. (348.04 ticks)
1.031000 
TRUE-modelo
Salgo lazy
*  2461+  984                         8941.0000     8234.8533             7.90%
Dentro lazy
camion 0, FALSE-heu 0.001
Version identifier: 12.10.0.0 | 2019-11-26 | 843d4de2ae
CPXPARAM_Threads                                 12
CPXPARAM_MIP_Strategy_Probe                      -1
CPXPARAM_Emphasis_MIP                            1
Tried aggregator 2 times.
MIP Presolve eliminated 45 rows and 34 columns.
MIP Presolve modified 1413 coefficients.
Aggregator did 2 substitutions.
Reduced MIP has 597 rows, 749 columns, and 16121 nonzeros.
Reduced MIP has 749 binaries, 0 generals, 0 SOSs, and 0 indicators.
Presolve time = 0.03 sec. (25.68 ticks)
Tried aggregator 1 time.
Detecting symmetries...
Reduced MIP has 597 rows, 749 columns, and 16121 nonzeros.
Reduced MIP has 749 binaries, 0 generals, 0 SOSs, and 0 indicators.
Presolve time = 0.02 sec. (16.08 ticks)
Clique table members: 535.
MIP emphasis: integer feasibility.
MIP search method: dynamic search.
Parallel mode: deterministic, using up to 12 threads.
Root relaxation solution time = 0.02 sec. (8.46 ticks)

        Nodes                                         Cuts/
   Node  Left     Objective  IInf  Best Integer    Best Bound    ItCnt     Gap

      0     0        0.0000    81                      0.0000      175         
*     0+    0                            0.0000        0.0000             0.00%
      0     0        cutoff              0.0000        0.0000      269    0.00%
Elapsed time = 0.66 sec. (209.05 ticks, tree = 0.01 MB, solutions = 1)

Clique cuts applied:  2

Root node processing (before b&c):
  Real time             =    0.66 sec. (209.12 ticks)
Parallel b&c, 12 threads:
  Real time             =    0.00 sec. (0.00 ticks)
  Sync time (average)   =    0.00 sec.
  Wait time (average)   =    0.00 sec.
                          ------------
Total (root+branch&cut) =    0.66 sec. (209.12 ticks)
0.656000 
TRUE-modelo
camion 1, TRUE-heu 0.001286
camion 2, FALSE-heu 0.001
Version identifier: 12.10.0.0 | 2019-11-26 | 843d4de2ae
CPXPARAM_Threads                                 12
CPXPARAM_MIP_Strategy_Probe                      -1
CPXPARAM_Emphasis_MIP                            1
Tried aggregator 2 times.
MIP Presolve eliminated 45 rows and 34 columns.
MIP Presolve modified 1285 coefficients.
Aggregator did 2 substitutions.
Reduced MIP has 595 rows, 685 columns, and 14665 nonzeros.
Reduced MIP has 685 binaries, 0 generals, 0 SOSs, and 0 indicators.
Presolve time = 0.02 sec. (23.67 ticks)
Tried aggregator 1 time.
Detecting symmetries...
Reduced MIP has 595 rows, 685 columns, and 14665 nonzeros.
Reduced MIP has 685 binaries, 0 generals, 0 SOSs, and 0 indicators.
Presolve time = 0.02 sec. (14.92 ticks)
Clique table members: 533.
MIP emphasis: integer feasibility.
MIP search method: dynamic search.
Parallel mode: deterministic, using up to 12 threads.
Root relaxation solution time = 0.02 sec. (5.96 ticks)

        Nodes                                         Cuts/
   Node  Left     Objective  IInf  Best Integer    Best Bound    ItCnt     Gap

      0     0        0.0000    57                      0.0000      132         
      0     0        0.0000    57                    Cuts: 30      240         
*     0+    0                            0.0000        0.0000             0.00%
      0     0        cutoff              0.0000        0.0000      313    0.00%
Elapsed time = 0.77 sec. (320.84 ticks, tree = 0.01 MB, solutions = 1)

Clique cuts applied:  22

Root node processing (before b&c):
  Real time             =    0.77 sec. (320.91 ticks)
Parallel b&c, 12 threads:
  Real time             =    0.00 sec. (0.00 ticks)
  Sync time (average)   =    0.00 sec.
  Wait time (average)   =    0.00 sec.
                          ------------
Total (root+branch&cut) =    0.77 sec. (320.91 ticks)
0.766000 
TRUE-modelo
Salgo lazy
   2527  1077     8577.4020    99     8941.0000     8248.1383   214794    7.75%         X_0_0_4 D   2254   2246     20
   2898  1076        cutoff           8941.0000     8295.1591   252050    7.22%         X_0_2_5 U   3039    392     17
   3250  1105     8648.0936    40     8941.0000     8342.1015   300791    6.70%         X_0_2_1 U   3017    198     23
   3600  1017        cutoff           8941.0000     8431.0445   350273    5.70%         X_4_4_2 U   3350   3334     21
   4052   883        cutoff           8941.0000     8513.1499   401917    4.79%         X_3_2_5 D   4096   4080     14
   4803   593        cutoff           8941.0000     8676.8062   453459    2.95%         X_1_4_0 U   4752   3890     11
Elapsed time = 121.31 sec. (23971.64 ticks, tree = 4.35 MB, solutions = 14)

GUB cover cuts applied:  179
Cover cuts applied:  544
Flow cuts applied:  21
Mixed integer rounding cuts applied:  34
Zero-half cuts applied:  73
Gomory fractional cuts applied:  2

Root node processing (before b&c):
  Real time             =   34.53 sec. (10739.83 ticks)
Parallel b&c, 8 threads:
  Real time             =   89.89 sec. (14159.80 ticks)
  Sync time (average)   =   28.63 sec.
  Wait time (average)   =    0.00 sec.
                          ------------
Total (root+branch&cut) =  124.42 sec. (24899.63 ticks)
124.437000 
