Instances\Inst5P2Dv_3.csvVersion identifier: 12.10.0.0 | 2019-11-26 | 843d4de2ae
CPXPARAM_Threads                                 8
CPXPARAM_MIP_Strategy_File                       3
CPXPARAM_MIP_Strategy_Probe                      -1
CPXPARAM_TimeLimit                               3600
Lazy constraint(s) or lazy constraint/branch callback is present.
    Disabling dual reductions (CPX_PARAM_REDUCE) in presolve.
    Disabling non-linear reductions (CPX_PARAM_PRELINEAR) in presolve.
    Disabling presolve reductions that prevent crushing forms.
         Disabling repeat represolve because of lazy constraint/incumbent callback.
Dentro lazy
camion 0, TRUE-heu 0.000029
camion 1, TRUE-heu 0.000105
camion 2, TRUE-heu 0.000129
camion 3, TRUE-heu 0.000175
Salgo lazy
1 of 1 MIP starts provided solutions.
MIP start 'm1' defined initial solution with objective 10312.0000.
Tried aggregator 1 time.
MIP Presolve eliminated 174 rows and 212 columns.
MIP Presolve modified 8002 coefficients.
Reduced MIP has 430 rows, 7732 columns, and 68398 nonzeros.
Reduced MIP has 7632 binaries, 0 generals, 0 SOSs, and 0 indicators.
Presolve time = 0.09 sec. (63.07 ticks)
Clique table members: 232.
MIP emphasis: balance optimality and feasibility.
MIP search method: traditional branch-and-cut.
Parallel mode: deterministic, using up to 8 threads.
Root relaxation solution time = 0.14 sec. (152.60 ticks)

        Nodes                                         Cuts/
   Node  Left     Objective  IInf  Best Integer    Best Bound    ItCnt     Gap         Variable B NodeID Parent  Depth

*     0+    0                        10312.0000        0.0000           100.00%
      0     0     4028.3686   105    10312.0000     4028.3686       16   60.94%
      0     0     5632.1715   105    10312.0000      Cuts: 79     2793   45.38%
      0     0     5798.6817   105    10312.0000      Cuts: 39     3678   43.77%
      0     0     5985.6472   105    10312.0000      Cuts: 45     4041   41.95%
      0     0     6264.5068   105    10312.0000      Cuts: 45     4523   39.25%
      0     0     6274.4933   105    10312.0000      Cuts: 40     5137   39.15%
      0     0     6297.8856   105    10312.0000      Cuts: 41     5366   38.93%
      0     0     6305.0521   105    10312.0000      Cuts: 35     5541   38.86%
      0     0     6336.0680   105    10312.0000      Cuts: 44     6615   38.56%
      0     0     6349.0177   105    10312.0000      Cuts: 38     7371   38.43%
      0     0     6363.8547   105    10312.0000      Cuts: 50     7516   38.29%
      0     0     6379.2459   105    10312.0000      Cuts: 43     8676   38.14%
      0     0     6387.5128   105    10312.0000      Cuts: 37     8863   38.06%
      0     0     6400.1932   105    10312.0000      Cuts: 47     9713   37.93%
      0     0     6402.2684   105    10312.0000      Cuts: 27     9897   37.91%
      0     0     6402.6800   105    10312.0000      Cuts: 24     9983   37.91%
      0     0     6403.5784   105    10312.0000      Cuts: 13    10063   37.90%
      0     0     6404.0758   105    10312.0000      Cuts: 29    10159   37.90%
Dentro lazy
camion 0, FALSE-heu 0.000
Version identifier: 12.10.0.0 | 2019-11-26 | 843d4de2ae
CPXPARAM_Threads                                 12
CPXPARAM_MIP_Strategy_Probe                      -1
CPXPARAM_Emphasis_MIP                            1
Tried aggregator 2 times.
MIP Presolve eliminated 1005 rows and 34 columns.
MIP Presolve modified 1777 coefficients.
Aggregator did 2 substitutions.
Reduced MIP has 595 rows, 685 columns, and 19611 nonzeros.
Reduced MIP has 685 binaries, 0 generals, 0 SOSs, and 0 indicators.
Presolve time = 0.11 sec. (121.77 ticks)
Tried aggregator 1 time.
Detecting symmetries...
Reduced MIP has 595 rows, 685 columns, and 19611 nonzeros.
Reduced MIP has 685 binaries, 0 generals, 0 SOSs, and 0 indicators.
Presolve time = 0.03 sec. (29.22 ticks)
Clique table members: 533.
MIP emphasis: integer feasibility.
MIP search method: dynamic search.
Parallel mode: deterministic, using up to 12 threads.
Root relaxation solution time = 0.02 sec. (8.82 ticks)

        Nodes                                         Cuts/
   Node  Left     Objective  IInf  Best Integer    Best Bound    ItCnt     Gap

      0     0        0.0000    73                      0.0000      174         
      0     0        0.0000    73                  Cliques: 7      184         
      0     0        0.0000    73                    Cuts: 33      258         
Detecting symmetries...
      0     2        0.0000    16                      0.0000      258         
Elapsed time = 2.66 sec. (521.70 ticks, tree = 0.02 MB, solutions = 0)
   2646   932    infeasible                            0.0000    83801         
   6108  2433    infeasible                            0.0000   179658         

Performing restart 1

Repeating presolve.
Tried aggregator 1 time.
MIP Presolve modified 210 coefficients.
Reduced MIP has 595 rows, 685 columns, and 19581 nonzeros.
Reduced MIP has 685 binaries, 0 generals, 0 SOSs, and 0 indicators.
Presolve time = 0.03 sec. (32.42 ticks)
Represolve time = 0.05 sec. (42.16 ticks)
   6171     0        0.0000    73                    Cuts: 40   193954         
   6171     0        0.0000    73                    Cuts: 92   194042         
   6171     0        0.0000    73                  Cliques: 4   194105         
   6171     2        0.0000    25                      0.0000   194105         
   7998   485        0.0000    34                      0.0000   256727         
   9411   807    infeasible                            0.0000   332363         
  10193   668        0.0000    57                      0.0000   387897         
  10728   560        0.0000    88                      0.0000   441780         
  11156   502        0.0000    56                      0.0000   492847         
  12009   695        0.0000    24                      0.0000   550862         
  17022   832        0.0000    41                      0.0000   842055         
Elapsed time = 24.86 sec. (4040.67 ticks, tree = 0.37 MB, solutions = 0)

Performing restart 2

Repeating presolve.
Tried aggregator 1 time.
Reduced MIP has 595 rows, 685 columns, and 19581 nonzeros.
Reduced MIP has 685 binaries, 0 generals, 0 SOSs, and 0 indicators.
Presolve time = 0.03 sec. (29.68 ticks)
Represolve time = 0.09 sec. (57.50 ticks)
  19542   387        0.0000    43                      0.0000  1047276         
  22062   119        0.0000    44                      0.0000  1313214         

Clique cuts applied:  73
Cover cuts applied:  8
Mixed integer rounding cuts applied:  17
Zero-half cuts applied:  1

Root node processing (before b&c):
  Real time             =    1.03 sec. (521.22 ticks)
Parallel b&c, 12 threads:
  Real time             =   57.13 sec. (5867.61 ticks)
  Sync time (average)   =   39.58 sec.
  Wait time (average)   =    0.09 sec.
                          ------------
Total (root+branch&cut) =   58.16 sec. (6388.82 ticks)
58.156000 
FALSE-modelo
 Salgo lazy
      0     2     6404.0758   112    10312.0000     6404.0758    10159   37.90%                        0             0
Elapsed time = 64.48 sec. (4019.00 ticks, tree = 0.02 MB, solutions = 1)
      1     3     6614.4986   116    10312.0000     6432.5840    11239   37.62%              Y2 D      8      0      1
Dentro lazy
camion 0, TRUE-heu 0.000232
camion 1, FALSE-heu 0.000
Version identifier: 12.10.0.0 | 2019-11-26 | 843d4de2ae
CPXPARAM_Threads                                 12
CPXPARAM_MIP_Strategy_Probe                      -1
CPXPARAM_Emphasis_MIP                            1
Tried aggregator 2 times.
MIP Presolve eliminated 975 rows and 34 columns.
MIP Presolve modified 1827 coefficients.
Aggregator did 2 substitutions.
Reduced MIP has 626 rows, 717 columns, and 21133 nonzeros.
Reduced MIP has 717 binaries, 0 generals, 0 SOSs, and 0 indicators.
Presolve time = 0.13 sec. (114.04 ticks)
Tried aggregator 1 time.
Detecting symmetries...
Reduced MIP has 626 rows, 717 columns, and 21133 nonzeros.
Reduced MIP has 717 binaries, 0 generals, 0 SOSs, and 0 indicators.
Presolve time = 0.03 sec. (28.68 ticks)
Clique table members: 564.
MIP emphasis: integer feasibility.
MIP search method: dynamic search.
Parallel mode: deterministic, using up to 12 threads.
Root relaxation solution time = 0.01 sec. (10.05 ticks)

        Nodes                                         Cuts/
   Node  Left     Objective  IInf  Best Integer    Best Bound    ItCnt     Gap

      0     0        0.0000    75                      0.0000      184         
      0     0        0.0000    75                    Cuts: 14      243         
      0     0        0.0000    75                    Cuts: 65      397         
*     0+    0                            0.0000        0.0000             0.00%
      0     0        cutoff              0.0000        0.0000      397    0.00%
Elapsed time = 1.02 sec. (581.13 ticks, tree = 0.01 MB, solutions = 1)

Clique cuts applied:  13
Zero-half cuts applied:  4

Root node processing (before b&c):
  Real time             =    1.02 sec. (581.22 ticks)
Parallel b&c, 12 threads:
  Real time             =    0.00 sec. (0.00 ticks)
  Sync time (average)   =    0.00 sec.
  Wait time (average)   =    0.00 sec.
                          ------------
Total (root+branch&cut) =    1.02 sec. (581.22 ticks)
1.016000 
TRUE-modelo
camion 2, FALSE-heu 0.000
Version identifier: 12.10.0.0 | 2019-11-26 | 843d4de2ae
CPXPARAM_Threads                                 12
CPXPARAM_MIP_Strategy_Probe                      -1
CPXPARAM_Emphasis_MIP                            1
Tried aggregator 2 times.
MIP Presolve eliminated 1003 rows and 34 columns.
MIP Presolve modified 1763 coefficients.
Aggregator did 2 substitutions.
Reduced MIP has 597 rows, 685 columns, and 19665 nonzeros.
Reduced MIP has 685 binaries, 0 generals, 0 SOSs, and 0 indicators.
Presolve time = 0.14 sec. (122.91 ticks)
Tried aggregator 1 time.
Detecting symmetries...
Reduced MIP has 597 rows, 685 columns, and 19665 nonzeros.
Reduced MIP has 685 binaries, 0 generals, 0 SOSs, and 0 indicators.
Presolve time = 0.03 sec. (30.02 ticks)
Clique table members: 535.
MIP emphasis: integer feasibility.
MIP search method: dynamic search.
Parallel mode: deterministic, using up to 12 threads.
Root relaxation solution time = 0.00 sec. (5.81 ticks)

        Nodes                                         Cuts/
   Node  Left     Objective  IInf  Best Integer    Best Bound    ItCnt     Gap

      0     0        0.0000    63                      0.0000      120         
*     0+    0                            0.0000        0.0000             0.00%
      0     0        cutoff              0.0000        0.0000      120    0.00%
Elapsed time = 1.00 sec. (362.48 ticks, tree = 0.01 MB, solutions = 1)

Root node processing (before b&c):
  Real time             =    1.01 sec. (362.57 ticks)
Parallel b&c, 12 threads:
  Real time             =    0.00 sec. (0.00 ticks)
  Sync time (average)   =    0.00 sec.
  Wait time (average)   =    0.00 sec.
                          ------------
Total (root+branch&cut) =    1.01 sec. (362.57 ticks)
1.015000 
TRUE-modelo
Salgo lazy
Dentro lazy
camion 0, FALSE-heu 0.000
Version identifier: 12.10.0.0 | 2019-11-26 | 843d4de2ae
CPXPARAM_Threads                                 12
CPXPARAM_MIP_Strategy_Probe                      -1
CPXPARAM_Emphasis_MIP                            1
Tried aggregator 2 times.
MIP Presolve eliminated 1005 rows and 34 columns.
MIP Presolve modified 1777 coefficients.
Aggregator did 2 substitutions.
Reduced MIP has 595 rows, 685 columns, and 19611 nonzeros.
Reduced MIP has 685 binaries, 0 generals, 0 SOSs, and 0 indicators.
Presolve time = 0.13 sec. (121.77 ticks)
Tried aggregator 1 time.
Detecting symmetries...
Reduced MIP has 595 rows, 685 columns, and 19611 nonzeros.
Reduced MIP has 685 binaries, 0 generals, 0 SOSs, and 0 indicators.
Presolve time = 0.03 sec. (29.22 ticks)
Clique table members: 533.
MIP emphasis: integer feasibility.
MIP search method: dynamic search.
Parallel mode: deterministic, using up to 12 threads.
Root relaxation solution time = 0.02 sec. (9.39 ticks)

        Nodes                                         Cuts/
   Node  Left     Objective  IInf  Best Integer    Best Bound    ItCnt     Gap

      0     0        0.0000    79                      0.0000      181         
      0     0        0.0000    79                  Cliques: 6      233         
      0     0        0.0000    79                    Cuts: 59      308         
Detecting symmetries...
      0     2        0.0000    13                      0.0000      308         
Elapsed time = 2.61 sec. (459.46 ticks, tree = 0.02 MB, solutions = 0)
*    13    11      integral     0        0.0000        0.0000      993    0.00%

Clique cuts applied:  4
Zero-half cuts applied:  8
Gomory fractional cuts applied:  1

Root node processing (before b&c):
  Real time             =    0.83 sec. (459.08 ticks)
Parallel b&c, 12 threads:
  Real time             =    7.09 sec. (16.62 ticks)
  Sync time (average)   =    5.85 sec.
  Wait time (average)   =    0.00 sec.
                          ------------
Total (root+branch&cut) =    7.92 sec. (475.70 ticks)
7.922000 
TRUE-modelo
camion 1, FALSE-heu 0.000
Version identifier: 12.10.0.0 | 2019-11-26 | 843d4de2ae
CPXPARAM_Threads                                 12
CPXPARAM_MIP_Strategy_Probe                      -1
CPXPARAM_Emphasis_MIP                            1
Tried aggregator 2 times.
MIP Presolve eliminated 975 rows and 34 columns.
MIP Presolve modified 1827 coefficients.
Aggregator did 2 substitutions.
Reduced MIP has 626 rows, 717 columns, and 21133 nonzeros.
Reduced MIP has 717 binaries, 0 generals, 0 SOSs, and 0 indicators.
Presolve time = 0.11 sec. (114.04 ticks)
Tried aggregator 1 time.
Detecting symmetries...
Reduced MIP has 626 rows, 717 columns, and 21133 nonzeros.
Reduced MIP has 717 binaries, 0 generals, 0 SOSs, and 0 indicators.
Presolve time = 0.03 sec. (28.68 ticks)
Clique table members: 564.
MIP emphasis: integer feasibility.
MIP search method: dynamic search.
Parallel mode: deterministic, using up to 12 threads.
Root relaxation solution time = 0.02 sec. (11.17 ticks)

        Nodes                                         Cuts/
   Node  Left     Objective  IInf  Best Integer    Best Bound    ItCnt     Gap

      0     0        0.0000    79                      0.0000      204         
*     0+    0                            0.0000        0.0000             0.00%
      0     0        cutoff              0.0000        0.0000      270    0.00%
Elapsed time = 0.69 sec. (426.28 ticks, tree = 0.01 MB, solutions = 1)

Clique cuts applied:  33

Root node processing (before b&c):
  Real time             =    0.69 sec. (426.37 ticks)
Parallel b&c, 12 threads:
  Real time             =    0.00 sec. (0.00 ticks)
  Sync time (average)   =    0.00 sec.
  Wait time (average)   =    0.00 sec.
                          ------------
Total (root+branch&cut) =    0.69 sec. (426.37 ticks)
0.719000 
TRUE-modelo
camion 3, FALSE-heu 0.000
Version identifier: 12.10.0.0 | 2019-11-26 | 843d4de2ae
CPXPARAM_Threads                                 12
CPXPARAM_MIP_Strategy_Probe                      -1
CPXPARAM_Emphasis_MIP                            1
Tried aggregator 2 times.
MIP Presolve eliminated 45 rows and 34 columns.
MIP Presolve modified 1221 coefficients.
Aggregator did 2 substitutions.
Reduced MIP has 594 rows, 653 columns, and 13937 nonzeros.
Reduced MIP has 653 binaries, 0 generals, 0 SOSs, and 0 indicators.
Presolve time = 0.02 sec. (21.56 ticks)
Tried aggregator 1 time.
Detecting symmetries...
Reduced MIP has 594 rows, 653 columns, and 13937 nonzeros.
Reduced MIP has 653 binaries, 0 generals, 0 SOSs, and 0 indicators.
Presolve time = 0.00 sec. (13.37 ticks)
Clique table members: 532.
MIP emphasis: integer feasibility.
MIP search method: dynamic search.
Parallel mode: deterministic, using up to 12 threads.
Root relaxation solution time = 0.02 sec. (6.53 ticks)

        Nodes                                         Cuts/
   Node  Left     Objective  IInf  Best Integer    Best Bound    ItCnt     Gap

      0     0        0.0000    72                      0.0000      147         
      0     0        0.0000    72                    Fract: 1      148         
      0     0        0.0000    72                    Cuts: 33      288         
*     0+    0                            0.0000        0.0000             0.00%
      0     0        cutoff              0.0000        0.0000      288    0.00%
Elapsed time = 0.81 sec. (373.42 ticks, tree = 0.01 MB, solutions = 1)

Zero-half cuts applied:  1

Root node processing (before b&c):
  Real time             =    0.83 sec. (373.48 ticks)
Parallel b&c, 12 threads:
  Real time             =    0.00 sec. (0.00 ticks)
  Sync time (average)   =    0.00 sec.
  Wait time (average)   =    0.00 sec.
                          ------------
Total (root+branch&cut) =    0.83 sec. (373.48 ticks)
0.844000 
TRUE-modelo
Salgo lazy
Dentro lazy
camion 0, *     3+    1                        10038.0000     6432.5840            35.92%
FALSE-heu 0.000
Version identifier: 12.10.0.0 | 2019-11-26 | 843d4de2ae
CPXPARAM_Threads                                 12
CPXPARAM_MIP_Strategy_Probe                      -1
CPXPARAM_Emphasis_MIP                            1
Tried aggregator 2 times.
MIP Presolve eliminated 1005 rows and 34 columns.
MIP Presolve modified 1777 coefficients.
Aggregator did 2 substitutions.
Reduced MIP has 595 rows, 685 columns, and 19611 nonzeros.
Reduced MIP has 685 binaries, 0 generals, 0 SOSs, and 0 indicators.
Presolve time = 0.11 sec. (121.77 ticks)
Tried aggregator 1 time.
Detecting symmetries...
Reduced MIP has 595 rows, 685 columns, and 19611 nonzeros.
Reduced MIP has 685 binaries, 0 generals, 0 SOSs, and 0 indicators.
Presolve time = 0.03 sec. (29.22 ticks)
Clique table members: 533.
MIP emphasis: integer feasibility.
MIP search method: dynamic search.
Parallel mode: deterministic, using up to 12 threads.
Root relaxation solution time = 0.03 sec. (8.58 ticks)

        Nodes                                         Cuts/
   Node  Left     Objective  IInf  Best Integer    Best Bound    ItCnt     Gap

      0     0        0.0000    74                      0.0000      172         
      0     0        0.0000    74                 Cliques: 16      261         
      0     0        0.0000    74                    Cuts: 51      403         
      0     0        0.0000    74                     Cuts: 5      470         
Detecting symmetries...
      0     2        0.0000    12                      0.0000      470         
Elapsed time = 2.36 sec. (615.51 ticks, tree = 0.02 MB, solutions = 0)
   2064   586        0.0000    14                      0.0000    76234         
   4877  1328    infeasible                            0.0000   177734         

Performing restart 1

Repeating presolve.
Tried aggregator 1 time.
MIP Presolve modified 210 coefficients.
Reduced MIP has 595 rows, 685 columns, and 19581 nonzeros.
Reduced MIP has 685 binaries, 0 generals, 0 SOSs, and 0 indicators.
Presolve time = 0.05 sec. (32.42 ticks)
Represolve time = 0.06 sec. (43.34 ticks)
   6015     2        0.0000    30                      0.0000   228488         
   7129   256        0.0000    55                      0.0000   289444         
   8001   429    infeasible                            0.0000   351783         
   9058   540    infeasible                            0.0000   424846         
  10428   970        0.0000    55                      0.0000   500952         
  11559  1070        0.0000    44                      0.0000   564069         
  12741  1014    infeasible                            0.0000   645965         
  16733  1113        0.0000    55                      0.0000   903099         
Elapsed time = 24.17 sec. (3908.74 ticks, tree = 0.41 MB, solutions = 0)

Performing restart 2

Repeating presolve.
Tried aggregator 1 time.
Reduced MIP has 595 rows, 685 columns, and 19581 nonzeros.
Reduced MIP has 685 binaries, 0 generals, 0 SOSs, and 0 indicators.
Presolve time = 0.05 sec. (29.68 ticks)
Represolve time = 0.08 sec. (52.83 ticks)
  19445     0        0.0000    98                    Cuts: 25  1126021         
  19445     0        0.0000    98                    Cuts: 49  1126132         
  19445     2        0.0000    19                      0.0000  1126132         
  22912   628        0.0000    55                      0.0000  1386422         
  26408   521    infeasible                            0.0000  1674355         
  29806    22    infeasible                            0.0000  1922625         

Clique cuts applied:  30
Cover cuts applied:  4
Mixed integer rounding cuts applied:  31
Zero-half cuts applied:  3
Gomory fractional cuts applied:  3

Root node processing (before b&c):
  Real time             =    1.36 sec. (615.09 ticks)
Parallel b&c, 12 threads:
  Real time             =   55.84 sec. (7785.33 ticks)
  Sync time (average)   =   35.41 sec.
  Wait time (average)   =    0.05 sec.
                          ------------
Total (root+branch&cut) =   57.20 sec. (8400.42 ticks)
57.218000 
FALSE-modelo
 Salgo lazy
*     3+    2                         9802.0000     6432.5840            34.37%
      3     4     7586.5808   100     9802.0000     6432.5840    12331   34.37%              Y1 U      6      8      2
Dentro lazy
camion 0, TRUE-heu 0.000460
camion 1, TRUE-heu 0.000489
camion 2, FALSE-heu 0.001
Version identifier: 12.10.0.0 | 2019-11-26 | 843d4de2ae
CPXPARAM_Threads                                 12
CPXPARAM_MIP_Strategy_Probe                      -1
CPXPARAM_Emphasis_MIP                            1
Tried aggregator 2 times.
MIP Presolve eliminated 45 rows and 34 columns.
MIP Presolve modified 1349 coefficients.
Aggregator did 2 substitutions.
Reduced MIP has 596 rows, 717 columns, and 15393 nonzeros.
Reduced MIP has 717 binaries, 0 generals, 0 SOSs, and 0 indicators.
Presolve time = 0.03 sec. (23.20 ticks)
Tried aggregator 1 time.
Detecting symmetries...
Reduced MIP has 596 rows, 717 columns, and 15393 nonzeros.
Reduced MIP has 717 binaries, 0 generals, 0 SOSs, and 0 indicators.
Presolve time = 0.02 sec. (14.26 ticks)
Clique table members: 534.
MIP emphasis: integer feasibility.
MIP search method: dynamic search.
Parallel mode: deterministic, using up to 12 threads.
Root relaxation solution time = 0.02 sec. (7.51 ticks)

        Nodes                                         Cuts/
   Node  Left     Objective  IInf  Best Integer    Best Bound    ItCnt     Gap

      0     0        0.0000    69                      0.0000      160         
      0     0        0.0000    69                     Cuts: 7      234         
      0     0        0.0000    69                    Cuts: 42      312         
      0     0        0.0000    69                    Cuts: 32      376         
*     0+    0                            0.0000        0.0000             0.00%
      0     0        cutoff              0.0000        0.0000      376    0.00%
Elapsed time = 0.91 sec. (380.10 ticks, tree = 0.01 MB, solutions = 1)

Clique cuts applied:  8
Zero-half cuts applied:  5

Root node processing (before b&c):
  Real time             =    0.91 sec. (380.17 ticks)
Parallel b&c, 12 threads:
  Real time             =    0.00 sec. (0.00 ticks)
  Sync time (average)   =    0.00 sec.
  Wait time (average)   =    0.00 sec.
                          ------------
Total (root+branch&cut) =    0.91 sec. (380.17 ticks)
0.906000 
TRUE-modelo
Salgo lazy
Dentro lazy
camion 0, FALSE-heu 0.001
Version identifier: 12.10.0.0 | 2019-11-26 | 843d4de2ae
CPXPARAM_Threads                                 12
CPXPARAM_MIP_Strategy_Probe                      -1
CPXPARAM_Emphasis_MIP                            1
Tried aggregator 2 times.
MIP Presolve eliminated 45 rows and 34 columns.
MIP Presolve modified 1285 coefficients.
Aggregator did 2 substitutions.
Reduced MIP has 595 rows, 685 columns, and 14665 nonzeros.
Reduced MIP has 685 binaries, 0 generals, 0 SOSs, and 0 indicators.
Presolve time = 0.02 sec. (22.24 ticks)
Tried aggregator 1 time.
Detecting symmetries...
Reduced MIP has 595 rows, 685 columns, and 14665 nonzeros.
Reduced MIP has 685 binaries, 0 generals, 0 SOSs, and 0 indicators.
Presolve time = 0.02 sec. (13.73 ticks)
Clique table members: 533.
MIP emphasis: integer feasibility.
MIP search method: dynamic search.
Parallel mode: deterministic, using up to 12 threads.
Root relaxation solution time = 0.02 sec. (7.45 ticks)

        Nodes                                         Cuts/
   Node  Left     Objective  IInf  Best Integer    Best Bound    ItCnt     Gap

      0     0        0.0000    69                      0.0000      174         
      0     0        0.0000    69                 Cliques: 20      260         
      0     0        0.0000    69                 ZeroHalf: 1      290         
      0     0        0.0000    69                    Cuts: 54      351         
      0     2        0.0000    14                      0.0000      351         
Elapsed time = 3.03 sec. (482.52 ticks, tree = 0.02 MB, solutions = 0)
   2477  1015        0.0000    11                      0.0000    70046         
*  2805  1192      integral     0        0.0000        0.0000    83418    0.00%

Clique cuts applied:  22
Cover cuts applied:  6
Zero-half cuts applied:  8
Gomory fractional cuts applied:  1

Root node processing (before b&c):
  Real time             =    1.08 sec. (482.13 ticks)
Parallel b&c, 12 threads:
  Real time             =    8.73 sec. (309.48 ticks)
  Sync time (average)   =    7.01 sec.
  Wait time (average)   =    0.00 sec.
                          ------------
Total (root+branch&cut) =    9.81 sec. (791.61 ticks)
9.828000 
TRUE-modelo
camion 1, FALSE-heu 0.001
Version identifier: 12.10.0.0 | 2019-11-26 | 843d4de2ae
CPXPARAM_Threads                                 12
CPXPARAM_MIP_Strategy_Probe                      -1
CPXPARAM_Emphasis_MIP                            1
Tried aggregator 2 times.
MIP Presolve eliminated 538 rows and 34 columns.
MIP Presolve modified 2295 coefficients.
Aggregator did 2 substitutions.
Reduced MIP has 1062 rows, 717 columns, and 25179 nonzeros.
Reduced MIP has 717 binaries, 0 generals, 0 SOSs, and 0 indicators.
Presolve time = 0.08 sec. (89.24 ticks)
Tried aggregator 1 time.
Detecting symmetries...
Reduced MIP has 1062 rows, 717 columns, and 25179 nonzeros.
Reduced MIP has 717 binaries, 0 generals, 0 SOSs, and 0 indicators.
Presolve time = 0.03 sec. (26.43 ticks)
Clique table members: 1000.
MIP emphasis: integer feasibility.
MIP search method: dynamic search.
Parallel mode: deterministic, using up to 12 threads.
Root relaxation solution time = 0.03 sec. (12.94 ticks)

        Nodes                                         Cuts/
   Node  Left     Objective  IInf  Best Integer    Best Bound    ItCnt     Gap

      0     0        0.0000    86                      0.0000      193         
*     0+    0                            0.0000        0.0000             0.00%
      0     0        cutoff              0.0000        0.0000      386    0.00%
Elapsed time = 0.81 sec. (704.21 ticks, tree = 0.01 MB, solutions = 1)

Clique cuts applied:  79
Gomory fractional cuts applied:  1

Root node processing (before b&c):
  Real time             =    0.81 sec. (704.32 ticks)
Parallel b&c, 12 threads:
  Real time             =    0.00 sec. (0.00 ticks)
  Sync time (average)   =    0.00 sec.
  Wait time (average)   =    0.00 sec.
                          ------------
Total (root+branch&cut) =    0.81 sec. (704.32 ticks)
0.813000 
TRUE-modelo
camion 3, FALSE-heu 0.001
Version identifier: 12.10.0.0 | 2019-11-26 | 843d4de2ae
CPXPARAM_Threads                                 12
CPXPARAM_MIP_Strategy_Probe                      -1
CPXPARAM_Emphasis_MIP                            1
Tried aggregator 2 times.
MIP Presolve eliminated 45 rows and 34 columns.
MIP Presolve modified 1221 coefficients.
Aggregator did 2 substitutions.
Reduced MIP has 594 rows, 653 columns, and 13937 nonzeros.
Reduced MIP has 653 binaries, 0 generals, 0 SOSs, and 0 indicators.
Presolve time = 0.03 sec. (21.56 ticks)
Tried aggregator 1 time.
Detecting symmetries...
Reduced MIP has 594 rows, 653 columns, and 13937 nonzeros.
Reduced MIP has 653 binaries, 0 generals, 0 SOSs, and 0 indicators.
Presolve time = 0.00 sec. (13.37 ticks)
Clique table members: 532.
MIP emphasis: integer feasibility.
MIP search method: dynamic search.
Parallel mode: deterministic, using up to 12 threads.
Root relaxation solution time = 0.02 sec. (6.53 ticks)

        Nodes                                         Cuts/
   Node  Left     Objective  IInf  Best Integer    Best Bound    ItCnt     Gap

      0     0        0.0000    72                      0.0000      147         
      0     0        0.0000    72                    Fract: 1      148         
      0     0        0.0000    72                    Cuts: 33      288         
*     0+    0                            0.0000        0.0000             0.00%
      0     0        cutoff              0.0000        0.0000      288    0.00%
Elapsed time = 0.89 sec. (373.42 ticks, tree = 0.01 MB, solutions = 1)

Zero-half cuts applied:  1

Root node processing (before b&c):
  Real time             =    0.89 sec. (373.48 ticks)
Parallel b&c, 12 threads:
  Real time             =    0.00 sec. (0.00 ticks)
  Sync time (average)   =    0.00 sec.
  Wait time (average)   =    0.00 sec.
                          ------------
Total (root+branch&cut) =    0.89 sec. (373.48 ticks)
0.891000 
TRUE-modelo
Salgo lazy
Dentro lazy
camion 0, TRUE-heu 0.000632
camion 1, FALSE-heu 0.001
Version identifier: 12.10.0.0 | 2019-11-26 | 843d4de2ae
CPXPARAM_Threads                                 12
CPXPARAM_MIP_Strategy_Probe                      -1
CPXPARAM_Emphasis_MIP                            1
Tried aggregator 2 times.
MIP Presolve eliminated 538 rows and 34 columns.
MIP Presolve modified 2295 coefficients.
Aggregator did 2 substitutions.
Reduced MIP has 1062 rows, 717 columns, and 25179 nonzeros.
Reduced MIP has 717 binaries, 0 generals, 0 SOSs, and 0 indicators.
Presolve time = 0.08 sec. (89.62 ticks)
Tried aggregator 1 time.
Detecting symmetries...
Reduced MIP has 1062 rows, 717 columns, and 25179 nonzeros.
Reduced MIP has 717 binaries, 0 generals, 0 SOSs, and 0 indicators.
Presolve time = 0.05 sec. (26.40 ticks)
Clique table members: 1000.
MIP emphasis: integer feasibility.
MIP search method: dynamic search.
Parallel mode: deterministic, using up to 12 threads.
Root relaxation solution time = 0.03 sec. (14.02 ticks)

        Nodes                                         Cuts/
   Node  Left     Objective  IInf  Best Integer    Best Bound    ItCnt     Gap

      0     0        0.0000    95                      0.0000      205         
*     0+    0                            0.0000        0.0000             0.00%
      0     0        cutoff              0.0000        0.0000      239    0.00%
Elapsed time = 0.77 sec. (462.19 ticks, tree = 0.01 MB, solutions = 1)

Clique cuts applied:  21

Root node processing (before b&c):
  Real time             =    0.77 sec. (462.29 ticks)
Parallel b&c, 12 threads:
  Real time             =    0.00 sec. (0.00 ticks)
  Sync time (average)   =    0.00 sec.
  Wait time (average)   =    0.00 sec.
                          ------------
Total (root+branch&cut) =    0.77 sec. (462.29 ticks)
0.766000 
TRUE-modelo
camion 3, FALSE-heu 0.001
Version identifier: 12.10.0.0 | 2019-11-26 | 843d4de2ae
CPXPARAM_Threads                                 12
CPXPARAM_MIP_Strategy_Probe                      -1
CPXPARAM_Emphasis_MIP                            1
Tried aggregator 2 times.
MIP Presolve eliminated 45 rows and 34 columns.
MIP Presolve modified 1285 coefficients.
Aggregator did 2 substitutions.
Reduced MIP has 595 rows, 685 columns, and 14665 nonzeros.
Reduced MIP has 685 binaries, 0 generals, 0 SOSs, and 0 indicators.
Presolve time = 0.02 sec. (22.81 ticks)
Tried aggregator 1 time.
Detecting symmetries...
Reduced MIP has 595 rows, 685 columns, and 14665 nonzeros.
Reduced MIP has 685 binaries, 0 generals, 0 SOSs, and 0 indicators.
Presolve time = 0.01 sec. (14.17 ticks)
Clique table members: 533.
MIP emphasis: integer feasibility.
MIP search method: dynamic search.
Parallel mode: deterministic, using up to 12 threads.
Root relaxation solution time = 0.02 sec. (8.40 ticks)

        Nodes                                         Cuts/
   Node  Left     Objective  IInf  Best Integer    Best Bound    ItCnt     Gap

      0     0        0.0000    74                      0.0000      179         
      0     0        0.0000    74                    Fract: 1      180         
      0     0        0.0000    74                    Cuts: 19      253         
      0     2        0.0000    14                      0.0000      253         
Elapsed time = 2.98 sec. (222.00 ticks, tree = 0.02 MB, solutions = 0)
*   618   244      integral     0        0.0000        0.0000    19069    0.00%

Zero-half cuts applied:  1

Root node processing (before b&c):
  Real time             =    0.83 sec. (221.64 ticks)
Parallel b&c, 12 threads:
  Real time             =    7.72 sec. (77.29 ticks)
  Sync time (average)   =    6.14 sec.
  Wait time (average)   =    0.00 sec.
                          ------------
Total (root+branch&cut) =    8.55 sec. (298.92 ticks)
8.563000 
TRUE-modelo
Salgo lazy
Dentro lazy
      9     7     7882.2784    63     9802.0000     6432.5840    13396   34.37%         X_1_5_4 D     22     14      4
camion 0, FALSE-heu 0.001
Version identifier: 12.10.0.0 | 2019-11-26 | 843d4de2ae
CPXPARAM_Threads                                 12
CPXPARAM_MIP_Strategy_Probe                      -1
CPXPARAM_Emphasis_MIP                            1
Tried aggregator 2 times.
MIP Presolve eliminated 1005 rows and 34 columns.
MIP Presolve modified 1777 coefficients.
Aggregator did 2 substitutions.
Reduced MIP has 595 rows, 685 columns, and 19611 nonzeros.
Reduced MIP has 685 binaries, 0 generals, 0 SOSs, and 0 indicators.
Presolve time = 0.11 sec. (121.77 ticks)
Tried aggregator 1 time.
Detecting symmetries...
Reduced MIP has 595 rows, 685 columns, and 19611 nonzeros.
Reduced MIP has 685 binaries, 0 generals, 0 SOSs, and 0 indicators.
Presolve time = 0.03 sec. (29.22 ticks)
Clique table members: 533.
MIP emphasis: integer feasibility.
MIP search method: dynamic search.
Parallel mode: deterministic, using up to 12 threads.
Root relaxation solution time = 0.02 sec. (8.79 ticks)

        Nodes                                         Cuts/
   Node  Left     Objective  IInf  Best Integer    Best Bound    ItCnt     Gap

      0     0        0.0000    79                      0.0000      175         
      0     0        0.0000    79                 Cliques: 16      198         
      0     0        0.0000    79                    Cuts: 32      250         
Detecting symmetries...
      0     2        0.0000     6                      0.0000      250         
Elapsed time = 3.09 sec. (396.60 ticks, tree = 0.02 MB, solutions = 0)
   2573  1082    infeasible                            0.0000    84918         
   5900  1737        0.0000    36                      0.0000   178823         

Performing restart 1

Repeating presolve.
Tried aggregator 1 time.
MIP Presolve modified 210 coefficients.
Reduced MIP has 595 rows, 685 columns, and 19581 nonzeros.
Reduced MIP has 685 binaries, 0 generals, 0 SOSs, and 0 indicators.
Presolve time = 0.03 sec. (32.42 ticks)
Represolve time = 0.05 sec. (40.22 ticks)
   6150     0        0.0000    80                 ZeroHalf: 1   201525         
   6150     0        0.0000    80                    Cuts: 52   201619         
   6150     0        0.0000    80                  Cliques: 1   201622         
   6150     2        0.0000    10                      0.0000   201622         
*  7120   229      integral     0        0.0000        0.0000   256057    0.00%

Clique cuts applied:  14
Mixed integer rounding cuts applied:  2
Zero-half cuts applied:  4
Gomory fractional cuts applied:  1

Root node processing (before b&c):
  Real time             =    0.88 sec. (396.19 ticks)
Parallel b&c, 12 threads:
  Real time             =   20.36 sec. (1104.23 ticks)
  Sync time (average)   =   15.15 sec.
  Wait time (average)   =    0.01 sec.
                          ------------
Total (root+branch&cut) =   21.23 sec. (1500.42 ticks)
21.235000 
TRUE-modelo
camion 1, FALSE-heu 0.001
Version identifier: 12.10.0.0 | 2019-11-26 | 843d4de2ae
CPXPARAM_Threads                                 12
CPXPARAM_MIP_Strategy_Probe                      -1
CPXPARAM_Emphasis_MIP                            1
Tried aggregator 2 times.
MIP Presolve eliminated 975 rows and 34 columns.
MIP Presolve modified 1763 coefficients.
Aggregator did 2 substitutions.
Reduced MIP has 625 rows, 685 columns, and 20375 nonzeros.
Reduced MIP has 685 binaries, 0 generals, 0 SOSs, and 0 indicators.
Presolve time = 0.11 sec. (109.70 ticks)
Tried aggregator 1 time.
Detecting symmetries...
Reduced MIP has 625 rows, 685 columns, and 20375 nonzeros.
Reduced MIP has 685 binaries, 0 generals, 0 SOSs, and 0 indicators.
Presolve time = 0.03 sec. (27.93 ticks)
Clique table members: 563.
MIP emphasis: integer feasibility.
MIP search method: dynamic search.
Parallel mode: deterministic, using up to 12 threads.
Root relaxation solution time = 0.03 sec. (10.10 ticks)

        Nodes                                         Cuts/
   Node  Left     Objective  IInf  Best Integer    Best Bound    ItCnt     Gap

      0     0        0.0000    77                      0.0000      187         
      0     0        0.0000    77                 Cliques: 23      259         
      0     0        0.0000    77                    Cuts: 37      289         
      0     0        0.0000    77                    Cuts: 28      341         
      0     2        0.0000    19                      0.0000      341         
Elapsed time = 3.06 sec. (647.29 ticks, tree = 0.02 MB, solutions = 0)
*  1589   585      integral     0        0.0000        0.0000    47874    0.00%

Clique cuts applied:  31
Cover cuts applied:  10
Zero-half cuts applied:  8
Gomory fractional cuts applied:  1

Root node processing (before b&c):
  Real time             =    1.83 sec. (646.79 ticks)
Parallel b&c, 12 threads:
  Real time             =    7.08 sec. (184.70 ticks)
  Sync time (average)   =    5.96 sec.
  Wait time (average)   =    0.00 sec.
                          ------------
Total (root+branch&cut) =    8.91 sec. (831.49 ticks)
8.906000 
TRUE-modelo
camion 3, FALSE-heu 0.001
Version identifier: 12.10.0.0 | 2019-11-26 | 843d4de2ae
CPXPARAM_Threads                                 12
CPXPARAM_MIP_Strategy_Probe                      -1
CPXPARAM_Emphasis_MIP                            1
Tried aggregator 2 times.
MIP Presolve eliminated 45 rows and 34 columns.
MIP Presolve modified 1285 coefficients.
Aggregator did 2 substitutions.
Reduced MIP has 595 rows, 685 columns, and 14665 nonzeros.
Reduced MIP has 685 binaries, 0 generals, 0 SOSs, and 0 indicators.
Presolve time = 0.05 sec. (23.74 ticks)
Tried aggregator 1 time.
Detecting symmetries...
Reduced MIP has 595 rows, 685 columns, and 14665 nonzeros.
Reduced MIP has 685 binaries, 0 generals, 0 SOSs, and 0 indicators.
Presolve time = 0.02 sec. (15.13 ticks)
Clique table members: 533.
MIP emphasis: integer feasibility.
MIP search method: dynamic search.
Parallel mode: deterministic, using up to 12 threads.
Root relaxation solution time = 0.02 sec. (7.05 ticks)

        Nodes                                         Cuts/
   Node  Left     Objective  IInf  Best Integer    Best Bound    ItCnt     Gap

      0     0        0.0000    64                      0.0000      157         
      0     0        0.0000    64                 Cliques: 24      267         
      0     0        0.0000    64                    Cuts: 57      378         
*     0+    0                            0.0000        0.0000             0.00%
      0     0        cutoff              0.0000        0.0000      378    0.00%
Elapsed time = 0.48 sec. (267.85 ticks, tree = 0.01 MB, solutions = 1)

Clique cuts applied:  19
Zero-half cuts applied:  1

Root node processing (before b&c):
  Real time             =    0.48 sec. (267.92 ticks)
Parallel b&c, 12 threads:
  Real time             =    0.00 sec. (0.00 ticks)
  Sync time (average)   =    0.00 sec.
  Wait time (average)   =    0.00 sec.
                          ------------
Total (root+branch&cut) =    0.48 sec. (267.92 ticks)
0.500000 
TRUE-modelo
Salgo lazy
Dentro lazy
camion 0, FALSE-heu 0.001
Version identifier: 12.10.0.0 | 2019-11-26 | 843d4de2ae
CPXPARAM_Threads                                 12
CPXPARAM_MIP_Strategy_Probe                      -1
CPXPARAM_Emphasis_MIP                            1
Tried aggregator 2 times.
MIP Presolve eliminated 538 rows and 34 columns.
MIP Presolve modified 2231 coefficients.
Aggregator did 2 substitutions.
Reduced MIP has 1061 rows, 685 columns, and 23985 nonzeros.
Reduced MIP has 685 binaries, 0 generals, 0 SOSs, and 0 indicators.
Presolve time = 0.08 sec. (82.12 ticks)
Tried aggregator 1 time.
Detecting symmetries...
Reduced MIP has 1061 rows, 685 columns, and 23985 nonzeros.
Reduced MIP has 685 binaries, 0 generals, 0 SOSs, and 0 indicators.
Presolve time = 0.02 sec. (24.55 ticks)
Clique table members: 999.
MIP emphasis: integer feasibility.
MIP search method: dynamic search.
Parallel mode: deterministic, using up to 12 threads.
Root relaxation solution time = 0.02 sec. (15.40 ticks)

        Nodes                                         Cuts/
   Node  Left     Objective  IInf  Best Integer    Best Bound    ItCnt     Gap

      0     0        0.0000    80                      0.0000      223         
Detecting symmetries...
      0     2        0.0000    22                      0.0000      223         
Elapsed time = 3.27 sec. (413.79 ticks, tree = 0.02 MB, solutions = 0)
   2195   941    infeasible                            0.0000    61069         
   4871  2025    infeasible                            0.0000   131280         

Performing restart 1

Repeating presolve.
Tried aggregator 1 time.
MIP Presolve eliminated 2 rows and 0 columns.
MIP Presolve modified 211 coefficients.
Reduced MIP has 1059 rows, 685 columns, and 23925 nonzeros.
Reduced MIP has 685 binaries, 0 generals, 0 SOSs, and 0 indicators.
Presolve time = 0.03 sec. (29.34 ticks)
Represolve time = 0.03 sec. (37.68 ticks)
   6057     0        0.0000    79                  Cliques: 7   176323         
   6057     0        0.0000    79                    Cuts: 40   176426         
   6057     0        0.0000    79                 ZeroHalf: 1   176460         
   6057     2        0.0000     9                      0.0000   176460         
   7324   287        0.0000    31                      0.0000   226555         
   8722   717    infeasible                            0.0000   289336         
  10004   549        0.0000    39                      0.0000   343274         
  11124   591    infeasible                            0.0000   399288         
  12285   351    infeasible                            0.0000   453367         
  13253   260        0.0000    38                      0.0000   512586         
  15712   145        0.0000    46                      0.0000   708526         
Elapsed time = 29.53 sec. (3855.81 ticks, tree = 0.06 MB, solutions = 0)
  17909    34        0.0000    62                      0.0000   861422         

Clique cuts applied:  29
Cover cuts applied:  6
Mixed integer rounding cuts applied:  7
Zero-half cuts applied:  3
Lift and project cuts applied:  1

Root node processing (before b&c):
  Real time             =    0.74 sec. (413.21 ticks)
Parallel b&c, 12 threads:
  Real time             =   46.41 sec. (4562.76 ticks)
  Sync time (average)   =   31.67 sec.
  Wait time (average)   =    0.03 sec.
                          ------------
Total (root+branch&cut) =   47.14 sec. (4975.97 ticks)
47.141000 
FALSE-modelo
 Salgo lazy
*    16+    1                         9716.0000     6432.5840            33.79%
     22    16     8303.0459    64     9716.0000     6432.5840    14007   33.79%         X_3_2_5 D     37     21      7
*    23+    4                         9628.0000     6432.5840            33.19%
     49    19     9230.1735    50     9628.0000     6829.7469    18546   29.06%         X_3_4_1 U    144     15      3
Dentro lazy
camion 0, FALSE-heu 0.001
Version identifier: 12.10.0.0 | 2019-11-26 | 843d4de2ae
CPXPARAM_Threads                                 12
CPXPARAM_MIP_Strategy_Probe                      -1
CPXPARAM_Emphasis_MIP                            1
Tried aggregator 2 times.
MIP Presolve eliminated 1003 rows and 34 columns.
MIP Presolve modified 1699 coefficients.
Aggregator did 2 substitutions.
Reduced MIP has 596 rows, 653 columns, and 18935 nonzeros.
Reduced MIP has 653 binaries, 0 generals, 0 SOSs, and 0 indicators.
Presolve time = 0.11 sec. (119.07 ticks)
Tried aggregator 1 time.
Detecting symmetries...
Reduced MIP has 596 rows, 653 columns, and 18935 nonzeros.
Reduced MIP has 653 binaries, 0 generals, 0 SOSs, and 0 indicators.
Presolve time = 0.03 sec. (29.37 ticks)
Clique table members: 534.
MIP emphasis: integer feasibility.
MIP search method: dynamic search.
Parallel mode: deterministic, using up to 12 threads.
Root relaxation solution time = 0.02 sec. (7.62 ticks)

        Nodes                                         Cuts/
   Node  Left     Objective  IInf  Best Integer    Best Bound    ItCnt     Gap

      0     0        0.0000    82                      0.0000      160         
*     0+    0                            0.0000        0.0000             0.00%
      0     0        cutoff              0.0000        0.0000      216    0.00%
Elapsed time = 0.55 sec. (456.80 ticks, tree = 0.01 MB, solutions = 1)

Clique cuts applied:  1

Root node processing (before b&c):
  Real time             =    0.55 sec. (456.88 ticks)
Parallel b&c, 12 threads:
  Real time             =    0.00 sec. (0.00 ticks)
  Sync time (average)   =    0.00 sec.
  Wait time (average)   =    0.00 sec.
                          ------------
Total (root+branch&cut) =    0.55 sec. (456.88 ticks)
0.546000 
TRUE-modelo
camion 1, FALSE-heu 0.001
Version identifier: 12.10.0.0 | 2019-11-26 | 843d4de2ae
CPXPARAM_Threads                                 12
CPXPARAM_MIP_Strategy_Probe                      -1
CPXPARAM_Emphasis_MIP                            1
Tried aggregator 2 times.
MIP Presolve eliminated 975 rows and 34 columns.
MIP Presolve modified 1827 coefficients.
Aggregator did 2 substitutions.
Reduced MIP has 626 rows, 717 columns, and 21103 nonzeros.
Reduced MIP has 717 binaries, 0 generals, 0 SOSs, and 0 indicators.
Presolve time = 0.13 sec. (113.74 ticks)
Tried aggregator 1 time.
Detecting symmetries...
Reduced MIP has 626 rows, 717 columns, and 21103 nonzeros.
Reduced MIP has 717 binaries, 0 generals, 0 SOSs, and 0 indicators.
Presolve time = 0.05 sec. (28.62 ticks)
Clique table members: 564.
MIP emphasis: integer feasibility.
MIP search method: dynamic search.
Parallel mode: deterministic, using up to 12 threads.
Root relaxation solution time = 0.02 sec. (9.19 ticks)

        Nodes                                         Cuts/
   Node  Left     Objective  IInf  Best Integer    Best Bound    ItCnt     Gap

      0     0        0.0000    78                      0.0000      163         
      0     0        0.0000    78                    Cuts: 15      245         
      0     0        0.0000    78                    Cuts: 92      401         
*     0+    0                            0.0000        0.0000             0.00%
      0     0        cutoff              0.0000        0.0000      401    0.00%
Elapsed time = 0.73 sec. (509.06 ticks, tree = 0.01 MB, solutions = 1)

Clique cuts applied:  19
Zero-half cuts applied:  2

Root node processing (before b&c):
  Real time             =    0.75 sec. (509.15 ticks)
Parallel b&c, 12 threads:
  Real time             =    0.00 sec. (0.00 ticks)
  Sync time (average)   =    0.00 sec.
  Wait time (average)   =    0.00 sec.
                          ------------
Total (root+branch&cut) =    0.75 sec. (509.15 ticks)
0.766000 
TRUE-modelo
camion 3, FALSE-heu 0.001
Version identifier: 12.10.0.0 | 2019-11-26 | 843d4de2ae
CPXPARAM_Threads                                 12
CPXPARAM_MIP_Strategy_Probe                      -1
CPXPARAM_Emphasis_MIP                            1
Tried aggregator 2 times.
MIP Presolve eliminated 45 rows and 34 columns.
MIP Presolve modified 1285 coefficients.
Aggregator did 2 substitutions.
Reduced MIP has 595 rows, 685 columns, and 14665 nonzeros.
Reduced MIP has 685 binaries, 0 generals, 0 SOSs, and 0 indicators.
Presolve time = 0.02 sec. (23.74 ticks)
Tried aggregator 1 time.
Detecting symmetries...
Reduced MIP has 595 rows, 685 columns, and 14665 nonzeros.
Reduced MIP has 685 binaries, 0 generals, 0 SOSs, and 0 indicators.
Presolve time = 0.02 sec. (15.13 ticks)
Clique table members: 533.
MIP emphasis: integer feasibility.
MIP search method: dynamic search.
Parallel mode: deterministic, using up to 12 threads.
Root relaxation solution time = 0.02 sec. (6.78 ticks)

        Nodes                                         Cuts/
   Node  Left     Objective  IInf  Best Integer    Best Bound    ItCnt     Gap

      0     0        0.0000    70                      0.0000      150         
*     0+    0                            0.0000        0.0000             0.00%
      0     0        cutoff              0.0000        0.0000      166    0.00%
Elapsed time = 0.42 sec. (182.33 ticks, tree = 0.01 MB, solutions = 1)

Clique cuts applied:  3

Root node processing (before b&c):
  Real time             =    0.42 sec. (182.40 ticks)
Parallel b&c, 12 threads:
  Real time             =    0.00 sec. (0.00 ticks)
  Sync time (average)   =    0.00 sec.
  Wait time (average)   =    0.00 sec.
                          ------------
Total (root+branch&cut) =    0.42 sec. (182.40 ticks)
0.438000 
TRUE-modelo
Salgo lazy
     81    43     8313.2230    43     9628.0000     6829.7469    23608   29.06%         X_0_2_5 D    150    134     18
*    85+    7                         9115.0000     6829.7469            25.07%
    132    60     8552.0223    31     9115.0000     6829.7469    28122   25.07%         X_1_5_1 D    113    105     17
    219    70     8837.0937    45     9115.0000     6829.7469    36323   25.07%         X_1_1_0 D    170    162     25
Dentro lazy
camion 0, FALSE-heu 0.001
Version identifier: 12.10.0.0 | 2019-11-26 | 843d4de2ae
CPXPARAM_Threads                                 12
CPXPARAM_MIP_Strategy_Probe                      -1
CPXPARAM_Emphasis_MIP                            1
Tried aggregator 2 times.
MIP Presolve eliminated 45 rows and 34 columns.
MIP Presolve modified 1221 coefficients.
Aggregator did 2 substitutions.
Reduced MIP has 594 rows, 653 columns, and 13937 nonzeros.
Reduced MIP has 653 binaries, 0 generals, 0 SOSs, and 0 indicators.
Presolve time = 0.03 sec. (20.97 ticks)
Tried aggregator 1 time.
Detecting symmetries...
Reduced MIP has 594 rows, 653 columns, and 13937 nonzeros.
Reduced MIP has 653 binaries, 0 generals, 0 SOSs, and 0 indicators.
Presolve time = 0.00 sec. (12.93 ticks)
Clique table members: 532.
MIP emphasis: integer feasibility.
MIP search method: dynamic search.
Parallel mode: deterministic, using up to 12 threads.
Root relaxation solution time = 0.02 sec. (7.15 ticks)

        Nodes                                         Cuts/
   Node  Left     Objective  IInf  Best Integer    Best Bound    ItCnt     Gap

      0     0        0.0000    66                      0.0000      166         
      0     0        0.0000    66                    Cuts: 13      236         
      0     0        0.0000    66                    Cuts: 33      322         
*     0+    0                            0.0000        0.0000             0.00%
      0     0        cutoff              0.0000        0.0000      322    0.00%
Elapsed time = 0.83 sec. (317.82 ticks, tree = 0.01 MB, solutions = 1)

Clique cuts applied:  9
Zero-half cuts applied:  3

Root node processing (before b&c):
  Real time             =    0.83 sec. (317.88 ticks)
Parallel b&c, 12 threads:
  Real time             =    0.00 sec. (0.00 ticks)
  Sync time (average)   =    0.00 sec.
  Wait time (average)   =    0.00 sec.
                          ------------
Total (root+branch&cut) =    0.83 sec. (317.88 ticks)
0.828000 
TRUE-modelo
camion 1, FALSE-heu 0.001
Version identifier: 12.10.0.0 | 2019-11-26 | 843d4de2ae
CPXPARAM_Threads                                 12
CPXPARAM_MIP_Strategy_Probe                      -1
CPXPARAM_Emphasis_MIP                            1
Tried aggregator 2 times.
MIP Presolve eliminated 538 rows and 34 columns.
MIP Presolve modified 2295 coefficients.
Aggregator did 2 substitutions.
Reduced MIP has 1062 rows, 717 columns, and 25179 nonzeros.
Reduced MIP has 717 binaries, 0 generals, 0 SOSs, and 0 indicators.
Presolve time = 0.09 sec. (88.33 ticks)
Tried aggregator 1 time.
Detecting symmetries...
Reduced MIP has 1062 rows, 717 columns, and 25179 nonzeros.
Reduced MIP has 717 binaries, 0 generals, 0 SOSs, and 0 indicators.
Presolve time = 0.03 sec. (26.35 ticks)
Clique table members: 1000.
MIP emphasis: integer feasibility.
MIP search method: dynamic search.
Parallel mode: deterministic, using up to 12 threads.
Root relaxation solution time = 0.09 sec. (11.58 ticks)

        Nodes                                         Cuts/
   Node  Left     Objective  IInf  Best Integer    Best Bound    ItCnt     Gap

      0     0        0.0000    75                      0.0000      165         
      0     0        0.0000    75                  Cliques: 3      263         
      0     0        0.0000    75                    Cuts: 10      330         
      0     0        0.0000    75                     Cuts: 2      339         
*     0+    0                            0.0000        0.0000             0.00%
      0     0        cutoff              0.0000        0.0000      339    0.00%
Elapsed time = 0.91 sec. (481.10 ticks, tree = 0.01 MB, solutions = 1)

Clique cuts applied:  1
Cover cuts applied:  1
Gomory fractional cuts applied:  1

Root node processing (before b&c):
  Real time             =    0.92 sec. (481.20 ticks)
Parallel b&c, 12 threads:
  Real time             =    0.00 sec. (0.00 ticks)
  Sync time (average)   =    0.00 sec.
  Wait time (average)   =    0.00 sec.
                          ------------
Total (root+branch&cut) =    0.92 sec. (481.20 ticks)
0.922000 
TRUE-modelo
camion 3, FALSE-heu 0.001
Version identifier: 12.10.0.0 | 2019-11-26 | 843d4de2ae
CPXPARAM_Threads                                 12
CPXPARAM_MIP_Strategy_Probe                      -1
CPXPARAM_Emphasis_MIP                            1
Tried aggregator 2 times.
MIP Presolve eliminated 45 rows and 34 columns.
MIP Presolve modified 1285 coefficients.
Aggregator did 2 substitutions.
Reduced MIP has 595 rows, 685 columns, and 14665 nonzeros.
Reduced MIP has 685 binaries, 0 generals, 0 SOSs, and 0 indicators.
Presolve time = 0.02 sec. (21.92 ticks)
Tried aggregator 1 time.
Detecting symmetries...
Reduced MIP has 595 rows, 685 columns, and 14665 nonzeros.
Reduced MIP has 685 binaries, 0 generals, 0 SOSs, and 0 indicators.
Presolve time = 0.02 sec. (13.46 ticks)
Clique table members: 533.
MIP emphasis: integer feasibility.
MIP search method: dynamic search.
Parallel mode: deterministic, using up to 12 threads.
Root relaxation solution time = 0.01 sec. (6.95 ticks)

        Nodes                                         Cuts/
   Node  Left     Objective  IInf  Best Integer    Best Bound    ItCnt     Gap

      0     0        0.0000    75                      0.0000      158         
      0     2        0.0000    15                      0.0000      158         
Elapsed time = 2.50 sec. (179.88 ticks, tree = 0.02 MB, solutions = 0)
*   883   280      integral     0        0.0000        0.0000    20088    0.00%

Clique cuts applied:  7
Cover cuts applied:  1

Root node processing (before b&c):
  Real time             =    0.53 sec. (179.48 ticks)
Parallel b&c, 12 threads:
  Real time             =    9.05 sec. (93.12 ticks)
  Sync time (average)   =    7.50 sec.
  Wait time (average)   =    0.00 sec.
                          ------------
Total (root+branch&cut) =    9.58 sec. (272.60 ticks)
9.594000 
TRUE-modelo
Salgo lazy
    342   125        cutoff           9115.0000     6829.7469    45364   25.07%         X_0_4_1 D    366    358     23
Dentro lazy
camion 0, FALSE-heu 0.001
Version identifier: 12.10.0.0 | 2019-11-26 | 843d4de2ae
CPXPARAM_Threads                                 12
CPXPARAM_MIP_Strategy_Probe                      -1
CPXPARAM_Emphasis_MIP                            1
Tried aggregator 2 times.
MIP Presolve eliminated 45 rows and 34 columns.
MIP Presolve modified 1221 coefficients.
Aggregator did 2 substitutions.
Reduced MIP has 594 rows, 653 columns, and 13937 nonzeros.
Reduced MIP has 653 binaries, 0 generals, 0 SOSs, and 0 indicators.
Presolve time = 0.03 sec. (20.97 ticks)
Tried aggregator 1 time.
Detecting symmetries...
Reduced MIP has 594 rows, 653 columns, and 13937 nonzeros.
Reduced MIP has 653 binaries, 0 generals, 0 SOSs, and 0 indicators.
Presolve time = 0.02 sec. (12.93 ticks)
Clique table members: 532.
MIP emphasis: integer feasibility.
MIP search method: dynamic search.
Parallel mode: deterministic, using up to 12 threads.
Root relaxation solution time = 0.00 sec. (5.90 ticks)

        Nodes                                         Cuts/
   Node  Left     Objective  IInf  Best Integer    Best Bound    ItCnt     Gap

      0     0        0.0000    61                      0.0000      140         
      0     0        0.0000    61                     Cuts: 5      220         
      0     0        0.0000    61                    Cuts: 65      391         
*     0+    0                            0.0000        0.0000             0.00%
      0     0        cutoff              0.0000        0.0000      391    0.00%
Elapsed time = 0.48 sec. (283.60 ticks, tree = 0.01 MB, solutions = 1)

Clique cuts applied:  11
Zero-half cuts applied:  5

Root node processing (before b&c):
  Real time             =    0.48 sec. (283.67 ticks)
Parallel b&c, 12 threads:
  Real time             =    0.00 sec. (0.00 ticks)
  Sync time (average)   =    0.00 sec.
  Wait time (average)   =    0.00 sec.
                          ------------
Total (root+branch&cut) =    0.48 sec. (283.67 ticks)
0.484000 
TRUE-modelo
camion 1, FALSE-heu 0.001
Version identifier: 12.10.0.0 | 2019-11-26 | 843d4de2ae
CPXPARAM_Threads                                 12
CPXPARAM_MIP_Strategy_Probe                      -1
CPXPARAM_Emphasis_MIP                            1
Tried aggregator 2 times.
MIP Presolve eliminated 538 rows and 34 columns.
MIP Presolve modified 2295 coefficients.
Aggregator did 2 substitutions.
Reduced MIP has 1062 rows, 717 columns, and 25179 nonzeros.
Reduced MIP has 717 binaries, 0 generals, 0 SOSs, and 0 indicators.
Presolve time = 0.08 sec. (81.78 ticks)
Tried aggregator 1 time.
Detecting symmetries...
Reduced MIP has 1062 rows, 717 columns, and 25179 nonzeros.
Reduced MIP has 717 binaries, 0 generals, 0 SOSs, and 0 indicators.
Presolve time = 0.02 sec. (25.18 ticks)
Clique table members: 1000.
MIP emphasis: integer feasibility.
MIP search method: dynamic search.
Parallel mode: deterministic, using up to 12 threads.
Root relaxation solution time = 0.02 sec. (13.32 ticks)

        Nodes                                         Cuts/
   Node  Left     Objective  IInf  Best Integer    Best Bound    ItCnt     Gap

      0     0        0.0000    90                      0.0000      190         
*     0+    0                            0.0000        0.0000             0.00%
      0     0        cutoff              0.0000        0.0000      295    0.00%
Elapsed time = 0.84 sec. (427.46 ticks, tree = 0.01 MB, solutions = 1)

Clique cuts applied:  66
Zero-half cuts applied:  2

Root node processing (before b&c):
  Real time             =    0.84 sec. (427.57 ticks)
Parallel b&c, 12 threads:
  Real time             =    0.00 sec. (0.00 ticks)
  Sync time (average)   =    0.00 sec.
  Wait time (average)   =    0.00 sec.
                          ------------
Total (root+branch&cut) =    0.84 sec. (427.57 ticks)
0.859000 
TRUE-modelo
camion 3, FALSE-heu 0.001
Version identifier: 12.10.0.0 | 2019-11-26 | 843d4de2ae
CPXPARAM_Threads                                 12
CPXPARAM_MIP_Strategy_Probe                      -1
CPXPARAM_Emphasis_MIP                            1
Tried aggregator 2 times.
MIP Presolve eliminated 45 rows and 34 columns.
MIP Presolve modified 1285 coefficients.
Aggregator did 2 substitutions.
Reduced MIP has 595 rows, 685 columns, and 14665 nonzeros.
Reduced MIP has 685 binaries, 0 generals, 0 SOSs, and 0 indicators.
Presolve time = 0.03 sec. (21.92 ticks)
Tried aggregator 1 time.
Detecting symmetries...
Reduced MIP has 595 rows, 685 columns, and 14665 nonzeros.
Reduced MIP has 685 binaries, 0 generals, 0 SOSs, and 0 indicators.
Presolve time = 0.02 sec. (13.46 ticks)
Clique table members: 533.
MIP emphasis: integer feasibility.
MIP search method: dynamic search.
Parallel mode: deterministic, using up to 12 threads.
Root relaxation solution time = 0.02 sec. (6.69 ticks)

        Nodes                                         Cuts/
   Node  Left     Objective  IInf  Best Integer    Best Bound    ItCnt     Gap

      0     0        0.0000    65                      0.0000      151         
      0     0        0.0000    65                    Cuts: 43      232         
      0     2        0.0000    35                      0.0000      232         
Elapsed time = 3.20 sec. (388.16 ticks, tree = 0.02 MB, solutions = 0)
   2071   550    infeasible                            0.0000    72887         
   4973  1528        0.0000    50                      0.0000   162873         

Performing restart 1

Repeating presolve.
Tried aggregator 1 time.
MIP Presolve eliminated 2 rows and 0 columns.
MIP Presolve modified 211 coefficients.
Reduced MIP has 593 rows, 685 columns, and 14605 nonzeros.
Reduced MIP has 685 binaries, 0 generals, 0 SOSs, and 0 indicators.
Presolve time = 0.02 sec. (16.13 ticks)
Represolve time = 0.03 sec. (26.44 ticks)
   6122     0        0.0000    74                    Fract: 1   219524         
   6122     0        0.0000    74                    Cuts: 54   219706         
   6122     2        0.0000     2                      0.0000   219706         
*  7778   513      integral     0        0.0000        0.0000   271433    0.00%

Cover cuts applied:  2
Zero-half cuts applied:  1

Root node processing (before b&c):
  Real time             =    1.09 sec. (387.76 ticks)
Parallel b&c, 12 threads:
  Real time             =   24.88 sec. (1113.65 ticks)
  Sync time (average)   =   19.80 sec.
  Wait time (average)   =    0.01 sec.
                          ------------
Total (root+branch&cut) =   25.97 sec. (1501.41 ticks)
25.969000 
TRUE-modelo
Salgo lazy
*   436   108      integral     0     8941.0000     7836.5084    42975   12.35%
    704   183     8880.4987    52     8941.0000     7892.5906    85270   11.73%         X_1_2_5 D    737    729     12
Elapsed time = 279.08 sec. (8038.82 ticks, tree = 0.73 MB, solutions = 10)
   1153    49     8921.2411    63     8941.0000     8746.1796   142365    2.18%         X_0_4_0 N   1366   1358     19

GUB cover cuts applied:  42
Cover cuts applied:  188
Flow cuts applied:  8
Mixed integer rounding cuts applied:  16
Zero-half cuts applied:  44
Gomory fractional cuts applied:  2
User cuts applied:  3

Root node processing (before b&c):
  Real time             =   63.84 sec. (3930.10 ticks)
Parallel b&c, 8 threads:
  Real time             =  217.89 sec. (5220.71 ticks)
  Sync time (average)   =   92.43 sec.
  Wait time (average)   =    0.00 sec.
                          ------------
Total (root+branch&cut) =  281.73 sec. (9150.81 ticks)
281.734000 
