Instances\Inst5P2Du_5.csvVersion identifier: 12.10.0.0 | 2019-11-26 | 843d4de2ae
CPXPARAM_Threads                                 8
CPXPARAM_MIP_Strategy_File                       3
CPXPARAM_MIP_Strategy_Probe                      -1
CPXPARAM_TimeLimit                               3600
Lazy constraint(s) or lazy constraint/branch callback is present.
    Disabling dual reductions (CPX_PARAM_REDUCE) in presolve.
    Disabling non-linear reductions (CPX_PARAM_PRELINEAR) in presolve.
    Disabling presolve reductions that prevent crushing forms.
         Disabling repeat represolve because of lazy constraint/incumbent callback.
Dentro lazy
camion 0, TRUE-heu 0.000021
camion 1, TRUE-heu 0.000039
camion 2, TRUE-heu 0.000056
camion 3, TRUE-heu 0.000073
camion 4, TRUE-heu 0.000106
Salgo lazy
1 of 1 MIP starts provided solutions.
MIP start 'm1' defined initial solution with objective 11974.0000.
Tried aggregator 1 time.
MIP Presolve eliminated 215 rows and 345 columns.
MIP Presolve modified 10079 coefficients.
Reduced MIP has 525 rows, 9585 columns, and 84886 nonzeros.
Reduced MIP has 9460 binaries, 0 generals, 0 SOSs, and 0 indicators.
Presolve time = 0.09 sec. (73.64 ticks)
Clique table members: 275.
MIP emphasis: balance optimality and feasibility.
MIP search method: traditional branch-and-cut.
Parallel mode: deterministic, using up to 8 threads.
Root relaxation solution time = 0.16 sec. (169.06 ticks)

        Nodes                                         Cuts/
   Node  Left     Objective  IInf  Best Integer    Best Bound    ItCnt     Gap         Variable B NodeID Parent  Depth

*     0+    0                        11974.0000        0.0000           100.00%
      0     0     3874.4798    92    11974.0000     3874.4798       21   67.64%
      0     0     5287.4975    92    11974.0000      Cuts: 73     2789   55.84%
      0     0     5545.1898    92    11974.0000      Cuts: 95     4479   53.69%
      0     0     5640.6553    92    11974.0000      Cuts: 79     6634   52.89%
Dentro lazy
camion 0, FALSE-heu 0.000
Version identifier: 12.10.0.0 | 2019-11-26 | 843d4de2ae
CPXPARAM_Threads                                 12
CPXPARAM_MIP_Strategy_Probe                      -1
CPXPARAM_Emphasis_MIP                            1
Tried aggregator 2 times.
MIP Presolve eliminated 1948 rows and 34 columns.
MIP Presolve modified 2293 coefficients.
Aggregator did 2 substitutions.
Reduced MIP has 1092 rows, 717 columns, and 31828 nonzeros.
Reduced MIP has 717 binaries, 0 generals, 0 SOSs, and 0 indicators.
Presolve time = 0.17 sec. (193.40 ticks)
Tried aggregator 1 time.
Detecting symmetries...
Reduced MIP has 1092 rows, 717 columns, and 31828 nonzeros.
Reduced MIP has 717 binaries, 0 generals, 0 SOSs, and 0 indicators.
Presolve time = 0.05 sec. (44.85 ticks)
Clique table members: 1030.
MIP emphasis: integer feasibility.
MIP search method: dynamic search.
Parallel mode: deterministic, using up to 12 threads.

Root node processing (before b&c):
  Real time             =    0.34 sec. (327.23 ticks)
Parallel b&c, 12 threads:
  Real time             =    0.00 sec. (0.00 ticks)
  Sync time (average)   =    0.00 sec.
  Wait time (average)   =    0.00 sec.
                          ------------
Total (root+branch&cut) =    0.34 sec. (327.23 ticks)
0.343000 
TRUE-modelo
camion 1, TRUE-heu 0.000185
camion 3, FALSE-heu 0.000
Version identifier: 12.10.0.0 | 2019-11-26 | 843d4de2ae
CPXPARAM_Threads                                 12
CPXPARAM_MIP_Strategy_Probe                      -1
CPXPARAM_Emphasis_MIP                            1
Tried aggregator 2 times.
MIP Presolve eliminated 45 rows and 34 columns.
MIP Presolve modified 1349 coefficients.
Aggregator did 2 substitutions.
Reduced MIP has 596 rows, 717 columns, and 15393 nonzeros.
Reduced MIP has 717 binaries, 0 generals, 0 SOSs, and 0 indicators.
Presolve time = 0.03 sec. (24.51 ticks)
Tried aggregator 1 time.
Detecting symmetries...
Reduced MIP has 596 rows, 717 columns, and 15393 nonzeros.
Reduced MIP has 717 binaries, 0 generals, 0 SOSs, and 0 indicators.
Presolve time = 0.02 sec. (15.39 ticks)
Clique table members: 534.
MIP emphasis: integer feasibility.
MIP search method: dynamic search.
Parallel mode: deterministic, using up to 12 threads.
Root relaxation solution time = 0.00 sec. (6.89 ticks)

        Nodes                                         Cuts/
   Node  Left     Objective  IInf  Best Integer    Best Bound    ItCnt     Gap

      0     0        0.0000    73                      0.0000      156         
*     0+    0                            0.0000        0.0000             0.00%
      0     0        cutoff              0.0000        0.0000      156    0.00%
Elapsed time = 0.42 sec. (172.77 ticks, tree = 0.01 MB, solutions = 1)

Root node processing (before b&c):
  Real time             =    0.42 sec. (172.84 ticks)
Parallel b&c, 12 threads:
  Real time             =    0.00 sec. (0.00 ticks)
  Sync time (average)   =    0.00 sec.
  Wait time (average)   =    0.00 sec.
                          ------------
Total (root+branch&cut) =    0.42 sec. (172.84 ticks)
0.422000 
TRUE-modelo
Salgo lazy
*     0+    0                        10215.0000     5640.6553            44.78%
Dentro lazy
camion 0, FALSE-heu 0.000
Version identifier: 12.10.0.0 | 2019-11-26 | 843d4de2ae
CPXPARAM_Threads                                 12
CPXPARAM_MIP_Strategy_Probe                      -1
CPXPARAM_Emphasis_MIP                            1
Tried aggregator 2 times.
MIP Presolve eliminated 45 rows and 34 columns.
MIP Presolve modified 1285 coefficients.
Aggregator did 2 substitutions.
Reduced MIP has 595 rows, 685 columns, and 14665 nonzeros.
Reduced MIP has 685 binaries, 0 generals, 0 SOSs, and 0 indicators.
Presolve time = 0.02 sec. (22.81 ticks)
Tried aggregator 1 time.
Detecting symmetries...
Reduced MIP has 595 rows, 685 columns, and 14665 nonzeros.
Reduced MIP has 685 binaries, 0 generals, 0 SOSs, and 0 indicators.
Presolve time = 0.02 sec. (14.24 ticks)
Clique table members: 533.
MIP emphasis: integer feasibility.
MIP search method: dynamic search.
Parallel mode: deterministic, using up to 12 threads.
Root relaxation solution time = 0.03 sec. (7.71 ticks)

        Nodes                                         Cuts/
   Node  Left     Objective  IInf  Best Integer    Best Bound    ItCnt     Gap

      0     0        0.0000    72                      0.0000      168         
      0     2        0.0000    15                      0.0000      168         
Elapsed time = 2.55 sec. (221.63 ticks, tree = 0.02 MB, solutions = 0)
   3273  1192        0.0000    17                      0.0000    91400         
   5738  1782        0.0000    13                      0.0000   182694         

Performing restart 1

Repeating presolve.
Tried aggregator 1 time.
MIP Presolve eliminated 2 rows and 0 columns.
MIP Presolve modified 211 coefficients.
Reduced MIP has 593 rows, 685 columns, and 14605 nonzeros.
Reduced MIP has 685 binaries, 0 generals, 0 SOSs, and 0 indicators.
Presolve time = 0.01 sec. (17.23 ticks)
Represolve time = 0.03 sec. (24.12 ticks)
   5949     0        0.0000    76                  Cliques: 4   204315         
   5949     0        0.0000    76                    Cuts: 62   204443         
   5949     2        0.0000    10                      0.0000   204443         
*  6408   129      integral     0        0.0000        0.0000   217746    0.00%

Root node processing (before b&c):
  Real time             =    0.45 sec. (221.27 ticks)
Parallel b&c, 12 threads:
  Real time             =   14.50 sec. (868.69 ticks)
  Sync time (average)   =   10.50 sec.
  Wait time (average)   =    0.02 sec.
                          ------------
Total (root+branch&cut) =   14.95 sec. (1089.97 ticks)
14.984000 
TRUE-modelo
camion 1, FALSE-heu 0.000
Version identifier: 12.10.0.0 | 2019-11-26 | 843d4de2ae
CPXPARAM_Threads                                 12
CPXPARAM_MIP_Strategy_Probe                      -1
CPXPARAM_Emphasis_MIP                            1
Tried aggregator 2 times.
MIP Presolve eliminated 1978 rows and 34 columns.
MIP Presolve modified 2247 coefficients.
Aggregator did 2 substitutions.
Reduced MIP has 1061 rows, 685 columns, and 33197 nonzeros.
Reduced MIP has 685 binaries, 0 generals, 0 SOSs, and 0 indicators.
Presolve time = 0.31 sec. (334.51 ticks)
Tried aggregator 1 time.
Detecting symmetries...
Reduced MIP has 1061 rows, 685 columns, and 33197 nonzeros.
Reduced MIP has 685 binaries, 0 generals, 0 SOSs, and 0 indicators.
Presolve time = 0.05 sec. (49.08 ticks)
Clique table members: 999.
MIP emphasis: integer feasibility.
MIP search method: dynamic search.
Parallel mode: deterministic, using up to 12 threads.
Root relaxation solution time = 0.05 sec. (15.23 ticks)

        Nodes                                         Cuts/
   Node  Left     Objective  IInf  Best Integer    Best Bound    ItCnt     Gap

      0     0        0.0000    96                      0.0000      194         
      0     0        0.0000    96                 Cliques: 20      253         
      0     0        0.0000    96                   Cuts: 104      419         
*     0+    0                            0.0000        0.0000             0.00%
      0     0        cutoff              0.0000        0.0000      445    0.00%
Elapsed time = 1.86 sec. (1329.01 ticks, tree = 0.01 MB, solutions = 1)

Clique cuts applied:  37
Zero-half cuts applied:  7
Gomory fractional cuts applied:  1

Root node processing (before b&c):
  Real time             =    1.86 sec. (1329.14 ticks)
Parallel b&c, 12 threads:
  Real time             =    0.00 sec. (0.00 ticks)
  Sync time (average)   =    0.00 sec.
  Wait time (average)   =    0.00 sec.
                          ------------
Total (root+branch&cut) =    1.86 sec. (1329.14 ticks)
1.860000 
TRUE-modelo
camion 4, FALSE-heu 0.000
Version identifier: 12.10.0.0 | 2019-11-26 | 843d4de2ae
CPXPARAM_Threads                                 12
CPXPARAM_MIP_Strategy_Probe                      -1
CPXPARAM_Emphasis_MIP                            1
Tried aggregator 2 times.
MIP Presolve eliminated 45 rows and 34 columns.
MIP Presolve modified 1285 coefficients.
Aggregator did 2 substitutions.
Reduced MIP has 595 rows, 685 columns, and 14665 nonzeros.
Reduced MIP has 685 binaries, 0 generals, 0 SOSs, and 0 indicators.
Presolve time = 0.03 sec. (23.11 ticks)
Tried aggregator 1 time.
Detecting symmetries...
Reduced MIP has 595 rows, 685 columns, and 14665 nonzeros.
Reduced MIP has 685 binaries, 0 generals, 0 SOSs, and 0 indicators.
Presolve time = 0.02 sec. (14.45 ticks)
Clique table members: 533.
MIP emphasis: integer feasibility.
MIP search method: dynamic search.
Parallel mode: deterministic, using up to 12 threads.
Root relaxation solution time = 0.01 sec. (6.36 ticks)

        Nodes                                         Cuts/
   Node  Left     Objective  IInf  Best Integer    Best Bound    ItCnt     Gap

      0     0        0.0000    76                      0.0000      145         
*     0+    0                            0.0000        0.0000             0.00%
      0     0        cutoff              0.0000        0.0000      216    0.00%
Elapsed time = 0.55 sec. (317.51 ticks, tree = 0.01 MB, solutions = 1)

Clique cuts applied:  15
Zero-half cuts applied:  1

Root node processing (before b&c):
  Real time             =    0.55 sec. (317.59 ticks)
Parallel b&c, 12 threads:
  Real time             =    0.00 sec. (0.00 ticks)
  Sync time (average)   =    0.00 sec.
  Wait time (average)   =    0.00 sec.
                          ------------
Total (root+branch&cut) =    0.55 sec. (317.59 ticks)
0.547000 
TRUE-modelo
Salgo lazy
*     0+    0                         9628.0000     5640.6553            41.41%
      0     0  -1.00000e+75     0     9628.0000     5640.6553     6634   41.41%
      0     0     5726.4434    92     9628.0000      Cuts: 72     7190   40.52%
      0     0     5786.1347    92     9628.0000      Cuts: 77     8005   39.90%
      0     0     5883.7629    92     9628.0000      Cuts: 73     8571   38.89%
      0     0     5971.0069    92     9628.0000      Cuts: 86     9968   37.98%
      0     0     6054.0170    92     9628.0000     Cuts: 109    10656   37.12%
      0     0     6060.4659    92     9628.0000      Cuts: 51    10893   37.05%
      0     0     6076.4226    92     9628.0000      Cuts: 58    11217   36.89%
      0     0     6085.2976    92     9628.0000      Cuts: 68    11371   36.80%
      0     0     6100.8316    92     9628.0000      Cuts: 76    11816   36.63%
      0     0     6109.3522    92     9628.0000      Cuts: 58    12147   36.55%
      0     0     6110.4109    92     9628.0000      Cuts: 62    12293   36.53%
      0     0     6112.8089    92     9628.0000      Cuts: 56    12593   36.51%
      0     0     6113.7117    92     9628.0000      Cuts: 51    12757   36.50%
      0     0     6117.5342    92     9628.0000      Cuts: 34    12931   36.46%
      0     0     6118.1671    92     9628.0000      Cuts: 51    13104   36.45%
      0     2     6118.1671   291     9628.0000     6118.1671    13104   36.45%                        0             0
Elapsed time = 28.05 sec. (8087.11 ticks, tree = 0.02 MB, solutions = 3)
      1     3     6684.7011   262     9628.0000     6175.1437    13846   35.86%              Y1 U      8      0      1
      4     5     6280.1473   225     9628.0000     6244.5098    15222   35.14%         X_0_3_1 D     15      7      2
      8     6     7111.9817   276     9628.0000     6244.5098    16030   35.14%         X_1_5_4 D     24     16      3
Dentro lazy
camion 0, TRUE-heu 0.000320
camion 1, FALSE-heu 0.000
Version identifier: 12.10.0.0 | 2019-11-26 | 843d4de2ae
CPXPARAM_Threads                                 12
CPXPARAM_MIP_Strategy_Probe                      -1
CPXPARAM_Emphasis_MIP                            1
Tried aggregator 2 times.
MIP Presolve eliminated 1003 rows and 34 columns.
MIP Presolve modified 1827 coefficients.
Aggregator did 2 substitutions.
Reduced MIP has 598 rows, 717 columns, and 20395 nonzeros.
Reduced MIP has 717 binaries, 0 generals, 0 SOSs, and 0 indicators.
Presolve time = 0.13 sec. (129.25 ticks)
Tried aggregator 1 time.
Detecting symmetries...
Reduced MIP has 598 rows, 717 columns, and 20395 nonzeros.
Reduced MIP has 717 binaries, 0 generals, 0 SOSs, and 0 indicators.
Presolve time = 0.05 sec. (31.01 ticks)
Clique table members: 536.
MIP emphasis: integer feasibility.
MIP search method: dynamic search.
Parallel mode: deterministic, using up to 12 threads.
Root relaxation solution time = 0.02 sec. (8.29 ticks)

        Nodes                                         Cuts/
   Node  Left     Objective  IInf  Best Integer    Best Bound    ItCnt     Gap

      0     0        0.0000    88                      0.0000      167         
*     0+    0                            0.0000        0.0000             0.00%
      0     0        cutoff              0.0000        0.0000      226    0.00%
Elapsed time = 0.89 sec. (461.98 ticks, tree = 0.01 MB, solutions = 1)

Clique cuts applied:  22

Root node processing (before b&c):
  Real time             =    0.91 sec. (462.07 ticks)
Parallel b&c, 12 threads:
  Real time             =    0.00 sec. (0.00 ticks)
  Sync time (average)   =    0.00 sec.
  Wait time (average)   =    0.00 sec.
                          ------------
Total (root+branch&cut) =    0.91 sec. (462.07 ticks)
1.235000 
TRUE-modelo
camion 4, FALSE-heu 0.000
Version identifier: 12.10.0.0 | 2019-11-26 | 843d4de2ae
CPXPARAM_Threads                                 12
CPXPARAM_MIP_Strategy_Probe                      -1
CPXPARAM_Emphasis_MIP                            1
Tried aggregator 2 times.
MIP Presolve eliminated 45 rows and 34 columns.
MIP Presolve modified 1285 coefficients.
Aggregator did 2 substitutions.
Reduced MIP has 595 rows, 685 columns, and 14665 nonzeros.
Reduced MIP has 685 binaries, 0 generals, 0 SOSs, and 0 indicators.
Presolve time = 0.02 sec. (23.11 ticks)
Tried aggregator 1 time.
Detecting symmetries...
Reduced MIP has 595 rows, 685 columns, and 14665 nonzeros.
Reduced MIP has 685 binaries, 0 generals, 0 SOSs, and 0 indicators.
Presolve time = 0.02 sec. (14.45 ticks)
Clique table members: 533.
MIP emphasis: integer feasibility.
MIP search method: dynamic search.
Parallel mode: deterministic, using up to 12 threads.
Root relaxation solution time = 0.00 sec. (6.36 ticks)

        Nodes                                         Cuts/
   Node  Left     Objective  IInf  Best Integer    Best Bound    ItCnt     Gap

      0     0        0.0000    76                      0.0000      145         
*     0+    0                            0.0000        0.0000             0.00%
      0     0        cutoff              0.0000        0.0000      216    0.00%
Elapsed time = 0.55 sec. (317.51 ticks, tree = 0.01 MB, solutions = 1)

Clique cuts applied:  15
Zero-half cuts applied:  1

Root node processing (before b&c):
  Real time             =    0.55 sec. (317.59 ticks)
Parallel b&c, 12 threads:
  Real time             =    0.00 sec. (0.00 ticks)
  Sync time (average)   =    0.00 sec.
  Wait time (average)   =    0.00 sec.
                          ------------
Total (root+branch&cut) =    0.55 sec. (317.59 ticks)
0.859000 
TRUE-modelo
Salgo lazy
     15    14     7439.7424   158     9628.0000     6253.6417    18005   35.05%         X_0_1_3 U     22     14      4
Dentro lazy
camion 0, TRUE-heu 0.000535
camion 3, FALSE-heu 0.001
Version identifier: 12.10.0.0 | 2019-11-26 | 843d4de2ae
CPXPARAM_Threads                                 12
CPXPARAM_MIP_Strategy_Probe                      -1
CPXPARAM_Emphasis_MIP                            1
Tried aggregator 2 times.
MIP Presolve eliminated 45 rows and 34 columns.
MIP Presolve modified 1285 coefficients.
Aggregator did 2 substitutions.
Reduced MIP has 595 rows, 685 columns, and 14665 nonzeros.
Reduced MIP has 685 binaries, 0 generals, 0 SOSs, and 0 indicators.
Presolve time = 0.03 sec. (22.90 ticks)
Tried aggregator 1 time.
Detecting symmetries...
Reduced MIP has 595 rows, 685 columns, and 14665 nonzeros.
Reduced MIP has 685 binaries, 0 generals, 0 SOSs, and 0 indicators.
Presolve time = 0.01 sec. (14.28 ticks)
Clique table members: 533.
MIP emphasis: integer feasibility.
MIP search method: dynamic search.
Parallel mode: deterministic, using up to 12 threads.
Root relaxation solution time = 0.00 sec. (7.37 ticks)

        Nodes                                         Cuts/
   Node  Left     Objective  IInf  Best Integer    Best Bound    ItCnt     Gap

      0     0        0.0000    76                      0.0000      168         
      0     0        0.0000    76                    Cuts: 12      234         
      0     0        0.0000    76                    Cuts: 28      332         
      0     2        0.0000     8                      0.0000      332         
Elapsed time = 2.09 sec. (216.54 ticks, tree = 0.02 MB, solutions = 0)
*   396   159      integral     0        0.0000        0.0000    11091    0.00%

Clique cuts applied:  8
Cover cuts applied:  2
Zero-half cuts applied:  3

Root node processing (before b&c):
  Real time             =    0.56 sec. (216.17 ticks)
Parallel b&c, 12 threads:
  Real time             =    7.94 sec. (42.06 ticks)
  Sync time (average)   =    6.78 sec.
  Wait time (average)   =    0.00 sec.
                          ------------
Total (root+branch&cut) =    8.50 sec. (258.23 ticks)
8.500000 
TRUE-modelo
camion 4, FALSE-heu 0.001
Version identifier: 12.10.0.0 | 2019-11-26 | 843d4de2ae
CPXPARAM_Threads                                 12
CPXPARAM_MIP_Strategy_Probe                      -1
CPXPARAM_Emphasis_MIP                            1
Tried aggregator 2 times.
MIP Presolve eliminated 45 rows and 34 columns.
MIP Presolve modified 1349 coefficients.
Aggregator did 2 substitutions.
Reduced MIP has 596 rows, 717 columns, and 15393 nonzeros.
Reduced MIP has 717 binaries, 0 generals, 0 SOSs, and 0 indicators.
Presolve time = 0.03 sec. (24.33 ticks)
Tried aggregator 1 time.
Detecting symmetries...
Reduced MIP has 596 rows, 717 columns, and 15393 nonzeros.
Reduced MIP has 717 binaries, 0 generals, 0 SOSs, and 0 indicators.
Presolve time = 0.03 sec. (15.22 ticks)
Clique table members: 534.
MIP emphasis: integer feasibility.
MIP search method: dynamic search.
Parallel mode: deterministic, using up to 12 threads.
Root relaxation solution time = 0.02 sec. (6.87 ticks)

        Nodes                                         Cuts/
   Node  Left     Objective  IInf  Best Integer    Best Bound    ItCnt     Gap

      0     0        0.0000    76                      0.0000      145         
*     0+    0                            0.0000        0.0000             0.00%
      0     0        cutoff              0.0000        0.0000      145    0.00%
Elapsed time = 0.44 sec. (168.08 ticks, tree = 0.01 MB, solutions = 1)

Root node processing (before b&c):
  Real time             =    0.44 sec. (168.15 ticks)
Parallel b&c, 12 threads:
  Real time             =    0.00 sec. (0.00 ticks)
  Sync time (average)   =    0.00 sec.
  Wait time (average)   =    0.00 sec.
                          ------------
Total (root+branch&cut) =    0.44 sec. (168.15 ticks)
0.437000 
TRUE-modelo
Salgo lazy
Dentro lazy
camion 0, FALSE-heu 0.001
Version identifier: 12.10.0.0 | 2019-11-26 | 843d4de2ae
CPXPARAM_Threads                                 12
CPXPARAM_MIP_Strategy_Probe                      -1
CPXPARAM_Emphasis_MIP                            1
Tried aggregator 2 times.
MIP Presolve eliminated 45 rows and 34 columns.
MIP Presolve modified 1285 coefficients.
Aggregator did 2 substitutions.
Reduced MIP has 595 rows, 685 columns, and 14665 nonzeros.
Reduced MIP has 685 binaries, 0 generals, 0 SOSs, and 0 indicators.
Presolve time = 0.03 sec. (23.55 ticks)
Tried aggregator 1 time.
Detecting symmetries...
Reduced MIP has 595 rows, 685 columns, and 14665 nonzeros.
Reduced MIP has 685 binaries, 0 generals, 0 SOSs, and 0 indicators.
Presolve time = 0.03 sec. (14.89 ticks)
Clique table members: 533.
MIP emphasis: integer feasibility.
MIP search method: dynamic search.
Parallel mode: deterministic, using up to 12 threads.
Root relaxation solution time = 0.00 sec. (6.17 ticks)

        Nodes                                         Cuts/
   Node  Left     Objective  IInf  Best Integer    Best Bound    ItCnt     Gap

      0     0        0.0000    66                      0.0000      137         
      0     0        0.0000    66                  Cliques: 4      170         
      0     0        0.0000    66                    Cuts: 93      314         
      0     2        0.0000     2                      0.0000      314         
Elapsed time = 3.83 sec. (373.97 ticks, tree = 0.02 MB, solutions = 0)
   2217   803    infeasible                            0.0000    66814         
   4248  1249    infeasible                            0.0000   155191         
   5757  1462    infeasible                            0.0000   232988         
   7246  1828        0.0000    50                      0.0000   304164         

Performing restart 1

Repeating presolve.
Tried aggregator 1 time.
MIP Presolve eliminated 2 rows and 0 columns.
MIP Presolve modified 211 coefficients.
Reduced MIP has 593 rows, 685 columns, and 14605 nonzeros.
Reduced MIP has 685 binaries, 0 generals, 0 SOSs, and 0 indicators.
Presolve time = 0.03 sec. (17.90 ticks)
Represolve time = 0.05 sec. (28.05 ticks)
   7850     2        0.0000    26                      0.0000   350344         
   9067   309    infeasible                            0.0000   410016         
  10395   800        0.0000    35                      0.0000   485991         
  11784  1394        0.0000    50                      0.0000   557608         
  12984  1935        0.0000    30                      0.0000   624794         
  17096  3026        0.0000    33                      0.0000   881322         
Elapsed time = 31.88 sec. (3488.99 ticks, tree = 6.30 MB, solutions = 0)

Performing restart 2

Repeating presolve.
Tried aggregator 1 time.
Reduced MIP has 593 rows, 685 columns, and 14605 nonzeros.
Reduced MIP has 685 binaries, 0 generals, 0 SOSs, and 0 indicators.
Presolve time = 0.02 sec. (14.71 ticks)
Represolve time = 0.06 sec. (37.62 ticks)
  20231   216    infeasible                            0.0000  1110138         
  23728  1186    infeasible                            0.0000  1377386         
  27453  1472        0.0000    46                      0.0000  1682112         
  30503  1628        0.0000    31                      0.0000  1938584         
  33838  1429        0.0000    34                      0.0000  2218147         
  37202  1693        0.0000    63                      0.0000  2487829         
  40229  2141    infeasible                            0.0000  2775073         
  43181  1836    infeasible                            0.0000  3002746         
  46178  1443        0.0000    58                      0.0000  3252410         
  48999  1027    infeasible                            0.0000  3537036         
Elapsed time = 77.58 sec. (13028.55 ticks, tree = 0.56 MB, solutions = 0)
  51942  1015        0.0000    74                      0.0000  3803962         
  55003   643        0.0000    33                      0.0000  4073930         
  57841   273        0.0000    48                      0.0000  4339250         

Clique cuts applied:  44
Cover cuts applied:  26
Mixed integer rounding cuts applied:  44
Zero-half cuts applied:  4
Gomory fractional cuts applied:  1

Root node processing (before b&c):
  Real time             =    1.74 sec. (373.63 ticks)
Parallel b&c, 12 threads:
  Real time             =   99.38 sec. (16270.89 ticks)
  Sync time (average)   =   53.75 sec.
  Wait time (average)   =    0.12 sec.
                          ------------
Total (root+branch&cut) =  101.11 sec. (16644.53 ticks)
101.125000 
FALSE-modelo
 Salgo lazy
Dentro lazy
     21    19     7456.0112   134     9628.0000     6253.6417    19056   35.05%         X_4_3_0 D     46     38      7
camion 0, FALSE-heu 0.001
Version identifier: 12.10.0.0 | 2019-11-26 | 843d4de2ae
CPXPARAM_Threads                                 12
CPXPARAM_MIP_Strategy_Probe                      -1
CPXPARAM_Emphasis_MIP                            1
Tried aggregator 2 times.
MIP Presolve eliminated 2370 rows and 34 columns.
MIP Presolve modified 1712 coefficients.
Aggregator did 2 substitutions.
Reduced MIP has 669 rows, 653 columns, and 20997 nonzeros.
Reduced MIP has 653 binaries, 0 generals, 0 SOSs, and 0 indicators.
Presolve time = 0.09 sec. (107.76 ticks)
Tried aggregator 1 time.
Detecting symmetries...
Reduced MIP has 669 rows, 653 columns, and 20997 nonzeros.
Reduced MIP has 653 binaries, 0 generals, 0 SOSs, and 0 indicators.
Presolve time = 0.03 sec. (25.18 ticks)
Clique table members: 607.
MIP emphasis: integer feasibility.
MIP search method: dynamic search.
Parallel mode: deterministic, using up to 12 threads.
Root relaxation solution time = 0.02 sec. (11.57 ticks)

        Nodes                                         Cuts/
   Node  Left     Objective  IInf  Best Integer    Best Bound    ItCnt     Gap

      0     0        0.0000    75                      0.0000      200         
      0     0        0.0000    75                    Cuts: 53      315         
      0     2        0.0000    58                      0.0000      315         
Elapsed time = 3.23 sec. (587.03 ticks, tree = 0.02 MB, solutions = 0)
*   343   109      integral     0        0.0000        0.0000    11037    0.00%

Clique cuts applied:  25
Zero-half cuts applied:  3

Root node processing (before b&c):
  Real time             =    1.25 sec. (586.51 ticks)
Parallel b&c, 12 threads:
  Real time             =   13.56 sec. (78.03 ticks)
  Sync time (average)   =   12.11 sec.
  Wait time (average)   =    0.00 sec.
                          ------------
Total (root+branch&cut) =   14.81 sec. (664.54 ticks)
14.813000 
TRUE-modelo
camion 2, FALSE-heu 0.001
Version identifier: 12.10.0.0 | 2019-11-26 | 843d4de2ae
CPXPARAM_Threads                                 12
CPXPARAM_MIP_Strategy_Probe                      -1
CPXPARAM_Emphasis_MIP                            1
Tried aggregator 2 times.
MIP Presolve eliminated 538 rows and 34 columns.
MIP Presolve modified 2295 coefficients.
Aggregator did 2 substitutions.
Reduced MIP has 1062 rows, 717 columns, and 25179 nonzeros.
Reduced MIP has 717 binaries, 0 generals, 0 SOSs, and 0 indicators.
Presolve time = 0.08 sec. (85.82 ticks)
Tried aggregator 1 time.
Detecting symmetries...
Reduced MIP has 1062 rows, 717 columns, and 25179 nonzeros.
Reduced MIP has 717 binaries, 0 generals, 0 SOSs, and 0 indicators.
Presolve time = 0.03 sec. (26.13 ticks)
Clique table members: 1000.
MIP emphasis: integer feasibility.
MIP search method: dynamic search.
Parallel mode: deterministic, using up to 12 threads.
Root relaxation solution time = 0.03 sec. (13.72 ticks)

        Nodes                                         Cuts/
   Node  Left     Objective  IInf  Best Integer    Best Bound    ItCnt     Gap

      0     0        0.0000   104                      0.0000      197         
      0     2        0.0000    10                      0.0000      197         
Elapsed time = 3.63 sec. (591.62 ticks, tree = 0.02 MB, solutions = 0)
*    45    29      integral     0        0.0000        0.0000     2405    0.00%

Clique cuts applied:  6
Cover cuts applied:  3

Root node processing (before b&c):
  Real time             =    1.58 sec. (590.97 ticks)
Parallel b&c, 12 threads:
  Real time             =    9.08 sec. (39.03 ticks)
  Sync time (average)   =    7.64 sec.
  Wait time (average)   =    0.00 sec.
                          ------------
Total (root+branch&cut) =   10.66 sec. (630.00 ticks)
10.657000 
TRUE-modelo
camion 4, FALSE-heu 0.001
Version identifier: 12.10.0.0 | 2019-11-26 | 843d4de2ae
CPXPARAM_Threads                                 12
CPXPARAM_MIP_Strategy_Probe                      -1
CPXPARAM_Emphasis_MIP                            1
Tried aggregator 2 times.
MIP Presolve eliminated 45 rows and 34 columns.
MIP Presolve modified 1285 coefficients.
Aggregator did 2 substitutions.
Reduced MIP has 595 rows, 685 columns, and 14665 nonzeros.
Reduced MIP has 685 binaries, 0 generals, 0 SOSs, and 0 indicators.
Presolve time = 0.03 sec. (23.48 ticks)
Tried aggregator 1 time.
Detecting symmetries...
Reduced MIP has 595 rows, 685 columns, and 14665 nonzeros.
Reduced MIP has 685 binaries, 0 generals, 0 SOSs, and 0 indicators.
Presolve time = 0.02 sec. (14.79 ticks)
Clique table members: 533.
MIP emphasis: integer feasibility.
MIP search method: dynamic search.
Parallel mode: deterministic, using up to 12 threads.
Root relaxation solution time = 0.01 sec. (6.01 ticks)

        Nodes                                         Cuts/
   Node  Left     Objective  IInf  Best Integer    Best Bound    ItCnt     Gap

      0     0        0.0000    69                      0.0000      139         
*     0+    0                            0.0000        0.0000             0.00%
      0     0        cutoff              0.0000        0.0000      201    0.00%
Elapsed time = 0.28 sec. (184.31 ticks, tree = 0.01 MB, solutions = 1)

Clique cuts applied:  17
Zero-half cuts applied:  1
Gomory fractional cuts applied:  2

Root node processing (before b&c):
  Real time             =    0.28 sec. (184.38 ticks)
Parallel b&c, 12 threads:
  Real time             =    0.00 sec. (0.00 ticks)
  Sync time (average)   =    0.00 sec.
  Wait time (average)   =    0.00 sec.
                          ------------
Total (root+branch&cut) =    0.28 sec. (184.38 ticks)
0.297000 
TRUE-modelo
Salgo lazy
Dentro lazy
camion 0, TRUE-heu 0.000721
camion 2, FALSE-heu 0.001
Version identifier: 12.10.0.0 | 2019-11-26 | 843d4de2ae
CPXPARAM_Threads                                 12
CPXPARAM_MIP_Strategy_Probe                      -1
CPXPARAM_Emphasis_MIP                            1
Tried aggregator 2 times.
MIP Presolve eliminated 45 rows and 34 columns.
MIP Presolve modified 1285 coefficients.
Aggregator did 2 substitutions.
Reduced MIP has 595 rows, 685 columns, and 14665 nonzeros.
Reduced MIP has 685 binaries, 0 generals, 0 SOSs, and 0 indicators.
Presolve time = 0.03 sec. (23.67 ticks)
Tried aggregator 1 time.
Detecting symmetries...
Reduced MIP has 595 rows, 685 columns, and 14665 nonzeros.
Reduced MIP has 685 binaries, 0 generals, 0 SOSs, and 0 indicators.
Presolve time = 0.01 sec. (14.95 ticks)
Clique table members: 533.
MIP emphasis: integer feasibility.
MIP search method: dynamic search.
Parallel mode: deterministic, using up to 12 threads.
Root relaxation solution time = 0.02 sec. (5.37 ticks)

        Nodes                                         Cuts/
   Node  Left     Objective  IInf  Best Integer    Best Bound    ItCnt     Gap

      0     0        0.0000    57                      0.0000      124         
      0     0        0.0000    57                  Cliques: 4      140         
      0     0        0.0000    57                    Cuts: 32      221         
      0     2        0.0000    20                      0.0000      221         
Elapsed time = 2.91 sec. (280.36 ticks, tree = 0.02 MB, solutions = 0)
*    28+    4                            0.0000        0.0000             0.00%

Clique cuts applied:  6
Cover cuts applied:  1

Root node processing (before b&c):
  Real time             =    0.84 sec. (279.94 ticks)
Parallel b&c, 12 threads:
  Real time             =    8.02 sec. (13.87 ticks)
  Sync time (average)   =    6.55 sec.
  Wait time (average)   =    0.00 sec.
                          ------------
Total (root+branch&cut) =    8.86 sec. (293.81 ticks)
8.875000 
TRUE-modelo
camion 4, FALSE-heu 0.001
Version identifier: 12.10.0.0 | 2019-11-26 | 843d4de2ae
CPXPARAM_Threads                                 12
CPXPARAM_MIP_Strategy_Probe                      -1
CPXPARAM_Emphasis_MIP                            1
Tried aggregator 2 times.
MIP Presolve eliminated 45 rows and 34 columns.
MIP Presolve modified 1349 coefficients.
Aggregator did 2 substitutions.
Reduced MIP has 596 rows, 717 columns, and 15393 nonzeros.
Reduced MIP has 717 binaries, 0 generals, 0 SOSs, and 0 indicators.
Presolve time = 0.03 sec. (24.13 ticks)
Tried aggregator 1 time.
Detecting symmetries...
Reduced MIP has 596 rows, 717 columns, and 15393 nonzeros.
Reduced MIP has 717 binaries, 0 generals, 0 SOSs, and 0 indicators.
Presolve time = 0.02 sec. (15.09 ticks)
Clique table members: 534.
MIP emphasis: integer feasibility.
MIP search method: dynamic search.
Parallel mode: deterministic, using up to 12 threads.
Root relaxation solution time = 0.03 sec. (6.69 ticks)

        Nodes                                         Cuts/
   Node  Left     Objective  IInf  Best Integer    Best Bound    ItCnt     Gap

      0     0        0.0000    80                      0.0000      150         
*     0+    0                            0.0000        0.0000             0.00%
      0     0        cutoff              0.0000        0.0000      150    0.00%
Elapsed time = 0.44 sec. (257.98 ticks, tree = 0.01 MB, solutions = 1)

Root node processing (before b&c):
  Real time             =    0.44 sec. (258.05 ticks)
Parallel b&c, 12 threads:
  Real time             =    0.00 sec. (0.00 ticks)
  Sync time (average)   =    0.00 sec.
  Wait time (average)   =    0.00 sec.
                          ------------
Total (root+branch&cut) =    0.44 sec. (258.05 ticks)
0.437000 
TRUE-modelo
Salgo lazy
     28    26     7484.5558   139     9628.0000     6253.6417    20663   35.05%         X_1_0_3 D     78     62     10
*    30+    4                         9527.0000     6253.6417            34.36%
     37    35     7271.2056   122     9527.0000     6253.6417    26247   34.36%         X_4_1_2 D     69     61      9
     58    46     7485.0180   106     9527.0000     6253.6417    27481   34.36%      Z_2_4_1_25 D     84     76     13
    101    73     8225.1262    82     9527.0000     6253.6417    35357   34.36%         X_0_2_1 U    172    164     23
Dentro lazy
camion 0, TRUE-heu 0.000800
camion 2, FALSE-heu 0.001
Version identifier: 12.10.0.0 | 2019-11-26 | 843d4de2ae
CPXPARAM_Threads                                 12
CPXPARAM_MIP_Strategy_Probe                      -1
CPXPARAM_Emphasis_MIP                            1
Tried aggregator 2 times.
MIP Presolve eliminated 45 rows and 34 columns.
MIP Presolve modified 1285 coefficients.
Aggregator did 2 substitutions.
Reduced MIP has 595 rows, 685 columns, and 14665 nonzeros.
Reduced MIP has 685 binaries, 0 generals, 0 SOSs, and 0 indicators.
Presolve time = 0.03 sec. (23.43 ticks)
Tried aggregator 1 time.
Detecting symmetries...
Reduced MIP has 595 rows, 685 columns, and 14665 nonzeros.
Reduced MIP has 685 binaries, 0 generals, 0 SOSs, and 0 indicators.
Presolve time = 0.02 sec. (14.75 ticks)
Clique table members: 533.
MIP emphasis: integer feasibility.
MIP search method: dynamic search.
Parallel mode: deterministic, using up to 12 threads.
Root relaxation solution time = 0.02 sec. (8.64 ticks)

        Nodes                                         Cuts/
   Node  Left     Objective  IInf  Best Integer    Best Bound    ItCnt     Gap

      0     0        0.0000    80                      0.0000      181         
      0     0        0.0000    80                  Cliques: 4      231         
      0     0        0.0000    80                    Cuts: 72      336         
*     0+    0                            0.0000        0.0000             0.00%
      0     0        cutoff              0.0000        0.0000      336    0.00%
Elapsed time = 1.16 sec. (395.21 ticks, tree = 0.01 MB, solutions = 1)

Clique cuts applied:  5

Root node processing (before b&c):
  Real time             =    1.16 sec. (395.28 ticks)
Parallel b&c, 12 threads:
  Real time             =    0.00 sec. (0.00 ticks)
  Sync time (average)   =    0.00 sec.
  Wait time (average)   =    0.00 sec.
                          ------------
Total (root+branch&cut) =    1.16 sec. (395.28 ticks)
1.156000 
TRUE-modelo
camion 4, FALSE-heu 0.001
Version identifier: 12.10.0.0 | 2019-11-26 | 843d4de2ae
CPXPARAM_Threads                                 12
CPXPARAM_MIP_Strategy_Probe                      -1
CPXPARAM_Emphasis_MIP                            1
Tried aggregator 2 times.
MIP Presolve eliminated 45 rows and 34 columns.
MIP Presolve modified 1349 coefficients.
Aggregator did 2 substitutions.
Reduced MIP has 596 rows, 717 columns, and 15393 nonzeros.
Reduced MIP has 717 binaries, 0 generals, 0 SOSs, and 0 indicators.
Presolve time = 0.03 sec. (24.72 ticks)
Tried aggregator 1 time.
Detecting symmetries...
Reduced MIP has 596 rows, 717 columns, and 15393 nonzeros.
Reduced MIP has 717 binaries, 0 generals, 0 SOSs, and 0 indicators.
Presolve time = 0.02 sec. (15.59 ticks)
Clique table members: 534.
MIP emphasis: integer feasibility.
MIP search method: dynamic search.
Parallel mode: deterministic, using up to 12 threads.
Root relaxation solution time = 0.02 sec. (7.63 ticks)

        Nodes                                         Cuts/
   Node  Left     Objective  IInf  Best Integer    Best Bound    ItCnt     Gap

      0     0        0.0000    73                      0.0000      161         
*     0+    0                            0.0000        0.0000             0.00%
      0     0        cutoff              0.0000        0.0000      161    0.00%
Elapsed time = 0.73 sec. (223.41 ticks, tree = 0.01 MB, solutions = 1)

Root node processing (before b&c):
  Real time             =    0.73 sec. (223.49 ticks)
Parallel b&c, 12 threads:
  Real time             =    0.00 sec. (0.00 ticks)
  Sync time (average)   =    0.00 sec.
  Wait time (average)   =    0.00 sec.
                          ------------
Total (root+branch&cut) =    0.73 sec. (223.49 ticks)
0.734000 
TRUE-modelo
Salgo lazy
*   275+  166                         9205.0000     6253.6417            32.06%
Dentro lazy
camion 0, TRUE-heu 0.000907
camion 3, FALSE-heu 0.001
Version identifier: 12.10.0.0 | 2019-11-26 | 843d4de2ae
CPXPARAM_Threads                                 12
CPXPARAM_MIP_Strategy_Probe                      -1
CPXPARAM_Emphasis_MIP                            1
Tried aggregator 2 times.
MIP Presolve eliminated 45 rows and 34 columns.
MIP Presolve modified 1349 coefficients.
Aggregator did 2 substitutions.
Reduced MIP has 596 rows, 717 columns, and 15393 nonzeros.
Reduced MIP has 717 binaries, 0 generals, 0 SOSs, and 0 indicators.
Presolve time = 0.03 sec. (24.72 ticks)
Tried aggregator 1 time.
Detecting symmetries...
Reduced MIP has 596 rows, 717 columns, and 15393 nonzeros.
Reduced MIP has 717 binaries, 0 generals, 0 SOSs, and 0 indicators.
Presolve time = 0.02 sec. (15.56 ticks)
Clique table members: 534.
MIP emphasis: integer feasibility.
MIP search method: dynamic search.
Parallel mode: deterministic, using up to 12 threads.
Root relaxation solution time = 0.01 sec. (7.66 ticks)

        Nodes                                         Cuts/
   Node  Left     Objective  IInf  Best Integer    Best Bound    ItCnt     Gap

      0     0        0.0000    71                      0.0000      163         
*     0+    0                            0.0000        0.0000             0.00%
      0     0        cutoff              0.0000        0.0000      163    0.00%
Elapsed time = 0.53 sec. (191.83 ticks, tree = 0.01 MB, solutions = 1)

Root node processing (before b&c):
  Real time             =    0.53 sec. (191.91 ticks)
Parallel b&c, 12 threads:
  Real time             =    0.00 sec. (0.00 ticks)
  Sync time (average)   =    0.00 sec.
  Wait time (average)   =    0.00 sec.
                          ------------
Total (root+branch&cut) =    0.53 sec. (191.91 ticks)
0.547000 
TRUE-modelo
camion 4, FALSE-heu 0.001
Version identifier: 12.10.0.0 | 2019-11-26 | 843d4de2ae
CPXPARAM_Threads                                 12
CPXPARAM_MIP_Strategy_Probe                      -1
CPXPARAM_Emphasis_MIP                            1
Tried aggregator 2 times.
MIP Presolve eliminated 538 rows and 34 columns.
MIP Presolve modified 2231 coefficients.
Aggregator did 2 substitutions.
Reduced MIP has 1061 rows, 685 columns, and 23985 nonzeros.
Reduced MIP has 685 binaries, 0 generals, 0 SOSs, and 0 indicators.
Presolve time = 0.06 sec. (78.22 ticks)
Tried aggregator 1 time.
Detecting symmetries...
Reduced MIP has 1061 rows, 685 columns, and 23985 nonzeros.
Reduced MIP has 685 binaries, 0 generals, 0 SOSs, and 0 indicators.
Presolve time = 0.01 sec. (24.19 ticks)
Clique table members: 999.
MIP emphasis: integer feasibility.
MIP search method: dynamic search.
Parallel mode: deterministic, using up to 12 threads.
Root relaxation solution time = 0.03 sec. (15.03 ticks)

        Nodes                                         Cuts/
   Node  Left     Objective  IInf  Best Integer    Best Bound    ItCnt     Gap

      0     0        0.0000    90                      0.0000      217         
      0     0        0.0000    90                    Cuts: 30      325         
      0     0        0.0000    90                   Cuts: 130      593         
      0     0        0.0000    90                  Cliques: 7      708         
Detecting symmetries...
      0     2        0.0000    24                      0.0000      708         
Elapsed time = 3.42 sec. (564.10 ticks, tree = 0.02 MB, solutions = 0)
   1772   794        0.0000    42                      0.0000    64671         
   3431  1387        0.0000    46                      0.0000   126627         
   5149  1762        0.0000    40                      0.0000   192175         

Performing restart 1

Repeating presolve.
Tried aggregator 1 time.
MIP Presolve eliminated 2 rows and 0 columns.
MIP Presolve modified 211 coefficients.
Reduced MIP has 1059 rows, 685 columns, and 23925 nonzeros.
Reduced MIP has 685 binaries, 0 generals, 0 SOSs, and 0 indicators.
Presolve time = 0.03 sec. (29.06 ticks)
Represolve time = 0.06 sec. (39.93 ticks)
   5907     0        0.0000   101                    Cuts: 38   237027         
   5907     0        0.0000   101                    Cuts: 66   237125         
   5907     2        0.0000    10                      0.0000   237125         
   6537   169    infeasible                            0.0000   276271         
   7631   460        0.0000    28                      0.0000   334338         
   8615   827    infeasible                            0.0000   389253         
   9414   907        0.0000    26                      0.0000   439788         
  10125   894        0.0000    33                      0.0000   485574         
  12141  1069        0.0000    40                      0.0000   672671         
Elapsed time = 30.66 sec. (4288.62 ticks, tree = 0.64 MB, solutions = 0)
  14476   475    infeasible                            0.0000   854987         
  16886    66        0.0000    60                      0.0000  1054775         

Clique cuts applied:  103
Cover cuts applied:  3
Mixed integer rounding cuts applied:  10
Zero-half cuts applied:  4

Root node processing (before b&c):
  Real time             =    1.16 sec. (563.51 ticks)
Parallel b&c, 12 threads:
  Real time             =   46.69 sec. (5742.28 ticks)
  Sync time (average)   =   28.78 sec.
  Wait time (average)   =    0.01 sec.
                          ------------
Total (root+branch&cut) =   47.84 sec. (6305.79 ticks)
47.844000 
FALSE-modelo
 Salgo lazy
    326   259     6918.9461   141     9205.0000     6253.6417    47025   32.06%              Y2 D    996    980     10
Elapsed time = 230.78 sec. (11430.50 ticks, tree = 1.83 MB, solutions = 5)
*   452+    6                         9086.0000     6253.6417            31.17%
    469   366     9065.5092    96     9086.0000     6253.6417    63510   31.17%         X_4_3_4 D   1501   1485     16
Dentro lazy
camion 0, FALSE-heu 0.001
Version identifier: 12.10.0.0 | 2019-11-26 | 843d4de2ae
CPXPARAM_Threads                                 12
CPXPARAM_MIP_Strategy_Probe                      -1
CPXPARAM_Emphasis_MIP                            1
Tried aggregator 2 times.
MIP Presolve eliminated 538 rows and 34 columns.
MIP Presolve modified 2231 coefficients.
Aggregator did 2 substitutions.
Reduced MIP has 1061 rows, 685 columns, and 23985 nonzeros.
Reduced MIP has 685 binaries, 0 generals, 0 SOSs, and 0 indicators.
Presolve time = 0.08 sec. (83.14 ticks)
Tried aggregator 1 time.
Detecting symmetries...
Reduced MIP has 1061 rows, 685 columns, and 23985 nonzeros.
Reduced MIP has 685 binaries, 0 generals, 0 SOSs, and 0 indicators.
Presolve time = 0.03 sec. (24.96 ticks)
Clique table members: 999.
MIP emphasis: integer feasibility.
MIP search method: dynamic search.
Parallel mode: deterministic, using up to 12 threads.
Root relaxation solution time = 0.05 sec. (14.42 ticks)

        Nodes                                         Cuts/
   Node  Left     Objective  IInf  Best Integer    Best Bound    ItCnt     Gap

      0     0        0.0000    93                      0.0000      206         
      0     0        0.0000    93                    Cuts: 79      303         
      0     0        0.0000    93                    Cuts: 70      364         
      0     0        0.0000    93                  Cliques: 5      384         
      0     2        0.0000    28                      0.0000      384         
Elapsed time = 4.28 sec. (772.36 ticks, tree = 0.02 MB, solutions = 0)
   1669   546        0.0000    37                      0.0000    64140         
   3556   898        0.0000    44                      0.0000   135499         
   5197  1037        0.0000    48                      0.0000   201902         
   6803  1004    infeasible                            0.0000   272927         

Performing restart 1

Repeating presolve.
Tried aggregator 1 time.
MIP Presolve eliminated 2 rows and 0 columns.
MIP Presolve modified 211 coefficients.
Reduced MIP has 1059 rows, 685 columns, and 23925 nonzeros.
Reduced MIP has 685 binaries, 0 generals, 0 SOSs, and 0 indicators.
Presolve time = 0.05 sec. (29.87 ticks)
Represolve time = 0.06 sec. (43.29 ticks)
   7889     0        0.0000    98                 Cliques: 50   336797         
   7889     0        0.0000    98                   Cuts: 101   336903         
   7889     0        0.0000    98                    Fract: 1   337002         
   7889     2        0.0000    58                      0.0000   337002         
*  8216    64      integral     0        0.0000        0.0000   350689    0.00%

Clique cuts applied:  9
Zero-half cuts applied:  1
Gomory fractional cuts applied:  1

Root node processing (before b&c):
  Real time             =    2.05 sec. (771.78 ticks)
Parallel b&c, 12 threads:
  Real time             =   26.84 sec. (2619.25 ticks)
  Sync time (average)   =   18.17 sec.
  Wait time (average)   =    0.05 sec.
                          ------------
Total (root+branch&cut) =   28.89 sec. (3391.03 ticks)
28.890000 
TRUE-modelo
camion 2, FALSE-heu 0.001
Version identifier: 12.10.0.0 | 2019-11-26 | 843d4de2ae
CPXPARAM_Threads                                 12
CPXPARAM_MIP_Strategy_Probe                      -1
CPXPARAM_Emphasis_MIP                            1
Tried aggregator 2 times.
MIP Presolve eliminated 538 rows and 34 columns.
MIP Presolve modified 2231 coefficients.
Aggregator did 2 substitutions.
Reduced MIP has 1061 rows, 685 columns, and 23985 nonzeros.
Reduced MIP has 685 binaries, 0 generals, 0 SOSs, and 0 indicators.
Presolve time = 0.06 sec. (78.63 ticks)
Tried aggregator 1 time.
Detecting symmetries...
Reduced MIP has 1061 rows, 685 columns, and 23985 nonzeros.
Reduced MIP has 685 binaries, 0 generals, 0 SOSs, and 0 indicators.
Presolve time = 0.03 sec. (24.36 ticks)
Clique table members: 999.
MIP emphasis: integer feasibility.
MIP search method: dynamic search.
Parallel mode: deterministic, using up to 12 threads.
Root relaxation solution time = 0.03 sec. (15.25 ticks)

        Nodes                                         Cuts/
   Node  Left     Objective  IInf  Best Integer    Best Bound    ItCnt     Gap

      0     0        0.0000    92                      0.0000      207         
      0     0        0.0000    92                    Cuts: 39      285         
      0     0        0.0000    92                    Cuts: 51      355         
      0     0        0.0000    92                  Cliques: 2      372         
      0     2        0.0000    26                      0.0000      372         
Elapsed time = 3.50 sec. (697.25 ticks, tree = 0.02 MB, solutions = 0)
   1493   597        0.0000    53                      0.0000    57312         
   3369  1388        0.0000    34                      0.0000   134877         
   5393  1889        0.0000    25                      0.0000   205135         

Performing restart 1

Repeating presolve.
Tried aggregator 1 time.
MIP Presolve eliminated 2 rows and 0 columns.
MIP Presolve modified 211 coefficients.
Reduced MIP has 1059 rows, 685 columns, and 23925 nonzeros.
Reduced MIP has 685 binaries, 0 generals, 0 SOSs, and 0 indicators.
Presolve time = 0.03 sec. (29.19 ticks)
Represolve time = 0.06 sec. (42.73 ticks)
   5935     0        0.0000   115                  Cliques: 3   245841         
   5935     0        0.0000   115                    Cuts: 68   246070         
   5935     0        0.0000   115                    Cuts: 36   246209         
   5935     2        0.0000    28                      0.0000   246209         
   7123   359        0.0000    16                      0.0000   297055         
   8502   798    infeasible                            0.0000   366316         
   9633   863        0.0000    25                      0.0000   420686         
  10685   992        0.0000    22                      0.0000   488590         
  11615  1057        0.0000    36                      0.0000   541120         
  13815  1639        0.0000    19                      0.0000   725381         
Elapsed time = 32.53 sec. (4537.50 ticks, tree = 1.41 MB, solutions = 0)
  16124  1656        0.0000    26                      0.0000   910834         

Performing restart 2

Repeating presolve.
Tried aggregator 1 time.
MIP Presolve eliminated 201 rows and 57 columns.
MIP Presolve modified 578 coefficients.
Reduced MIP has 830 rows, 628 columns, and 17965 nonzeros.
Reduced MIP has 628 binaries, 0 generals, 0 SOSs, and 0 indicators.
Presolve time = 0.03 sec. (23.80 ticks)
Tried aggregator 1 time.
Reduced MIP has 830 rows, 628 columns, and 17965 nonzeros.
Reduced MIP has 628 binaries, 0 generals, 0 SOSs, and 0 indicators.
Presolve time = 0.02 sec. (17.46 ticks)
Represolve time = 0.19 sec. (100.44 ticks)
  17265    61        0.0000    36                      0.0000  1008048         
  21143   721        0.0000    43                      0.0000  1268633         
  24195   860    infeasible                            0.0000  1508417         
  27298  1047    infeasible                            0.0000  1785024         
  30284  1081    infeasible                            0.0000  2000193         
  32729  1224        0.0000    60                      0.0000  2234976         
  35284  1021        0.0000    35                      0.0000  2472017         
  38054   836        0.0000    38                      0.0000  2725942         
  40549   657    infeasible                            0.0000  2967225         
Elapsed time = 77.16 sec. (14077.52 ticks, tree = 0.30 MB, solutions = 0)
  42931   590        0.0000    42                      0.0000  3163162         
  45436   486    infeasible                            0.0000  3387306         
  47660   385        0.0000    60                      0.0000  3603856         
  49981   286    infeasible                            0.0000  3836674         
  52249   328    infeasible                            0.0000  4078154         
  54257   334    infeasible                            0.0000  4266928         
  56150   294    infeasible                            0.0000  4454901         
  57707   286        0.0000    38                      0.0000  4619084         
  59305   118    infeasible                            0.0000  4823351         
  60559   168    infeasible                            0.0000  5007035         
Elapsed time = 111.02 sec. (23617.65 ticks, tree = 0.08 MB, solutions = 0)
  61628    36        0.0000   107                      0.0000  5183544         

Clique cuts applied:  159
Cover cuts applied:  30
Mixed integer rounding cuts applied:  94
Zero-half cuts applied:  10

Root node processing (before b&c):
  Real time             =    1.64 sec. (696.73 ticks)
Parallel b&c, 12 threads:
  Real time             =  123.31 sec. (24073.55 ticks)
  Sync time (average)   =   55.16 sec.
  Wait time (average)   =    0.06 sec.
                          ------------
Total (root+branch&cut) =  124.95 sec. (24770.27 ticks)
124.968000 
FALSE-modelo
 Salgo lazy
    648   355     8719.3958   152     9086.0000     6315.9419    84401   30.49%         X_4_3_1 D    520    512     14
    896   460     8502.7567    40     9086.0000     6368.9112   112926   29.90%         X_1_5_0 D    719    703     31
   1165   614     8763.0078    92     9086.0000     6815.2735   149606   24.99%         X_2_3_4 U    990     98     13
   1439   786     8825.8132    46     9086.0000     7298.1534   202394   19.68%              Y2 N    602    594     10
   1779   938     8661.5168   125     9086.0000     7482.9707   235528   17.64%         X_0_1_3 D   1654   1646      8
   2243  1165     8489.1879    28     9086.0000     7614.4438   288013   16.20%         X_3_4_1 D   2352   2336     21
   2729  1432        cutoff           9086.0000     7883.9172   335114   13.23%         X_3_4_1 D   2505   2497     23
   3143  1632     8587.2792    96     9086.0000     8032.8231   371519   11.59%         X_1_3_4 D   2487   2479     19
   3718  1902     9031.0000    10     9086.0000     8084.7248   422100   11.02%       Z_0_4_8_2 D   3478   3470     16
Elapsed time = 400.27 sec. (21020.66 ticks, tree = 18.21 MB, solutions = 8)
Dentro lazy
camion 0, FALSE-heu 0.001
Version identifier: 12.10.0.0 | 2019-11-26 | 843d4de2ae
CPXPARAM_Threads                                 12
CPXPARAM_MIP_Strategy_Probe                      -1
CPXPARAM_Emphasis_MIP                            1
Tried aggregator 2 times.
MIP Presolve eliminated 538 rows and 34 columns.
MIP Presolve modified 2167 coefficients.
Aggregator did 2 substitutions.
Reduced MIP has 1060 rows, 653 columns, and 22791 nonzeros.
Reduced MIP has 653 binaries, 0 generals, 0 SOSs, and 0 indicators.
Presolve time = 0.06 sec. (68.61 ticks)
Tried aggregator 1 time.
Detecting symmetries...
Reduced MIP has 1060 rows, 653 columns, and 22791 nonzeros.
Reduced MIP has 653 binaries, 0 generals, 0 SOSs, and 0 indicators.
Presolve time = 0.02 sec. (22.34 ticks)
Clique table members: 998.
MIP emphasis: integer feasibility.
MIP search method: dynamic search.
Parallel mode: deterministic, using up to 12 threads.
Root relaxation solution time = 0.03 sec. (11.38 ticks)

        Nodes                                         Cuts/
   Node  Left     Objective  IInf  Best Integer    Best Bound    ItCnt     Gap

      0     0        0.0000    66                      0.0000      167         
      0     0        0.0000    66                    Cuts: 28      286         
      0     0        0.0000    66                  Cliques: 3      289         
      0     0        0.0000    66                    Cuts: 31      387         
*     0+    0                            0.0000        0.0000             0.00%
      0     0        cutoff              0.0000        0.0000      387    0.00%
Elapsed time = 0.77 sec. (456.01 ticks, tree = 0.01 MB, solutions = 1)

Clique cuts applied:  9
Zero-half cuts applied:  7

Root node processing (before b&c):
  Real time             =    0.77 sec. (456.10 ticks)
Parallel b&c, 12 threads:
  Real time             =    0.00 sec. (0.00 ticks)
  Sync time (average)   =    0.00 sec.
  Wait time (average)   =    0.00 sec.
                          ------------
Total (root+branch&cut) =    0.77 sec. (456.10 ticks)
0.781000 
TRUE-modelo
camion 1, TRUE-heu 0.001080
camion 2, FALSE-heu 0.001
Version identifier: 12.10.0.0 | 2019-11-26 | 843d4de2ae
CPXPARAM_Threads                                 12
CPXPARAM_MIP_Strategy_Probe                      -1
CPXPARAM_Emphasis_MIP                            1
Tried aggregator 2 times.
MIP Presolve eliminated 45 rows and 34 columns.
MIP Presolve modified 1349 coefficients.
Aggregator did 2 substitutions.
Reduced MIP has 596 rows, 717 columns, and 15393 nonzeros.
Reduced MIP has 717 binaries, 0 generals, 0 SOSs, and 0 indicators.
Presolve time = 0.02 sec. (24.72 ticks)
Tried aggregator 1 time.
Detecting symmetries...
Reduced MIP has 596 rows, 717 columns, and 15393 nonzeros.
Reduced MIP has 717 binaries, 0 generals, 0 SOSs, and 0 indicators.
Presolve time = 0.02 sec. (15.56 ticks)
Clique table members: 534.
MIP emphasis: integer feasibility.
MIP search method: dynamic search.
Parallel mode: deterministic, using up to 12 threads.
Root relaxation solution time = 0.02 sec. (7.11 ticks)

        Nodes                                         Cuts/
   Node  Left     Objective  IInf  Best Integer    Best Bound    ItCnt     Gap

      0     0        0.0000    74                      0.0000      153         
      0     0        0.0000    74                  Cliques: 6      219         
      0     0        0.0000    74                    Cuts: 52      300         
*     0+    0                            0.0000        0.0000             0.00%
      0     0        cutoff              0.0000        0.0000      300    0.00%
Elapsed time = 0.64 sec. (269.28 ticks, tree = 0.01 MB, solutions = 1)

Clique cuts applied:  6
Zero-half cuts applied:  2

Root node processing (before b&c):
  Real time             =    0.64 sec. (269.35 ticks)
Parallel b&c, 12 threads:
  Real time             =    0.00 sec. (0.00 ticks)
  Sync time (average)   =    0.00 sec.
  Wait time (average)   =    0.00 sec.
                          ------------
Total (root+branch&cut) =    0.64 sec. (269.35 ticks)
0.656000 
TRUE-modelo
Salgo lazy
Dentro lazy
camion 0, FALSE-heu 0.001
Version identifier: 12.10.0.0 | 2019-11-26 | 843d4de2ae
CPXPARAM_Threads                                 12
CPXPARAM_MIP_Strategy_Probe                      -1
CPXPARAM_Emphasis_MIP                            1
Tried aggregator 2 times.
MIP Presolve eliminated 538 rows and 34 columns.
MIP Presolve modified 2231 coefficients.
Aggregator did 2 substitutions.
Reduced MIP has 1061 rows, 685 columns, and 23985 nonzeros.
Reduced MIP has 685 binaries, 0 generals, 0 SOSs, and 0 indicators.
Presolve time = 0.08 sec. (74.33 ticks)
Tried aggregator 1 time.
Detecting symmetries...
Reduced MIP has 1061 rows, 685 columns, and 23985 nonzeros.
Reduced MIP has 685 binaries, 0 generals, 0 SOSs, and 0 indicators.
Presolve time = 0.03 sec. (23.52 ticks)
Clique table members: 999.
MIP emphasis: integer feasibility.
MIP search method: dynamic search.
Parallel mode: deterministic, using up to 12 threads.
Root relaxation solution time = 0.02 sec. (13.02 ticks)

        Nodes                                         Cuts/
   Node  Left     Objective  IInf  Best Integer    Best Bound    ItCnt     Gap

      0     0        0.0000    80                      0.0000      183         
      0     0        0.0000    80                 Cliques: 28      266         
      0     0        0.0000    80                    Cuts: 64      351         
      0     0        0.0000    80                  Cliques: 1      407         
      0     2        0.0000    28                      0.0000      407         
Elapsed time = 3.70 sec. (630.47 ticks, tree = 0.02 MB, solutions = 0)
   1231   454        0.0000    45                      0.0000    52019         
   2568   968        0.0000    54                      0.0000   112613         
   3861  1649        0.0000    24                      0.0000   175855         
   5048  2248        0.0000    61                      0.0000   236268         

Performing restart 1

Repeating presolve.
Tried aggregator 1 time.
MIP Presolve eliminated 2 rows and 0 columns.
MIP Presolve modified 211 coefficients.
Reduced MIP has 1059 rows, 685 columns, and 23925 nonzeros.
Reduced MIP has 685 binaries, 0 generals, 0 SOSs, and 0 indicators.
Presolve time = 0.05 sec. (28.38 ticks)
Represolve time = 0.06 sec. (38.67 ticks)
   5847     0        0.0000    75                    Cuts: 10   287297         
   5847     0        0.0000    75                    Cuts: 93   287382         
   5847     0        0.0000    75                    Cuts: 81   287465         
   5847     2        0.0000    31                      0.0000   287465         
   6476   174        0.0000    36                      0.0000   316913         
   7885   674        0.0000    60                      0.0000   376185         
   9330  1033        0.0000    54                      0.0000   422695         
  10477  1362        0.0000    51                      0.0000   479241         
  14037  2010        0.0000    46                      0.0000   666339         
Elapsed time = 37.30 sec. (4554.27 ticks, tree = 0.95 MB, solutions = 0)
  17291  2270    infeasible                            0.0000   857179         
  21201  1864        0.0000    45                      0.0000  1029263         
  24556  1656        0.0000    47                      0.0000  1239865         
  27597  1135    infeasible                            0.0000  1418696         
  30573  1008    infeasible                            0.0000  1609963         
  34470   523    infeasible                            0.0000  1766640         
  37755   135    infeasible                            0.0000  1964056         

Clique cuts applied:  80
Cover cuts applied:  6
Mixed integer rounding cuts applied:  17
Zero-half cuts applied:  21
Gomory fractional cuts applied:  3

Root node processing (before b&c):
  Real time             =    1.23 sec. (629.90 ticks)
Parallel b&c, 12 threads:
  Real time             =   70.94 sec. (11208.78 ticks)
  Sync time (average)   =   40.27 sec.
  Wait time (average)   =    0.08 sec.
                          ------------
Total (root+branch&cut) =   72.17 sec. (11838.68 ticks)
72.188000 
FALSE-modelo
 Salgo lazy
*  4128+ 1900                         9031.0000     8092.7248            10.39%
Dentro lazy
camion 0, TRUE-heu 0.001196
camion 1, FALSE-heu 0.001
Version identifier: 12.10.0.0 | 2019-11-26 | 843d4de2ae
CPXPARAM_Threads                                 12
CPXPARAM_MIP_Strategy_Probe                      -1
CPXPARAM_Emphasis_MIP                            1
Tried aggregator 2 times.
MIP Presolve eliminated 45 rows and 34 columns.
MIP Presolve modified 1285 coefficients.
Aggregator did 2 substitutions.
Reduced MIP has 595 rows, 685 columns, and 14665 nonzeros.
Reduced MIP has 685 binaries, 0 generals, 0 SOSs, and 0 indicators.
Presolve time = 0.02 sec. (22.81 ticks)
Tried aggregator 1 time.
Detecting symmetries...
Reduced MIP has 595 rows, 685 columns, and 14665 nonzeros.
Reduced MIP has 685 binaries, 0 generals, 0 SOSs, and 0 indicators.
Presolve time = 0.02 sec. (14.20 ticks)
Clique table members: 533.
MIP emphasis: integer feasibility.
MIP search method: dynamic search.
Parallel mode: deterministic, using up to 12 threads.
Root relaxation solution time = 0.01 sec. (8.57 ticks)

        Nodes                                         Cuts/
   Node  Left     Objective  IInf  Best Integer    Best Bound    ItCnt     Gap

      0     0        0.0000    85                      0.0000      182         
*     0+    0                            0.0000        0.0000             0.00%
      0     0        cutoff              0.0000        0.0000      182    0.00%
Elapsed time = 0.72 sec. (195.42 ticks, tree = 0.01 MB, solutions = 1)

Root node processing (before b&c):
  Real time             =    0.72 sec. (195.49 ticks)
Parallel b&c, 12 threads:
  Real time             =    0.00 sec. (0.00 ticks)
  Sync time (average)   =    0.00 sec.
  Wait time (average)   =    0.00 sec.
                          ------------
Total (root+branch&cut) =    0.72 sec. (195.49 ticks)
0.734000 
TRUE-modelo
camion 2, FALSE-heu 0.001
Version identifier: 12.10.0.0 | 2019-11-26 | 843d4de2ae
CPXPARAM_Threads                                 12
CPXPARAM_MIP_Strategy_Probe                      -1
CPXPARAM_Emphasis_MIP                            1
Tried aggregator 2 times.
MIP Presolve eliminated 45 rows and 34 columns.
MIP Presolve modified 1349 coefficients.
Aggregator did 2 substitutions.
Reduced MIP has 596 rows, 717 columns, and 15393 nonzeros.
Reduced MIP has 717 binaries, 0 generals, 0 SOSs, and 0 indicators.
Presolve time = 0.03 sec. (24.13 ticks)
Tried aggregator 1 time.
Detecting symmetries...
Reduced MIP has 596 rows, 717 columns, and 15393 nonzeros.
Reduced MIP has 717 binaries, 0 generals, 0 SOSs, and 0 indicators.
Presolve time = 0.02 sec. (15.09 ticks)
Clique table members: 534.
MIP emphasis: integer feasibility.
MIP search method: dynamic search.
Parallel mode: deterministic, using up to 12 threads.
Root relaxation solution time = 0.02 sec. (6.99 ticks)

        Nodes                                         Cuts/
   Node  Left     Objective  IInf  Best Integer    Best Bound    ItCnt     Gap

      0     0        0.0000    80                      0.0000      155         
*     0+    0                            0.0000        0.0000             0.00%
      0     0        cutoff              0.0000        0.0000      175    0.00%
Elapsed time = 0.56 sec. (200.44 ticks, tree = 0.01 MB, solutions = 1)

Zero-half cuts applied:  1

Root node processing (before b&c):
  Real time             =    0.56 sec. (200.52 ticks)
Parallel b&c, 12 threads:
  Real time             =    0.00 sec. (0.00 ticks)
  Sync time (average)   =    0.00 sec.
  Wait time (average)   =    0.00 sec.
                          ------------
Total (root+branch&cut) =    0.56 sec. (200.52 ticks)
0.562000 
TRUE-modelo
Salgo lazy
   4352  2239     8831.9666    92     9031.0000     8092.7248   455445   10.39%         X_4_3_5 D   4480   4472     18
Dentro lazy
camion 0, FALSE-heu 0.001
Version identifier: 12.10.0.0 | 2019-11-26 | 843d4de2ae
CPXPARAM_Threads                                 12
CPXPARAM_MIP_Strategy_Probe                      -1
CPXPARAM_Emphasis_MIP                            1
Tried aggregator 2 times.
MIP Presolve eliminated 45 rows and 34 columns.
MIP Presolve modified 1285 coefficients.
Aggregator did 2 substitutions.
Reduced MIP has 595 rows, 685 columns, and 14665 nonzeros.
Reduced MIP has 685 binaries, 0 generals, 0 SOSs, and 0 indicators.
Presolve time = 0.05 sec. (22.81 ticks)
Tried aggregator 1 time.
Detecting symmetries...
Reduced MIP has 595 rows, 685 columns, and 14665 nonzeros.
Reduced MIP has 685 binaries, 0 generals, 0 SOSs, and 0 indicators.
Presolve time = 0.02 sec. (14.21 ticks)
Clique table members: 533.
MIP emphasis: integer feasibility.
MIP search method: dynamic search.
Parallel mode: deterministic, using up to 12 threads.
Root relaxation solution time = 0.02 sec. (6.37 ticks)

        Nodes                                         Cuts/
   Node  Left     Objective  IInf  Best Integer    Best Bound    ItCnt     Gap

      0     0        0.0000    71                      0.0000      146         
      0     2        0.0000    16                      0.0000      146         
Elapsed time = 2.41 sec. (211.40 ticks, tree = 0.02 MB, solutions = 0)
*   210    99      integral     0        0.0000        0.0000     7695    0.00%

Clique cuts applied:  5
Cover cuts applied:  1

Root node processing (before b&c):
  Real time             =    0.73 sec. (211.00 ticks)
Parallel b&c, 12 threads:
  Real time             =    8.00 sec. (37.26 ticks)
  Sync time (average)   =    6.85 sec.
  Wait time (average)   =    0.00 sec.
                          ------------
Total (root+branch&cut) =    8.73 sec. (248.26 ticks)
8.750000 
TRUE-modelo
camion 1, TRUE-heu 0.001319
camion 2, FALSE-heu 0.001
Version identifier: 12.10.0.0 | 2019-11-26 | 843d4de2ae
CPXPARAM_Threads                                 12
CPXPARAM_MIP_Strategy_Probe                      -1
CPXPARAM_Emphasis_MIP                            1
Tried aggregator 2 times.
MIP Presolve eliminated 45 rows and 34 columns.
MIP Presolve modified 1349 coefficients.
Aggregator did 2 substitutions.
Reduced MIP has 596 rows, 717 columns, and 15393 nonzeros.
Reduced MIP has 717 binaries, 0 generals, 0 SOSs, and 0 indicators.
Presolve time = 0.05 sec. (24.13 ticks)
Tried aggregator 1 time.
Detecting symmetries...
Reduced MIP has 596 rows, 717 columns, and 15393 nonzeros.
Reduced MIP has 717 binaries, 0 generals, 0 SOSs, and 0 indicators.
Presolve time = 0.02 sec. (15.09 ticks)
Clique table members: 534.
MIP emphasis: integer feasibility.
MIP search method: dynamic search.
Parallel mode: deterministic, using up to 12 threads.
Root relaxation solution time = 0.00 sec. (7.03 ticks)

        Nodes                                         Cuts/
   Node  Left     Objective  IInf  Best Integer    Best Bound    ItCnt     Gap

      0     0        0.0000    80                      0.0000      155         
*     0+    0                            0.0000        0.0000             0.00%
      0     0        cutoff              0.0000        0.0000      155    0.00%
Elapsed time = 0.81 sec. (211.44 ticks, tree = 0.01 MB, solutions = 1)

Root node processing (before b&c):
  Real time             =    0.81 sec. (211.51 ticks)
Parallel b&c, 12 threads:
  Real time             =    0.00 sec. (0.00 ticks)
  Sync time (average)   =    0.00 sec.
  Wait time (average)   =    0.00 sec.
                          ------------
Total (root+branch&cut) =    0.81 sec. (211.51 ticks)
0.812000 
TRUE-modelo
Salgo lazy
Dentro lazy
camion 0, TRUE-heu 0.001370
camion 1, FALSE-heu 0.001
Version identifier: 12.10.0.0 | 2019-11-26 | 843d4de2ae
CPXPARAM_Threads                                 12
CPXPARAM_MIP_Strategy_Probe                      -1
CPXPARAM_Emphasis_MIP                            1
Tried aggregator 2 times.
MIP Presolve eliminated 538 rows and 34 columns.
MIP Presolve modified 2167 coefficients.
Aggregator did 2 substitutions.
Reduced MIP has 1060 rows, 653 columns, and 22791 nonzeros.
Reduced MIP has 653 binaries, 0 generals, 0 SOSs, and 0 indicators.
Presolve time = 0.06 sec. (68.61 ticks)
Tried aggregator 1 time.
Detecting symmetries...
Reduced MIP has 1060 rows, 653 columns, and 22791 nonzeros.
Reduced MIP has 653 binaries, 0 generals, 0 SOSs, and 0 indicators.
Presolve time = 0.03 sec. (22.25 ticks)
Clique table members: 998.
MIP emphasis: integer feasibility.
MIP search method: dynamic search.
Parallel mode: deterministic, using up to 12 threads.
Root relaxation solution time = 0.03 sec. (10.73 ticks)

        Nodes                                         Cuts/
   Node  Left     Objective  IInf  Best Integer    Best Bound    ItCnt     Gap

      0     0        0.0000    76                      0.0000      157         
      0     0        0.0000    76                  Cliques: 1      180         
      0     0        0.0000    76                    Cuts: 47      286         
Detecting symmetries...
      0     2        0.0000    20                      0.0000      286         
Elapsed time = 2.53 sec. (544.21 ticks, tree = 0.02 MB, solutions = 0)
*   166    76      integral     0        0.0000        0.0000     9326    0.00%

Clique cuts applied:  3
Zero-half cuts applied:  7

Root node processing (before b&c):
  Real time             =    0.91 sec. (543.66 ticks)
Parallel b&c, 12 threads:
  Real time             =   11.02 sec. (70.77 ticks)
  Sync time (average)   =    9.82 sec.
  Wait time (average)   =    0.00 sec.
                          ------------
Total (root+branch&cut) =   11.92 sec. (614.43 ticks)
11.922000 
TRUE-modelo
camion 2, FALSE-heu 0.001
Version identifier: 12.10.0.0 | 2019-11-26 | 843d4de2ae
CPXPARAM_Threads                                 12
CPXPARAM_MIP_Strategy_Probe                      -1
CPXPARAM_Emphasis_MIP                            1
Tried aggregator 2 times.
MIP Presolve eliminated 45 rows and 34 columns.
MIP Presolve modified 1349 coefficients.
Aggregator did 2 substitutions.
Reduced MIP has 596 rows, 717 columns, and 15393 nonzeros.
Reduced MIP has 717 binaries, 0 generals, 0 SOSs, and 0 indicators.
Presolve time = 0.03 sec. (24.72 ticks)
Tried aggregator 1 time.
Detecting symmetries...
Reduced MIP has 596 rows, 717 columns, and 15393 nonzeros.
Reduced MIP has 717 binaries, 0 generals, 0 SOSs, and 0 indicators.
Presolve time = 0.01 sec. (15.56 ticks)
Clique table members: 534.
MIP emphasis: integer feasibility.
MIP search method: dynamic search.
Parallel mode: deterministic, using up to 12 threads.
Root relaxation solution time = 0.02 sec. (7.66 ticks)

        Nodes                                         Cuts/
   Node  Left     Objective  IInf  Best Integer    Best Bound    ItCnt     Gap

      0     0        0.0000    71                      0.0000      163         
*     0+    0                            0.0000        0.0000             0.00%
      0     0        cutoff              0.0000        0.0000      163    0.00%
Elapsed time = 0.50 sec. (191.83 ticks, tree = 0.01 MB, solutions = 1)

Root node processing (before b&c):
  Real time             =    0.50 sec. (191.91 ticks)
Parallel b&c, 12 threads:
  Real time             =    0.00 sec. (0.00 ticks)
  Sync time (average)   =    0.00 sec.
  Wait time (average)   =    0.00 sec.
                          ------------
Total (root+branch&cut) =    0.50 sec. (191.91 ticks)
0.500000 
TRUE-modelo
Salgo lazy
   4925  2192     8541.4610    45     9031.0000     8145.7026   502787    9.80%         X_3_4_5 D   5048   5032     14
*  5036+ 2155                         8941.0000     8159.4289             8.74%
   5431  2187        cutoff           8941.0000     8190.5131   545709    8.39%         X_1_3_4 U   5492   3032     21
   6021  2322        cutoff           8941.0000     8209.4383   580516    8.18%         X_0_4_0 U   4122   3212     18
   6534  2475     8855.8045    43     8941.0000     8262.7148   649427    7.59%         X_0_4_1 D   6736   6728     16
   6934  2390        cutoff           8941.0000     8281.8561   696990    7.37%         X_0_4_5 U   6980    983     13
   7318  2326        cutoff           8941.0000     8329.8497   743645    6.84%         X_0_4_2 U   7488   7472     15
   7673  2266        cutoff           8941.0000     8361.3980   774267    6.48%         X_0_3_5 U   7353   3325     21
   8085  2109        cutoff           8941.0000     8394.1164   834177    6.12%         X_3_5_4 U   9957   3568     12
   8611  2043     8625.1477    32     8941.0000     8416.3980   868995    5.87%         X_4_2_1 D   8632   8624     22
Elapsed time = 515.84 sec. (30581.40 ticks, tree = 22.38 MB, solutions = 12)
   9120  1921     8625.1477    60     8941.0000     8476.4881   952257    5.20%         X_0_2_5 D  11099  11091     26
   9537  1796        cutoff           8941.0000     8515.8088   976517    4.76%         X_2_5_2 U   9364   2822     19
   9985  1483     8828.5321    67     8941.0000     8577.8074  1032897    4.06%         X_0_1_3 D   9270   9262      9
  10439  1198     8767.5311    70     8941.0000     8625.5129  1088131    3.53%         X_0_4_0 D  10377  10369     14
  10916   848        cutoff           8941.0000     8700.6151  1140068    2.69%         X_0_3_5 U  10311   6710     18
  11642   275        cutoff           8941.0000     8851.6299  1186576    1.00%         X_0_4_1 U   9162   8553     15

GUB cover cuts applied:  138
Cover cuts applied:  1333
Flow cuts applied:  17
Mixed integer rounding cuts applied:  40
Zero-half cuts applied:  57
Gomory fractional cuts applied:  1
User cuts applied:  4

Root node processing (before b&c):
  Real time             =   27.50 sec. (7945.65 ticks)
Parallel b&c, 8 threads:
  Real time             =  502.61 sec. (28695.11 ticks)
  Sync time (average)   =  120.54 sec.
  Wait time (average)   =    0.00 sec.
                          ------------
Total (root+branch&cut) =  530.11 sec. (36640.77 ticks)
530.125000 
