GAP:; 0.01;  F.O:; 9031.00; Tiempo:;3630.09; 
ROUTING 
X0;0;3;987.00 
X0;3;1;361.00 
X0;1;4;1127.00 
X0;4;0;1240.00 
ruta 0;3715.00 
X1;0;2;918.00 
X1;2;3;243.00 
X1;3;0;987.00 
ruta 1;5863.00 
X2;0;4;1240.00 
X2;4;5;397.00 
X2;5;0;1531.00 
ruta 2;9031.00 
PACKING 
Z0 4 2 6 	 2120.00 
Z0 1 4 7 	 2062.00 
Z0 1 2 8 	 2238.00 
Z0 1 0 9 	 2191.00 
Z0 3 2 10 	 1880.00 
Z0 4 4 22 	 1707.00 
Z0 1 5 23 	 2215.00 
Z0 1 3 24 	 2004.00 
Z0 1 1 25 	 1777.00 
Z0 3 5 26 	 1814.00 
truck weigth 0: 20008.00 axle 1: 10068.41 axle2: 9939.59 media kg/km:5.39
Z1 3 3 6 	 2147.00 
Z1 3 0 7 	 2291.00 
Z1 2 4 8 	 1938.00 
Z1 2 2 9 	 1762.00 
Z1 2 0 10 	 1809.00 
Z1 3 4 22 	 2293.00 
Z1 3 1 23 	 2281.00 
Z1 2 5 24 	 2186.00 
Z1 2 3 25 	 1853.00 
Z1 2 1 26 	 1719.00 
truck weigth 1: 20279.00 axle 1: 10353.78 axle2: 9925.22 media kg/km:9.44
Z2 5 4 6 	 1785.00 
Z2 5 2 7 	 1996.00 
Z2 5 0 8 	 2223.00 
Z2 4 3 9 	 1992.00 
Z2 4 0 10 	 1709.00 
Z2 5 5 22 	 2238.00 
Z2 5 3 23 	 2008.00 
Z2 5 1 24 	 2273.00 
Z2 4 5 25 	 1762.00 
Z2 4 1 26 	 1727.00 
truck weigth 2: 19713.00 axle 1: 9978.08 axle2: 9734.92 media kg/km:6.22
