GAP:; 0.00;  F.O:; 8628.00; Tiempo:;10.88; 
ROUTING 
X0;0;1;1311.00 
X0;1;3;361.00 
X0;3;0;987.00 
ruta 0;2659.00 
X1;0;2;918.00 
X1;2;5;1040.00 
X1;5;0;1531.00 
ruta 1;6148.00 
X2;0;4;1240.00 
X2;4;0;1240.00 
ruta 2;8628.00 
PACKING 
Z0 3 13 1 	 492.00 
Z0 3 6 2 	 330.00 
Z0 3 10 3 	 557.00 
Z0 3 4 4 	 917.00 
Z0 3 2 5 	 831.00 
Z0 3 0 6 	 838.00 
Z0 3 5 7 	 383.00 
Z0 3 14 8 	 766.00 
Z0 1 2 9 	 568.00 
Z0 1 10 10 	 861.00 
Z0 1 9 11 	 301.00 
Z0 1 13 12 	 909.00 
Z0 1 6 13 	 365.00 
Z0 1 5 14 	 317.00 
Z0 1 3 15 	 732.00 
Z0 3 7 16 	 970.00 
Z0 3 15 17 	 534.00 
Z0 3 1 18 	 462.00 
Z0 3 3 19 	 469.00 
Z0 3 11 20 	 743.00 
Z0 3 12 21 	 808.00 
Z0 3 9 22 	 523.00 
Z0 3 8 23 	 777.00 
Z0 1 8 24 	 999.00 
Z0 1 1 25 	 398.00 
Z0 1 11 26 	 439.00 
Z0 1 12 27 	 391.00 
Z0 1 7 28 	 935.00 
Z0 1 14 29 	 733.00 
Z0 1 4 30 	 983.00 
Z0 1 0 31 	 902.00 
truck weigth 0: 20233.00 axle 1: 10312.83 axle2: 9920.17 media kg/km:7.61
Z1 5 9 1 	 461.00 
Z1 5 7 2 	 743.00 
Z1 5 5 3 	 830.00 
Z1 5 3 4 	 808.00 
Z1 5 1 5 	 822.00 
Z1 2 18 6 	 362.00 
Z1 2 16 7 	 407.00 
Z1 2 14 8 	 412.00 
Z1 2 12 9 	 799.00 
Z1 2 10 10 	 792.00 
Z1 2 8 11 	 460.00 
Z1 2 6 12 	 880.00 
Z1 2 4 13 	 612.00 
Z1 2 2 14 	 619.00 
Z1 2 0 15 	 567.00 
Z1 5 10 17 	 839.00 
Z1 5 8 18 	 557.00 
Z1 5 6 19 	 470.00 
Z1 5 4 20 	 492.00 
Z1 5 2 21 	 478.00 
Z1 5 0 22 	 859.00 
Z1 2 17 23 	 938.00 
Z1 2 15 24 	 893.00 
Z1 2 13 25 	 888.00 
Z1 2 11 26 	 501.00 
Z1 2 9 27 	 508.00 
Z1 2 7 28 	 840.00 
Z1 2 5 29 	 420.00 
Z1 2 3 30 	 688.00 
Z1 2 1 31 	 681.00 
truck weigth 1: 19626.00 axle 1: 9871.29 axle2: 9754.71 media kg/km:5.63
Z2 4 28 1 	 441.00 
Z2 4 26 2 	 822.00 
Z2 4 24 3 	 684.00 
Z2 4 22 4 	 894.00 
Z2 4 20 5 	 896.00 
Z2 4 18 6 	 917.00 
Z2 4 16 7 	 772.00 
Z2 4 14 8 	 368.00 
Z2 4 12 9 	 598.00 
Z2 4 10 10 	 966.00 
Z2 4 8 11 	 668.00 
Z2 4 6 12 	 865.00 
Z2 4 4 13 	 661.00 
Z2 4 2 14 	 324.00 
Z2 4 0 15 	 548.00 
Z2 4 27 18 	 478.00 
Z2 4 25 19 	 616.00 
Z2 4 23 20 	 406.00 
Z2 4 21 21 	 404.00 
Z2 4 19 22 	 383.00 
Z2 4 17 23 	 528.00 
Z2 4 15 24 	 932.00 
Z2 4 13 25 	 702.00 
Z2 4 11 26 	 334.00 
Z2 4 9 27 	 632.00 
Z2 4 7 28 	 435.00 
Z2 4 5 29 	 639.00 
Z2 4 3 30 	 976.00 
Z2 4 1 31 	 752.00 
truck weigth 2: 18641.00 axle 1: 8936.60 axle2: 9704.40 media kg/km:7.52
