GAP:; 0.05;  F.O:; 9262.00; Tiempo:;3657.12; 
ROUTING 
X0;0;3;987.00 
X0;3;1;361.00 
X0;1;0;1311.00 
ruta 0;2659.00 
X1;0;3;987.00 
X1;3;2;243.00 
X1;2;5;1040.00 
X1;5;0;1531.00 
ruta 1;6460.00 
X2;0;2;918.00 
X2;2;4;644.00 
X2;4;0;1240.00 
ruta 2;9262.00 
PACKING 
Z0 1 4 6 	 2101.00 
Z0 1 2 7 	 1756.00 
Z0 1 0 8 	 1996.00 
Z0 3 3 9 	 2268.00 
Z0 3 1 10 	 2261.00 
Z0 1 5 22 	 2036.00 
Z0 1 3 23 	 1772.00 
Z0 1 1 24 	 1746.00 
Z0 3 5 25 	 2182.00 
Z0 3 2 26 	 1725.00 
truck weigth 0: 19843.00 axle 1: 9904.69 axle2: 9938.31 media kg/km:7.46
Z1 5 4 6 	 1964.00 
Z1 5 2 7 	 2228.00 
Z1 5 0 8 	 2254.00 
Z1 2 0 9 	 2004.00 
Z1 3 0 10 	 1730.00 
Z1 5 5 22 	 1970.00 
Z1 5 3 23 	 1889.00 
Z1 5 1 24 	 2012.00 
Z1 2 5 25 	 1818.00 
Z1 3 4 26 	 2066.00 
truck weigth 1: 19935.00 axle 1: 10031.54 axle2: 9903.46 media kg/km:5.24
Z2 4 2 6 	 2275.00 
Z2 4 3 7 	 2111.00 
Z2 4 4 8 	 1934.00 
Z2 2 3 9 	 1732.00 
Z2 2 1 10 	 1739.00 
Z2 4 1 22 	 1988.00 
Z2 4 0 23 	 2270.00 
Z2 4 5 24 	 2030.00 
Z2 2 2 25 	 2244.00 
Z2 2 4 26 	 1899.00 
truck weigth 2: 20222.00 axle 1: 10248.89 axle2: 9973.11 media kg/km:7.22
