#truck 1
1 13500 2450 2450 20411 10432 914 9979 12716 32
#pallet
1 1200 800 145 25
#demand 60
1 1 648
2 1 652
3 1 785
4 2 515
5 2 565
6 2 735
7 2 952
8 2 348
9 3 695
10 3 605
11 3 340
12 3 960
13 3 930
14 3 370
15 3 726
16 4 574
17 4 731
18 5 569
19 5 699
20 6 601
21 6 302
22 6 998
23 7 835
24 7 465
25 7 988
26 7 312
27 8 548
28 8 752
29 8 316
30 9 984
31 9 806
32 9 494
33 9 456
34 10 844
35 10 359
36 10 941
37 10 864
38 10 436
39 10 912
40 10 388
41 11 417
42 11 883
43 11 913
44 11 387
45 11 538
46 11 762
47 11 631
48 12 669
49 12 493
50 12 807
51 13 362
52 13 938
53 13 793
54 13 507
55 13 387
56 14 913
57 14 546
58 14 754
59 15 983
60 15 317
#distances 15 15
0	1311	918	987	1240	1531	910	681	861	1044	1479	1013	1001	961	1634	697
1311	0	575	361	1127	1508	607	671	686	607	1317	309	556	558	571	641
918	575	0	243	644	1040	34	543	112	151	882	318	86	44	721	271
987	361	243	0	873	1268	277	437	347	339	1099	76	264	245	688	293
1240	1127	644	873	0	397	615	1150	575	538	255	946	610	631	918	854
1531	1508	1040	1268	397	0	1010	1535	967	932	206	1341	1005	1027	1216	1239
910	607	34	277	615	1010	0	562	80	143	855	351	93	59	735	282
681	671	543	437	1150	1535	562	0	580	692	1400	422	616	576	1121	297
861	686	112	347	575	967	80	580	0	184	822	421	162	137	799	286
1044	607	151	339	538	932	143	692	184	0	760	411	80	116	621	421
1479	1317	882	1099	255	206	855	1400	822	760	0	1170	837	863	1011	1104
1013	309	318	76	946	1341	351	422	421	411	1170	0	337	319	701	333
1001	556	86	264	610	1005	93	616	162	80	837	337	0	43	643	354
961	558	44	245	631	1027	59	576	137	116	863	319	43	0	679	311
1634	571	721	688	918	1216	735	1121	799	621	1011	701	643	679	0	949
697	641	271	293	854	1239	282	297	286	421	1104	333	354	311	949	0
