Instances\Inst10P4Du_2.csvVersion identifier: 12.10.0.0 | 2019-11-26 | 843d4de2ae
CPXPARAM_Threads                                 8
CPXPARAM_MIP_Strategy_File                       3
CPXPARAM_MIP_Strategy_Probe                      -1
CPXPARAM_TimeLimit                               3600
Lazy constraint(s) or lazy constraint/branch callback is present.
    Disabling dual reductions (CPX_PARAM_REDUCE) in presolve.
    Disabling non-linear reductions (CPX_PARAM_PRELINEAR) in presolve.
    Disabling presolve reductions that prevent crushing forms.
         Disabling repeat represolve because of lazy constraint/incumbent callback.
Dentro lazy
camion 0, TRUE-heu 0.000031
camion 1, TRUE-heu 0.000053
camion 2, TRUE-heu 0.000078
Salgo lazy
1 of 1 MIP starts provided solutions.
MIP start 'm1' defined initial solution with objective 7982.0000.
Tried aggregator 1 time.
MIP Presolve eliminated 399 rows and 126 columns.
MIP Presolve modified 4072 coefficients.
Reduced MIP has 634 rows, 4407 columns, and 36995 nonzeros.
Reduced MIP has 4107 binaries, 0 generals, 0 SOSs, and 0 indicators.
Presolve time = 0.05 sec. (27.56 ticks)
Clique table members: 199.
MIP emphasis: balance optimality and feasibility.
MIP search method: traditional branch-and-cut.
Parallel mode: deterministic, using up to 8 threads.
Root relaxation solution time = 0.13 sec. (131.72 ticks)

        Nodes                                         Cuts/
   Node  Left     Objective  IInf  Best Integer    Best Bound    ItCnt     Gap         Variable B NodeID Parent  Depth

*     0+    0                         7982.0000        0.0000           100.00%
      0     0     4137.5456   119     7982.0000     4137.5456       14   48.16%
      0     0     4971.6628   119     7982.0000      Cuts: 84      696   37.71%
      0     0     5086.1411   119     7982.0000      Cuts: 72      961   36.28%
      0     0     5209.2841   119     7982.0000     Cuts: 107     1308   34.74%
      0     0     5418.4399   119     7982.0000      Cuts: 90     1606   32.12%
      0     0     5534.9996   119     7982.0000      Cuts: 41     1845   30.66%
      0     0     5539.9658   119     7982.0000      Cuts: 36     1939   30.59%
      0     0     5548.1127   119     7982.0000      Cuts: 35     2177   30.49%
      0     0     5580.4871   119     7982.0000      Cuts: 82     2462   30.09%
      0     0     5586.6216   119     7982.0000      Cuts: 63     2675   30.01%
      0     0     5605.9280   119     7982.0000      Cuts: 88     2820   29.77%
      0     0     5630.2553   119     7982.0000      Cuts: 80     3053   29.46%
      0     0     5636.7121   119     7982.0000      Cuts: 82     3206   29.38%
      0     0     5645.0036   119     7982.0000      Cuts: 60     3356   29.28%
      0     0     5676.6498   119     7982.0000      Cuts: 73     3691   28.88%
      0     0     5713.4433   119     7982.0000     Cuts: 101     3920   28.42%
      0     0     5790.8366   119     7982.0000      Cuts: 66     4154   27.45%
      0     0     5846.6304   119     7982.0000      Cuts: 89     4424   26.75%
      0     0     5882.7039   119     7982.0000      Cuts: 82     4615   26.30%
      0     0     5894.5480   119     7982.0000      Cuts: 70     4761   26.15%
      0     0     5899.3963   119     7982.0000      Cuts: 62     4908   26.09%
      0     0     5983.9847   119     7982.0000      Cuts: 90     5275   25.03%
      0     0     5985.6671   119     7982.0000      Cuts: 58     5510   25.01%
      0     0     5987.9148   119     7982.0000      Cuts: 67     5642   24.98%
      0     0     5993.4730   119     7982.0000      Cuts: 44     5824   24.91%
      0     0     5997.6179   119     7982.0000      Cuts: 83     5956   24.86%
      0     0     6003.0418   119     7982.0000      Cuts: 68     6105   24.79%
      0     0     6004.3401   119     7982.0000      Cuts: 68     6261   24.78%
      0     0     6010.3688   119     7982.0000      Cuts: 50     6638   24.70%
      0     0     6012.8158   119     7982.0000      Cuts: 78     6759   24.67%
      0     0     6012.8158   119     7982.0000      Cuts: 42     6852   24.67%
Dentro lazy
camion 0, FALSE-heu 0.000
Version identifier: 12.10.0.0 | 2019-11-26 | 843d4de2ae
CPXPARAM_Threads                                 12
CPXPARAM_MIP_Strategy_Probe                      -1
CPXPARAM_Emphasis_MIP                            1
Tried aggregator 2 times.
MIP Presolve eliminated 5237 rows and 34 columns.
MIP Presolve modified 2882 coefficients.
Aggregator did 2 substitutions.
Reduced MIP has 2126 rows, 717 columns, and 56214 nonzeros.
Reduced MIP has 717 binaries, 0 generals, 0 SOSs, and 0 indicators.
Presolve time = 0.72 sec. (821.45 ticks)
Tried aggregator 1 time.
Detecting symmetries...
Reduced MIP has 2126 rows, 717 columns, and 56214 nonzeros.
Reduced MIP has 717 binaries, 0 generals, 0 SOSs, and 0 indicators.
Presolve time = 0.09 sec. (80.65 ticks)
Clique table members: 2064.
MIP emphasis: integer feasibility.
MIP search method: dynamic search.
Parallel mode: deterministic, using up to 12 threads.
Root relaxation solution time = 0.09 sec. (38.09 ticks)

        Nodes                                         Cuts/
   Node  Left     Objective  IInf  Best Integer    Best Bound    ItCnt     Gap

      0     0        0.0000   116                      0.0000      383         
Detecting symmetries...
      0     2        0.0000    20                      0.0000      383         
Elapsed time = 4.39 sec. (2030.22 ticks, tree = 0.02 MB, solutions = 0)
*    21+   11                            0.0000        0.0000             0.00%

Clique cuts applied:  119
Cover cuts applied:  1

Root node processing (before b&c):
  Real time             =    2.72 sec. (2028.91 ticks)
Parallel b&c, 12 threads:
  Real time             =    6.34 sec. (211.49 ticks)
  Sync time (average)   =    4.99 sec.
  Wait time (average)   =    0.00 sec.
                          ------------
Total (root+branch&cut) =    9.06 sec. (2240.40 ticks)
9.078000 
TRUE-modelo
camion 1, FALSE-heu 0.000
Version identifier: 12.10.0.0 | 2019-11-26 | 843d4de2ae
CPXPARAM_Threads                                 12
CPXPARAM_MIP_Strategy_Probe                      -1
CPXPARAM_Emphasis_MIP                            1
Tried aggregator 2 times.
MIP Presolve eliminated 2995 rows and 34 columns.
MIP Presolve modified 3073 coefficients.
Aggregator did 2 substitutions.
Reduced MIP has 1966 rows, 653 columns, and 40005 nonzeros.
Reduced MIP has 653 binaries, 0 generals, 0 SOSs, and 0 indicators.
Presolve time = 0.19 sec. (211.08 ticks)
Tried aggregator 1 time.
Detecting symmetries...
Reduced MIP has 1966 rows, 653 columns, and 40005 nonzeros.
Reduced MIP has 653 binaries, 0 generals, 0 SOSs, and 0 indicators.
Presolve time = 0.08 sec. (57.87 ticks)
Clique table members: 1904.
MIP emphasis: integer feasibility.
MIP search method: dynamic search.
Parallel mode: deterministic, using up to 12 threads.
Root relaxation solution time = 0.08 sec. (24.46 ticks)

        Nodes                                         Cuts/
   Node  Left     Objective  IInf  Best Integer    Best Bound    ItCnt     Gap

      0     0        0.0000   104                      0.0000      234         
      0     0        0.0000   104                  Cliques: 5      294         
      0     0        0.0000   104                    Cuts: 95      443         
*     0+    0                            0.0000        0.0000             0.00%
      0     0        cutoff              0.0000        0.0000      509    0.00%
Elapsed time = 1.72 sec. (1326.98 ticks, tree = 0.01 MB, solutions = 1)

Clique cuts applied:  36
Zero-half cuts applied:  7

Root node processing (before b&c):
  Real time             =    1.72 sec. (1327.13 ticks)
Parallel b&c, 12 threads:
  Real time             =    0.00 sec. (0.00 ticks)
  Sync time (average)   =    0.00 sec.
  Wait time (average)   =    0.00 sec.
                          ------------
Total (root+branch&cut) =    1.72 sec. (1327.13 ticks)
1.718000 
TRUE-modelo
Salgo lazy
*     0+    0                         6948.0000     6012.8158            13.46%
      0     0  -1.00000e+75     0     6948.0000     6012.8158     6852   13.46%
      0     2     6012.8158   147     6948.0000     6012.8158     6852   13.46%                        0             0
Elapsed time = 16.84 sec. (2817.70 ticks, tree = 0.02 MB, solutions = 2)
Dentro lazy
camion 0, FALSE-heu 0.000
Version identifier: 12.10.0.0 | 2019-11-26 | 843d4de2ae
CPXPARAM_Threads                                 12
CPXPARAM_MIP_Strategy_Probe                      -1
CPXPARAM_Emphasis_MIP                            1
Tried aggregator 2 times.
MIP Presolve eliminated 4941 rows and 34 columns.
MIP Presolve modified 3718 coefficients.
Aggregator did 2 substitutions.
Reduced MIP has 2422 rows, 749 columns, and 56271 nonzeros.
Reduced MIP has 749 binaries, 0 generals, 0 SOSs, and 0 indicators.
Presolve time = 0.31 sec. (358.52 ticks)
Tried aggregator 1 time.
Detecting symmetries...
Reduced MIP has 2422 rows, 749 columns, and 56271 nonzeros.
Reduced MIP has 749 binaries, 0 generals, 0 SOSs, and 0 indicators.
Presolve time = 0.08 sec. (81.63 ticks)
Clique table members: 2360.
MIP emphasis: integer feasibility.
MIP search method: dynamic search.
Parallel mode: deterministic, using up to 12 threads.
Root relaxation solution time = 0.09 sec. (41.75 ticks)

        Nodes                                         Cuts/
   Node  Left     Objective  IInf  Best Integer    Best Bound    ItCnt     Gap

      0     0        0.0000   140                      0.0000      355         
      0     0        0.0000   140                Cliques: 113      982         
      0     0        0.0000   140                 Cliques: 17     1240         
      0     0        0.0000   140                   Cuts: 180     1717         
Detecting symmetries...
      0     2        0.0000    63                      0.0000     1717         
Elapsed time = 5.92 sec. (2520.96 ticks, tree = 0.02 MB, solutions = 0)
    413   137        0.0000    28                      0.0000    12541         
   1318   334        0.0000    44                      0.0000    40966         
*  1699   344      integral     0        0.0000        0.0000    55682    0.00%
   1772   357        0.0000   215        0.0000        0.0000    48960    0.00%

Clique cuts applied:  239
Cover cuts applied:  2
Zero-half cuts applied:  4

Root node processing (before b&c):
  Real time             =    3.92 sec. (2505.51 ticks)
Parallel b&c, 12 threads:
  Real time             =    7.41 sec. (945.77 ticks)
  Sync time (average)   =    4.72 sec.
  Wait time (average)   =    0.00 sec.
                          ------------
Total (root+branch&cut) =   11.33 sec. (3451.28 ticks)
11.484000 
TRUE-modelo
camion 1, FALSE-heu 0.000
Version identifier: 12.10.0.0 | 2019-11-26 | 843d4de2ae
CPXPARAM_Threads                                 12
CPXPARAM_MIP_Strategy_Probe                      -1
CPXPARAM_Emphasis_MIP                            1
Tried aggregator 2 times.
MIP Presolve eliminated 2995 rows and 34 columns.
MIP Presolve modified 3009 coefficients.
Aggregator did 2 substitutions.
Reduced MIP has 1965 rows, 621 columns, and 37905 nonzeros.
Reduced MIP has 621 binaries, 0 generals, 0 SOSs, and 0 indicators.
Presolve time = 0.19 sec. (196.72 ticks)
Tried aggregator 1 time.
Detecting symmetries...
Reduced MIP has 1965 rows, 621 columns, and 37905 nonzeros.
Reduced MIP has 621 binaries, 0 generals, 0 SOSs, and 0 indicators.
Presolve time = 0.05 sec. (55.26 ticks)
Clique table members: 1903.
MIP emphasis: integer feasibility.
MIP search method: dynamic search.
Parallel mode: deterministic, using up to 12 threads.
Root relaxation solution time = 0.05 sec. (29.78 ticks)

        Nodes                                         Cuts/
   Node  Left     Objective  IInf  Best Integer    Best Bound    ItCnt     Gap

      0     0        0.0000   109                      0.0000      299         
      0     0        0.0000   109                    Cuts: 52      927         
      0     0        0.0000   109                 Cliques: 89     1403         
      0     0        0.0000   109                   Cuts: 155     2357         
Detecting symmetries...
      0     2        0.0000    33                      0.0000     2357         
Elapsed time = 4.53 sec. (2060.78 ticks, tree = 0.02 MB, solutions = 0)
    362   141    infeasible                            0.0000    14643         
   1611   223    infeasible                            0.0000    62049         
   2632   222        0.0000    19                      0.0000   108839         
   3660   268        0.0000    24                      0.0000   154948         
   4698   220        0.0000    29                      0.0000   204576         
   5693   217        0.0000    23                      0.0000   253742         
   6518   188        0.0000    25                      0.0000   302942         
   7004   341    infeasible                            0.0000   333276         
   7437   616        0.0000    56                      0.0000   372508         

Performing restart 1

Repeating presolve.
Tried aggregator 1 time.
MIP Presolve eliminated 493 rows and 76 columns.
MIP Presolve modified 999 coefficients.
Reduced MIP has 1405 rows, 545 columns, and 23775 nonzeros.
Reduced MIP has 545 binaries, 0 generals, 0 SOSs, and 0 indicators.
Presolve time = 0.05 sec. (42.02 ticks)
Tried aggregator 1 time.
MIP Presolve modified 2 coefficients.
Reduced MIP has 1405 rows, 545 columns, and 23789 nonzeros.
Reduced MIP has 545 binaries, 0 generals, 0 SOSs, and 0 indicators.
Presolve time = 0.03 sec. (28.33 ticks)
Represolve time = 0.11 sec. (84.89 ticks)
   7498     0        0.0000   142                    Cuts: 10   395363         
   7498     0        0.0000   142                 Cliques: 10   395514         
   7498     0        0.0000   142                   Cuts: 148   395738         
   7498     2        0.0000    47                      0.0000   395738         
Elapsed time = 22.64 sec. (6147.46 ticks, tree = 0.02 MB, solutions = 0)
  10676   640        0.0000    38                      0.0000   566653         
  14151   935        0.0000    30                      0.0000   750899         
  16688  1008        0.0000    24                      0.0000   921338         
  19040  1127    infeasible                            0.0000  1076314         

Performing restart 2

Repeating presolve.
Tried aggregator 1 time.
MIP Presolve eliminated 261 rows and 43 columns.
MIP Presolve modified 4 coefficients.
Reduced MIP has 1144 rows, 502 columns, and 18271 nonzeros.
Reduced MIP has 502 binaries, 0 generals, 0 SOSs, and 0 indicators.
Presolve time = 0.02 sec. (27.08 ticks)
Tried aggregator 1 time.
Reduced MIP has 1144 rows, 502 columns, and 18271 nonzeros.
Reduced MIP has 502 binaries, 0 generals, 0 SOSs, and 0 indicators.
Presolve time = 0.02 sec. (19.37 ticks)
Represolve time = 0.13 sec. (91.28 ticks)
  19275     0        0.0000    97                    Cuts: 13  1118262         
  19275     0        0.0000    97                   Cuts: 130  1118507         
  19275     0        0.0000    97                     Cuts: 9  1118593         
  19275     2        0.0000     8                      0.0000  1118593         
  21172   431    infeasible                            0.0000  1269082         
  22492   204    infeasible                            0.0000  1413207         
  24396   295        0.0000    79                      0.0000  1579426         
  25984   119        0.0000    83                      0.0000  1756996         
  26543    10    infeasible                            0.0000  1840323         
Elapsed time = 70.25 sec. (15972.26 ticks, tree = 0.11 MB, solutions = 0)

Clique cuts applied:  296
Cover cuts applied:  5
Mixed integer rounding cuts applied:  6
Zero-half cuts applied:  18
Gomory fractional cuts applied:  1

Root node processing (before b&c):
  Real time             =    2.91 sec. (2042.87 ticks)
Parallel b&c, 12 threads:
  Real time             =   76.89 sec. (14457.39 ticks)
  Sync time (average)   =   44.44 sec.
  Wait time (average)   =    0.11 sec.
                          ------------
Total (root+branch&cut) =   79.80 sec. (16500.26 ticks)
79.813000 
FALSE-modelo
 Salgo lazy
Dentro lazy
camion 0, FALSE-heu 0.000
Version identifier: 12.10.0.0 | 2019-11-26 | 843d4de2ae
CPXPARAM_Threads                                 12
CPXPARAM_MIP_Strategy_Probe                      -1
CPXPARAM_Emphasis_MIP                            1
Tried aggregator 2 times.
MIP Presolve eliminated 5237 rows and 34 columns.
MIP Presolve modified 2882 coefficients.
Aggregator did 2 substitutions.
Reduced MIP has 2126 rows, 717 columns, and 56214 nonzeros.
Reduced MIP has 717 binaries, 0 generals, 0 SOSs, and 0 indicators.
Presolve time = 0.72 sec. (821.45 ticks)
Tried aggregator 1 time.
Detecting symmetries...
Reduced MIP has 2126 rows, 717 columns, and 56214 nonzeros.
Reduced MIP has 717 binaries, 0 generals, 0 SOSs, and 0 indicators.
Presolve time = 0.08 sec. (80.65 ticks)
Clique table members: 2064.
MIP emphasis: integer feasibility.
MIP search method: dynamic search.
Parallel mode: deterministic, using up to 12 threads.
Root relaxation solution time = 0.08 sec. (38.09 ticks)

        Nodes                                         Cuts/
   Node  Left     Objective  IInf  Best Integer    Best Bound    ItCnt     Gap

      0     0        0.0000   116                      0.0000      383         
Detecting symmetries...
      0     2        0.0000    20                      0.0000      383         
Elapsed time = 5.44 sec. (2030.22 ticks, tree = 0.02 MB, solutions = 0)
*    21+   11                            0.0000        0.0000             0.00%

Clique cuts applied:  119
Cover cuts applied:  1

Root node processing (before b&c):
  Real time             =    3.02 sec. (2028.91 ticks)
Parallel b&c, 12 threads:
  Real time             =    8.89 sec. (211.49 ticks)
  Sync time (average)   =    7.06 sec.
  Wait time (average)   =    0.00 sec.
                          ------------
Total (root+branch&cut) =   11.91 sec. (2240.40 ticks)
11.938000 
TRUE-modelo
camion 1, FALSE-heu 0.000
Version identifier: 12.10.0.0 | 2019-11-26 | 843d4de2ae
CPXPARAM_Threads                                 12
CPXPARAM_MIP_Strategy_Probe                      -1
CPXPARAM_Emphasis_MIP                            1
Tried aggregator 2 times.
MIP Presolve eliminated 2995 rows and 34 columns.
MIP Presolve modified 3073 coefficients.
Aggregator did 2 substitutions.
Reduced MIP has 1966 rows, 653 columns, and 40005 nonzeros.
Reduced MIP has 653 binaries, 0 generals, 0 SOSs, and 0 indicators.
Presolve time = 0.20 sec. (211.42 ticks)
Tried aggregator 1 time.
Detecting symmetries...
Reduced MIP has 1966 rows, 653 columns, and 40005 nonzeros.
Reduced MIP has 653 binaries, 0 generals, 0 SOSs, and 0 indicators.
Presolve time = 0.08 sec. (57.94 ticks)
Clique table members: 1904.
MIP emphasis: integer feasibility.
MIP search method: dynamic search.
Parallel mode: deterministic, using up to 12 threads.
Root relaxation solution time = 0.09 sec. (35.99 ticks)

        Nodes                                         Cuts/
   Node  Left     Objective  IInf  Best Integer    Best Bound    ItCnt     Gap

      0     0        0.0000   116                      0.0000      372         
*     0+    0                            0.0000        0.0000             0.00%
      0     0        cutoff              0.0000        0.0000      746    0.00%
Elapsed time = 1.55 sec. (1062.35 ticks, tree = 0.01 MB, solutions = 1)

Clique cuts applied:  109

Root node processing (before b&c):
  Real time             =    1.55 sec. (1062.50 ticks)
Parallel b&c, 12 threads:
  Real time             =    0.00 sec. (0.00 ticks)
  Sync time (average)   =    0.00 sec.
  Wait time (average)   =    0.00 sec.
                          ------------
Total (root+branch&cut) =    1.55 sec. (1062.50 ticks)
1.547000 
TRUE-modelo
Salgo lazy
Dentro lazy
      3     5     6224.2689   126     6948.0000     6066.0446     7421   12.69%         X_0_7_3 U     24     16      3
camion 0, FALSE-heu 0.000
Version identifier: 12.10.0.0 | 2019-11-26 | 843d4de2ae
CPXPARAM_Threads                                 12
CPXPARAM_MIP_Strategy_Probe                      -1
CPXPARAM_Emphasis_MIP                            1
Tried aggregator 2 times.
MIP Presolve eliminated 4941 rows and 34 columns.
MIP Presolve modified 3718 coefficients.
Aggregator did 2 substitutions.
Reduced MIP has 2422 rows, 749 columns, and 56271 nonzeros.
Reduced MIP has 749 binaries, 0 generals, 0 SOSs, and 0 indicators.
Presolve time = 0.33 sec. (358.52 ticks)
Tried aggregator 1 time.
Detecting symmetries...
Reduced MIP has 2422 rows, 749 columns, and 56271 nonzeros.
Reduced MIP has 749 binaries, 0 generals, 0 SOSs, and 0 indicators.
Presolve time = 0.09 sec. (81.63 ticks)
Clique table members: 2360.
MIP emphasis: integer feasibility.
MIP search method: dynamic search.
Parallel mode: deterministic, using up to 12 threads.
Root relaxation solution time = 0.09 sec. (41.75 ticks)

        Nodes                                         Cuts/
   Node  Left     Objective  IInf  Best Integer    Best Bound    ItCnt     Gap

      0     0        0.0000   140                      0.0000      355         
      0     0        0.0000   140                Cliques: 113      982         
      0     0        0.0000   140                 Cliques: 17     1240         
      0     0        0.0000   140                   Cuts: 180     1717         
Detecting symmetries...
      0     2        0.0000    63                      0.0000     1717         
Elapsed time = 5.88 sec. (2520.96 ticks, tree = 0.02 MB, solutions = 0)
    413   137        0.0000    28                      0.0000    12541         
   1318   334        0.0000    44                      0.0000    40966         
*  1699   344      integral     0        0.0000        0.0000    55682    0.00%
   1772   357        0.0000   215        0.0000        0.0000    48960    0.00%

Clique cuts applied:  239
Cover cuts applied:  2
Zero-half cuts applied:  4

Root node processing (before b&c):
  Real time             =    3.77 sec. (2505.51 ticks)
Parallel b&c, 12 threads:
  Real time             =    7.59 sec. (945.77 ticks)
  Sync time (average)   =    4.92 sec.
  Wait time (average)   =    0.00 sec.
                          ------------
Total (root+branch&cut) =   11.36 sec. (3451.28 ticks)
11.375000 
TRUE-modelo
camion 1, FALSE-heu 0.000
Version identifier: 12.10.0.0 | 2019-11-26 | 843d4de2ae
CPXPARAM_Threads                                 12
CPXPARAM_MIP_Strategy_Probe                      -1
CPXPARAM_Emphasis_MIP                            1
Tried aggregator 2 times.
MIP Presolve eliminated 2995 rows and 34 columns.
MIP Presolve modified 3009 coefficients.
Aggregator did 2 substitutions.
Reduced MIP has 1965 rows, 621 columns, and 37905 nonzeros.
Reduced MIP has 621 binaries, 0 generals, 0 SOSs, and 0 indicators.
Presolve time = 0.20 sec. (196.72 ticks)
Tried aggregator 1 time.
Detecting symmetries...
Reduced MIP has 1965 rows, 621 columns, and 37905 nonzeros.
Reduced MIP has 621 binaries, 0 generals, 0 SOSs, and 0 indicators.
Presolve time = 0.05 sec. (55.26 ticks)
Clique table members: 1903.
MIP emphasis: integer feasibility.
MIP search method: dynamic search.
Parallel mode: deterministic, using up to 12 threads.
Root relaxation solution time = 0.06 sec. (29.78 ticks)

        Nodes                                         Cuts/
   Node  Left     Objective  IInf  Best Integer    Best Bound    ItCnt     Gap

      0     0        0.0000   109                      0.0000      299         
      0     0        0.0000   109                    Cuts: 52      927         
      0     0        0.0000   109                 Cliques: 89     1403         
      0     0        0.0000   109                   Cuts: 155     2357         
Detecting symmetries...
      0     2        0.0000    33                      0.0000     2357         
Elapsed time = 5.39 sec. (2060.78 ticks, tree = 0.02 MB, solutions = 0)
    362   141    infeasible                            0.0000    14643         
   1611   223    infeasible                            0.0000    62049         
   2632   222        0.0000    19                      0.0000   108839         
   3660   268        0.0000    24                      0.0000   154948         
   4698   220        0.0000    29                      0.0000   204576         
   5693   217        0.0000    23                      0.0000   253742         
   6518   188        0.0000    25                      0.0000   302942         
   7004   341    infeasible                            0.0000   333276         
   7437   616        0.0000    56                      0.0000   372508         

Performing restart 1

Repeating presolve.
Tried aggregator 1 time.
MIP Presolve eliminated 493 rows and 76 columns.
MIP Presolve modified 999 coefficients.
Reduced MIP has 1405 rows, 545 columns, and 23775 nonzeros.
Reduced MIP has 545 binaries, 0 generals, 0 SOSs, and 0 indicators.
Presolve time = 0.05 sec. (42.02 ticks)
Tried aggregator 1 time.
MIP Presolve modified 2 coefficients.
Reduced MIP has 1405 rows, 545 columns, and 23789 nonzeros.
Reduced MIP has 545 binaries, 0 generals, 0 SOSs, and 0 indicators.
Presolve time = 0.03 sec. (28.33 ticks)
Represolve time = 0.11 sec. (84.89 ticks)
   7498     0        0.0000   142                    Cuts: 10   395363         
   7498     0        0.0000   142                 Cliques: 10   395514         
   7498     0        0.0000   142                   Cuts: 148   395738         
   7498     2        0.0000    47                      0.0000   395738         
Elapsed time = 23.39 sec. (6147.46 ticks, tree = 0.02 MB, solutions = 0)
  10676   640        0.0000    38                      0.0000   566653         
  14151   935        0.0000    30                      0.0000   750899         
  16688  1008        0.0000    24                      0.0000   921338         
  19040  1127    infeasible                            0.0000  1076314         

Performing restart 2

Repeating presolve.
Tried aggregator 1 time.
MIP Presolve eliminated 261 rows and 43 columns.
MIP Presolve modified 4 coefficients.
Reduced MIP has 1144 rows, 502 columns, and 18271 nonzeros.
Reduced MIP has 502 binaries, 0 generals, 0 SOSs, and 0 indicators.
Presolve time = 0.03 sec. (27.08 ticks)
Tried aggregator 1 time.
Reduced MIP has 1144 rows, 502 columns, and 18271 nonzeros.
Reduced MIP has 502 binaries, 0 generals, 0 SOSs, and 0 indicators.
Presolve time = 0.02 sec. (19.37 ticks)
Represolve time = 0.14 sec. (91.28 ticks)
  19275     0        0.0000    97                    Cuts: 13  1118262         
  19275     0        0.0000    97                   Cuts: 130  1118507         
  19275     0        0.0000    97                     Cuts: 9  1118593         
  19275     2        0.0000     8                      0.0000  1118593         
  21172   431    infeasible                            0.0000  1269082         
  22492   204    infeasible                            0.0000  1413207         
  24396   295        0.0000    79                      0.0000  1579426         
  25984   119        0.0000    83                      0.0000  1756996         
  26543    10    infeasible                            0.0000  1840323         
Elapsed time = 70.13 sec. (15972.26 ticks, tree = 0.11 MB, solutions = 0)

Clique cuts applied:  296
Cover cuts applied:  5
Mixed integer rounding cuts applied:  6
Zero-half cuts applied:  18
Gomory fractional cuts applied:  1

Root node processing (before b&c):
  Real time             =    3.47 sec. (2042.87 ticks)
Parallel b&c, 12 threads:
  Real time             =   76.55 sec. (14457.39 ticks)
  Sync time (average)   =   43.30 sec.
  Wait time (average)   =    0.10 sec.
                          ------------
Total (root+branch&cut) =   80.02 sec. (16500.26 ticks)
80.015000 
FALSE-modelo
 Salgo lazy
Dentro lazy
camion 0, TRUE-heu 0.000355
camion 2, FALSE-heu 0.000
Version identifier: 12.10.0.0 | 2019-11-26 | 843d4de2ae
CPXPARAM_Threads                                 12
CPXPARAM_MIP_Strategy_Probe                      -1
CPXPARAM_Emphasis_MIP                            1
Tried aggregator 2 times.
MIP Presolve eliminated 2995 rows and 34 columns.
MIP Presolve modified 3137 coefficients.
Aggregator did 2 substitutions.
Reduced MIP has 1967 rows, 685 columns, and 42105 nonzeros.
Reduced MIP has 685 binaries, 0 generals, 0 SOSs, and 0 indicators.
Presolve time = 0.25 sec. (225.90 ticks)
Tried aggregator 1 time.
Detecting symmetries...
Reduced MIP has 1967 rows, 685 columns, and 42105 nonzeros.
Reduced MIP has 685 binaries, 0 generals, 0 SOSs, and 0 indicators.
Presolve time = 0.08 sec. (60.46 ticks)
Clique table members: 1905.
MIP emphasis: integer feasibility.
MIP search method: dynamic search.
Parallel mode: deterministic, using up to 12 threads.
Root relaxation solution time = 0.09 sec. (44.54 ticks)

        Nodes                                         Cuts/
   Node  Left     Objective  IInf  Best Integer    Best Bound    ItCnt     Gap

      0     0        0.0000   122                      0.0000      473         
      0     0        0.0000   122                 Cliques: 12      589         
      0     0        0.0000   122                   Cuts: 102      906         
Detecting symmetries...
      0     2        0.0000    13                      0.0000      906         
Elapsed time = 4.50 sec. (1564.81 ticks, tree = 0.02 MB, solutions = 0)
    500   161        0.0000    14                      0.0000    25632         
   1148   334    infeasible                            0.0000    55913         
   1800   425        0.0000    21                      0.0000    81171         
   2260   585        0.0000    14                      0.0000   108693         
   2623   703        0.0000    62                      0.0000   136310         
   2902   832    infeasible                            0.0000   158456         
   3120   876        0.0000    25                      0.0000   187211         
   3390   982        0.0000    49                      0.0000   215549         
   3636  1086        0.0000    59                      0.0000   235035         
   4881  1254    infeasible                            0.0000   342115         
Elapsed time = 21.81 sec. (4670.65 ticks, tree = 7.90 MB, solutions = 0)
   6528  1449    infeasible                            0.0000   467721         

Performing restart 1

Repeating presolve.
Tried aggregator 1 time.
MIP Presolve eliminated 2 rows and 0 columns.
MIP Presolve modified 211 coefficients.
Reduced MIP has 1965 rows, 685 columns, and 42045 nonzeros.
Reduced MIP has 685 binaries, 0 generals, 0 SOSs, and 0 indicators.
Presolve time = 0.08 sec. (68.10 ticks)
Represolve time = 0.11 sec. (86.11 ticks)
   7622     2        0.0000     4                      0.0000   558005         
   9425   651        0.0000    29                      0.0000   654407         
  11045   974    infeasible                            0.0000   756480         
  12518  1189        0.0000    79                      0.0000   850264         
  13448  1407        0.0000    23                      0.0000   950967         
  14392  1596        0.0000    36                      0.0000  1045754         

Performing restart 2

Repeating presolve.
Tried aggregator 1 time.
MIP Presolve eliminated 510 rows and 84 columns.
MIP Presolve modified 787 coefficients.
Reduced MIP has 1405 rows, 601 columns, and 26591 nonzeros.
Reduced MIP has 601 binaries, 0 generals, 0 SOSs, and 0 indicators.
Presolve time = 0.05 sec. (46.97 ticks)
Tried aggregator 1 time.
MIP Presolve modified 1 coefficients.
Reduced MIP has 1405 rows, 601 columns, and 26595 nonzeros.
Reduced MIP has 601 binaries, 0 generals, 0 SOSs, and 0 indicators.
Presolve time = 0.03 sec. (31.35 ticks)
Represolve time = 0.16 sec. (112.08 ticks)
  15131     0        0.0000   182                  Cliques: 6  1107107         
  15131     0        0.0000   182                   Cuts: 195  1107651         
  15131     2        0.0000    11                      0.0000  1107651         
  16397   404        0.0000   127                      0.0000  1237305         
  17677   777    infeasible                            0.0000  1373779         
Elapsed time = 78.61 sec. (16054.23 ticks, tree = 0.66 MB, solutions = 0)
  19242   945    infeasible                            0.0000  1538583         
  20822   805    infeasible                            0.0000  1690539         
  21913   746    infeasible                            0.0000  1841826         
  22763   563        0.0000   132                      0.0000  1963214         
  23624   503    infeasible                            0.0000  2112143         
  24414   340        0.0000    34                      0.0000  2263937         
  25221   302    infeasible                            0.0000  2387024         
  25972   210    infeasible                            0.0000  2571152         
  26894    39        0.0000    85                      0.0000  2711391         
  27244    24        0.0000    45                      0.0000  2793863         
Elapsed time = 115.11 sec. (25597.39 ticks, tree = 0.05 MB, solutions = 0)

Clique cuts applied:  292
Cover cuts applied:  20
Mixed integer rounding cuts applied:  17
Zero-half cuts applied:  8
Gomory fractional cuts applied:  3

Root node processing (before b&c):
  Real time             =    2.61 sec. (1563.81 ticks)
Parallel b&c, 12 threads:
  Real time             =  119.33 sec. (24099.67 ticks)
  Sync time (average)   =   59.06 sec.
  Wait time (average)   =    0.06 sec.
                          ------------
Total (root+branch&cut) =  121.94 sec. (25663.48 ticks)
122.016000 
FALSE-modelo
 Salgo lazy
Dentro lazy
camion 0, FALSE-heu 0.000
Version identifier: 12.10.0.0 | 2019-11-26 | 843d4de2ae
CPXPARAM_Threads                                 12
CPXPARAM_MIP_Strategy_Probe                      -1
CPXPARAM_Emphasis_MIP                            1
Tried aggregator 2 times.
MIP Presolve eliminated 4941 rows and 34 columns.
MIP Presolve modified 3718 coefficients.
Aggregator did 2 substitutions.
Reduced MIP has 2422 rows, 749 columns, and 56271 nonzeros.
Reduced MIP has 749 binaries, 0 generals, 0 SOSs, and 0 indicators.
Presolve time = 0.39 sec. (358.52 ticks)
Tried aggregator 1 time.
Detecting symmetries...
Reduced MIP has 2422 rows, 749 columns, and 56271 nonzeros.
Reduced MIP has 749 binaries, 0 generals, 0 SOSs, and 0 indicators.
Presolve time = 0.08 sec. (81.63 ticks)
Clique table members: 2360.
MIP emphasis: integer feasibility.
MIP search method: dynamic search.
Parallel mode: deterministic, using up to 12 threads.
Root relaxation solution time = 0.13 sec. (41.75 ticks)

        Nodes                                         Cuts/
   Node  Left     Objective  IInf  Best Integer    Best Bound    ItCnt     Gap

      0     0        0.0000   140                      0.0000      355         
      0     0        0.0000   140                Cliques: 113      982         
      0     0        0.0000   140                 Cliques: 17     1240         
      0     0        0.0000   140                   Cuts: 180     1717         
Detecting symmetries...
      0     2        0.0000    63                      0.0000     1717         
Elapsed time = 6.84 sec. (2520.96 ticks, tree = 0.02 MB, solutions = 0)
    413   137        0.0000    28                      0.0000    12541         
   1318   334        0.0000    44                      0.0000    40966         
*  1699   344      integral     0        0.0000        0.0000    55682    0.00%
   1772   357        0.0000   215        0.0000        0.0000    48960    0.00%

Clique cuts applied:  239
Cover cuts applied:  2
Zero-half cuts applied:  4

Root node processing (before b&c):
  Real time             =    4.34 sec. (2505.51 ticks)
Parallel b&c, 12 threads:
  Real time             =   10.31 sec. (945.77 ticks)
  Sync time (average)   =    7.29 sec.
  Wait time (average)   =    0.00 sec.
                          ------------
Total (root+branch&cut) =   14.66 sec. (3451.28 ticks)
14.688000 
TRUE-modelo
camion 1, *     8+    2                         6821.0000     6066.0446            11.07%
      8     4     6145.8892   133     6821.0000     6066.0446     7957   11.07%         X_0_7_1 N      6      8      2
FALSE-heu 0.000
Version identifier: 12.10.0.0 | 2019-11-26 | 843d4de2ae
CPXPARAM_Threads                                 12
CPXPARAM_MIP_Strategy_Probe                      -1
CPXPARAM_Emphasis_MIP                            1
Tried aggregator 2 times.
MIP Presolve eliminated 2995 rows and 34 columns.
MIP Presolve modified 3009 coefficients.
Aggregator did 2 substitutions.
Reduced MIP has 1965 rows, 621 columns, and 37905 nonzeros.
Reduced MIP has 621 binaries, 0 generals, 0 SOSs, and 0 indicators.
Presolve time = 0.20 sec. (196.72 ticks)
Tried aggregator 1 time.
Detecting symmetries...
Reduced MIP has 1965 rows, 621 columns, and 37905 nonzeros.
Reduced MIP has 621 binaries, 0 generals, 0 SOSs, and 0 indicators.
Presolve time = 0.06 sec. (55.26 ticks)
Clique table members: 1903.
MIP emphasis: integer feasibility.
MIP search method: dynamic search.
Parallel mode: deterministic, using up to 12 threads.
Root relaxation solution time = 0.05 sec. (29.78 ticks)

        Nodes                                         Cuts/
   Node  Left     Objective  IInf  Best Integer    Best Bound    ItCnt     Gap

      0     0        0.0000   109                      0.0000      299         
      0     0        0.0000   109                    Cuts: 52      927         
      0     0        0.0000   109                 Cliques: 89     1403         
      0     0        0.0000   109                   Cuts: 155     2357         
Detecting symmetries...
      0     2        0.0000    33                      0.0000     2357         
Elapsed time = 6.11 sec. (2060.78 ticks, tree = 0.02 MB, solutions = 0)
    362   141    infeasible                            0.0000    14643         
   1611   223    infeasible                            0.0000    62049         
   2632   222        0.0000    19                      0.0000   108839         
   3660   268        0.0000    24                      0.0000   154948         
   4698   220        0.0000    29                      0.0000   204576         
   5693   217        0.0000    23                      0.0000   253742         
   6518   188        0.0000    25                      0.0000   302942         
   7004   341    infeasible                            0.0000   333276         
   7437   616        0.0000    56                      0.0000   372508         

Performing restart 1

Repeating presolve.
Tried aggregator 1 time.
MIP Presolve eliminated 493 rows and 76 columns.
MIP Presolve modified 999 coefficients.
Reduced MIP has 1405 rows, 545 columns, and 23775 nonzeros.
Reduced MIP has 545 binaries, 0 generals, 0 SOSs, and 0 indicators.
Presolve time = 0.03 sec. (42.02 ticks)
Tried aggregator 1 time.
MIP Presolve modified 2 coefficients.
Reduced MIP has 1405 rows, 545 columns, and 23789 nonzeros.
Reduced MIP has 545 binaries, 0 generals, 0 SOSs, and 0 indicators.
Presolve time = 0.03 sec. (28.33 ticks)
Represolve time = 0.11 sec. (84.89 ticks)
   7498     0        0.0000   142                    Cuts: 10   395363         
   7498     0        0.0000   142                 Cliques: 10   395514         
   7498     0        0.0000   142                   Cuts: 148   395738         
   7498     2        0.0000    47                      0.0000   395738         
Elapsed time = 26.97 sec. (6147.46 ticks, tree = 0.02 MB, solutions = 0)
  10676   640        0.0000    38                      0.0000   566653         
  14151   935        0.0000    30                      0.0000   750899         
  16688  1008        0.0000    24                      0.0000   921338         
  19040  1127    infeasible                            0.0000  1076314         

Performing restart 2

Repeating presolve.
Tried aggregator 1 time.
MIP Presolve eliminated 261 rows and 43 columns.
MIP Presolve modified 4 coefficients.
Reduced MIP has 1144 rows, 502 columns, and 18271 nonzeros.
Reduced MIP has 502 binaries, 0 generals, 0 SOSs, and 0 indicators.
Presolve time = 0.03 sec. (27.08 ticks)
Tried aggregator 1 time.
Reduced MIP has 1144 rows, 502 columns, and 18271 nonzeros.
Reduced MIP has 502 binaries, 0 generals, 0 SOSs, and 0 indicators.
Presolve time = 0.02 sec. (19.37 ticks)
Represolve time = 0.14 sec. (91.28 ticks)
  19275     0        0.0000    97                    Cuts: 13  1118262         
  19275     0        0.0000    97                   Cuts: 130  1118507         
  19275     0        0.0000    97                     Cuts: 9  1118593         
  19275     2        0.0000     8                      0.0000  1118593         
  21172   431    infeasible                            0.0000  1269082         
  22492   204    infeasible                            0.0000  1413207         
  24396   295        0.0000    79                      0.0000  1579426         
  25984   119        0.0000    83                      0.0000  1756996         
  26543    10    infeasible                            0.0000  1840323         
Elapsed time = 81.75 sec. (15972.26 ticks, tree = 0.11 MB, solutions = 0)

Clique cuts applied:  296
Cover cuts applied:  5
Mixed integer rounding cuts applied:  6
Zero-half cuts applied:  18
Gomory fractional cuts applied:  1

Root node processing (before b&c):
  Real time             =    4.06 sec. (2042.87 ticks)
Parallel b&c, 12 threads:
  Real time             =   89.61 sec. (14457.39 ticks)
  Sync time (average)   =   52.53 sec.
  Wait time (average)   =    0.07 sec.
                          ------------
Total (root+branch&cut) =   93.67 sec. (16500.26 ticks)
93.672000 
FALSE-modelo
 Salgo lazy
     28    15     6162.6003   117     6821.0000     6091.0755    11885   10.70%         X_2_0_8 D     39     31      5
     89    54     6557.4734    98     6821.0000     6091.0755    22716   10.70%         X_0_2_9 D     12      4      5
Dentro lazy
camion 0, FALSE-heu 0.000
Version identifier: 12.10.0.0 | 2019-11-26 | 843d4de2ae
CPXPARAM_Threads                                 12
CPXPARAM_MIP_Strategy_Probe                      -1
CPXPARAM_Emphasis_MIP                            1
Tried aggregator 2 times.
MIP Presolve eliminated 5378 rows and 34 columns.
MIP Presolve modified 2966 coefficients.
Aggregator did 2 substitutions.
Reduced MIP has 1985 rows, 717 columns, and 55836 nonzeros.
Reduced MIP has 717 binaries, 0 generals, 0 SOSs, and 0 indicators.
Presolve time = 0.72 sec. (830.02 ticks)
Tried aggregator 1 time.
Detecting symmetries...
Reduced MIP has 1985 rows, 717 columns, and 55836 nonzeros.
Reduced MIP has 717 binaries, 0 generals, 0 SOSs, and 0 indicators.
Presolve time = 0.08 sec. (78.69 ticks)
Clique table members: 1923.
MIP emphasis: integer feasibility.
MIP search method: dynamic search.
Parallel mode: deterministic, using up to 12 threads.
Root relaxation solution time = 0.09 sec. (54.56 ticks)

        Nodes                                         Cuts/
   Node  Left     Objective  IInf  Best Integer    Best Bound    ItCnt     Gap

      0     0        0.0000   152                      0.0000      437         
*     0+    0                            0.0000        0.0000             0.00%
      0     0        cutoff              0.0000        0.0000     1218    0.00%
Elapsed time = 3.14 sec. (2525.84 ticks, tree = 0.01 MB, solutions = 1)

Clique cuts applied:  139
Zero-half cuts applied:  2

Root node processing (before b&c):
  Real time             =    3.14 sec. (2526.05 ticks)
Parallel b&c, 12 threads:
  Real time             =    0.00 sec. (0.00 ticks)
  Sync time (average)   =    0.00 sec.
  Wait time (average)   =    0.00 sec.
                          ------------
Total (root+branch&cut) =    3.14 sec. (2526.05 ticks)
3.140000 
TRUE-modelo
camion 2, FALSE-heu 0.001
Version identifier: 12.10.0.0 | 2019-11-26 | 843d4de2ae
CPXPARAM_Threads                                 12
CPXPARAM_MIP_Strategy_Probe                      -1
CPXPARAM_Emphasis_MIP                            1
Tried aggregator 2 times.
MIP Presolve eliminated 2995 rows and 34 columns.
MIP Presolve modified 3073 coefficients.
Aggregator did 2 substitutions.
Reduced MIP has 1966 rows, 653 columns, and 40005 nonzeros.
Reduced MIP has 653 binaries, 0 generals, 0 SOSs, and 0 indicators.
Presolve time = 0.20 sec. (208.41 ticks)
Tried aggregator 1 time.
Detecting symmetries...
Reduced MIP has 1966 rows, 653 columns, and 40005 nonzeros.
Reduced MIP has 653 binaries, 0 generals, 0 SOSs, and 0 indicators.
Presolve time = 0.06 sec. (57.02 ticks)
Clique table members: 1904.
MIP emphasis: integer feasibility.
MIP search method: dynamic search.
Parallel mode: deterministic, using up to 12 threads.
Root relaxation solution time = 0.08 sec. (41.92 ticks)

        Nodes                                         Cuts/
   Node  Left     Objective  IInf  Best Integer    Best Bound    ItCnt     Gap

      0     0        0.0000   119                      0.0000      407         
      0     0        0.0000   119                 Cliques: 35      554         
      0     0        0.0000   119                   Cuts: 144      712         
Detecting symmetries...
      0     2        0.0000    24                      0.0000      712         
Elapsed time = 4.66 sec. (1518.77 ticks, tree = 0.02 MB, solutions = 0)
     16     4        0.0000   140                      0.0000     2016         
     31     9        0.0000    94                      0.0000     6824         
*   245    38      integral     0        0.0000        0.0000    10330    0.00%

Clique cuts applied:  150
Zero-half cuts applied:  2

Root node processing (before b&c):
  Real time             =    2.42 sec. (1517.69 ticks)
Parallel b&c, 12 threads:
  Real time             =   19.31 sec. (634.43 ticks)
  Sync time (average)   =   17.46 sec.
  Wait time (average)   =    0.00 sec.
                          ------------
Total (root+branch&cut) =   21.73 sec. (2152.11 ticks)
21.735000 
TRUE-modelo
Salgo lazy
    185   119     6482.1913    26     6821.0000     6091.0755    29981   10.70%         X_2_2_3 D    268    260     28
*   203+   86                         6506.0000     6091.0755             6.38%
    264   105        cutoff           6506.0000     6091.0755    36955    6.38%         X_0_9_5 U    142    134     17
    395   126     6358.7927    93     6506.0000     6091.0755    52139    6.38%         X_0_9_5 D     97     89     13
    536   163        cutoff           6506.0000     6239.3832    65171    4.10%         X_1_0_4 U    780    764     20
    755   151        cutoff           6506.0000     6326.1437    85923    2.76%         X_1_6_7 U    856     27      6

GUB cover cuts applied:  48
Cover cuts applied:  143
Flow cuts applied:  26
Mixed integer rounding cuts applied:  11
Zero-half cuts applied:  70
Gomory fractional cuts applied:  2
User cuts applied:  4

Root node processing (before b&c):
  Real time             =   16.41 sec. (2768.85 ticks)
Parallel b&c, 8 threads:
  Real time             =  456.75 sec. (2551.86 ticks)
  Sync time (average)   =  138.88 sec.
  Wait time (average)   =    0.00 sec.
                          ------------
Total (root+branch&cut) =  473.16 sec. (5320.71 ticks)
473.156000 
