Instances\Inst10P1Du_4.csvVersion identifier: 12.10.0.0 | 2019-11-26 | 843d4de2ae
CPXPARAM_Threads                                 8
CPXPARAM_MIP_Strategy_File                       3
CPXPARAM_MIP_Strategy_Probe                      -1
CPXPARAM_TimeLimit                               3600
Lazy constraint(s) or lazy constraint/branch callback is present.
    Disabling dual reductions (CPX_PARAM_REDUCE) in presolve.
    Disabling non-linear reductions (CPX_PARAM_PRELINEAR) in presolve.
    Disabling presolve reductions that prevent crushing forms.
         Disabling repeat represolve because of lazy constraint/incumbent callback.
Dentro lazy
camion 0, TRUE-heu 0.000031
camion 1, TRUE-heu 0.000053
camion 2, TRUE-heu 0.000070
Salgo lazy
1 of 1 MIP starts provided solutions.
MIP start 'm1' defined initial solution with objective 7982.0000.
Tried aggregator 1 time.
MIP Presolve eliminated 402 rows and 126 columns.
MIP Presolve modified 2152 coefficients.
Reduced MIP has 611 rows, 2487 columns, and 19589 nonzeros.
Reduced MIP has 2187 binaries, 0 generals, 0 SOSs, and 0 indicators.
Presolve time = 0.02 sec. (17.08 ticks)
Clique table members: 179.
MIP emphasis: balance optimality and feasibility.
MIP search method: traditional branch-and-cut.
Parallel mode: deterministic, using up to 8 threads.
Root relaxation solution time = 0.03 sec. (31.91 ticks)

        Nodes                                         Cuts/
   Node  Left     Objective  IInf  Best Integer    Best Bound    ItCnt     Gap         Variable B NodeID Parent  Depth

*     0+    0                         7982.0000        0.0000           100.00%
      0     0     4408.2903    91     7982.0000     4408.2903      736   44.77%
      0     0     4935.8668    91     7982.0000      Cuts: 68      947   38.16%
      0     0     4960.4001    91     7982.0000      Cuts: 44     1014   37.86%
      0     0     5028.4858    91     7982.0000      Cuts: 73     1192   37.00%
      0     0     5061.8568    91     7982.0000      Cuts: 87     1309   36.58%
      0     0     5283.8179    91     7982.0000      Cuts: 69     1529   33.80%
      0     0     5294.7543    91     7982.0000      Cuts: 70     1649   33.67%
      0     0     5333.1570    91     7982.0000      Cuts: 64     1814   33.19%
      0     0     5419.3818    91     7982.0000      Cuts: 94     2109   32.10%
Dentro lazy
camion 0, FALSE-heu 0.000
Version identifier: 12.10.0.0 | 2019-11-26 | 843d4de2ae
CPXPARAM_Threads                                 12
CPXPARAM_MIP_Strategy_Probe                      -1
CPXPARAM_Emphasis_MIP                            1
Tried aggregator 2 times.
MIP Presolve eliminated 5790 rows and 34 columns.
MIP Presolve modified 2093 coefficients.
Aggregator did 2 substitutions.
Reduced MIP has 1563 rows, 365 columns, and 31564 nonzeros.
Reduced MIP has 365 binaries, 0 generals, 0 SOSs, and 0 indicators.
Presolve time = 0.33 sec. (429.61 ticks)
Tried aggregator 1 time.
Detecting symmetries...
Reduced MIP has 1563 rows, 365 columns, and 31564 nonzeros.
Reduced MIP has 365 binaries, 0 generals, 0 SOSs, and 0 indicators.
Presolve time = 0.05 sec. (45.71 ticks)
Clique table members: 1564.
MIP emphasis: integer feasibility.
MIP search method: dynamic search.
Parallel mode: deterministic, using up to 12 threads.
Root relaxation solution time = 0.05 sec. (9.86 ticks)

        Nodes                                         Cuts/
   Node  Left     Objective  IInf  Best Integer    Best Bound    ItCnt     Gap

      0     0        0.0000    62                      0.0000      119         
      0     0        0.0000    62                    Cuts: 34      204         
      0     0        0.0000    62                   Cuts: 118      294         
      0     0        0.0000    62                     Cuts: 5      341         
Detecting symmetries...
      0     2        0.0000    44                      0.0000      341         
Elapsed time = 3.17 sec. (1099.73 ticks, tree = 0.02 MB, solutions = 0)
     22     5        0.0000    50                      0.0000     2648         
    209     5    infeasible                            0.0000    18666         
    444    12        0.0000    24                      0.0000    37176         
    529     6    infeasible                            0.0000    48242         
    598     2    infeasible                            0.0000    55815         

Clique cuts applied:  59
Cover cuts applied:  2
Zero-half cuts applied:  26
Lift and project cuts applied:  1

Root node processing (before b&c):
  Real time             =    1.28 sec. (1098.91 ticks)
Parallel b&c, 12 threads:
  Real time             =   75.64 sec. (1242.28 ticks)
  Sync time (average)   =   72.29 sec.
  Wait time (average)   =    0.00 sec.
                          ------------
Total (root+branch&cut) =   76.92 sec. (2341.20 ticks)
76.921000 
FALSE-modelo
 Salgo lazy
      0     0     5488.4281    91     7982.0000      Cuts: 56     2301   31.24%
      0     0     5507.3872    91     7982.0000     Cuts: 107     2425   31.00%
      0     0     5507.3872    91     7982.0000      Cuts: 56     2473   31.00%
      0     0     5521.9465    91     7982.0000  ZeroHalf: 30     2582   30.82%
      0     0     5529.6631    91     7982.0000      Cuts: 61     2888   30.72%
      0     0     5531.6412    91     7982.0000      Cuts: 35     2952   30.70%
      0     0     5552.9710    91     7982.0000      Cuts: 62     3187   30.43%
      0     0     5597.5100    91     7982.0000      Cuts: 55     3773   29.87%
      0     0     5598.9631    91     7982.0000      Cuts: 60     3841   29.86%
      0     0     5607.4090    91     7982.0000      Cuts: 52     3941   29.75%
      0     0     5614.7290    91     7982.0000      Cuts: 34     4037   29.66%
      0     0     5626.9894    91     7982.0000      Cuts: 55     4156   29.50%
      0     0     5645.7690    91     7982.0000      Cuts: 61     4275   29.27%
      0     0     5648.4641    91     7982.0000      Cuts: 50     4394   29.23%
      0     0     5655.6329    91     7982.0000      Cuts: 59     4546   29.15%
      0     0     5674.3004    91     7982.0000      Cuts: 63     4743   28.91%
      0     0     5682.0361    91     7982.0000      Cuts: 64     4871   28.81%
      0     0     5682.4202    91     7982.0000      Cuts: 36     4920   28.81%
Dentro lazy
camion 0, FALSE-heu 0.000
Version identifier: 12.10.0.0 | 2019-11-26 | 843d4de2ae
CPXPARAM_Threads                                 12
CPXPARAM_MIP_Strategy_Probe                      -1
CPXPARAM_Emphasis_MIP                            1
Tried aggregator 2 times.
MIP Presolve eliminated 9018 rows and 34 columns.
MIP Presolve modified 1628 coefficients.
Aggregator did 2 substitutions.
Reduced MIP has 1216 rows, 365 columns, and 21274 nonzeros.
Reduced MIP has 365 binaries, 0 generals, 0 SOSs, and 0 indicators.
Presolve time = 0.13 sec. (131.71 ticks)
Tried aggregator 1 time.
Detecting symmetries...
Reduced MIP has 1216 rows, 365 columns, and 21274 nonzeros.
Reduced MIP has 365 binaries, 0 generals, 0 SOSs, and 0 indicators.
Presolve time = 0.03 sec. (31.78 ticks)
Clique table members: 1154.
MIP emphasis: integer feasibility.
MIP search method: dynamic search.
Parallel mode: deterministic, using up to 12 threads.
Root relaxation solution time = 0.03 sec. (13.54 ticks)

        Nodes                                         Cuts/
   Node  Left     Objective  IInf  Best Integer    Best Bound    ItCnt     Gap

      0     0        0.0000    58                      0.0000      187         
      0     0        0.0000    58                    Cuts: 49      345         
      0     0        0.0000    58                  Cliques: 1      398         
      0     0        0.0000    58                    Cuts: 99      576         
      0     0        cutoff                                        576         
Elapsed time = 1.81 sec. (1014.93 ticks, tree = 0.01 MB, solutions = 0)

Clique cuts applied:  24
Zero-half cuts applied:  10

Root node processing (before b&c):
  Real time             =    1.81 sec. (1015.00 ticks)
Parallel b&c, 12 threads:
  Real time             =    0.00 sec. (0.00 ticks)
  Sync time (average)   =    0.00 sec.
  Wait time (average)   =    0.00 sec.
                          ------------
Total (root+branch&cut) =    1.81 sec. (1015.00 ticks)
1.828000 
FALSE-modelo
 Salgo lazy
      0     2     5682.4202   118     7982.0000     5682.4202     4920   28.81%                        0             0
Elapsed time = 82.72 sec. (1278.39 ticks, tree = 0.02 MB, solutions = 1)
Dentro lazy
camion 0, TRUE-heu 0.000152
camion 1, FALSE-heu 0.000
Version identifier: 12.10.0.0 | 2019-11-26 | 843d4de2ae
CPXPARAM_Threads                                 12
CPXPARAM_MIP_Strategy_Probe                      -1
CPXPARAM_Emphasis_MIP                            1
Tried aggregator 2 times.
MIP Presolve eliminated 5774 rows and 34 columns.
MIP Presolve modified 2055 coefficients.
Aggregator did 2 substitutions.
Reduced MIP has 1579 rows, 365 columns, and 23869 nonzeros.
Reduced MIP has 365 binaries, 0 generals, 0 SOSs, and 0 indicators.
Presolve time = 0.13 sec. (140.74 ticks)
Tried aggregator 1 time.
Detecting symmetries...
Reduced MIP has 1579 rows, 365 columns, and 23869 nonzeros.
Reduced MIP has 365 binaries, 0 generals, 0 SOSs, and 0 indicators.
Presolve time = 0.03 sec. (35.54 ticks)
Clique table members: 1517.
MIP emphasis: integer feasibility.
MIP search method: dynamic search.
Parallel mode: deterministic, using up to 12 threads.
Root relaxation solution time = 0.03 sec. (9.77 ticks)

        Nodes                                         Cuts/
   Node  Left     Objective  IInf  Best Integer    Best Bound    ItCnt     Gap

      0     0        0.0000    51                      0.0000      128         
      0     0        0.0000    51                    Cuts: 41      471         
      0     0        0.0000    51                     Cuts: 2      502         
      0     0        0.0000    51                    Cuts: 55      651         
Detecting symmetries...
      0     2        0.0000    40                      0.0000      651         
Elapsed time = 3.19 sec. (1057.29 ticks, tree = 0.02 MB, solutions = 0)
    115     4        0.0000    29                      0.0000     8710         
    208     7    infeasible                            0.0000    18637         
    292     3        0.0000    38                      0.0000    27554         

Clique cuts applied:  51
Cover cuts applied:  2
Zero-half cuts applied:  20

Root node processing (before b&c):
  Real time             =    1.95 sec. (1056.48 ticks)
Parallel b&c, 12 threads:
  Real time             =   64.08 sec. (775.92 ticks)
  Sync time (average)   =   61.51 sec.
  Wait time (average)   =    0.00 sec.
                          ------------
Total (root+branch&cut) =   66.03 sec. (1832.40 ticks)
66.250000 
FALSE-modelo
 Salgo lazy
Dentro lazy
camion 0, TRUE-heu 0.000202
camion 1, FALSE-heu 0.000
Version identifier: 12.10.0.0 | 2019-11-26 | 843d4de2ae
CPXPARAM_Threads                                 12
CPXPARAM_MIP_Strategy_Probe                      -1
CPXPARAM_Emphasis_MIP                            1
Tried aggregator 2 times.
MIP Presolve eliminated 5831 rows and 34 columns.
MIP Presolve modified 1998 coefficients.
Aggregator did 2 substitutions.
Reduced MIP has 1522 rows, 365 columns, and 29957 nonzeros.
Reduced MIP has 365 binaries, 0 generals, 0 SOSs, and 0 indicators.
Presolve time = 0.20 sec. (247.33 ticks)
Tried aggregator 1 time.
Detecting symmetries...
Reduced MIP has 1522 rows, 365 columns, and 29957 nonzeros.
Reduced MIP has 365 binaries, 0 generals, 0 SOSs, and 0 indicators.
Presolve time = 0.03 sec. (43.58 ticks)
Clique table members: 1460.
MIP emphasis: integer feasibility.
MIP search method: dynamic search.
Parallel mode: deterministic, using up to 12 threads.
Root relaxation solution time = 0.03 sec. (14.81 ticks)

        Nodes                                         Cuts/
   Node  Left     Objective  IInf  Best Integer    Best Bound    ItCnt     Gap

      0     0        0.0000    62                      0.0000      199         
      0     0        0.0000    62                  Cliques: 6      262         
      0     0        0.0000    62                    Cuts: 98      380         
      0     0        0.0000    62                    Cuts: 17      477         
      0     0        cutoff                                        477         
Elapsed time = 2.84 sec. (1659.84 ticks, tree = 0.01 MB, solutions = 0)

Clique cuts applied:  10
Zero-half cuts applied:  7

Root node processing (before b&c):
  Real time             =    2.84 sec. (1659.93 ticks)
Parallel b&c, 12 threads:
  Real time             =    0.00 sec. (0.00 ticks)
  Sync time (average)   =    0.00 sec.
  Wait time (average)   =    0.00 sec.
                          ------------
Total (root+branch&cut) =    2.84 sec. (1659.93 ticks)
2.875000 
FALSE-modelo
 Salgo lazy
Dentro lazy
camion 0, TRUE-heu 0.000253
camion 1, FALSE-heu 0.000
Version identifier: 12.10.0.0 | 2019-11-26 | 843d4de2ae
CPXPARAM_Threads                                 12
CPXPARAM_MIP_Strategy_Probe                      -1
CPXPARAM_Emphasis_MIP                            1
Tried aggregator 2 times.
MIP Presolve eliminated 5774 rows and 34 columns.
MIP Presolve modified 2055 coefficients.
Aggregator did 2 substitutions.
Reduced MIP has 1579 rows, 365 columns, and 23869 nonzeros.
Reduced MIP has 365 binaries, 0 generals, 0 SOSs, and 0 indicators.
Presolve time = 0.11 sec. (140.74 ticks)
Tried aggregator 1 time.
Detecting symmetries...
Reduced MIP has 1579 rows, 365 columns, and 23869 nonzeros.
Reduced MIP has 365 binaries, 0 generals, 0 SOSs, and 0 indicators.
Presolve time = 0.03 sec. (35.54 ticks)
Clique table members: 1517.
MIP emphasis: integer feasibility.
MIP search method: dynamic search.
Parallel mode: deterministic, using up to 12 threads.
Root relaxation solution time = 0.05 sec. (9.77 ticks)

        Nodes                                         Cuts/
   Node  Left     Objective  IInf  Best Integer    Best Bound    ItCnt     Gap

      0     0        0.0000    51                      0.0000      128         
      0     0        0.0000    51                    Cuts: 41      471         
      0     0        0.0000    51                     Cuts: 2      502         
      0     0        0.0000    51                    Cuts: 55      651         
Detecting symmetries...
      0     2        0.0000    40                      0.0000      651         
Elapsed time = 3.70 sec. (1057.29 ticks, tree = 0.02 MB, solutions = 0)
    115     4        0.0000    29                      0.0000     8710         
    208     7    infeasible                            0.0000    18637         
    292     3        0.0000    38                      0.0000    27554         

Clique cuts applied:  51
Cover cuts applied:  2
Zero-half cuts applied:  20

Root node processing (before b&c):
  Real time             =    1.84 sec. (1056.48 ticks)
Parallel b&c, 12 threads:
  Real time             =   81.78 sec. (775.92 ticks)
  Sync time (average)   =   78.11 sec.
  Wait time (average)   =    0.00 sec.
                          ------------
Total (root+branch&cut) =   83.63 sec. (1832.40 ticks)
83.625000 
FALSE-modelo
 Salgo lazy
Dentro lazy
camion 0, TRUE-heu 0.000307
camion 1, FALSE-heu 0.000
Version identifier: 12.10.0.0 | 2019-11-26 | 843d4de2ae
CPXPARAM_Threads                                 12
CPXPARAM_MIP_Strategy_Probe                      -1
CPXPARAM_Emphasis_MIP                            1
Tried aggregator 2 times.
MIP Presolve eliminated 5774 rows and 34 columns.
MIP Presolve modified 2055 coefficients.
Aggregator did 2 substitutions.
Reduced MIP has 1579 rows, 365 columns, and 23869 nonzeros.
Reduced MIP has 365 binaries, 0 generals, 0 SOSs, and 0 indicators.
Presolve time = 0.13 sec. (140.74 ticks)
Tried aggregator 1 time.
Detecting symmetries...
Reduced MIP has 1579 rows, 365 columns, and 23869 nonzeros.
Reduced MIP has 365 binaries, 0 generals, 0 SOSs, and 0 indicators.
Presolve time = 0.03 sec. (35.54 ticks)
Clique table members: 1517.
MIP emphasis: integer feasibility.
MIP search method: dynamic search.
Parallel mode: deterministic, using up to 12 threads.
Root relaxation solution time = 0.02 sec. (9.77 ticks)

        Nodes                                         Cuts/
   Node  Left     Objective  IInf  Best Integer    Best Bound    ItCnt     Gap

      0     0        0.0000    51                      0.0000      128         
      0     0        0.0000    51                    Cuts: 41      471         
      0     0        0.0000    51                     Cuts: 2      502         
      0     0        0.0000    51                    Cuts: 55      651         
Detecting symmetries...
      0     2        0.0000    40                      0.0000      651         
Elapsed time = 3.98 sec. (1057.29 ticks, tree = 0.02 MB, solutions = 0)
    115     4        0.0000    29                      0.0000     8710         
    208     7    infeasible                            0.0000    18637         
    292     3        0.0000    38                      0.0000    27554         

Clique cuts applied:  51
Cover cuts applied:  2
Zero-half cuts applied:  20

Root node processing (before b&c):
  Real time             =    1.86 sec. (1056.48 ticks)
Parallel b&c, 12 threads:
  Real time             =   84.59 sec. (775.92 ticks)
  Sync time (average)   =   80.76 sec.
  Wait time (average)   =    0.00 sec.
                          ------------
Total (root+branch&cut) =   86.45 sec. (1832.40 ticks)
86.485000 
FALSE-modelo
 Salgo lazy
Dentro lazy
camion 0, TRUE-heu 0.000357
camion 2, TRUE-heu 0.000380
Salgo lazy
     17    13     6136.9310    74     7982.0000     5719.5506     6694   28.34%        X_2_9_10 D     14      6      3
Dentro lazy
camion 0, TRUE-heu 0.000415
camion 1, FALSE-heu 0.000
Version identifier: 12.10.0.0 | 2019-11-26 | 843d4de2ae
CPXPARAM_Threads                                 12
CPXPARAM_MIP_Strategy_Probe                      -1
CPXPARAM_Emphasis_MIP                            1
Tried aggregator 2 times.
MIP Presolve eliminated 5831 rows and 34 columns.
MIP Presolve modified 1998 coefficients.
Aggregator did 2 substitutions.
Reduced MIP has 1522 rows, 365 columns, and 29957 nonzeros.
Reduced MIP has 365 binaries, 0 generals, 0 SOSs, and 0 indicators.
Presolve time = 0.22 sec. (247.33 ticks)
Tried aggregator 1 time.
Detecting symmetries...
Reduced MIP has 1522 rows, 365 columns, and 29957 nonzeros.
Reduced MIP has 365 binaries, 0 generals, 0 SOSs, and 0 indicators.
Presolve time = 0.05 sec. (43.58 ticks)
Clique table members: 1460.
MIP emphasis: integer feasibility.
MIP search method: dynamic search.
Parallel mode: deterministic, using up to 12 threads.
Root relaxation solution time = 0.03 sec. (12.00 ticks)

        Nodes                                         Cuts/
   Node  Left     Objective  IInf  Best Integer    Best Bound    ItCnt     Gap

      0     0        0.0000    62                      0.0000      152         
      0     0        0.0000    62                    Cuts: 19      213         
      0     0        0.0000    62                   Cuts: 104      539         
      0     0        cutoff                                        585         
Elapsed time = 2.58 sec. (1352.47 ticks, tree = 0.01 MB, solutions = 0)

Clique cuts applied:  16
Zero-half cuts applied:  11
Gomory fractional cuts applied:  1

Root node processing (before b&c):
  Real time             =    2.58 sec. (1352.56 ticks)
Parallel b&c, 12 threads:
  Real time             =    0.00 sec. (0.00 ticks)
  Sync time (average)   =    0.00 sec.
  Wait time (average)   =    0.00 sec.
                          ------------
Total (root+branch&cut) =    2.58 sec. (1352.56 ticks)
2.578000 
FALSE-modelo
 Salgo lazy
*    59+    6                         6767.0000     5719.5506            15.48%
    262   160     6260.2801    72     6767.0000     5738.2893    16675   15.20%        X_2_6_10 D    299    291     11
Dentro lazy
camion 0, FALSE-heu 0.000
Version identifier: 12.10.0.0 | 2019-11-26 | 843d4de2ae
CPXPARAM_Threads                                 12
CPXPARAM_MIP_Strategy_Probe                      -1
CPXPARAM_Emphasis_MIP                            1
Tried aggregator 2 times.
MIP Presolve eliminated 2995 rows and 34 columns.
MIP Presolve modified 2497 coefficients.
Aggregator did 2 substitutions.
Reduced MIP has 1957 rows, 365 columns, and 21105 nonzeros.
Reduced MIP has 365 binaries, 0 generals, 0 SOSs, and 0 indicators.
Presolve time = 0.06 sec. (87.87 ticks)
Tried aggregator 1 time.
Detecting symmetries...
Reduced MIP has 1957 rows, 365 columns, and 21105 nonzeros.
Reduced MIP has 365 binaries, 0 generals, 0 SOSs, and 0 indicators.
Presolve time = 0.03 sec. (31.08 ticks)
Clique table members: 1895.
MIP emphasis: integer feasibility.
MIP search method: dynamic search.
Parallel mode: deterministic, using up to 12 threads.
Root relaxation solution time = 0.02 sec. (6.85 ticks)

        Nodes                                         Cuts/
   Node  Left     Objective  IInf  Best Integer    Best Bound    ItCnt     Gap

      0     0        0.0000    34                      0.0000       77         
      0     0        0.0000    34                    Cuts: 57      174         
      0     0        0.0000    34                     Cuts: 4      235         
Detecting symmetries...
      0     2        0.0000    37                      0.0000      235         
Elapsed time = 2.77 sec. (580.57 ticks, tree = 0.02 MB, solutions = 0)
    181     5        0.0000    49                      0.0000    10284         
    254     3    infeasible                            0.0000    18115         
    327     2    infeasible                            0.0000    23616         

Clique cuts applied:  13
Zero-half cuts applied:  7

Root node processing (before b&c):
  Real time             =    1.03 sec. (579.75 ticks)
Parallel b&c, 12 threads:
  Real time             =  127.42 sec. (862.40 ticks)
  Sync time (average)   =  124.12 sec.
  Wait time (average)   =    0.00 sec.
                          ------------
Total (root+branch&cut) =  128.45 sec. (1442.16 ticks)
128.454000 
FALSE-modelo
 Salgo lazy
Dentro lazy
camion 0, FALSE-heu 0.001
Version identifier: 12.10.0.0 | 2019-11-26 | 843d4de2ae
CPXPARAM_Threads                                 12
CPXPARAM_MIP_Strategy_Probe                      -1
CPXPARAM_Emphasis_MIP                            1
Tried aggregator 2 times.
MIP Presolve eliminated 2995 rows and 34 columns.
MIP Presolve modified 2497 coefficients.
Aggregator did 2 substitutions.
Reduced MIP has 1957 rows, 365 columns, and 21105 nonzeros.
Reduced MIP has 365 binaries, 0 generals, 0 SOSs, and 0 indicators.
Presolve time = 0.08 sec. (87.87 ticks)
Tried aggregator 1 time.
Detecting symmetries...
Reduced MIP has 1957 rows, 365 columns, and 21105 nonzeros.
Reduced MIP has 365 binaries, 0 generals, 0 SOSs, and 0 indicators.
Presolve time = 0.03 sec. (31.08 ticks)
Clique table members: 1895.
MIP emphasis: integer feasibility.
MIP search method: dynamic search.
Parallel mode: deterministic, using up to 12 threads.
Root relaxation solution time = 0.00 sec. (6.85 ticks)

        Nodes                                         Cuts/
   Node  Left     Objective  IInf  Best Integer    Best Bound    ItCnt     Gap

      0     0        0.0000    34                      0.0000       77         
      0     0        0.0000    34                    Cuts: 57      174         
      0     0        0.0000    34                     Cuts: 4      235         
Detecting symmetries...
      0     2        0.0000    37                      0.0000      235         
Elapsed time = 2.50 sec. (580.57 ticks, tree = 0.02 MB, solutions = 0)
    181     5        0.0000    49                      0.0000    10284         
    254     3    infeasible                            0.0000    18115         
    327     2    infeasible                            0.0000    23616         

Clique cuts applied:  13
Zero-half cuts applied:  7

Root node processing (before b&c):
  Real time             =    1.06 sec. (579.75 ticks)
Parallel b&c, 12 threads:
  Real time             =  126.48 sec. (862.40 ticks)
  Sync time (average)   =  123.65 sec.
  Wait time (average)   =    0.00 sec.
                          ------------
Total (root+branch&cut) =  127.55 sec. (1442.16 ticks)
127.547000 
FALSE-modelo
 Salgo lazy
    702   415        cutoff           6767.0000     5771.0297    33776   14.72%         X_2_0_4 D    650    642     51
Dentro lazy
camion 0, FALSE-heu 0.001
Version identifier: 12.10.0.0 | 2019-11-26 | 843d4de2ae
CPXPARAM_Threads                                 12
CPXPARAM_MIP_Strategy_Probe                      -1
CPXPARAM_Emphasis_MIP                            1
Tried aggregator 2 times.
MIP Presolve eliminated 2995 rows and 34 columns.
MIP Presolve modified 2497 coefficients.
Aggregator did 2 substitutions.
Reduced MIP has 1957 rows, 365 columns, and 21105 nonzeros.
Reduced MIP has 365 binaries, 0 generals, 0 SOSs, and 0 indicators.
Presolve time = 0.08 sec. (87.87 ticks)
Tried aggregator 1 time.
Detecting symmetries...
Reduced MIP has 1957 rows, 365 columns, and 21105 nonzeros.
Reduced MIP has 365 binaries, 0 generals, 0 SOSs, and 0 indicators.
Presolve time = 0.03 sec. (31.08 ticks)
Clique table members: 1895.
MIP emphasis: integer feasibility.
MIP search method: dynamic search.
Parallel mode: deterministic, using up to 12 threads.
Root relaxation solution time = 0.03 sec. (6.85 ticks)

        Nodes                                         Cuts/
   Node  Left     Objective  IInf  Best Integer    Best Bound    ItCnt     Gap

      0     0        0.0000    34                      0.0000       77         
      0     0        0.0000    34                    Cuts: 57      174         
      0     0        0.0000    34                     Cuts: 4      235         
Detecting symmetries...
      0     2        0.0000    37                      0.0000      235         
Elapsed time = 2.89 sec. (580.57 ticks, tree = 0.02 MB, solutions = 0)
    181     5        0.0000    49                      0.0000    10284         
    254     3    infeasible                            0.0000    18115         
    327     2    infeasible                            0.0000    23616         

Clique cuts applied:  13
Zero-half cuts applied:  7

Root node processing (before b&c):
  Real time             =    1.11 sec. (579.75 ticks)
Parallel b&c, 12 threads:
  Real time             =  130.77 sec. (862.40 ticks)
  Sync time (average)   =  127.56 sec.
  Wait time (average)   =    0.00 sec.
                          ------------
Total (root+branch&cut) =  131.88 sec. (1442.16 ticks)
131.875000 
FALSE-modelo
 Salgo lazy
Dentro lazy
camion 0, FALSE-heu 0.001
Version identifier: 12.10.0.0 | 2019-11-26 | 843d4de2ae
CPXPARAM_Threads                                 12
CPXPARAM_MIP_Strategy_Probe                      -1
CPXPARAM_Emphasis_MIP                            1
Tried aggregator 2 times.
MIP Presolve eliminated 2995 rows and 34 columns.
MIP Presolve modified 2497 coefficients.
Aggregator did 2 substitutions.
Reduced MIP has 1957 rows, 365 columns, and 21105 nonzeros.
Reduced MIP has 365 binaries, 0 generals, 0 SOSs, and 0 indicators.
Presolve time = 0.06 sec. (87.84 ticks)
Tried aggregator 1 time.
Detecting symmetries...
Reduced MIP has 1957 rows, 365 columns, and 21105 nonzeros.
Reduced MIP has 365 binaries, 0 generals, 0 SOSs, and 0 indicators.
Presolve time = 0.03 sec. (31.04 ticks)
Clique table members: 1895.
MIP emphasis: integer feasibility.
MIP search method: dynamic search.
Parallel mode: deterministic, using up to 12 threads.
Root relaxation solution time = 0.03 sec. (12.85 ticks)

        Nodes                                         Cuts/
   Node  Left     Objective  IInf  Best Integer    Best Bound    ItCnt     Gap

      0     0        0.0000    53                      0.0000      182         
      0     0        0.0000    53                    Cuts: 65      427         
      0     0        0.0000    53                     Cuts: 5      501         
      0     0        0.0000    53                    Cuts: 84      850         
Detecting symmetries...
      0     2        0.0000    42                      0.0000      850         
Elapsed time = 4.47 sec. (912.90 ticks, tree = 0.02 MB, solutions = 0)
      4     3        0.0000    84                      0.0000     1977         
     89    15        0.0000    20                      0.0000     7857         
    376     1    infeasible                            0.0000    23309         
    435     2    infeasible                            0.0000    28434         
    471     3        0.0000    46                      0.0000    31782         

Clique cuts applied:  86
Cover cuts applied:  3
Zero-half cuts applied:  20

Root node processing (before b&c):
  Real time             =    1.73 sec. (911.98 ticks)
Parallel b&c, 12 threads:
  Real time             =   78.47 sec. (1346.04 ticks)
  Sync time (average)   =   74.09 sec.
  Wait time (average)   =    0.00 sec.
                          ------------
Total (root+branch&cut) =   80.20 sec. (2258.02 ticks)
80.203000 
FALSE-modelo
 Salgo lazy
Dentro lazy
camion 0, FALSE-heu 0.001
Version identifier: 12.10.0.0 | 2019-11-26 | 843d4de2ae
CPXPARAM_Threads                                 12
CPXPARAM_MIP_Strategy_Probe                      -1
CPXPARAM_Emphasis_MIP                            1
Tried aggregator 2 times.
MIP Presolve eliminated 2995 rows and 34 columns.
MIP Presolve modified 2497 coefficients.
Aggregator did 2 substitutions.
Reduced MIP has 1957 rows, 365 columns, and 21105 nonzeros.
Reduced MIP has 365 binaries, 0 generals, 0 SOSs, and 0 indicators.
Presolve time = 0.08 sec. (87.87 ticks)
Tried aggregator 1 time.
Detecting symmetries...
Reduced MIP has 1957 rows, 365 columns, and 21105 nonzeros.
Reduced MIP has 365 binaries, 0 generals, 0 SOSs, and 0 indicators.
Presolve time = 0.03 sec. (31.08 ticks)
Clique table members: 1895.
MIP emphasis: integer feasibility.
MIP search method: dynamic search.
Parallel mode: deterministic, using up to 12 threads.
Root relaxation solution time = 0.05 sec. (6.85 ticks)

        Nodes                                         Cuts/
   Node  Left     Objective  IInf  Best Integer    Best Bound    ItCnt     Gap

      0     0        0.0000    34                      0.0000       77         
      0     0        0.0000    34                    Cuts: 57      174         
      0     0        0.0000    34                     Cuts: 4      235         
Detecting symmetries...
      0     2        0.0000    37                      0.0000      235         
Elapsed time = 2.95 sec. (580.57 ticks, tree = 0.02 MB, solutions = 0)
    181     5        0.0000    49                      0.0000    10284         
    254     3    infeasible                            0.0000    18115         
    327     2    infeasible                            0.0000    23616         

Clique cuts applied:  13
Zero-half cuts applied:  7

Root node processing (before b&c):
  Real time             =    0.98 sec. (579.75 ticks)
Parallel b&c, 12 threads:
  Real time             =  131.81 sec. (862.40 ticks)
  Sync time (average)   =  128.47 sec.
  Wait time (average)   =    0.00 sec.
                          ------------
Total (root+branch&cut) =  132.80 sec. (1442.16 ticks)
132.797000 
FALSE-modelo
 Salgo lazy
Dentro lazy
camion 0, FALSE-heu 0.001
Version identifier: 12.10.0.0 | 2019-11-26 | 843d4de2ae
CPXPARAM_Threads                                 12
CPXPARAM_MIP_Strategy_Probe                      -1
CPXPARAM_Emphasis_MIP                            1
Tried aggregator 2 times.
MIP Presolve eliminated 2995 rows and 34 columns.
MIP Presolve modified 2497 coefficients.
Aggregator did 2 substitutions.
Reduced MIP has 1957 rows, 365 columns, and 21105 nonzeros.
Reduced MIP has 365 binaries, 0 generals, 0 SOSs, and 0 indicators.
Presolve time = 0.08 sec. (87.87 ticks)
Tried aggregator 1 time.
Detecting symmetries...
Reduced MIP has 1957 rows, 365 columns, and 21105 nonzeros.
Reduced MIP has 365 binaries, 0 generals, 0 SOSs, and 0 indicators.
Presolve time = 0.03 sec. (31.08 ticks)
Clique table members: 1895.
MIP emphasis: integer feasibility.
MIP search method: dynamic search.
Parallel mode: deterministic, using up to 12 threads.
Root relaxation solution time = 0.06 sec. (6.85 ticks)

        Nodes                                         Cuts/
   Node  Left     Objective  IInf  Best Integer    Best Bound    ItCnt     Gap

      0     0        0.0000    34                      0.0000       77         
      0     0        0.0000    34                    Cuts: 57      174         
      0     0        0.0000    34                     Cuts: 4      235         
Detecting symmetries...
      0     2        0.0000    37                      0.0000      235         
Elapsed time = 2.83 sec. (580.57 ticks, tree = 0.02 MB, solutions = 0)
    181     5        0.0000    49                      0.0000    10284         
    254     3    infeasible                            0.0000    18115         
    327     2    infeasible                            0.0000    23616         

Clique cuts applied:  13
Zero-half cuts applied:  7

Root node processing (before b&c):
  Real time             =    1.11 sec. (579.75 ticks)
Parallel b&c, 12 threads:
  Real time             =  129.70 sec. (862.40 ticks)
  Sync time (average)   =  126.45 sec.
  Wait time (average)   =    0.00 sec.
                          ------------
Total (root+branch&cut) =  130.81 sec. (1442.16 ticks)
130.812000 
FALSE-modelo
 Salgo lazy
Dentro lazy
camion 0, FALSE-heu 0.001
Version identifier: 12.10.0.0 | 2019-11-26 | 843d4de2ae
CPXPARAM_Threads                                 12
CPXPARAM_MIP_Strategy_Probe                      -1
CPXPARAM_Emphasis_MIP                            1
Tried aggregator 2 times.
MIP Presolve eliminated 2995 rows and 34 columns.
MIP Presolve modified 2497 coefficients.
Aggregator did 2 substitutions.
Reduced MIP has 1957 rows, 365 columns, and 21105 nonzeros.
Reduced MIP has 365 binaries, 0 generals, 0 SOSs, and 0 indicators.
Presolve time = 0.08 sec. (87.87 ticks)
Tried aggregator 1 time.
Detecting symmetries...
Reduced MIP has 1957 rows, 365 columns, and 21105 nonzeros.
Reduced MIP has 365 binaries, 0 generals, 0 SOSs, and 0 indicators.
Presolve time = 0.03 sec. (31.08 ticks)
Clique table members: 1895.
MIP emphasis: integer feasibility.
MIP search method: dynamic search.
Parallel mode: deterministic, using up to 12 threads.
Root relaxation solution time = 0.05 sec. (6.85 ticks)

        Nodes                                         Cuts/
   Node  Left     Objective  IInf  Best Integer    Best Bound    ItCnt     Gap

      0     0        0.0000    34                      0.0000       77         
      0     0        0.0000    34                    Cuts: 57      174         
      0     0        0.0000    34                     Cuts: 4      235         
Detecting symmetries...
      0     2        0.0000    37                      0.0000      235         
Elapsed time = 2.73 sec. (580.57 ticks, tree = 0.02 MB, solutions = 0)
    181     5        0.0000    49                      0.0000    10284         
    254     3    infeasible                            0.0000    18115         
    327     2    infeasible                            0.0000    23616         

Clique cuts applied:  13
Zero-half cuts applied:  7

Root node processing (before b&c):
  Real time             =    1.11 sec. (579.75 ticks)
Parallel b&c, 12 threads:
  Real time             =  125.89 sec. (862.40 ticks)
  Sync time (average)   =  122.91 sec.
  Wait time (average)   =    0.00 sec.
                          ------------
Total (root+branch&cut) =  127.00 sec. (1442.16 ticks)
127.000000 
FALSE-modelo
 Salgo lazy
Dentro lazy
camion 0, FALSE-heu 0.001
Version identifier: 12.10.0.0 | 2019-11-26 | 843d4de2ae
CPXPARAM_Threads                                 12
CPXPARAM_MIP_Strategy_Probe                      -1
CPXPARAM_Emphasis_MIP                            1
Tried aggregator 2 times.
MIP Presolve eliminated 2995 rows and 34 columns.
MIP Presolve modified 2497 coefficients.
Aggregator did 2 substitutions.
Reduced MIP has 1957 rows, 365 columns, and 21105 nonzeros.
Reduced MIP has 365 binaries, 0 generals, 0 SOSs, and 0 indicators.
Presolve time = 0.06 sec. (87.84 ticks)
Tried aggregator 1 time.
Detecting symmetries...
Reduced MIP has 1957 rows, 365 columns, and 21105 nonzeros.
Reduced MIP has 365 binaries, 0 generals, 0 SOSs, and 0 indicators.
Presolve time = 0.03 sec. (31.04 ticks)
Clique table members: 1895.
MIP emphasis: integer feasibility.
MIP search method: dynamic search.
Parallel mode: deterministic, using up to 12 threads.
Root relaxation solution time = 0.03 sec. (12.85 ticks)

        Nodes                                         Cuts/
   Node  Left     Objective  IInf  Best Integer    Best Bound    ItCnt     Gap

      0     0        0.0000    53                      0.0000      182         
      0     0        0.0000    53                    Cuts: 65      427         
      0     0        0.0000    53                     Cuts: 5      501         
      0     0        0.0000    53                    Cuts: 84      850         
Detecting symmetries...
      0     2        0.0000    42                      0.0000      850         
Elapsed time = 3.58 sec. (912.90 ticks, tree = 0.02 MB, solutions = 0)
      4     3        0.0000    84                      0.0000     1977         
     89    15        0.0000    20                      0.0000     7857         
    376     1    infeasible                            0.0000    23309         
    435     2    infeasible                            0.0000    28434         
    471     3        0.0000    46                      0.0000    31782         

Clique cuts applied:  86
Cover cuts applied:  3
Zero-half cuts applied:  20

Root node processing (before b&c):
  Real time             =    2.13 sec. (911.98 ticks)
Parallel b&c, 12 threads:
  Real time             =   74.44 sec. (1346.04 ticks)
  Sync time (average)   =   71.28 sec.
  Wait time (average)   =    0.00 sec.
                          ------------
Total (root+branch&cut) =   76.56 sec. (2258.02 ticks)
76.578000 
FALSE-modelo
 Salgo lazy
   1161   792     6052.1622    93     6767.0000     5774.7469    49221   14.66%         X_0_0_2 D    986    978     44
Dentro lazy
camion 0, FALSE-heu 0.001
Version identifier: 12.10.0.0 | 2019-11-26 | 843d4de2ae
CPXPARAM_Threads                                 12
CPXPARAM_MIP_Strategy_Probe                      -1
CPXPARAM_Emphasis_MIP                            1
Tried aggregator 2 times.
MIP Presolve eliminated 2995 rows and 34 columns.
MIP Presolve modified 2497 coefficients.
Aggregator did 2 substitutions.
Reduced MIP has 1957 rows, 365 columns, and 21105 nonzeros.
Reduced MIP has 365 binaries, 0 generals, 0 SOSs, and 0 indicators.
Presolve time = 0.08 sec. (87.84 ticks)
Tried aggregator 1 time.
Detecting symmetries...
Reduced MIP has 1957 rows, 365 columns, and 21105 nonzeros.
Reduced MIP has 365 binaries, 0 generals, 0 SOSs, and 0 indicators.
Presolve time = 0.03 sec. (31.04 ticks)
Clique table members: 1895.
MIP emphasis: integer feasibility.
MIP search method: dynamic search.
Parallel mode: deterministic, using up to 12 threads.
Root relaxation solution time = 0.08 sec. (12.85 ticks)

        Nodes                                         Cuts/
   Node  Left     Objective  IInf  Best Integer    Best Bound    ItCnt     Gap

      0     0        0.0000    53                      0.0000      182         
      0     0        0.0000    53                    Cuts: 65      427         
      0     0        0.0000    53                     Cuts: 5      501         
      0     0        0.0000    53                    Cuts: 84      850         
Detecting symmetries...
      0     2        0.0000    42                      0.0000      850         
Elapsed time = 4.14 sec. (912.90 ticks, tree = 0.02 MB, solutions = 0)
      4     3        0.0000    84                      0.0000     1977         
     89    15        0.0000    20                      0.0000     7857         
    376     1    infeasible                            0.0000    23309         
    435     2    infeasible                            0.0000    28434         
    471     3        0.0000    46                      0.0000    31782         

Clique cuts applied:  86
Cover cuts applied:  3
Zero-half cuts applied:  20

Root node processing (before b&c):
  Real time             =    2.05 sec. (911.98 ticks)
Parallel b&c, 12 threads:
  Real time             =   76.06 sec. (1346.04 ticks)
  Sync time (average)   =   72.40 sec.
  Wait time (average)   =    0.00 sec.
                          ------------
Total (root+branch&cut) =   78.11 sec. (2258.02 ticks)
78.110000 
FALSE-modelo
 Salgo lazy
Dentro lazy
camion 0, FALSE-heu 0.001
Version identifier: 12.10.0.0 | 2019-11-26 | 843d4de2ae
CPXPARAM_Threads                                 12
CPXPARAM_MIP_Strategy_Probe                      -1
CPXPARAM_Emphasis_MIP                            1
Tried aggregator 2 times.
MIP Presolve eliminated 2995 rows and 34 columns.
MIP Presolve modified 2497 coefficients.
Aggregator did 2 substitutions.
Reduced MIP has 1957 rows, 365 columns, and 21105 nonzeros.
Reduced MIP has 365 binaries, 0 generals, 0 SOSs, and 0 indicators.
Presolve time = 0.06 sec. (87.87 ticks)
Tried aggregator 1 time.
Detecting symmetries...
Reduced MIP has 1957 rows, 365 columns, and 21105 nonzeros.
Reduced MIP has 365 binaries, 0 generals, 0 SOSs, and 0 indicators.
Presolve time = 0.02 sec. (31.08 ticks)
Clique table members: 1895.
MIP emphasis: integer feasibility.
MIP search method: dynamic search.
Parallel mode: deterministic, using up to 12 threads.
Root relaxation solution time = 0.05 sec. (6.85 ticks)

        Nodes                                         Cuts/
   Node  Left     Objective  IInf  Best Integer    Best Bound    ItCnt     Gap

      0     0        0.0000    34                      0.0000       77         
      0     0        0.0000    34                    Cuts: 57      174         
      0     0        0.0000    34                     Cuts: 4      235         
Detecting symmetries...
      0     2        0.0000    37                      0.0000      235         
Elapsed time = 2.86 sec. (580.57 ticks, tree = 0.02 MB, solutions = 0)
    181     5        0.0000    49                      0.0000    10284         
    254     3    infeasible                            0.0000    18115         
    327     2    infeasible                            0.0000    23616         

Clique cuts applied:  13
Zero-half cuts applied:  7

Root node processing (before b&c):
  Real time             =    1.03 sec. (579.75 ticks)
Parallel b&c, 12 threads:
  Real time             =  129.09 sec. (862.40 ticks)
  Sync time (average)   =  125.88 sec.
  Wait time (average)   =    0.00 sec.
                          ------------
Total (root+branch&cut) =  130.13 sec. (1442.16 ticks)
130.141000 
FALSE-modelo
 Salgo lazy
Dentro lazy
camion 0, FALSE-heu 0.001
Version identifier: 12.10.0.0 | 2019-11-26 | 843d4de2ae
CPXPARAM_Threads                                 12
CPXPARAM_MIP_Strategy_Probe                      -1
CPXPARAM_Emphasis_MIP                            1
Tried aggregator 2 times.
MIP Presolve eliminated 2995 rows and 34 columns.
MIP Presolve modified 2497 coefficients.
Aggregator did 2 substitutions.
Reduced MIP has 1957 rows, 365 columns, and 21105 nonzeros.
Reduced MIP has 365 binaries, 0 generals, 0 SOSs, and 0 indicators.
Presolve time = 0.08 sec. (87.84 ticks)
Tried aggregator 1 time.
Detecting symmetries...
Reduced MIP has 1957 rows, 365 columns, and 21105 nonzeros.
Reduced MIP has 365 binaries, 0 generals, 0 SOSs, and 0 indicators.
Presolve time = 0.03 sec. (31.04 ticks)
Clique table members: 1895.
MIP emphasis: integer feasibility.
MIP search method: dynamic search.
Parallel mode: deterministic, using up to 12 threads.
Root relaxation solution time = 0.05 sec. (12.85 ticks)

        Nodes                                         Cuts/
   Node  Left     Objective  IInf  Best Integer    Best Bound    ItCnt     Gap

      0     0        0.0000    53                      0.0000      182         
      0     0        0.0000    53                    Cuts: 65      427         
      0     0        0.0000    53                     Cuts: 5      501         
      0     0        0.0000    53                    Cuts: 84      850         
Detecting symmetries...
      0     2        0.0000    42                      0.0000      850         
Elapsed time = 3.53 sec. (912.90 ticks, tree = 0.02 MB, solutions = 0)
      4     3        0.0000    84                      0.0000     1977         
     89    15        0.0000    20                      0.0000     7857         
    376     1    infeasible                            0.0000    23309         
    435     2    infeasible                            0.0000    28434         
    471     3        0.0000    46                      0.0000    31782         

Clique cuts applied:  86
Cover cuts applied:  3
Zero-half cuts applied:  20

Root node processing (before b&c):
  Real time             =    2.16 sec. (911.98 ticks)
Parallel b&c, 12 threads:
  Real time             =   79.42 sec. (1346.04 ticks)
  Sync time (average)   =   75.78 sec.
  Wait time (average)   =    0.00 sec.
                          ------------
Total (root+branch&cut) =   81.58 sec. (2258.02 ticks)
81.579000 
FALSE-modelo
 Salgo lazy
Dentro lazy
camion 0, FALSE-heu 0.001
Version identifier: 12.10.0.0 | 2019-11-26 | 843d4de2ae
CPXPARAM_Threads                                 12
CPXPARAM_MIP_Strategy_Probe                      -1
CPXPARAM_Emphasis_MIP                            1
Tried aggregator 2 times.
MIP Presolve eliminated 2995 rows and 34 columns.
MIP Presolve modified 2497 coefficients.
Aggregator did 2 substitutions.
Reduced MIP has 1957 rows, 365 columns, and 21105 nonzeros.
Reduced MIP has 365 binaries, 0 generals, 0 SOSs, and 0 indicators.
Presolve time = 0.08 sec. (87.87 ticks)
Tried aggregator 1 time.
Detecting symmetries...
Reduced MIP has 1957 rows, 365 columns, and 21105 nonzeros.
Reduced MIP has 365 binaries, 0 generals, 0 SOSs, and 0 indicators.
Presolve time = 0.03 sec. (31.08 ticks)
Clique table members: 1895.
MIP emphasis: integer feasibility.
MIP search method: dynamic search.
Parallel mode: deterministic, using up to 12 threads.
Root relaxation solution time = 0.05 sec. (6.85 ticks)

        Nodes                                         Cuts/
   Node  Left     Objective  IInf  Best Integer    Best Bound    ItCnt     Gap

      0     0        0.0000    34                      0.0000       77         
      0     0        0.0000    34                    Cuts: 57      174         
      0     0        0.0000    34                     Cuts: 4      235         
Detecting symmetries...
      0     2        0.0000    37                      0.0000      235         
Elapsed time = 3.36 sec. (580.57 ticks, tree = 0.02 MB, solutions = 0)
    181     5        0.0000    49                      0.0000    10284         
    254     3    infeasible                            0.0000    18115         
    327     2    infeasible                            0.0000    23616         

Clique cuts applied:  13
Zero-half cuts applied:  7

Root node processing (before b&c):
  Real time             =    1.20 sec. (579.75 ticks)
Parallel b&c, 12 threads:
  Real time             =  130.00 sec. (862.40 ticks)
  Sync time (average)   =  126.39 sec.
  Wait time (average)   =    0.00 sec.
                          ------------
Total (root+branch&cut) =  131.20 sec. (1442.16 ticks)
131.203000 
FALSE-modelo
 Salgo lazy
Dentro lazy
camion 0, FALSE-heu 0.001
Version identifier: 12.10.0.0 | 2019-11-26 | 843d4de2ae
CPXPARAM_Threads                                 12
CPXPARAM_MIP_Strategy_Probe                      -1
CPXPARAM_Emphasis_MIP                            1
Tried aggregator 2 times.
MIP Presolve eliminated 2995 rows and 34 columns.
MIP Presolve modified 2497 coefficients.
Aggregator did 2 substitutions.
Reduced MIP has 1957 rows, 365 columns, and 21105 nonzeros.
Reduced MIP has 365 binaries, 0 generals, 0 SOSs, and 0 indicators.
Presolve time = 0.08 sec. (87.84 ticks)
Tried aggregator 1 time.
Detecting symmetries...
Reduced MIP has 1957 rows, 365 columns, and 21105 nonzeros.
Reduced MIP has 365 binaries, 0 generals, 0 SOSs, and 0 indicators.
Presolve time = 0.02 sec. (31.04 ticks)
Clique table members: 1895.
MIP emphasis: integer feasibility.
MIP search method: dynamic search.
Parallel mode: deterministic, using up to 12 threads.
Root relaxation solution time = 0.02 sec. (12.85 ticks)

        Nodes                                         Cuts/
   Node  Left     Objective  IInf  Best Integer    Best Bound    ItCnt     Gap

      0     0        0.0000    53                      0.0000      182         
      0     0        0.0000    53                    Cuts: 65      427         
      0     0        0.0000    53                     Cuts: 5      501         
      0     0        0.0000    53                    Cuts: 84      850         
Detecting symmetries...
      0     2        0.0000    42                      0.0000      850         
Elapsed time = 3.36 sec. (912.90 ticks, tree = 0.02 MB, solutions = 0)
      4     3        0.0000    84                      0.0000     1977         
     89    15        0.0000    20                      0.0000     7857         
    376     1    infeasible                            0.0000    23309         
    435     2    infeasible                            0.0000    28434         
    471     3        0.0000    46                      0.0000    31782         

Clique cuts applied:  86
Cover cuts applied:  3
Zero-half cuts applied:  20

Root node processing (before b&c):
  Real time             =    1.63 sec. (911.98 ticks)
Parallel b&c, 12 threads:
  Real time             =   77.69 sec. (1346.04 ticks)
  Sync time (average)   =   74.22 sec.
  Wait time (average)   =    0.00 sec.
                          ------------
Total (root+branch&cut) =   79.31 sec. (2258.02 ticks)
79.313000 
FALSE-modelo
 Salgo lazy
Dentro lazy
camion 0, FALSE-heu 0.001
Version identifier: 12.10.0.0 | 2019-11-26 | 843d4de2ae
CPXPARAM_Threads                                 12
CPXPARAM_MIP_Strategy_Probe                      -1
CPXPARAM_Emphasis_MIP                            1
Tried aggregator 2 times.
MIP Presolve eliminated 2995 rows and 34 columns.
MIP Presolve modified 2497 coefficients.
Aggregator did 2 substitutions.
Reduced MIP has 1957 rows, 365 columns, and 21105 nonzeros.
Reduced MIP has 365 binaries, 0 generals, 0 SOSs, and 0 indicators.
Presolve time = 0.08 sec. (87.87 ticks)
Tried aggregator 1 time.
Detecting symmetries...
Reduced MIP has 1957 rows, 365 columns, and 21105 nonzeros.
Reduced MIP has 365 binaries, 0 generals, 0 SOSs, and 0 indicators.
Presolve time = 0.03 sec. (31.08 ticks)
Clique table members: 1895.
MIP emphasis: integer feasibility.
MIP search method: dynamic search.
Parallel mode: deterministic, using up to 12 threads.
Root relaxation solution time = 0.06 sec. (6.85 ticks)

        Nodes                                         Cuts/
   Node  Left     Objective  IInf  Best Integer    Best Bound    ItCnt     Gap

      0     0        0.0000    34                      0.0000       77         
      0     0        0.0000    34                    Cuts: 57      174         
      0     0        0.0000    34                     Cuts: 4      235         
Detecting symmetries...
      0     2        0.0000    37                      0.0000      235         
Elapsed time = 2.89 sec. (580.57 ticks, tree = 0.02 MB, solutions = 0)
    181     5        0.0000    49                      0.0000    10284         
    254     3    infeasible                            0.0000    18115         
    327     2    infeasible                            0.0000    23616         

Clique cuts applied:  13
Zero-half cuts applied:  7

Root node processing (before b&c):
  Real time             =    1.16 sec. (579.75 ticks)
Parallel b&c, 12 threads:
  Real time             =  130.58 sec. (862.40 ticks)
  Sync time (average)   =  127.55 sec.
  Wait time (average)   =    0.00 sec.
                          ------------
Total (root+branch&cut) =  131.73 sec. (1442.16 ticks)
131.735000 
FALSE-modelo
 Salgo lazy
Dentro lazy
camion 0, TRUE-heu 0.000944
camion 1, FALSE-heu 0.001
Version identifier: 12.10.0.0 | 2019-11-26 | 843d4de2ae
CPXPARAM_Threads                                 12
CPXPARAM_MIP_Strategy_Probe                      -1
CPXPARAM_Emphasis_MIP                            1
Tried aggregator 2 times.
MIP Presolve eliminated 2995 rows and 34 columns.
MIP Presolve modified 2497 coefficients.
Aggregator did 2 substitutions.
Reduced MIP has 1957 rows, 365 columns, and 21105 nonzeros.
Reduced MIP has 365 binaries, 0 generals, 0 SOSs, and 0 indicators.
Presolve time = 0.06 sec. (87.77 ticks)
Tried aggregator 1 time.
Detecting symmetries...
Reduced MIP has 1957 rows, 365 columns, and 21105 nonzeros.
Reduced MIP has 365 binaries, 0 generals, 0 SOSs, and 0 indicators.
Presolve time = 0.02 sec. (31.06 ticks)
Clique table members: 1895.
MIP emphasis: integer feasibility.
MIP search method: dynamic search.
Parallel mode: deterministic, using up to 12 threads.
Root relaxation solution time = 0.08 sec. (12.68 ticks)

        Nodes                                         Cuts/
   Node  Left     Objective  IInf  Best Integer    Best Bound    ItCnt     Gap

      0     0        0.0000    56                      0.0000      158         
      0     0        0.0000    56                    Cuts: 10      228         
      0     0        0.0000    56                    Cuts: 76      359         
      0     0        0.0000    56                    Cuts: 24      432         
Detecting symmetries...
      0     2        0.0000    41                      0.0000      432         
Elapsed time = 4.28 sec. (1067.88 ticks, tree = 0.02 MB, solutions = 0)
      6     3        0.0000    93                      0.0000     2380         
    293     6        0.0000    45                      0.0000    18009         
    492     5        0.0000    58                      0.0000    35362         
    559     2    infeasible                            0.0000    41797         

Clique cuts applied:  67
Zero-half cuts applied:  16

Root node processing (before b&c):
  Real time             =    2.58 sec. (1067.04 ticks)
Parallel b&c, 12 threads:
  Real time             =   95.17 sec. (1226.60 ticks)
  Sync time (average)   =   91.65 sec.
  Wait time (average)   =    0.00 sec.
                          ------------
Total (root+branch&cut) =   97.75 sec. (2293.63 ticks)
97.766000 
FALSE-modelo
 Salgo lazy
Dentro lazy
camion 0, FALSE-heu 0.001
Version identifier: 12.10.0.0 | 2019-11-26 | 843d4de2ae
CPXPARAM_Threads                                 12
CPXPARAM_MIP_Strategy_Probe                      -1
CPXPARAM_Emphasis_MIP                            1
Tried aggregator 2 times.
MIP Presolve eliminated 2995 rows and 34 columns.
MIP Presolve modified 2497 coefficients.
Aggregator did 2 substitutions.
Reduced MIP has 1957 rows, 365 columns, and 21105 nonzeros.
Reduced MIP has 365 binaries, 0 generals, 0 SOSs, and 0 indicators.
Presolve time = 0.08 sec. (87.87 ticks)
Tried aggregator 1 time.
Detecting symmetries...
Reduced MIP has 1957 rows, 365 columns, and 21105 nonzeros.
Reduced MIP has 365 binaries, 0 generals, 0 SOSs, and 0 indicators.
Presolve time = 0.03 sec. (31.08 ticks)
Clique table members: 1895.
MIP emphasis: integer feasibility.
MIP search method: dynamic search.
Parallel mode: deterministic, using up to 12 threads.
Root relaxation solution time = 0.03 sec. (6.85 ticks)

        Nodes                                         Cuts/
   Node  Left     Objective  IInf  Best Integer    Best Bound    ItCnt     Gap

      0     0        0.0000    34                      0.0000       77         
      0     0        0.0000    34                    Cuts: 57      174         
      0     0        0.0000    34                     Cuts: 4      235         
Detecting symmetries...
      0     2        0.0000    37                      0.0000      235         
Elapsed time = 2.92 sec. (580.57 ticks, tree = 0.02 MB, solutions = 0)
    181     5        0.0000    49                      0.0000    10284         
    254     3    infeasible                            0.0000    18115         
    327     2    infeasible                            0.0000    23616         

Clique cuts applied:  13
Zero-half cuts applied:  7

Root node processing (before b&c):
  Real time             =    1.13 sec. (579.75 ticks)
Parallel b&c, 12 threads:
  Real time             =  128.86 sec. (862.40 ticks)
  Sync time (average)   =  125.77 sec.
  Wait time (average)   =    0.00 sec.
                          ------------
Total (root+branch&cut) =  129.98 sec. (1442.16 ticks)
130.000000 
FALSE-modelo
 Salgo lazy
Dentro lazy
camion 0, FALSE-heu 0.001
Version identifier: 12.10.0.0 | 2019-11-26 | 843d4de2ae
CPXPARAM_Threads                                 12
CPXPARAM_MIP_Strategy_Probe                      -1
CPXPARAM_Emphasis_MIP                            1
Tried aggregator 2 times.
MIP Presolve eliminated 2995 rows and 34 columns.
MIP Presolve modified 2497 coefficients.
Aggregator did 2 substitutions.
Reduced MIP has 1957 rows, 365 columns, and 21105 nonzeros.
Reduced MIP has 365 binaries, 0 generals, 0 SOSs, and 0 indicators.
Presolve time = 0.06 sec. (87.84 ticks)
Tried aggregator 1 time.
Detecting symmetries...
Reduced MIP has 1957 rows, 365 columns, and 21105 nonzeros.
Reduced MIP has 365 binaries, 0 generals, 0 SOSs, and 0 indicators.
Presolve time = 0.02 sec. (31.04 ticks)
Clique table members: 1895.
MIP emphasis: integer feasibility.
MIP search method: dynamic search.
Parallel mode: deterministic, using up to 12 threads.
Root relaxation solution time = 0.06 sec. (12.85 ticks)

        Nodes                                         Cuts/
   Node  Left     Objective  IInf  Best Integer    Best Bound    ItCnt     Gap

      0     0        0.0000    53                      0.0000      182         
      0     0        0.0000    53                    Cuts: 65      427         
      0     0        0.0000    53                     Cuts: 5      501         
      0     0        0.0000    53                    Cuts: 84      850         
Detecting symmetries...
      0     2        0.0000    42                      0.0000      850         
Elapsed time = 3.91 sec. (912.90 ticks, tree = 0.02 MB, solutions = 0)
      4     3        0.0000    84                      0.0000     1977         
     89    15        0.0000    20                      0.0000     7857         
    376     1    infeasible                            0.0000    23309         
    435     2    infeasible                            0.0000    28434         
    471     3        0.0000    46                      0.0000    31782         

Clique cuts applied:  86
Cover cuts applied:  3
Zero-half cuts applied:  20

Root node processing (before b&c):
  Real time             =    2.08 sec. (911.98 ticks)
Parallel b&c, 12 threads:
  Real time             =   70.80 sec. (1346.04 ticks)
  Sync time (average)   =   67.41 sec.
  Wait time (average)   =    0.00 sec.
                          ------------
Total (root+branch&cut) =   72.88 sec. (2258.02 ticks)
72.891000 
FALSE-modelo
 Salgo lazy
Dentro lazy
camion 0, FALSE-heu 0.001
Version identifier: 12.10.0.0 | 2019-11-26 | 843d4de2ae
CPXPARAM_Threads                                 12
CPXPARAM_MIP_Strategy_Probe                      -1
CPXPARAM_Emphasis_MIP                            1
Tried aggregator 2 times.
MIP Presolve eliminated 2995 rows and 34 columns.
MIP Presolve modified 2497 coefficients.
Aggregator did 2 substitutions.
Reduced MIP has 1957 rows, 365 columns, and 21105 nonzeros.
Reduced MIP has 365 binaries, 0 generals, 0 SOSs, and 0 indicators.
Presolve time = 0.06 sec. (87.87 ticks)
Tried aggregator 1 time.
Detecting symmetries...
Reduced MIP has 1957 rows, 365 columns, and 21105 nonzeros.
Reduced MIP has 365 binaries, 0 generals, 0 SOSs, and 0 indicators.
Presolve time = 0.02 sec. (31.08 ticks)
Clique table members: 1895.
MIP emphasis: integer feasibility.
MIP search method: dynamic search.
Parallel mode: deterministic, using up to 12 threads.
Root relaxation solution time = 0.03 sec. (6.85 ticks)

        Nodes                                         Cuts/
   Node  Left     Objective  IInf  Best Integer    Best Bound    ItCnt     Gap

      0     0        0.0000    34                      0.0000       77         
      0     0        0.0000    34                    Cuts: 57      174         
      0     0        0.0000    34                     Cuts: 4      235         
Detecting symmetries...
      0     2        0.0000    37                      0.0000      235         
Elapsed time = 2.86 sec. (580.57 ticks, tree = 0.02 MB, solutions = 0)
    181     5        0.0000    49                      0.0000    10284         
    254     3    infeasible                            0.0000    18115         
    327     2    infeasible                            0.0000    23616         

Clique cuts applied:  13
Zero-half cuts applied:  7

Root node processing (before b&c):
  Real time             =    1.02 sec. (579.75 ticks)
Parallel b&c, 12 threads:
  Real time             =  129.88 sec. (862.40 ticks)
  Sync time (average)   =  126.63 sec.
  Wait time (average)   =    0.00 sec.
                          ------------
Total (root+branch&cut) =  130.89 sec. (1442.16 ticks)
130.890000 
FALSE-modelo
 Salgo lazy
Dentro lazy
camion 0, FALSE-heu 0.001
Version identifier: 12.10.0.0 | 2019-11-26 | 843d4de2ae
CPXPARAM_Threads                                 12
CPXPARAM_MIP_Strategy_Probe                      -1
CPXPARAM_Emphasis_MIP                            1
Tried aggregator 2 times.
MIP Presolve eliminated 2995 rows and 34 columns.
MIP Presolve modified 2497 coefficients.
Aggregator did 2 substitutions.
Reduced MIP has 1957 rows, 365 columns, and 21105 nonzeros.
Reduced MIP has 365 binaries, 0 generals, 0 SOSs, and 0 indicators.
Presolve time = 0.08 sec. (87.84 ticks)
Tried aggregator 1 time.
Detecting symmetries...
Reduced MIP has 1957 rows, 365 columns, and 21105 nonzeros.
Reduced MIP has 365 binaries, 0 generals, 0 SOSs, and 0 indicators.
Presolve time = 0.02 sec. (31.04 ticks)
Clique table members: 1895.
MIP emphasis: integer feasibility.
MIP search method: dynamic search.
Parallel mode: deterministic, using up to 12 threads.
Root relaxation solution time = 0.02 sec. (12.85 ticks)

        Nodes                                         Cuts/
   Node  Left     Objective  IInf  Best Integer    Best Bound    ItCnt     Gap

      0     0        0.0000    53                      0.0000      182         
      0     0        0.0000    53                    Cuts: 65      427         
      0     0        0.0000    53                     Cuts: 5      501         
      0     0        0.0000    53                    Cuts: 84      850         
Detecting symmetries...
      0     2        0.0000    42                      0.0000      850         
Elapsed time = 4.22 sec. (912.90 ticks, tree = 0.02 MB, solutions = 0)
      4     3        0.0000    84                      0.0000     1977         
     89    15        0.0000    20                      0.0000     7857         
    376     1    infeasible                            0.0000    23309         
    435     2    infeasible                            0.0000    28434         
    471     3        0.0000    46                      0.0000    31782         

Clique cuts applied:  86
Cover cuts applied:  3
Zero-half cuts applied:  20

Root node processing (before b&c):
  Real time             =    1.72 sec. (911.98 ticks)
Parallel b&c, 12 threads:
  Real time             =   75.56 sec. (1346.04 ticks)
  Sync time (average)   =   71.23 sec.
  Wait time (average)   =    0.00 sec.
                          ------------
Total (root+branch&cut) =   77.28 sec. (2258.02 ticks)
77.282000 
FALSE-modelo
 Salgo lazy
Dentro lazy
camion 0, TRUE-heu 0.001119
camion 1, FALSE-heu 0.001
Version identifier: 12.10.0.0 | 2019-11-26 | 843d4de2ae
CPXPARAM_Threads                                 12
CPXPARAM_MIP_Strategy_Probe                      -1
CPXPARAM_Emphasis_MIP                            1
Tried aggregator 2 times.
MIP Presolve eliminated 2995 rows and 34 columns.
MIP Presolve modified 2497 coefficients.
Aggregator did 2 substitutions.
Reduced MIP has 1957 rows, 365 columns, and 21105 nonzeros.
Reduced MIP has 365 binaries, 0 generals, 0 SOSs, and 0 indicators.
Presolve time = 0.08 sec. (87.77 ticks)
Tried aggregator 1 time.
Detecting symmetries...
Reduced MIP has 1957 rows, 365 columns, and 21105 nonzeros.
Reduced MIP has 365 binaries, 0 generals, 0 SOSs, and 0 indicators.
Presolve time = 0.03 sec. (31.06 ticks)
Clique table members: 1895.
MIP emphasis: integer feasibility.
MIP search method: dynamic search.
Parallel mode: deterministic, using up to 12 threads.
Root relaxation solution time = 0.03 sec. (12.68 ticks)

        Nodes                                         Cuts/
   Node  Left     Objective  IInf  Best Integer    Best Bound    ItCnt     Gap

      0     0        0.0000    56                      0.0000      158         
      0     0        0.0000    56                    Cuts: 10      228         
      0     0        0.0000    56                    Cuts: 76      359         
      0     0        0.0000    56                    Cuts: 24      432         
Detecting symmetries...
      0     2        0.0000    41                      0.0000      432         
Elapsed time = 3.72 sec. (1067.88 ticks, tree = 0.02 MB, solutions = 0)
      6     3        0.0000    93                      0.0000     2380         
    293     6        0.0000    45                      0.0000    18009         
    492     5        0.0000    58                      0.0000    35362         
    559     2    infeasible                            0.0000    41797         

Clique cuts applied:  67
Zero-half cuts applied:  16

Root node processing (before b&c):
  Real time             =    2.44 sec. (1067.04 ticks)
Parallel b&c, 12 threads:
  Real time             =   91.84 sec. (1226.60 ticks)
  Sync time (average)   =   88.93 sec.
  Wait time (average)   =    0.00 sec.
                          ------------
Total (root+branch&cut) =   94.28 sec. (2293.63 ticks)
94.281000 
FALSE-modelo
 Salgo lazy
Dentro lazy
camion 0, FALSE-heu 0.001
Version identifier: 12.10.0.0 | 2019-11-26 | 843d4de2ae
CPXPARAM_Threads                                 12
CPXPARAM_MIP_Strategy_Probe                      -1
CPXPARAM_Emphasis_MIP                            1
Tried aggregator 2 times.
MIP Presolve eliminated 2995 rows and 34 columns.
MIP Presolve modified 2497 coefficients.
Aggregator did 2 substitutions.
Reduced MIP has 1957 rows, 365 columns, and 21105 nonzeros.
Reduced MIP has 365 binaries, 0 generals, 0 SOSs, and 0 indicators.
Presolve time = 0.08 sec. (87.87 ticks)
Tried aggregator 1 time.
Detecting symmetries...
Reduced MIP has 1957 rows, 365 columns, and 21105 nonzeros.
Reduced MIP has 365 binaries, 0 generals, 0 SOSs, and 0 indicators.
Presolve time = 0.03 sec. (31.08 ticks)
Clique table members: 1895.
MIP emphasis: integer feasibility.
MIP search method: dynamic search.
Parallel mode: deterministic, using up to 12 threads.
Root relaxation solution time = 0.02 sec. (6.85 ticks)

        Nodes                                         Cuts/
   Node  Left     Objective  IInf  Best Integer    Best Bound    ItCnt     Gap

      0     0        0.0000    34                      0.0000       77         
      0     0        0.0000    34                    Cuts: 57      174         
      0     0        0.0000    34                     Cuts: 4      235         
Detecting symmetries...
      0     2        0.0000    37                      0.0000      235         
Elapsed time = 2.59 sec. (580.57 ticks, tree = 0.02 MB, solutions = 0)
    181     5        0.0000    49                      0.0000    10284         
    254     3    infeasible                            0.0000    18115         
    327     2    infeasible                            0.0000    23616         

Clique cuts applied:  13
Zero-half cuts applied:  7

Root node processing (before b&c):
  Real time             =    1.13 sec. (579.75 ticks)
Parallel b&c, 12 threads:
  Real time             =  124.66 sec. (862.40 ticks)
  Sync time (average)   =  121.55 sec.
  Wait time (average)   =    0.00 sec.
                          ------------
Total (root+branch&cut) =  125.78 sec. (1442.16 ticks)
125.781000 
FALSE-modelo
 Salgo lazy
   1636  1093     6706.9187    60     6767.0000     5774.7469    61898   14.66%         X_0_5_1 D   1325   1309     72
Dentro lazy
camion 0, FALSE-heu 0.001
Version identifier: 12.10.0.0 | 2019-11-26 | 843d4de2ae
CPXPARAM_Threads                                 12
CPXPARAM_MIP_Strategy_Probe                      -1
CPXPARAM_Emphasis_MIP                            1
Tried aggregator 2 times.
MIP Presolve eliminated 2995 rows and 34 columns.
MIP Presolve modified 2497 coefficients.
Aggregator did 2 substitutions.
Reduced MIP has 1957 rows, 365 columns, and 21105 nonzeros.
Reduced MIP has 365 binaries, 0 generals, 0 SOSs, and 0 indicators.
Presolve time = 0.08 sec. (87.87 ticks)
Tried aggregator 1 time.
Detecting symmetries...
Reduced MIP has 1957 rows, 365 columns, and 21105 nonzeros.
Reduced MIP has 365 binaries, 0 generals, 0 SOSs, and 0 indicators.
Presolve time = 0.03 sec. (31.08 ticks)
Clique table members: 1895.
MIP emphasis: integer feasibility.
MIP search method: dynamic search.
Parallel mode: deterministic, using up to 12 threads.
Root relaxation solution time = 0.02 sec. (6.85 ticks)

        Nodes                                         Cuts/
   Node  Left     Objective  IInf  Best Integer    Best Bound    ItCnt     Gap

      0     0        0.0000    34                      0.0000       77         
      0     0        0.0000    34                    Cuts: 57      174         
      0     0        0.0000    34                     Cuts: 4      235         
Detecting symmetries...
      0     2        0.0000    37                      0.0000      235         
Elapsed time = 3.06 sec. (580.57 ticks, tree = 0.02 MB, solutions = 0)
    181     5        0.0000    49                      0.0000    10284         
    254     3    infeasible                            0.0000    18115         
    327     2    infeasible                            0.0000    23616         

Clique cuts applied:  13
Zero-half cuts applied:  7

Root node processing (before b&c):
  Real time             =    0.84 sec. (579.75 ticks)
Parallel b&c, 12 threads:
  Real time             =  129.52 sec. (862.40 ticks)
  Sync time (average)   =  125.88 sec.
  Wait time (average)   =    0.00 sec.
                          ------------
Total (root+branch&cut) =  130.36 sec. (1442.16 ticks)
130.360000 
FALSE-modelo
 Salgo lazy
Dentro lazy
camion 0, TRUE-heu 0.001231
camion 1, FALSE-heu 0.001
Version identifier: 12.10.0.0 | 2019-11-26 | 843d4de2ae
CPXPARAM_Threads                                 12
CPXPARAM_MIP_Strategy_Probe                      -1
CPXPARAM_Emphasis_MIP                            1
Tried aggregator 2 times.
MIP Presolve eliminated 2995 rows and 34 columns.
MIP Presolve modified 2497 coefficients.
Aggregator did 2 substitutions.
Reduced MIP has 1957 rows, 365 columns, and 21105 nonzeros.
Reduced MIP has 365 binaries, 0 generals, 0 SOSs, and 0 indicators.
Presolve time = 0.08 sec. (87.77 ticks)
Tried aggregator 1 time.
Detecting symmetries...
Reduced MIP has 1957 rows, 365 columns, and 21105 nonzeros.
Reduced MIP has 365 binaries, 0 generals, 0 SOSs, and 0 indicators.
Presolve time = 0.03 sec. (31.06 ticks)
Clique table members: 1895.
MIP emphasis: integer feasibility.
MIP search method: dynamic search.
Parallel mode: deterministic, using up to 12 threads.
Root relaxation solution time = 0.02 sec. (12.68 ticks)

        Nodes                                         Cuts/
   Node  Left     Objective  IInf  Best Integer    Best Bound    ItCnt     Gap

      0     0        0.0000    56                      0.0000      158         
      0     0        0.0000    56                    Cuts: 10      228         
      0     0        0.0000    56                    Cuts: 76      359         
      0     0        0.0000    56                    Cuts: 24      432         
Detecting symmetries...
      0     2        0.0000    41                      0.0000      432         
Elapsed time = 4.02 sec. (1067.88 ticks, tree = 0.02 MB, solutions = 0)
      6     3        0.0000    93                      0.0000     2380         
    293     6        0.0000    45                      0.0000    18009         
    492     5        0.0000    58                      0.0000    35362         
    559     2    infeasible                            0.0000    41797         

Clique cuts applied:  67
Zero-half cuts applied:  16

Root node processing (before b&c):
  Real time             =    2.13 sec. (1067.04 ticks)
Parallel b&c, 12 threads:
  Real time             =   96.20 sec. (1226.60 ticks)
  Sync time (average)   =   92.60 sec.
  Wait time (average)   =    0.00 sec.
                          ------------
Total (root+branch&cut) =   98.33 sec. (2293.63 ticks)
98.328000 
FALSE-modelo
 Salgo lazy
Dentro lazy
camion 0, FALSE-heu 0.001
Version identifier: 12.10.0.0 | 2019-11-26 | 843d4de2ae
CPXPARAM_Threads                                 12
CPXPARAM_MIP_Strategy_Probe                      -1
CPXPARAM_Emphasis_MIP                            1
Tried aggregator 2 times.
MIP Presolve eliminated 2995 rows and 34 columns.
MIP Presolve modified 2497 coefficients.
Aggregator did 2 substitutions.
Reduced MIP has 1957 rows, 365 columns, and 21105 nonzeros.
Reduced MIP has 365 binaries, 0 generals, 0 SOSs, and 0 indicators.
Presolve time = 0.06 sec. (87.87 ticks)
Tried aggregator 1 time.
Detecting symmetries...
Reduced MIP has 1957 rows, 365 columns, and 21105 nonzeros.
Reduced MIP has 365 binaries, 0 generals, 0 SOSs, and 0 indicators.
Presolve time = 0.03 sec. (31.08 ticks)
Clique table members: 1895.
MIP emphasis: integer feasibility.
MIP search method: dynamic search.
Parallel mode: deterministic, using up to 12 threads.
Root relaxation solution time = 0.03 sec. (6.85 ticks)

        Nodes                                         Cuts/
   Node  Left     Objective  IInf  Best Integer    Best Bound    ItCnt     Gap

      0     0        0.0000    34                      0.0000       77         
      0     0        0.0000    34                    Cuts: 57      174         
      0     0        0.0000    34                     Cuts: 4      235         
Detecting symmetries...
      0     2        0.0000    37                      0.0000      235         
Elapsed time = 2.64 sec. (580.57 ticks, tree = 0.02 MB, solutions = 0)
    181     5        0.0000    49                      0.0000    10284         
    254     3    infeasible                            0.0000    18115         
    327     2    infeasible                            0.0000    23616         

Clique cuts applied:  13
Zero-half cuts applied:  7

Root node processing (before b&c):
  Real time             =    1.09 sec. (579.75 ticks)
Parallel b&c, 12 threads:
  Real time             =  125.30 sec. (862.40 ticks)
  Sync time (average)   =  122.32 sec.
  Wait time (average)   =    0.00 sec.
                          ------------
Total (root+branch&cut) =  126.39 sec. (1442.16 ticks)
126.406000 
FALSE-modelo
 Salgo lazy
Dentro lazy
camion 0, FALSE-heu 0.001
Version identifier: 12.10.0.0 | 2019-11-26 | 843d4de2ae
CPXPARAM_Threads                                 12
CPXPARAM_MIP_Strategy_Probe                      -1
CPXPARAM_Emphasis_MIP                            1
Tried aggregator 2 times.
MIP Presolve eliminated 2995 rows and 34 columns.
MIP Presolve modified 2497 coefficients.
Aggregator did 2 substitutions.
Reduced MIP has 1957 rows, 365 columns, and 21105 nonzeros.
Reduced MIP has 365 binaries, 0 generals, 0 SOSs, and 0 indicators.
Presolve time = 0.08 sec. (87.87 ticks)
Tried aggregator 1 time.
Detecting symmetries...
Reduced MIP has 1957 rows, 365 columns, and 21105 nonzeros.
Reduced MIP has 365 binaries, 0 generals, 0 SOSs, and 0 indicators.
Presolve time = 0.03 sec. (31.08 ticks)
Clique table members: 1895.
MIP emphasis: integer feasibility.
MIP search method: dynamic search.
Parallel mode: deterministic, using up to 12 threads.
Root relaxation solution time = 0.02 sec. (6.85 ticks)

        Nodes                                         Cuts/
   Node  Left     Objective  IInf  Best Integer    Best Bound    ItCnt     Gap

      0     0        0.0000    34                      0.0000       77         
      0     0        0.0000    34                    Cuts: 57      174         
      0     0        0.0000    34                     Cuts: 4      235         
Detecting symmetries...
      0     2        0.0000    37                      0.0000      235         
Elapsed time = 2.16 sec. (580.57 ticks, tree = 0.02 MB, solutions = 0)
    181     5        0.0000    49                      0.0000    10284         
    254     3    infeasible                            0.0000    18115         
    327     2    infeasible                            0.0000    23616         

Clique cuts applied:  13
Zero-half cuts applied:  7

Root node processing (before b&c):
  Real time             =    0.91 sec. (579.75 ticks)
Parallel b&c, 12 threads:
  Real time             =  128.69 sec. (862.40 ticks)
  Sync time (average)   =  125.73 sec.
  Wait time (average)   =    0.00 sec.
                          ------------
Total (root+branch&cut) =  129.59 sec. (1442.16 ticks)
129.609000 
FALSE-modelo
 Salgo lazy
Dentro lazy
camion 0, TRUE-heu 0.001346
camion 1, FALSE-heu 0.001
Version identifier: 12.10.0.0 | 2019-11-26 | 843d4de2ae
CPXPARAM_Threads                                 12
CPXPARAM_MIP_Strategy_Probe                      -1
CPXPARAM_Emphasis_MIP                            1
Tried aggregator 2 times.
MIP Presolve eliminated 2995 rows and 34 columns.
MIP Presolve modified 2497 coefficients.
Aggregator did 2 substitutions.
Reduced MIP has 1957 rows, 365 columns, and 21105 nonzeros.
Reduced MIP has 365 binaries, 0 generals, 0 SOSs, and 0 indicators.
Presolve time = 0.08 sec. (87.77 ticks)
Tried aggregator 1 time.
Detecting symmetries...
Reduced MIP has 1957 rows, 365 columns, and 21105 nonzeros.
Reduced MIP has 365 binaries, 0 generals, 0 SOSs, and 0 indicators.
Presolve time = 0.03 sec. (31.06 ticks)
Clique table members: 1895.
MIP emphasis: integer feasibility.
MIP search method: dynamic search.
Parallel mode: deterministic, using up to 12 threads.
Root relaxation solution time = 0.03 sec. (12.68 ticks)

        Nodes                                         Cuts/
   Node  Left     Objective  IInf  Best Integer    Best Bound    ItCnt     Gap

      0     0        0.0000    56                      0.0000      158         
      0     0        0.0000    56                    Cuts: 10      228         
      0     0        0.0000    56                    Cuts: 76      359         
      0     0        0.0000    56                    Cuts: 24      432         
Detecting symmetries...
      0     2        0.0000    41                      0.0000      432         
Elapsed time = 3.83 sec. (1067.88 ticks, tree = 0.02 MB, solutions = 0)
      6     3        0.0000    93                      0.0000     2380         
    293     6        0.0000    45                      0.0000    18009         
    492     5        0.0000    58                      0.0000    35362         
    559     2    infeasible                            0.0000    41797         

Clique cuts applied:  67
Zero-half cuts applied:  16

Root node processing (before b&c):
  Real time             =    2.09 sec. (1067.04 ticks)
Parallel b&c, 12 threads:
  Real time             =   95.52 sec. (1226.60 ticks)
  Sync time (average)   =   92.07 sec.
  Wait time (average)   =    0.00 sec.
                          ------------
Total (root+branch&cut) =   97.61 sec. (2293.63 ticks)
97.609000 
FALSE-modelo
 Salgo lazy
Dentro lazy
camion 0, FALSE-heu 0.001
Version identifier: 12.10.0.0 | 2019-11-26 | 843d4de2ae
CPXPARAM_Threads                                 12
CPXPARAM_MIP_Strategy_Probe                      -1
CPXPARAM_Emphasis_MIP                            1
Tried aggregator 2 times.
MIP Presolve eliminated 2995 rows and 34 columns.
MIP Presolve modified 2497 coefficients.
Aggregator did 2 substitutions.
Reduced MIP has 1957 rows, 365 columns, and 21105 nonzeros.
Reduced MIP has 365 binaries, 0 generals, 0 SOSs, and 0 indicators.
Presolve time = 0.08 sec. (87.87 ticks)
Tried aggregator 1 time.
Detecting symmetries...
Reduced MIP has 1957 rows, 365 columns, and 21105 nonzeros.
Reduced MIP has 365 binaries, 0 generals, 0 SOSs, and 0 indicators.
Presolve time = 0.03 sec. (31.08 ticks)
Clique table members: 1895.
MIP emphasis: integer feasibility.
MIP search method: dynamic search.
Parallel mode: deterministic, using up to 12 threads.
Root relaxation solution time = 0.06 sec. (6.85 ticks)

        Nodes                                         Cuts/
   Node  Left     Objective  IInf  Best Integer    Best Bound    ItCnt     Gap

      0     0        0.0000    34                      0.0000       77         
      0     0        0.0000    34                    Cuts: 57      174         
      0     0        0.0000    34                     Cuts: 4      235         
Detecting symmetries...
      0     2        0.0000    37                      0.0000      235         
Elapsed time = 3.75 sec. (580.57 ticks, tree = 0.02 MB, solutions = 0)
    181     5        0.0000    49                      0.0000    10284         
    254     3    infeasible                            0.0000    18115         
    327     2    infeasible                            0.0000    23616         

Clique cuts applied:  13
Zero-half cuts applied:  7

Root node processing (before b&c):
  Real time             =    1.42 sec. (579.75 ticks)
Parallel b&c, 12 threads:
  Real time             =  130.36 sec. (862.40 ticks)
  Sync time (average)   =  126.53 sec.
  Wait time (average)   =    0.00 sec.
                          ------------
Total (root+branch&cut) =  131.78 sec. (1442.16 ticks)
131.781000 
FALSE-modelo
 Salgo lazy
Dentro lazy
camion 0, FALSE-heu 0.001
Version identifier: 12.10.0.0 | 2019-11-26 | 843d4de2ae
CPXPARAM_Threads                                 12
CPXPARAM_MIP_Strategy_Probe                      -1
CPXPARAM_Emphasis_MIP                            1
Tried aggregator 2 times.
MIP Presolve eliminated 2995 rows and 34 columns.
MIP Presolve modified 2497 coefficients.
Aggregator did 2 substitutions.
Reduced MIP has 1957 rows, 365 columns, and 21105 nonzeros.
Reduced MIP has 365 binaries, 0 generals, 0 SOSs, and 0 indicators.
Presolve time = 0.06 sec. (87.87 ticks)
Tried aggregator 1 time.
Detecting symmetries...
Reduced MIP has 1957 rows, 365 columns, and 21105 nonzeros.
Reduced MIP has 365 binaries, 0 generals, 0 SOSs, and 0 indicators.
Presolve time = 0.02 sec. (31.08 ticks)
Clique table members: 1895.
MIP emphasis: integer feasibility.
MIP search method: dynamic search.
Parallel mode: deterministic, using up to 12 threads.
Root relaxation solution time = 0.05 sec. (6.85 ticks)

        Nodes                                         Cuts/
   Node  Left     Objective  IInf  Best Integer    Best Bound    ItCnt     Gap

      0     0        0.0000    34                      0.0000       77         
      0     0        0.0000    34                    Cuts: 57      174         
      0     0        0.0000    34                     Cuts: 4      235         
Detecting symmetries...
      0     2        0.0000    37                      0.0000      235         
Elapsed time = 2.47 sec. (580.57 ticks, tree = 0.02 MB, solutions = 0)
    181     5        0.0000    49                      0.0000    10284         
    254     3    infeasible                            0.0000    18115         
    327     2    infeasible                            0.0000    23616         

Clique cuts applied:  13
Zero-half cuts applied:  7

Root node processing (before b&c):
  Real time             =    1.09 sec. (579.75 ticks)
Parallel b&c, 12 threads:
  Real time             =  126.00 sec. (862.40 ticks)
  Sync time (average)   =  122.81 sec.
  Wait time (average)   =    0.00 sec.
                          ------------
Total (root+branch&cut) =  127.09 sec. (1442.16 ticks)
127.094000 
FALSE-modelo
 Salgo lazy
Dentro lazy
camion 0, TRUE-heu 0.001467
camion 1, FALSE-heu 0.002
Version identifier: 12.10.0.0 | 2019-11-26 | 843d4de2ae
CPXPARAM_Threads                                 12
CPXPARAM_MIP_Strategy_Probe                      -1
CPXPARAM_Emphasis_MIP                            1
Tried aggregator 2 times.
MIP Presolve eliminated 2995 rows and 34 columns.
MIP Presolve modified 2497 coefficients.
Aggregator did 2 substitutions.
Reduced MIP has 1957 rows, 365 columns, and 21105 nonzeros.
Reduced MIP has 365 binaries, 0 generals, 0 SOSs, and 0 indicators.
Presolve time = 0.08 sec. (87.77 ticks)
Tried aggregator 1 time.
Detecting symmetries...
Reduced MIP has 1957 rows, 365 columns, and 21105 nonzeros.
Reduced MIP has 365 binaries, 0 generals, 0 SOSs, and 0 indicators.
Presolve time = 0.03 sec. (31.06 ticks)
Clique table members: 1895.
MIP emphasis: integer feasibility.
MIP search method: dynamic search.
Parallel mode: deterministic, using up to 12 threads.
Root relaxation solution time = 0.02 sec. (12.68 ticks)

        Nodes                                         Cuts/
   Node  Left     Objective  IInf  Best Integer    Best Bound    ItCnt     Gap

      0     0        0.0000    56                      0.0000      158         
      0     0        0.0000    56                    Cuts: 10      228         
      0     0        0.0000    56                    Cuts: 76      359         
      0     0        0.0000    56                    Cuts: 24      432         
Detecting symmetries...
      0     2        0.0000    41                      0.0000      432         
Elapsed time = 4.19 sec. (1067.88 ticks, tree = 0.02 MB, solutions = 0)
      6     3        0.0000    93                      0.0000     2380         
    293     6        0.0000    45                      0.0000    18009         
    492     5        0.0000    58                      0.0000    35362         
    559     2    infeasible                            0.0000    41797         

Clique cuts applied:  67
Zero-half cuts applied:  16

Root node processing (before b&c):
  Real time             =    1.77 sec. (1067.04 ticks)
Parallel b&c, 12 threads:
  Real time             =   94.66 sec. (1226.60 ticks)
  Sync time (average)   =   90.76 sec.
  Wait time (average)   =    0.00 sec.
                          ------------
Total (root+branch&cut) =   96.42 sec. (2293.63 ticks)
96.438000 
FALSE-modelo
 Salgo lazy
Starting limited solution polishing.
Dentro lazy
camion 0, FALSE-heu 0.002
Version identifier: 12.10.0.0 | 2019-11-26 | 843d4de2ae
CPXPARAM_Threads                                 12
CPXPARAM_MIP_Strategy_Probe                      -1
CPXPARAM_Emphasis_MIP                            1
Tried aggregator 2 times.
MIP Presolve eliminated 2995 rows and 34 columns.
MIP Presolve modified 2497 coefficients.
Aggregator did 2 substitutions.
Reduced MIP has 1957 rows, 365 columns, and 21105 nonzeros.
Reduced MIP has 365 binaries, 0 generals, 0 SOSs, and 0 indicators.
Presolve time = 0.06 sec. (87.87 ticks)
Tried aggregator 1 time.
Detecting symmetries...
Reduced MIP has 1957 rows, 365 columns, and 21105 nonzeros.
Reduced MIP has 365 binaries, 0 generals, 0 SOSs, and 0 indicators.
Presolve time = 0.02 sec. (31.08 ticks)
Clique table members: 1895.
MIP emphasis: integer feasibility.
MIP search method: dynamic search.
Parallel mode: deterministic, using up to 12 threads.
Root relaxation solution time = 0.05 sec. (6.85 ticks)

        Nodes                                         Cuts/
   Node  Left     Objective  IInf  Best Integer    Best Bound    ItCnt     Gap

      0     0        0.0000    34                      0.0000       77         
      0     0        0.0000    34                    Cuts: 57      174         
      0     0        0.0000    34                     Cuts: 4      235         
Detecting symmetries...
      0     2        0.0000    37                      0.0000      235         
Elapsed time = 3.23 sec. (580.57 ticks, tree = 0.02 MB, solutions = 0)
    181     5        0.0000    49                      0.0000    10284         
    254     3    infeasible                            0.0000    18115         
    327     2    infeasible                            0.0000    23616         

Clique cuts applied:  13
Zero-half cuts applied:  7

Root node processing (before b&c):
  Real time             =    1.08 sec. (579.75 ticks)
Parallel b&c, 12 threads:
  Real time             =  127.30 sec. (862.40 ticks)
  Sync time (average)   =  123.58 sec.
  Wait time (average)   =    0.00 sec.
                          ------------
Total (root+branch&cut) =  128.38 sec. (1442.16 ticks)
128.375000 
FALSE-modelo
 Salgo lazy
Dentro lazy
camion 0, FALSE-heu 0.002
Version identifier: 12.10.0.0 | 2019-11-26 | 843d4de2ae
CPXPARAM_Threads                                 12
CPXPARAM_MIP_Strategy_Probe                      -1
CPXPARAM_Emphasis_MIP                            1
Tried aggregator 2 times.
MIP Presolve eliminated 2995 rows and 34 columns.
MIP Presolve modified 2497 coefficients.
Aggregator did 2 substitutions.
Reduced MIP has 1957 rows, 365 columns, and 21105 nonzeros.
Reduced MIP has 365 binaries, 0 generals, 0 SOSs, and 0 indicators.
Presolve time = 0.08 sec. (87.87 ticks)
Tried aggregator 1 time.
Detecting symmetries...
Reduced MIP has 1957 rows, 365 columns, and 21105 nonzeros.
Reduced MIP has 365 binaries, 0 generals, 0 SOSs, and 0 indicators.
Presolve time = 0.03 sec. (31.08 ticks)
Clique table members: 1895.
MIP emphasis: integer feasibility.
MIP search method: dynamic search.
Parallel mode: deterministic, using up to 12 threads.
Root relaxation solution time = 0.05 sec. (6.85 ticks)

        Nodes                                         Cuts/
   Node  Left     Objective  IInf  Best Integer    Best Bound    ItCnt     Gap

      0     0        0.0000    34                      0.0000       77         
      0     0        0.0000    34                    Cuts: 57      174         
      0     0        0.0000    34                     Cuts: 4      235         
Detecting symmetries...
      0     2        0.0000    37                      0.0000      235         
Elapsed time = 2.86 sec. (580.57 ticks, tree = 0.02 MB, solutions = 0)
    181     5        0.0000    49                      0.0000    10284         
    254     3    infeasible                            0.0000    18115         
    327     2    infeasible                            0.0000    23616         

Clique cuts applied:  13
Zero-half cuts applied:  7

Root node processing (before b&c):
  Real time             =    0.91 sec. (579.75 ticks)
Parallel b&c, 12 threads:
  Real time             =  128.72 sec. (862.40 ticks)
  Sync time (average)   =  125.36 sec.
  Wait time (average)   =    0.00 sec.
                          ------------
Total (root+branch&cut) =  129.63 sec. (1442.16 ticks)
129.625000 
FALSE-modelo
 Salgo lazy
Dentro lazy
camion 0, FALSE-heu 0.002
Version identifier: 12.10.0.0 | 2019-11-26 | 843d4de2ae
CPXPARAM_Threads                                 12
CPXPARAM_MIP_Strategy_Probe                      -1
CPXPARAM_Emphasis_MIP                            1
Tried aggregator 2 times.
MIP Presolve eliminated 2995 rows and 34 columns.
MIP Presolve modified 2497 coefficients.
Aggregator did 2 substitutions.
Reduced MIP has 1957 rows, 365 columns, and 21105 nonzeros.
Reduced MIP has 365 binaries, 0 generals, 0 SOSs, and 0 indicators.
Presolve time = 0.08 sec. (87.87 ticks)
Tried aggregator 1 time.
Detecting symmetries...
Reduced MIP has 1957 rows, 365 columns, and 21105 nonzeros.
Reduced MIP has 365 binaries, 0 generals, 0 SOSs, and 0 indicators.
Presolve time = 0.03 sec. (31.08 ticks)
Clique table members: 1895.
MIP emphasis: integer feasibility.
MIP search method: dynamic search.
Parallel mode: deterministic, using up to 12 threads.
Root relaxation solution time = 0.02 sec. (6.85 ticks)

        Nodes                                         Cuts/
   Node  Left     Objective  IInf  Best Integer    Best Bound    ItCnt     Gap

      0     0        0.0000    34                      0.0000       77         
      0     0        0.0000    34                    Cuts: 57      174         
      0     0        0.0000    34                     Cuts: 4      235         
Detecting symmetries...
      0     2        0.0000    37                      0.0000      235         
Elapsed time = 2.89 sec. (580.57 ticks, tree = 0.02 MB, solutions = 0)
    181     5        0.0000    49                      0.0000    10284         
    254     3    infeasible                            0.0000    18115         
    327     2    infeasible                            0.0000    23616         

Clique cuts applied:  13
Zero-half cuts applied:  7

Root node processing (before b&c):
  Real time             =    1.11 sec. (579.75 ticks)
Parallel b&c, 12 threads:
  Real time             =  125.80 sec. (862.40 ticks)
  Sync time (average)   =  122.76 sec.
  Wait time (average)   =    0.00 sec.
                          ------------
Total (root+branch&cut) =  126.91 sec. (1442.16 ticks)
126.907000 
FALSE-modelo
 Salgo lazy
   2103  1493        cutoff           6767.0000     5774.7469    85147   14.66%         X_0_7_2 D   2065   2057     61

GUB cover cuts applied:  12
Cover cuts applied:  17
Flow cuts applied:  25
Mixed integer rounding cuts applied:  17
Zero-half cuts applied:  38
Gomory fractional cuts applied:  1
User cuts applied:  39

Root node processing (before b&c):
  Real time             =   82.33 sec. (1259.91 ticks)
Parallel b&c, 8 threads:
  Real time             = 3864.77 sec. (1570.69 ticks)
  Sync time (average)   = 1261.20 sec.
  Wait time (average)   =    0.00 sec.
                          ------------
Total (root+branch&cut) = 3947.09 sec. (2830.60 ticks)
3947.094000 
