GAP:; 0.00;  F.O:; 6512.00; Tiempo:;898.25; 
ROUTING 
X0;0;7;681.00 
X0;7;1;671.00 
X0;1;3;361.00 
X0;3;2;243.00 
X0;2;8;112.00 
X0;8;0;861.00 
ruta 0;2929.00 
X1;0;5;1531.00 
X1;5;10;206.00 
X1;10;4;255.00 
X1;4;9;538.00 
X1;9;6;143.00 
X1;6;0;910.00 
ruta 1;6512.00 
PACKING 
Z0 2 0 6 	 1928.00 
Z0 3 0 7 	 1770.00 
Z0 1 1 8 	 1844.00 
Z0 7 2 9 	 2184.00 
Z0 7 0 10 	 1843.00 
Z0 8 0 22 	 2199.00 
Z0 3 1 23 	 2230.00 
Z0 1 2 24 	 2072.00 
Z0 1 0 25 	 2156.00 
Z0 7 1 26 	 1816.00 
truck weigth 0: 20042.00 axle 1: 10086.87 axle2: 9955.13 media kg/km:6.84
Z1 6 1 6 	 2056.00 
Z1 6 2 7 	 2157.00 
Z1 4 0 8 	 1983.00 
Z1 10 2 9 	 2043.00 
Z1 10 1 10 	 1957.00 
Z1 6 0 22 	 1944.00 
Z1 9 0 23 	 1801.00 
Z1 9 1 24 	 1706.00 
Z1 10 0 25 	 2294.00 
Z1 5 0 26 	 2017.00 
truck weigth 1: 19958.00 axle 1: 9982.20 axle2: 9975.80 media kg/km:5.57
