GAP:; 0.15;  F.O:; 6767.00; Tiempo:;3947.09; 
ROUTING 
X0;0;1;1311.00 
X0;1;3;361.00 
X0;3;2;243.00 
X0;2;6;34.00 
X0;6;7;562.00 
X0;7;0;681.00 
ruta 0;3192.00 
X1;0;5;1531.00 
X1;5;10;206.00 
X1;10;4;255.00 
X1;4;9;538.00 
X1;9;8;184.00 
X1;8;0;861.00 
ruta 1;6767.00 
PACKING 
Z0 7 0 6 	 1743.00 
Z0 6 0 7 	 1779.00 
Z0 2 0 8 	 2278.00 
Z0 3 0 9 	 1914.00 
Z0 1 0 10 	 1722.00 
Z0 7 1 22 	 2250.00 
Z0 6 1 23 	 2076.00 
Z0 2 1 24 	 2074.00 
Z0 3 1 25 	 2291.00 
Z0 1 1 26 	 1926.00 
truck weigth 0: 20053.00 axle 1: 10075.03 axle2: 9977.97 media kg/km:6.28
Z1 8 0 6 	 2257.00 
Z1 9 0 7 	 2266.00 
Z1 4 0 8 	 2086.00 
Z1 10 0 9 	 1734.00 
Z1 5 0 10 	 2221.00 
Z1 8 1 22 	 1750.00 
Z1 9 1 23 	 2113.00 
Z1 4 1 24 	 1709.00 
Z1 10 1 25 	 1887.00 
Z1 5 1 26 	 1924.00 
truck weigth 1: 19947.00 axle 1: 10031.52 axle2: 9915.48 media kg/km:5.58
