GAP:; 0.22;  F.O:; 9790.00; Tiempo:;3663.23; 
ROUTING 
X0;0;7;681.00 
X0;7;14;1121.00 
X0;14;1;571.00 
X0;1;3;361.00 
X0;3;11;76.00 
X0;11;0;1013.00 
ruta 0;3823.00 
X1;0;15;697.00 
X1;15;13;311.00 
X1;13;12;43.00 
X1;12;6;93.00 
X1;6;2;34.00 
X1;2;0;918.00 
ruta 1;5919.00 
X2;0;8;861.00 
X2;8;5;967.00 
X2;5;10;206.00 
X2;10;4;255.00 
X2;4;9;538.00 
X2;9;0;1044.00 
ruta 2;9790.00 
PACKING 
Z0 11 1 1 	 728.00 
Z0 11 5 2 	 812.00 
Z0 11 3 3 	 492.00 
Z0 3 4 4 	 667.00 
Z0 3 2 5 	 604.00 
Z0 1 4 6 	 694.00 
Z0 1 5 7 	 759.00 
Z0 1 0 8 	 694.00 
Z0 14 2 9 	 942.00 
Z0 14 1 10 	 860.00 
Z0 14 3 11 	 385.00 
Z0 14 5 12 	 571.00 
Z0 7 1 13 	 980.00 
Z0 7 2 14 	 938.00 
Z0 7 0 15 	 949.00 
Z0 11 2 16 	 804.00 
Z0 11 0 17 	 476.00 
Z0 11 4 18 	 482.00 
Z0 3 3 19 	 962.00 
Z0 3 5 20 	 344.00 
Z0 3 0 21 	 468.00 
Z0 3 1 22 	 306.00 
Z0 1 2 23 	 697.00 
Z0 1 1 24 	 597.00 
Z0 1 3 25 	 418.00 
Z0 14 0 26 	 843.00 
Z0 14 4 27 	 742.00 
Z0 7 5 28 	 982.00 
Z0 7 3 29 	 611.00 
Z0 7 4 30 	 530.00 
truck weigth 0: 20337.00 axle 1: 10387.20 axle2: 9949.80 media kg/km:5.32
Z1 2 4 1 	 606.00 
Z1 2 2 2 	 603.00 
Z1 2 0 3 	 606.00 
Z1 6 4 4 	 662.00 
Z1 6 2 5 	 784.00 
Z1 6 0 6 	 723.00 
Z1 12 4 7 	 818.00 
Z1 12 2 8 	 496.00 
Z1 12 0 9 	 824.00 
Z1 13 4 10 	 558.00 
Z1 13 2 11 	 358.00 
Z1 13 0 12 	 457.00 
Z1 15 4 13 	 541.00 
Z1 15 2 14 	 882.00 
Z1 15 0 15 	 703.00 
Z1 2 5 17 	 956.00 
Z1 2 3 18 	 338.00 
Z1 2 1 19 	 994.00 
Z1 6 5 20 	 318.00 
Z1 6 3 21 	 689.00 
Z1 6 1 22 	 320.00 
Z1 12 5 23 	 479.00 
Z1 12 3 24 	 774.00 
Z1 12 1 25 	 619.00 
Z1 13 5 26 	 821.00 
Z1 13 3 27 	 526.00 
Z1 13 1 28 	 681.00 
Z1 15 5 29 	 729.00 
Z1 15 3 30 	 915.00 
Z1 15 1 31 	 440.00 
truck weigth 1: 19220.00 axle 1: 9618.43 axle2: 9601.57 media kg/km:9.17
Z2 9 4 1 	 312.00 
Z2 9 2 2 	 347.00 
Z2 9 0 3 	 661.00 
Z2 4 4 4 	 633.00 
Z2 4 2 5 	 696.00 
Z2 4 0 6 	 832.00 
Z2 10 4 7 	 988.00 
Z2 10 2 8 	 953.00 
Z2 10 0 9 	 639.00 
Z2 5 4 10 	 638.00 
Z2 5 2 11 	 516.00 
Z2 5 0 12 	 577.00 
Z2 8 4 13 	 770.00 
Z2 8 2 14 	 362.00 
Z2 8 0 15 	 351.00 
Z2 9 5 17 	 787.00 
Z2 9 3 18 	 504.00 
Z2 9 1 19 	 459.00 
Z2 4 5 20 	 313.00 
Z2 4 3 21 	 586.00 
Z2 4 1 22 	 392.00 
Z2 10 5 23 	 488.00 
Z2 10 3 24 	 808.00 
Z2 10 1 25 	 572.00 
Z2 5 5 26 	 987.00 
Z2 5 3 27 	 714.00 
Z2 5 1 28 	 908.00 
Z2 8 5 29 	 513.00 
Z2 8 3 30 	 796.00 
Z2 8 1 31 	 841.00 
truck weigth 2: 18943.00 axle 1: 9099.37 axle2: 9843.63 media kg/km:4.89
