GAP:; 0.18;  F.O:; 9407.00; Tiempo:;3613.31; 
ROUTING 
X0;0;15;697.00 
X0;15;3;293.00 
X0;3;11;76.00 
X0;11;1;309.00 
X0;1;7;671.00 
X0;7;0;681.00 
ruta 0;2727.00 
X1;0;8;861.00 
X1;8;6;80.00 
X1;6;2;34.00 
X1;2;13;44.00 
X1;13;9;116.00 
X1;9;0;1044.00 
ruta 1;4906.00 
X2;0;4;1240.00 
X2;4;5;397.00 
X2;5;10;206.00 
X2;10;14;1011.00 
X2;14;12;643.00 
X2;12;2;86.00 
X2;2;0;918.00 
ruta 2;9407.00 
PACKING 
Z0 7 1 3 	 762.00 
Z0 7 2 4 	 1241.00 
Z0 1 1 5 	 739.00 
Z0 1 3 6 	 866.00 
Z0 11 2 7 	 1063.00 
Z0 11 1 8 	 1040.00 
Z0 3 2 9 	 1228.00 
Z0 3 3 10 	 1090.00 
Z0 15 1 11 	 931.00 
Z0 15 3 12 	 1242.00 
Z0 7 0 19 	 780.00 
Z0 7 3 20 	 932.00 
Z0 1 2 21 	 754.00 
Z0 1 0 22 	 1074.00 
Z0 11 3 23 	 776.00 
Z0 11 0 24 	 1134.00 
Z0 3 0 25 	 952.00 
Z0 3 1 26 	 1297.00 
Z0 15 0 27 	 1261.00 
Z0 15 2 28 	 1134.00 
truck weigth 0: 20296.00 axle 1: 10415.52 axle2: 9880.48 media kg/km:7.44
Z1 9 3 3 	 964.00 
Z1 9 1 4 	 707.00 
Z1 13 3 5 	 1278.00 
Z1 13 1 6 	 1105.00 
Z1 2 3 7 	 910.00 
Z1 2 0 8 	 926.00 
Z1 6 2 9 	 1199.00 
Z1 6 0 10 	 1057.00 
Z1 8 2 11 	 759.00 
Z1 8 0 12 	 1220.00 
Z1 9 2 20 	 879.00 
Z1 9 0 21 	 1120.00 
Z1 13 2 22 	 1109.00 
Z1 13 0 23 	 984.00 
Z1 2 2 24 	 1246.00 
Z1 6 3 25 	 1068.00 
Z1 6 1 26 	 1238.00 
Z1 8 3 27 	 1036.00 
Z1 8 1 28 	 1293.00 
truck weigth 1: 20098.00 axle 1: 10236.28 axle2: 9861.72 media kg/km:9.22
Z2 2 1 3 	 703.00 
Z2 12 3 4 	 722.00 
Z2 14 2 5 	 891.00 
Z2 14 1 6 	 1069.00 
Z2 10 3 7 	 1224.00 
Z2 10 1 8 	 960.00 
Z2 10 2 9 	 1121.00 
Z2 5 2 10 	 801.00 
Z2 4 1 11 	 930.00 
Z2 4 0 12 	 1048.00 
Z2 12 1 19 	 895.00 
Z2 12 2 20 	 937.00 
Z2 12 0 21 	 866.00 
Z2 14 0 22 	 1016.00 
Z2 14 3 23 	 758.00 
Z2 10 0 24 	 880.00 
Z2 5 1 25 	 1070.00 
Z2 5 3 26 	 974.00 
Z2 5 0 27 	 943.00 
Z2 4 2 28 	 772.00 
Z2 4 3 29 	 1026.00 
truck weigth 2: 19606.00 axle 1: 9982.40 axle2: 9623.60 media kg/km:4.36
