GAP:; 0.31;  F.O:; 10774.00; Tiempo:;3765.64; 
ROUTING 
X0;0;11;1013.00 
X0;11;1;309.00 
X0;1;14;571.00 
X0;14;9;621.00 
X0;9;12;80.00 
X0;12;0;1001.00 
ruta 0;3595.00 
X1;0;3;987.00 
X1;3;2;243.00 
X1;2;13;44.00 
X1;13;6;59.00 
X1;6;8;80.00 
X1;8;0;861.00 
ruta 1;5869.00 
X2;0;5;1531.00 
X2;5;10;206.00 
X2;10;4;255.00 
X2;4;15;854.00 
X2;15;0;697.00 
ruta 2;9412.00 
X3;0;7;681.00 
X3;7;0;681.00 
ruta 3;10774.00 
PACKING 
Z0 12 0 4 	 751.00 
Z0 9 2 5 	 855.00 
Z0 9 0 6 	 1135.00 
Z0 14 4 7 	 1085.00 
Z0 14 2 8 	 1173.00 
Z0 14 0 9 	 1220.00 
Z0 1 1 10 	 1283.00 
Z0 11 2 11 	 1110.00 
Z0 11 0 12 	 1052.00 
Z0 12 1 20 	 1249.00 
Z0 9 3 21 	 1145.00 
Z0 9 1 22 	 865.00 
Z0 14 5 23 	 915.00 
Z0 14 3 24 	 827.00 
Z0 14 1 25 	 780.00 
Z0 1 2 26 	 1187.00 
Z0 1 0 27 	 717.00 
Z0 11 1 28 	 890.00 
truck weigth 0: 18239.00 axle 1: 9129.87 axle2: 9109.13 media kg/km:5.07
Z1 8 6 3 	 1110.00 
Z1 8 4 4 	 1086.00 
Z1 8 2 5 	 1047.00 
Z1 8 0 6 	 739.00 
Z1 6 2 7 	 866.00 
Z1 6 0 8 	 722.00 
Z1 13 0 9 	 788.00 
Z1 2 1 10 	 706.00 
Z1 3 2 11 	 1199.00 
Z1 3 0 12 	 1276.00 
Z1 8 5 20 	 890.00 
Z1 8 3 21 	 914.00 
Z1 8 1 22 	 953.00 
Z1 6 3 23 	 1134.00 
Z1 6 1 24 	 1278.00 
Z1 13 1 25 	 1212.00 
Z1 2 2 26 	 1294.00 
Z1 2 0 27 	 813.00 
Z1 3 1 28 	 724.00 
truck weigth 1: 18751.00 axle 1: 9716.91 axle2: 9034.09 media kg/km:8.25
Z2 15 4 6 	 936.00 
Z2 15 2 7 	 1188.00 
Z2 15 0 8 	 1166.00 
Z2 4 1 9 	 1186.00 
Z2 10 2 10 	 948.00 
Z2 10 0 11 	 1265.00 
Z2 5 2 12 	 1004.00 
Z2 5 0 13 	 1104.00 
Z2 15 5 22 	 1064.00 
Z2 15 3 23 	 812.00 
Z2 15 1 24 	 834.00 
Z2 4 2 25 	 814.00 
Z2 4 0 26 	 801.00 
Z2 10 1 27 	 735.00 
Z2 5 3 28 	 996.00 
Z2 5 1 29 	 896.00 
truck weigth 2: 15749.00 axle 1: 6301.70 axle2: 9447.30 media kg/km:4.45
Z3 7 6 12 	 1261.00 
Z3 7 4 13 	 1004.00 
Z3 7 2 14 	 992.00 
Z3 7 0 15 	 1141.00 
Z3 7 5 29 	 996.00 
Z3 7 3 30 	 1008.00 
Z3 7 1 31 	 859.00 
truck weigth 3: 7261.00 axle 1: 857.56 axle2: 6403.44 media kg/km:5.33
